{
    "ID": 72963,
    "genomaID": "CV3TD9",
    "color": {
        "x": 0.3706665337085724,
        "y": 0.9056942462921143,
        "z": 0.9423221349716187
    },
    "vertexNumber": 3,
    "colliderVertices": [
        {
            "x": -1.687636137008667,
            "y": -0.13858170807361604
        },
        {
            "x": 1.1610759496688843,
            "y": -0.06879282742738724
        },
        {
            "x": -0.32274794578552248,
            "y": 0.3437977433204651
        }
    ],
    "triangles": [
        1,
        0,
        2
    ],
    "carDensity": 3.0,
    "suspension": 0.717376172542572,
    "motorSpeed": 676,
    "frontDensity": 3.4000000953674318,
    "frontRadius": 0.5361394882202148,
    "frontOffset": 1.1712459325790406,
    "backDensity": 3.0999999046325685,
    "backRadius": 0.5139454007148743,
    "backOffset": -1.0843533277511597,
    "score": 838,
    "maxDistance": 833,
    "maxTime": 157.0
}{
    "ID": 72977,
    "genomaID": "CV6TD10",
    "color": {
        "x": 0.3432641327381134,
        "y": 0.7636579275131226,
        "z": 0.986485481262207
    },
    "vertexNumber": 6,
    "colliderVertices": [
        {
            "x": -1.6248376369476319,
            "y": -0.2727093994617462
        },
        {
            "x": 1.0578930377960206,
            "y": -0.05093777924776077
        },
        {
            "x": 0.24376845359802247,
            "y": 0.8746649026870728
        },
        {
            "x": -1.2192120552062989,
            "y": 0.6287410259246826
        },
        {
            "x": -1.3338127136230469,
            "y": 0.8404462337493897
        },
        {
            "x": -1.4086112976074219,
            "y": 0.08780252933502197
        }
    ],
    "triangles": [
        3,
        1,
        5,
        5,
        4,
        3,
        3,
        2,
        1,
        1,
        0,
        5
    ],
    "carDensity": 6.0,
    "suspension": 0.6885015368461609,
    "motorSpeed": 522,
    "frontDensity": 2.0999999046325685,
    "frontRadius": 0.41382142901420596,
    "frontOffset": 0.8045651316642761,
    "backDensity": 2.200000047683716,
    "backRadius": 0.41789329051971438,
    "backOffset": -0.8294702172279358,
    "score": 110,
    "maxDistance": 107,
    "maxTime": 35.0
}{
    "ID": 72999,
    "genomaID": "CV5TD13",
    "color": {
        "x": 0.9940735101699829,
        "y": 0.9590579271316528,
        "z": 0.19860604405403138
    },
    "vertexNumber": 5,
    "colliderVertices": [
        {
            "x": -1.1054913997650147,
            "y": -0.2704322040081024
        },
        {
            "x": 1.341984748840332,
            "y": -0.13686610758304597
        },
        {
            "x": 1.6607604026794434,
            "y": 0.035354018211364749
        },
        {
            "x": -0.3723766803741455,
            "y": 0.7499061822891235
        },
        {
            "x": -0.8907935619354248,
            "y": 0.0809483528137207
        }
    ],
    "triangles": [
        1,
        4,
        3,
        3,
        2,
        1,
        1,
        0,
        4
    ],
    "carDensity": 5.0,
    "suspension": 0.9958232045173645,
    "motorSpeed": 850,
    "frontDensity": 3.5999999046325685,
    "frontRadius": 0.5570282340049744,
    "frontOffset": 1.37199866771698,
    "backDensity": 4.300000190734863,
    "backRadius": 0.6254415512084961,
    "backOffset": -1.222987174987793,
    "score": 0,
    "maxDistance": 0,
    "maxTime": 1.0
}