{
    "ID": 15608,
    "genomaID": "CV3TD9",
    "color": {
        "x": 0.6648332476615906,
        "y": 0.49264246225357058,
        "z": 0.02354145422577858
    },
    "vertexNumber": 3,
    "colliderVertices": [
        {
            "x": -1.047351360321045,
            "y": -0.10472185909748078
        },
        {
            "x": 1.1255944967269898,
            "y": -0.23526373505592347
        },
        {
            "x": 0.24289965629577638,
            "y": 0.23861217498779298
        }
    ],
    "triangles": [
        1,
        0,
        2
    ],
    "carDensity": 3.0,
    "suspension": 0.6017885208129883,
    "motorSpeed": 667,
    "frontDensity": 4.099999904632568,
    "frontRadius": 0.607362687587738,
    "frontOffset": 0.7921087145805359,
    "backDensity": 2.4000000953674318,
    "backRadius": 0.43544310331344607,
    "backOffset": -1.1542319059371949,
    "score": 839,
    "maxDistance": 834,
    "maxTime": 156.0
}{
    "ID": 15657,
    "genomaID": "CV5TD12",
    "color": {
        "x": 0.4177008271217346,
        "y": 0.872967004776001,
        "z": 0.7321574091911316
    },
    "vertexNumber": 5,
    "colliderVertices": [
        {
            "x": -1.042370319366455,
            "y": -0.11463893949985504
        },
        {
            "x": 1.7194457054138184,
            "y": -0.12176121771335602
        },
        {
            "x": 1.5189037322998047,
            "y": 0.9053213596343994
        },
        {
            "x": -1.3916730880737305,
            "y": 0.15376722812652589
        },
        {
            "x": -1.4183096885681153,
            "y": 0.7581117153167725
        }
    ],
    "triangles": [
        4,
        0,
        1,
        1,
        2,
        3
    ],
    "carDensity": 5.0,
    "suspension": 0.9087611436843872,
    "motorSpeed": 693,
    "frontDensity": 3.5,
    "frontRadius": 0.5461898446083069,
    "frontOffset": 1.255884051322937,
    "backDensity": 3.0,
    "backRadius": 0.5030470490455627,
    "backOffset": -1.2799696922302247,
    "score": 61,
    "maxDistance": 56,
    "maxTime": 10.0
}{
    "ID": 15798,
    "genomaID": "CV6TD14",
    "color": {
        "x": 0.007468582130968571,
        "y": 0.663615882396698,
        "z": 0.7980117797851563
    },
    "vertexNumber": 6,
    "colliderVertices": [
        {
            "x": -1.9823839664459229,
            "y": -0.4261779189109802
        },
        {
            "x": 1.5360980033874512,
            "y": -0.3306160867214203
        },
        {
            "x": 1.7476367950439454,
            "y": 0.06396925449371338
        },
        {
            "x": 1.617544174194336,
            "y": 0.291831910610199
        },
        {
            "x": -1.0664682388305665,
            "y": 0.22809696197509767
        },
        {
            "x": -1.3572402000427247,
            "y": 0.04602456092834473
        }
    ],
    "triangles": [
        3,
        1,
        5,
        5,
        4,
        3,
        3,
        2,
        1,
        1,
        0,
        5
    ],
    "carDensity": 6.0,
    "suspension": 0.4939349591732025,
    "motorSpeed": 1191,
    "frontDensity": 4.900000095367432,
    "frontRadius": 0.688769519329071,
    "frontOffset": 1.1551018953323365,
    "backDensity": 3.200000047683716,
    "backRadius": 0.5243093967437744,
    "backOffset": -0.6297285556793213,
    "score": 0,
    "maxDistance": 0,
    "maxTime": 1.0
}