{
    "ID": 86607,
    "genomaID": "CV3TD9",
    "color": {
        "x": 0.6317546963691711,
        "y": 0.16316796839237214,
        "z": 0.5255669951438904
    },
    "vertexNumber": 3,
    "colliderVertices": [
        {
            "x": -1.2305188179016114,
            "y": -0.2106524407863617
        },
        {
            "x": 1.149471402168274,
            "y": -0.23189827799797059
        },
        {
            "x": -1.608504295349121,
            "y": 0.0987081527709961
        }
    ],
    "triangles": [
        1,
        0,
        2
    ],
    "carDensity": 3.0,
    "suspension": 0.706959068775177,
    "motorSpeed": 720,
    "frontDensity": 3.0,
    "frontRadius": 0.49808093905448916,
    "frontOffset": 0.9842735528945923,
    "backDensity": 2.700000047683716,
    "backRadius": 0.4737713038921356,
    "backOffset": -0.9978350400924683,
    "score": 838,
    "maxDistance": 833,
    "maxTime": 158.0
}{
    "ID": 86783,
    "genomaID": "CV6TD13",
    "color": {
        "x": 0.5931182503700256,
        "y": 0.505707323551178,
        "z": 0.6399860978126526
    },
    "vertexNumber": 6,
    "colliderVertices": [
        {
            "x": -1.1031509637832642,
            "y": -0.4488500952720642
        },
        {
            "x": 1.1533199548721314,
            "y": -0.2882399260997772
        },
        {
            "x": 1.8863067626953126,
            "y": 0.662773847579956
        },
        {
            "x": 0.1484663486480713,
            "y": 0.4658716320991516
        },
        {
            "x": -0.47635626792907717,
            "y": 0.6194563508033752
        },
        {
            "x": -1.0106258392333985,
            "y": 0.4552764296531677
        }
    ],
    "triangles": [
        3,
        1,
        5,
        5,
        4,
        3,
        3,
        2,
        1,
        1,
        0,
        5
    ],
    "carDensity": 6.0,
    "suspension": 0.5403074026107788,
    "motorSpeed": 978,
    "frontDensity": 3.799999952316284,
    "frontRadius": 0.5808252096176148,
    "frontOffset": 1.4030393362045289,
    "backDensity": 3.0,
    "backRadius": 0.4978848099708557,
    "backOffset": -1.3460668325424195,
    "score": 28,
    "maxDistance": 23,
    "maxTime": 4.0
}{
    "ID": 86795,
    "genomaID": "CV4TD11",
    "color": {
        "x": 0.8998357057571411,
        "y": 0.8908003568649292,
        "z": 0.7213954329490662
    },
    "vertexNumber": 4,
    "colliderVertices": [
        {
            "x": -1.8600964546203614,
            "y": -0.3597165644168854
        },
        {
            "x": 1.265105962753296,
            "y": -0.23264679312705995
        },
        {
            "x": 1.4269075393676758,
            "y": 0.3074893355369568
        },
        {
            "x": -1.716320514678955,
            "y": 0.4817832112312317
        }
    ],
    "triangles": [
        3,
        2,
        1,
        1,
        0,
        3
    ],
    "carDensity": 4.0,
    "suspension": 0.9990046620368958,
    "motorSpeed": 720,
    "frontDensity": 3.9000000953674318,
    "frontRadius": 0.5929274559020996,
    "frontOffset": 0.5630241632461548,
    "backDensity": 2.700000047683716,
    "backRadius": 0.4737713038921356,
    "backOffset": -1.3141224384307862,
    "score": 0,
    "maxDistance": 0,
    "maxTime": 1.0
}