{
    "ID": 63078,
    "genomaID": "CV3TD9",
    "color": {
        "x": 0.9751889705657959,
        "y": 0.8098418712615967,
        "z": 0.8382234573364258
    },
    "vertexNumber": 3,
    "colliderVertices": [
        {
            "x": -1.670288324356079,
            "y": -0.1737935096025467
        },
        {
            "x": 1.5474853515625,
            "y": -0.33190980553627016
        },
        {
            "x": -1.6599454879760743,
            "y": 0.3559773564338684
        }
    ],
    "triangles": [
        1,
        0,
        2
    ],
    "carDensity": 3.0,
    "suspension": 0.6888469457626343,
    "motorSpeed": 674,
    "frontDensity": 3.299999952316284,
    "frontRadius": 0.5319273471832275,
    "frontOffset": 1.4868963956832886,
    "backDensity": 2.799999952316284,
    "backRadius": 0.4779730439186096,
    "backOffset": -0.8673747777938843,
    "score": 838,
    "maxDistance": 833,
    "maxTime": 166.0
}{
    "ID": 63058,
    "genomaID": "CV6TD12",
    "color": {
        "x": 0.32935062050819399,
        "y": 0.44897669553756716,
        "z": 0.6733523011207581
    },
    "vertexNumber": 6,
    "colliderVertices": [
        {
            "x": -1.0297938585281373,
            "y": -0.44943660497665408
        },
        {
            "x": 1.6854753494262696,
            "y": -0.4354977011680603
        },
        {
            "x": 0.9680480360984802,
            "y": 0.882724404335022
        },
        {
            "x": 0.5957898497581482,
            "y": 0.6224928498268127
        },
        {
            "x": -1.6537303924560547,
            "y": 0.338844358921051
        },
        {
            "x": -1.6799321174621583,
            "y": 0.2886672616004944
        }
    ],
    "triangles": [
        3,
        1,
        5,
        5,
        4,
        3,
        3,
        2,
        1,
        1,
        0,
        5
    ],
    "carDensity": 6.0,
    "suspension": 0.8651946783065796,
    "motorSpeed": 647,
    "frontDensity": 2.200000047683716,
    "frontRadius": 0.4226357042789459,
    "frontOffset": 1.4556336402893067,
    "backDensity": 4.5,
    "backRadius": 0.6512832045555115,
    "backOffset": -1.4105714559555054,
    "score": 108,
    "maxDistance": 103,
    "maxTime": 18.0
}{
    "ID": 63195,
    "genomaID": "CV3TD10",
    "color": {
        "x": 0.8998357057571411,
        "y": 0.8908003568649292,
        "z": 0.7213954329490662
    },
    "vertexNumber": 3,
    "colliderVertices": [
        {
            "x": -1.6704518795013428,
            "y": -0.49706190824508669
        },
        {
            "x": 1.1133753061294556,
            "y": -0.3545457422733307
        },
        {
            "x": -1.0524282455444337,
            "y": 0.4056801199913025
        }
    ],
    "triangles": [
        1,
        0,
        2
    ],
    "carDensity": 3.0,
    "suspension": 0.8094006180763245,
    "motorSpeed": 821,
    "frontDensity": 3.200000047683716,
    "frontRadius": 0.5223754644393921,
    "frontOffset": 0.564544677734375,
    "backDensity": 3.9000000953674318,
    "backRadius": 0.5917037725448608,
    "backOffset": -1.0261820554733277,
    "score": -2,
    "maxDistance": -1,
    "maxTime": 1.0
}