{
    "ID": 63422,
    "genomaID": "CV4TD9",
    "color": {
        "x": 0.7177119851112366,
        "y": 0.7066053748130798,
        "z": 0.3584950268268585
    },
    "vertexNumber": 4,
    "colliderVertices": [
        {
            "x": -1.1755093336105347,
            "y": -0.1256370097398758
        },
        {
            "x": 1.04360032081604,
            "y": -0.4836553931236267
        },
        {
            "x": 0.3079383373260498,
            "y": 0.307478129863739
        },
        {
            "x": -0.4600379467010498,
            "y": 0.5811149477958679
        }
    ],
    "triangles": [
        3,
        2,
        1,
        1,
        0,
        3
    ],
    "carDensity": 4.0,
    "suspension": 0.6234604120254517,
    "motorSpeed": 880,
    "frontDensity": 2.799999952316284,
    "frontRadius": 0.4795795679092407,
    "frontOffset": 1.021027684211731,
    "backDensity": 2.299999952316284,
    "backRadius": 0.4264622926712036,
    "backOffset": -1.4420523643493653,
    "score": 839,
    "maxDistance": 834,
    "maxTime": 143.0
}{
    "ID": 63586,
    "genomaID": "CV5TD13",
    "color": {
        "x": 0.3109702169895172,
        "y": 0.4493226408958435,
        "z": 0.5858866572380066
    },
    "vertexNumber": 5,
    "colliderVertices": [
        {
            "x": -1.3308331966400147,
            "y": -0.28270164132118227
        },
        {
            "x": 1.401428461074829,
            "y": -0.3136458694934845
        },
        {
            "x": 1.7462215423583985,
            "y": 0.17612922191619874
        },
        {
            "x": -0.16850876808166505,
            "y": 0.6011876463890076
        },
        {
            "x": -0.22314763069152833,
            "y": 0.29564887285232546
        }
    ],
    "triangles": [
        1,
        4,
        3,
        3,
        2,
        1,
        1,
        0,
        4
    ],
    "carDensity": 5.0,
    "suspension": 0.7624639272689819,
    "motorSpeed": 727,
    "frontDensity": 4.800000190734863,
    "frontRadius": 0.6845992803573608,
    "frontOffset": 1.405798316001892,
    "backDensity": 2.5999999046325685,
    "backRadius": 0.45573747158050539,
    "backOffset": -1.3352532386779786,
    "score": 12,
    "maxDistance": 9,
    "maxTime": 3.0
}{
    "ID": 63595,
    "genomaID": "CV3TD9",
    "color": {
        "x": 0.8998357057571411,
        "y": 0.8908003568649292,
        "z": 0.7213954329490662
    },
    "vertexNumber": 3,
    "colliderVertices": [
        {
            "x": -1.5119473934173585,
            "y": -0.13764001429080964
        },
        {
            "x": 1.8102736473083497,
            "y": -0.12066347897052765
        },
        {
            "x": -0.46631455421447756,
            "y": 0.6435593366622925
        }
    ],
    "triangles": [
        1,
        0,
        2
    ],
    "carDensity": 3.0,
    "suspension": 0.7001769542694092,
    "motorSpeed": 1264,
    "frontDensity": 2.0,
    "frontRadius": 0.40027332305908205,
    "frontOffset": 0.9494186639785767,
    "backDensity": 3.9000000953674318,
    "backRadius": 0.5949047803878784,
    "backOffset": -0.5186858177185059,
    "score": 0,
    "maxDistance": 0,
    "maxTime": 1.0
}