{
    "ID": 49805,
    "genomaID": "CV6TD13",
    "color": {
        "x": 0.8478690385818481,
        "y": 0.9933429956436157,
        "z": 0.9804973602294922
    },
    "vertexNumber": 6,
    "colliderVertices": [
        {
            "x": -1.9652585983276368,
            "y": -0.404755175113678
        },
        {
            "x": 1.5660600662231446,
            "y": -0.16259516775608064
        },
        {
            "x": 0.24280476570129395,
            "y": 0.7313117980957031
        },
        {
            "x": -0.5386812686920166,
            "y": 0.07222890853881836
        },
        {
            "x": -0.5463955402374268,
            "y": 0.4858796000480652
        },
        {
            "x": -1.080970287322998,
            "y": 0.4378044009208679
        }
    ],
    "triangles": [
        0,
        5,
        3,
        3,
        1,
        0,
        5,
        4,
        3,
        3,
        2,
        1
    ],
    "carDensity": 6.0,
    "suspension": 0.4632382094860077,
    "motorSpeed": 886,
    "frontDensity": 4.599999904632568,
    "frontRadius": 0.6560994982719421,
    "frontOffset": 1.3762574195861817,
    "backDensity": 2.0999999046325685,
    "backRadius": 0.40993741154670718,
    "backOffset": -1.468734622001648,
    "score": 839,
    "maxDistance": 833,
    "maxTime": 132.0
}{
    "ID": 49899,
    "genomaID": "CV5TD11",
    "color": {
        "x": 0.6266306042671204,
        "y": 0.6281366944313049,
        "z": 0.8323445320129395
    },
    "vertexNumber": 5,
    "colliderVertices": [
        {
            "x": -1.744234323501587,
            "y": -0.38712626695632937
        },
        {
            "x": 1.6968132257461548,
            "y": -0.14243926107883454
        },
        {
            "x": 0.11282706260681153,
            "y": 0.6646174192428589
        },
        {
            "x": -0.5777747631072998,
            "y": 0.6348901987075806
        },
        {
            "x": -1.975520133972168,
            "y": 0.25371187925338747
        }
    ],
    "triangles": [
        1,
        4,
        3,
        3,
        2,
        1,
        1,
        0,
        4
    ],
    "carDensity": 5.0,
    "suspension": 0.45095810294151308,
    "motorSpeed": 561,
    "frontDensity": 3.0999999046325685,
    "frontRadius": 0.5060164928436279,
    "frontOffset": 1.1112226247787476,
    "backDensity": 2.799999952316284,
    "backRadius": 0.481646329164505,
    "backOffset": -1.3287572860717774,
    "score": 110,
    "maxDistance": 107,
    "maxTime": 30.0
}{
    "ID": 49996,
    "genomaID": "CV4TD13",
    "color": {
        "x": 0.9384560585021973,
        "y": 0.572151243686676,
        "z": 0.6635225415229797
    },
    "vertexNumber": 4,
    "colliderVertices": [
        {
            "x": -1.1415700912475587,
            "y": -0.05972129851579666
        },
        {
            "x": 1.1413925886154175,
            "y": -0.1196795254945755
        },
        {
            "x": 0.4747617244720459,
            "y": 0.703392505645752
        },
        {
            "x": -1.6588082313537598,
            "y": 0.9440863132476807
        }
    ],
    "triangles": [
        3,
        2,
        1,
        1,
        0,
        3
    ],
    "carDensity": 4.0,
    "suspension": 0.4259398877620697,
    "motorSpeed": 744,
    "frontDensity": 4.699999809265137,
    "frontRadius": 0.6690719723701477,
    "frontOffset": 0.7542635798454285,
    "backDensity": 4.300000190734863,
    "backRadius": 0.6291492581367493,
    "backOffset": -1.4861849546432496,
    "score": 0,
    "maxDistance": 0,
    "maxTime": 1.0
}