{
    "ID": 6953,
    "genomaID": "CV3TD9",
    "color": {
        "x": 0.3312263786792755,
        "y": 0.736440122127533,
        "z": 0.65642911195755
    },
    "vertexNumber": 3,
    "colliderVertices": [
        {
            "x": -1.1863477230072022,
            "y": -0.44585156440734866
        },
        {
            "x": 1.3402459621429444,
            "y": -0.2951335608959198
        },
        {
            "x": -0.7966320514678955,
            "y": 0.23655104637145997
        }
    ],
    "triangles": [
        1,
        0,
        2
    ],
    "carDensity": 3.0,
    "suspension": 0.9778434634208679,
    "motorSpeed": 1051,
    "frontDensity": 3.799999952316284,
    "frontRadius": 0.5794098973274231,
    "frontOffset": 1.4794410467147828,
    "backDensity": 2.5,
    "backRadius": 0.4492712914943695,
    "backOffset": -1.0420194864273072,
    "score": 841,
    "maxDistance": 834,
    "maxTime": 108.0
}{
    "ID": 6970,
    "genomaID": "CV5TD10",
    "color": {
        "x": 0.979041576385498,
        "y": 0.04679716005921364,
        "z": 0.36990347504615786
    },
    "vertexNumber": 5,
    "colliderVertices": [
        {
            "x": -1.525209903717041,
            "y": -0.0014759304467588664
        },
        {
            "x": 1.9154819250106812,
            "y": -0.32815054059028628
        },
        {
            "x": 1.9629569053649903,
            "y": 0.8822908401489258
        },
        {
            "x": 1.3428077697753907,
            "y": 0.12038671970367432
        },
        {
            "x": -1.8670616149902344,
            "y": 0.8080289363861084
        }
    ],
    "triangles": [
        1,
        4,
        3,
        3,
        2,
        1,
        1,
        0,
        4
    ],
    "carDensity": 5.0,
    "suspension": 0.7882395386695862,
    "motorSpeed": 505,
    "frontDensity": 2.5,
    "frontRadius": 0.45211854577064516,
    "frontOffset": 1.3045634031295777,
    "backDensity": 2.700000047683716,
    "backRadius": 0.473874032497406,
    "backOffset": -0.9096094369888306,
    "score": 110,
    "maxDistance": 107,
    "maxTime": 35.0
}{
    "ID": 6994,
    "genomaID": "CV5TD10",
    "color": {
        "x": 0.7752962112426758,
        "y": 0.9479353427886963,
        "z": 0.47951334714889529
    },
    "vertexNumber": 5,
    "colliderVertices": [
        {
            "x": -1.3834385871887208,
            "y": -0.0737011507153511
        },
        {
            "x": 1.2991909980773926,
            "y": -0.4735662341117859
        },
        {
            "x": 1.8397207260131837,
            "y": 0.6043862700462341
        },
        {
            "x": 1.3405046463012696,
            "y": 0.23796296119689942
        },
        {
            "x": 0.337507963180542,
            "y": 0.6530934572219849
        }
    ],
    "triangles": [
        1,
        4,
        3,
        3,
        2,
        1,
        1,
        0,
        4
    ],
    "carDensity": 5.0,
    "suspension": 0.41165387630462649,
    "motorSpeed": 1487,
    "frontDensity": 2.5,
    "frontRadius": 0.45338311791419985,
    "frontOffset": 0.6927427053451538,
    "backDensity": 2.700000047683716,
    "backRadius": 0.46929144859313967,
    "backOffset": -1.3404250144958497,
    "score": 0,
    "maxDistance": 0,
    "maxTime": 1.0
}