{
    "ID": 88720,
    "genomaID": "CV3TD10",
    "color": {
        "x": 0.04469669237732887,
        "y": 0.9973558187484741,
        "z": 0.3018553555011749
    },
    "vertexNumber": 3,
    "colliderVertices": [
        {
            "x": -1.0911026000976563,
            "y": -0.010803640820086003
        },
        {
            "x": 1.16182279586792,
            "y": -0.34413596987724306
        },
        {
            "x": 0.8600191473960877,
            "y": 0.09640800952911377
        }
    ],
    "triangles": [
        1,
        0,
        2
    ],
    "carDensity": 3.0,
    "suspension": 0.6783238053321838,
    "motorSpeed": 1002,
    "frontDensity": 3.799999952316284,
    "frontRadius": 0.5772361755371094,
    "frontOffset": 0.6557745933532715,
    "backDensity": 2.799999952316284,
    "backRadius": 0.47875529527664187,
    "backOffset": -1.2987918853759766,
    "score": 840,
    "maxDistance": 833,
    "maxTime": 109.0
}{
    "ID": 88633,
    "genomaID": "CV5TD9",
    "color": {
        "x": 0.558299720287323,
        "y": 0.7585036754608154,
        "z": 0.7892447710037231
    },
    "vertexNumber": 5,
    "colliderVertices": [
        {
            "x": -1.1862741708755494,
            "y": -0.33368536829948428
        },
        {
            "x": 1.4087071418762208,
            "y": -0.09432907402515412
        },
        {
            "x": 1.5960965156555176,
            "y": 0.5666398406028748
        },
        {
            "x": -0.4505589008331299,
            "y": 0.7417430877685547
        },
        {
            "x": -1.477088451385498,
            "y": 0.3005297780036926
        }
    ],
    "triangles": [
        1,
        4,
        3,
        3,
        2,
        1,
        1,
        0,
        4
    ],
    "carDensity": 5.0,
    "suspension": 0.47991833090782168,
    "motorSpeed": 595,
    "frontDensity": 2.200000047683716,
    "frontRadius": 0.41893309354782107,
    "frontOffset": 1.2013763189315797,
    "backDensity": 2.200000047683716,
    "backRadius": 0.4219244718551636,
    "backOffset": -0.8147397637367249,
    "score": 110,
    "maxDistance": 107,
    "maxTime": 33.0
}{
    "ID": 88800,
    "genomaID": "CV6TD12",
    "color": {
        "x": 0.5215955376625061,
        "y": 0.5618323683738709,
        "z": 0.9288589954376221
    },
    "vertexNumber": 6,
    "colliderVertices": [
        {
            "x": -1.9728435277938843,
            "y": -0.14423467218875886
        },
        {
            "x": 1.4858999252319337,
            "y": -0.33346179127693179
        },
        {
            "x": 1.7563586235046387,
            "y": 0.27863770723342898
        },
        {
            "x": 1.253551959991455,
            "y": 0.7927179336547852
        },
        {
            "x": 0.9479750990867615,
            "y": 0.2966480851173401
        },
        {
            "x": -1.0632243156433106,
            "y": 0.48321932554244997
        }
    ],
    "triangles": [
        4,
        3,
        1,
        1,
        5,
        4,
        3,
        2,
        1,
        1,
        0,
        5
    ],
    "carDensity": 6.0,
    "suspension": 0.9671056866645813,
    "motorSpeed": 1488,
    "frontDensity": 2.0999999046325685,
    "frontRadius": 0.41494911909103396,
    "frontOffset": 1.3110449314117432,
    "backDensity": 4.300000190734863,
    "backRadius": 0.6262540817260742,
    "backOffset": -1.0723966360092164,
    "score": 0,
    "maxDistance": 0,
    "maxTime": 1.0
}