{
    "ID": 61609,
    "genomaID": "CV3TD9",
    "color": {
        "x": 0.2144545614719391,
        "y": 0.2746181786060333,
        "z": 0.4705435633659363
    },
    "vertexNumber": 3,
    "colliderVertices": [
        {
            "x": -1.4441320896148682,
            "y": -0.022979261353611947
        },
        {
            "x": 1.669172763824463,
            "y": -0.49316394329071047
        },
        {
            "x": -0.3615734577178955,
            "y": 0.17383348941802979
        }
    ],
    "triangles": [
        1,
        0,
        2
    ],
    "carDensity": 3.0,
    "suspension": 0.6070557832717896,
    "motorSpeed": 703,
    "frontDensity": 3.0999999046325685,
    "frontRadius": 0.5098962783813477,
    "frontOffset": 0.7324877977371216,
    "backDensity": 3.0999999046325685,
    "backRadius": 0.5107251405715942,
    "backOffset": -0.9159485101699829,
    "score": 838,
    "maxDistance": 833,
    "maxTime": 154.0
}{
    "ID": 61656,
    "genomaID": "CV5TD9",
    "color": {
        "x": 0.7674797773361206,
        "y": 0.27107957005500796,
        "z": 0.8932945728302002
    },
    "vertexNumber": 5,
    "colliderVertices": [
        {
            "x": -1.8738216161727906,
            "y": -0.1326064020395279
        },
        {
            "x": 1.6218430995941163,
            "y": -0.2873567044734955
        },
        {
            "x": -0.23960614204406739,
            "y": 0.8261090517044067
        },
        {
            "x": -1.4364280700683594,
            "y": 0.8135406970977783
        },
        {
            "x": -1.7737531661987305,
            "y": 0.719873309135437
        }
    ],
    "triangles": [
        1,
        4,
        3,
        3,
        2,
        1,
        1,
        0,
        4
    ],
    "carDensity": 5.0,
    "suspension": 0.9399875402450562,
    "motorSpeed": 638,
    "frontDensity": 2.5,
    "frontRadius": 0.446794718503952,
    "frontOffset": 1.0872527360916138,
    "backDensity": 2.299999952316284,
    "backRadius": 0.4336286783218384,
    "backOffset": -1.2490592002868653,
    "score": 110,
    "maxDistance": 107,
    "maxTime": 30.0
}{
    "ID": 61752,
    "genomaID": "CV4TD10",
    "color": {
        "x": 0.07991970330476761,
        "y": 0.6125468611717224,
        "z": 0.5381634831428528
    },
    "vertexNumber": 4,
    "colliderVertices": [
        {
            "x": -1.054915428161621,
            "y": -0.20251783728599549
        },
        {
            "x": 1.001566767692566,
            "y": -0.08765215426683426
        },
        {
            "x": 0.4357898235321045,
            "y": 0.007486104965209961
        },
        {
            "x": -1.8942313194274903,
            "y": 0.08974039554595947
        }
    ],
    "triangles": [
        3,
        2,
        1,
        1,
        0,
        3
    ],
    "carDensity": 4.0,
    "suspension": 0.6618353128433228,
    "motorSpeed": 1209,
    "frontDensity": 2.5,
    "frontRadius": 0.44606685638427737,
    "frontOffset": 0.755209743976593,
    "backDensity": 3.700000047683716,
    "backRadius": 0.5712372064590454,
    "backOffset": -1.0589557886123658,
    "score": -2,
    "maxDistance": -1,
    "maxTime": 1.0
}