{
    "ID": 67651,
    "genomaID": "CV5TD14",
    "color": {
        "x": 0.15562929213047028,
        "y": 0.5364177823066711,
        "z": 0.5983572602272034
    },
    "vertexNumber": 5,
    "colliderVertices": [
        {
            "x": -1.113594651222229,
            "y": -0.31981804966926577
        },
        {
            "x": 1.6072251796722413,
            "y": -0.2619166076183319
        },
        {
            "x": 1.7196617126464844,
            "y": 0.3729707598686218
        },
        {
            "x": 1.0748162269592286,
            "y": 0.08141946792602539
        },
        {
            "x": 0.07922863960266113,
            "y": 0.4213411211967468
        }
    ],
    "triangles": [
        1,
        4,
        3,
        3,
        2,
        1,
        1,
        0,
        4
    ],
    "carDensity": 5.0,
    "suspension": 0.7813398838043213,
    "motorSpeed": 601,
    "frontDensity": 4.599999904632568,
    "frontRadius": 0.6598048210144043,
    "frontOffset": 1.1198495626449586,
    "backDensity": 3.5999999046325685,
    "backRadius": 0.5641149878501892,
    "backOffset": -1.4632062911987305,
    "score": 838,
    "maxDistance": 833,
    "maxTime": 152.0
}{
    "ID": 67638,
    "genomaID": "CV6TD11",
    "color": {
        "x": 0.0855189636349678,
        "y": 0.24833944439888,
        "z": 0.02017092891037464
    },
    "vertexNumber": 6,
    "colliderVertices": [
        {
            "x": -1.6017587184906006,
            "y": -0.402268648147583
        },
        {
            "x": 1.5556449890136719,
            "y": -0.06960565596818924
        },
        {
            "x": 0.9106563925743103,
            "y": 0.7998825311660767
        },
        {
            "x": -0.5793721675872803,
            "y": 0.5745587944984436
        },
        {
            "x": -1.1917381286621094,
            "y": 0.1990795135498047
        },
        {
            "x": -1.424644947052002,
            "y": 0.7605421543121338
        }
    ],
    "triangles": [
        4,
        2,
        0,
        0,
        5,
        4,
        4,
        3,
        2,
        2,
        1,
        0
    ],
    "carDensity": 6.0,
    "suspension": 0.5975527763366699,
    "motorSpeed": 1445,
    "frontDensity": 2.9000000953674318,
    "frontRadius": 0.49497103691101076,
    "frontOffset": 1.0060182809829713,
    "backDensity": 2.200000047683716,
    "backRadius": 0.4187963604927063,
    "backOffset": -1.4184532165527344,
    "score": 17,
    "maxDistance": 13,
    "maxTime": 3.0
}{
    "ID": 67795,
    "genomaID": "CV6TD12",
    "color": {
        "x": 0.8998357057571411,
        "y": 0.8908003568649292,
        "z": 0.7213954329490662
    },
    "vertexNumber": 6,
    "colliderVertices": [
        {
            "x": -1.5467708110809327,
            "y": -0.25362613797187807
        },
        {
            "x": 1.3873076438903809,
            "y": -0.051073916256427768
        },
        {
            "x": 1.4717717170715333,
            "y": 0.07018077373504639
        },
        {
            "x": 0.48760294914245608,
            "y": 0.6209409832954407
        },
        {
            "x": -0.7072675228118897,
            "y": 0.17248892784118653
        },
        {
            "x": -1.4716291427612305,
            "y": 0.30051177740097048
        }
    ],
    "triangles": [
        4,
        2,
        0,
        0,
        5,
        4,
        4,
        3,
        2,
        2,
        1,
        0
    ],
    "carDensity": 6.0,
    "suspension": 0.43579426407814028,
    "motorSpeed": 517,
    "frontDensity": 3.799999952316284,
    "frontRadius": 0.5765356421470642,
    "frontOffset": 1.356919527053833,
    "backDensity": 2.5,
    "backRadius": 0.4481656551361084,
    "backOffset": -1.4403350353240967,
    "score": 0,
    "maxDistance": 0,
    "maxTime": 0.0
}