{
    "ID": 61825,
    "genomaID": "CV3TD11",
    "color": {
        "x": 0.6190374493598938,
        "y": 0.044509533792734149,
        "z": 0.25484612584114077
    },
    "vertexNumber": 3,
    "colliderVertices": [
        {
            "x": -1.798384189605713,
            "y": -0.4206501841545105
        },
        {
            "x": 1.7933634519577027,
            "y": -0.37003180384635928
        },
        {
            "x": -1.46528959274292,
            "y": 0.10849583148956299
        }
    ],
    "triangles": [
        1,
        0,
        2
    ],
    "carDensity": 3.0,
    "suspension": 0.8506972193717957,
    "motorSpeed": 556,
    "frontDensity": 4.300000190734863,
    "frontRadius": 0.6342346668243408,
    "frontOffset": 1.368652582168579,
    "backDensity": 4.0,
    "backRadius": 0.5968807935714722,
    "backOffset": -1.467156171798706,
    "score": 838,
    "maxDistance": 833,
    "maxTime": 162.0
}{
    "ID": 61922,
    "genomaID": "CV6TD11",
    "color": {
        "x": 0.4693257212638855,
        "y": 0.7809727191925049,
        "z": 0.19179680943489076
    },
    "vertexNumber": 6,
    "colliderVertices": [
        {
            "x": -1.9661990404129029,
            "y": -0.1567719727754593
        },
        {
            "x": 1.9876494407653809,
            "y": -0.4325184226036072
        },
        {
            "x": 1.2174439430236817,
            "y": 0.6720132827758789
        },
        {
            "x": 0.39682984352111819,
            "y": 0.5831072926521301
        },
        {
            "x": -0.02492499351501465,
            "y": 0.24681174755096436
        },
        {
            "x": -1.6870293617248536,
            "y": 0.6575387716293335
        }
    ],
    "triangles": [
        4,
        3,
        1,
        1,
        5,
        4,
        3,
        2,
        1,
        1,
        0,
        5
    ],
    "carDensity": 6.0,
    "suspension": 0.9001976251602173,
    "motorSpeed": 691,
    "frontDensity": 2.0,
    "frontRadius": 0.40044593811035159,
    "frontOffset": 1.2146713733673096,
    "backDensity": 3.299999952316284,
    "backRadius": 0.5342496633529663,
    "backOffset": -1.293891429901123,
    "score": 57,
    "maxDistance": 53,
    "maxTime": 11.0
}{
    "ID": 61995,
    "genomaID": "CV4TD9",
    "color": {
        "x": 0.8998357057571411,
        "y": 0.8908003568649292,
        "z": 0.7213954329490662
    },
    "vertexNumber": 4,
    "colliderVertices": [
        {
            "x": -1.1141538619995118,
            "y": -0.19729319214820863
        },
        {
            "x": 1.0192465782165528,
            "y": -0.09993888437747956
        },
        {
            "x": -0.48863959312438967,
            "y": 0.1720588207244873
        },
        {
            "x": -0.9954636096954346,
            "y": 0.6582241058349609
        }
    ],
    "triangles": [
        0,
        3,
        2,
        2,
        1,
        0
    ],
    "carDensity": 4.0,
    "suspension": 0.7347525954246521,
    "motorSpeed": 813,
    "frontDensity": 3.299999952316284,
    "frontRadius": 0.5348832607269287,
    "frontOffset": 1.2447466850280762,
    "backDensity": 2.200000047683716,
    "backRadius": 0.42273497581481936,
    "backOffset": -1.3851583003997803,
    "score": 0,
    "maxDistance": 0,
    "maxTime": 0.0
}