{
    "ID": 59262,
    "genomaID": "CV3TD8",
    "color": {
        "x": 0.7729123830795288,
        "y": 0.6549203991889954,
        "z": 0.9844603538513184
    },
    "vertexNumber": 3,
    "colliderVertices": [
        {
            "x": -1.7344365119934083,
            "y": -0.4857613444328308
        },
        {
            "x": 1.123448371887207,
            "y": -0.2385343611240387
        },
        {
            "x": -0.682079553604126,
            "y": 0.05566370487213135
        }
    ],
    "triangles": [
        1,
        0,
        2
    ],
    "carDensity": 3.0,
    "suspension": 0.877697765827179,
    "motorSpeed": 1212,
    "frontDensity": 2.9000000953674318,
    "frontRadius": 0.48647308349609377,
    "frontOffset": 1.4508960247039796,
    "backDensity": 2.0,
    "backRadius": 0.40442955493927,
    "backOffset": -1.4066132307052613,
    "score": 841,
    "maxDistance": 834,
    "maxTime": 106.0
}{
    "ID": 59295,
    "genomaID": "CV6TD12",
    "color": {
        "x": 0.7950618267059326,
        "y": 0.5954403281211853,
        "z": 0.21345928311347962
    },
    "vertexNumber": 6,
    "colliderVertices": [
        {
            "x": -1.9661990404129029,
            "y": -0.1567719727754593
        },
        {
            "x": 1.9876494407653809,
            "y": -0.4325184226036072
        },
        {
            "x": 1.2174439430236817,
            "y": 0.6720132827758789
        },
        {
            "x": 0.39682984352111819,
            "y": 0.5831072926521301
        },
        {
            "x": -0.02492499351501465,
            "y": 0.24681174755096436
        },
        {
            "x": -1.6870293617248536,
            "y": 0.6575387716293335
        }
    ],
    "triangles": [
        4,
        3,
        1,
        1,
        5,
        4,
        3,
        2,
        1,
        1,
        0,
        5
    ],
    "carDensity": 6.0,
    "suspension": 0.43120718002319338,
    "motorSpeed": 1123,
    "frontDensity": 2.200000047683716,
    "frontRadius": 0.42190003395080569,
    "frontOffset": 0.7475810050964356,
    "backDensity": 4.099999904632568,
    "backRadius": 0.6144862771034241,
    "backOffset": -1.391106128692627,
    "score": 9,
    "maxDistance": 6,
    "maxTime": 2.0
}{
    "ID": 59399,
    "genomaID": "CV5TD13",
    "color": {
        "x": 0.9940735101699829,
        "y": 0.9590579271316528,
        "z": 0.19860604405403138
    },
    "vertexNumber": 5,
    "colliderVertices": [
        {
            "x": -1.3339660167694092,
            "y": -0.24558475613594056
        },
        {
            "x": 1.537564992904663,
            "y": -0.045517388731241229
        },
        {
            "x": 1.882490634918213,
            "y": 0.14910364151000977
        },
        {
            "x": 1.5173625946044922,
            "y": 0.7476159334182739
        },
        {
            "x": -0.06703352928161621,
            "y": 0.7472569942474365
        }
    ],
    "triangles": [
        1,
        4,
        3,
        3,
        2,
        1,
        1,
        0,
        4
    ],
    "carDensity": 5.0,
    "suspension": 0.783828616142273,
    "motorSpeed": 1219,
    "frontDensity": 3.299999952316284,
    "frontRadius": 0.5264610052108765,
    "frontOffset": 0.849162220954895,
    "backDensity": 4.900000095367432,
    "backRadius": 0.6892994046211243,
    "backOffset": -0.9660824537277222,
    "score": 0,
    "maxDistance": 0,
    "maxTime": 1.0
}