{
    "ID": 70618,
    "genomaID": "CV4TD11",
    "color": {
        "x": 0.352917343378067,
        "y": 0.45569366216659548,
        "z": 0.9982504844665527
    },
    "vertexNumber": 4,
    "colliderVertices": [
        {
            "x": -1.794906735420227,
            "y": -0.39404457807540896
        },
        {
            "x": 1.7097376585006714,
            "y": -0.33976903557777407
        },
        {
            "x": -0.0998542308807373,
            "y": 0.8587408065795898
        },
        {
            "x": -0.2265927791595459,
            "y": 0.839107871055603
        }
    ],
    "triangles": [
        3,
        2,
        1,
        1,
        0,
        3
    ],
    "carDensity": 4.0,
    "suspension": 0.8464887738227844,
    "motorSpeed": 696,
    "frontDensity": 3.9000000953674318,
    "frontRadius": 0.5931256413459778,
    "frontOffset": 1.1250834465026856,
    "backDensity": 2.9000000953674318,
    "backRadius": 0.4861027002334595,
    "backOffset": -1.3611023426055909,
    "score": 838,
    "maxDistance": 833,
    "maxTime": 154.0
}{
    "ID": 70728,
    "genomaID": "CV5TD11",
    "color": {
        "x": 0.36349084973335268,
        "y": 0.5930646061897278,
        "z": 0.934272050857544
    },
    "vertexNumber": 5,
    "colliderVertices": [
        {
            "x": -1.1207753419876099,
            "y": -0.239373117685318
        },
        {
            "x": 1.991142988204956,
            "y": -0.21541735529899598
        },
        {
            "x": 1.961127758026123,
            "y": 0.4442010521888733
        },
        {
            "x": -0.35637545585632326,
            "y": 0.7395423650741577
        },
        {
            "x": -0.7437293529510498,
            "y": 0.7969503402709961
        }
    ],
    "triangles": [
        1,
        4,
        3,
        3,
        2,
        1,
        1,
        0,
        4
    ],
    "carDensity": 5.0,
    "suspension": 0.6307376027107239,
    "motorSpeed": 853,
    "frontDensity": 3.5,
    "frontRadius": 0.5545402765274048,
    "frontOffset": 0.8761035203933716,
    "backDensity": 2.0,
    "backRadius": 0.400169312953949,
    "backOffset": -0.6890215873718262,
    "score": 58,
    "maxDistance": 53,
    "maxTime": 9.0
}{
    "ID": 70798,
    "genomaID": "CV5TD11",
    "color": {
        "x": 0.007468582130968571,
        "y": 0.663615882396698,
        "z": 0.7980117797851563
    },
    "vertexNumber": 5,
    "colliderVertices": [
        {
            "x": -1.9652016162872315,
            "y": -0.3039126694202423
        },
        {
            "x": 1.624847650527954,
            "y": -0.10190500319004059
        },
        {
            "x": 1.9167084693908692,
            "y": 0.2224416732788086
        },
        {
            "x": 0.9829062819480896,
            "y": 0.9135466814041138
        },
        {
            "x": 0.11126160621643067,
            "y": 0.25162774324417117
        }
    ],
    "triangles": [
        1,
        4,
        3,
        3,
        2,
        1,
        1,
        0,
        4
    ],
    "carDensity": 5.0,
    "suspension": 0.8017252087593079,
    "motorSpeed": 548,
    "frontDensity": 2.4000000953674318,
    "frontRadius": 0.4359400272369385,
    "frontOffset": 0.8500584363937378,
    "backDensity": 3.799999952316284,
    "backRadius": 0.5840996503829956,
    "backOffset": -1.3936772346496583,
    "score": 0,
    "maxDistance": 0,
    "maxTime": 0.0
}