{
    "ID": 93421,
    "genomaID": "CV6TD11",
    "color": {
        "x": 0.31335368752479555,
        "y": 0.19815567135810853,
        "z": 0.5050206780433655
    },
    "vertexNumber": 6,
    "colliderVertices": [
        {
            "x": -1.5852961540222169,
            "y": -0.3484865128993988
        },
        {
            "x": 1.6884582042694092,
            "y": -0.3620125353336334
        },
        {
            "x": 1.8203191757202149,
            "y": 0.002286195755004883
        },
        {
            "x": 1.36814546585083,
            "y": 0.7757089138031006
        },
        {
            "x": 0.7288007140159607,
            "y": 0.7365392446517944
        },
        {
            "x": -1.8500728607177735,
            "y": 0.5275856852531433
        }
    ],
    "triangles": [
        3,
        1,
        5,
        5,
        4,
        3,
        3,
        2,
        1,
        1,
        0,
        5
    ],
    "carDensity": 6.0,
    "suspension": 0.48200494050979617,
    "motorSpeed": 1010,
    "frontDensity": 3.4000000953674318,
    "frontRadius": 0.5385005474090576,
    "frontOffset": 1.1919584274291993,
    "backDensity": 2.0,
    "backRadius": 0.4010767340660095,
    "backOffset": -1.302863597869873,
    "score": 839,
    "maxDistance": 833,
    "maxTime": 138.0
}{
    "ID": 93529,
    "genomaID": "CV6TD12",
    "color": {
        "x": 0.6530440449714661,
        "y": 0.9044967889785767,
        "z": 0.6782868504524231
    },
    "vertexNumber": 6,
    "colliderVertices": [
        {
            "x": -1.8393843173980713,
            "y": -0.07947797328233719
        },
        {
            "x": 1.1295878887176514,
            "y": -0.42157626152038576
        },
        {
            "x": 0.4183080196380615,
            "y": 0.2529793381690979
        },
        {
            "x": -0.5352542400360107,
            "y": 0.917201042175293
        },
        {
            "x": -0.7004315853118897,
            "y": 0.25280970335006716
        },
        {
            "x": -1.9236564636230469,
            "y": 0.46047526597976687
        }
    ],
    "triangles": [
        4,
        3,
        1,
        1,
        5,
        4,
        3,
        2,
        1,
        1,
        0,
        5
    ],
    "carDensity": 6.0,
    "suspension": 0.699166476726532,
    "motorSpeed": 627,
    "frontDensity": 4.0,
    "frontRadius": 0.6033892035484314,
    "frontOffset": 1.1071966886520386,
    "backDensity": 2.4000000953674318,
    "backRadius": 0.44083523750305178,
    "backOffset": -0.8362585306167603,
    "score": 110,
    "maxDistance": 107,
    "maxTime": 28.0
}{
    "ID": 93561,
    "genomaID": "CV3TD11",
    "color": {
        "x": 0.13960601389408112,
        "y": 0.9981663227081299,
        "z": 0.7680736780166626
    },
    "vertexNumber": 3,
    "colliderVertices": [
        {
            "x": -1.077881097793579,
            "y": -0.0287594236433506
        },
        {
            "x": 1.942368745803833,
            "y": -0.4472312927246094
        },
        {
            "x": -0.13318419456481934,
            "y": 0.3377055525779724
        }
    ],
    "triangles": [
        1,
        0,
        2
    ],
    "carDensity": 3.0,
    "suspension": 0.9252744317054749,
    "motorSpeed": 1404,
    "frontDensity": 3.200000047683716,
    "frontRadius": 0.5247556567192078,
    "frontOffset": 1.427748441696167,
    "backDensity": 4.599999904632568,
    "backRadius": 0.6611466407775879,
    "backOffset": -0.9597457647323608,
    "score": -2,
    "maxDistance": -1,
    "maxTime": 1.0
}