{
    "ID": 78802,
    "genomaID": "CV3TD11",
    "color": {
        "x": 0.7343513369560242,
        "y": 0.07770682126283646,
        "z": 0.5787476897239685
    },
    "vertexNumber": 3,
    "colliderVertices": [
        {
            "x": -1.5708236694335938,
            "y": -0.268511563539505
        },
        {
            "x": 1.9801316261291505,
            "y": -0.11684878170490265
        },
        {
            "x": -0.41051411628723147,
            "y": 0.19662392139434815
        }
    ],
    "triangles": [
        1,
        0,
        2
    ],
    "carDensity": 3.0,
    "suspension": 0.7563328146934509,
    "motorSpeed": 598,
    "frontDensity": 4.400000095367432,
    "frontRadius": 0.6375188231468201,
    "frontOffset": 1.4594366550445557,
    "backDensity": 3.5999999046325685,
    "backRadius": 0.558509111404419,
    "backOffset": -1.49233078956604,
    "score": 838,
    "maxDistance": 833,
    "maxTime": 156.0
}{
    "ID": 78880,
    "genomaID": "CV5TD10",
    "color": {
        "x": 0.5870503783226013,
        "y": 0.07104790955781937,
        "z": 0.577752411365509
    },
    "vertexNumber": 5,
    "colliderVertices": [
        {
            "x": -1.4569151401519776,
            "y": -0.1359468251466751
        },
        {
            "x": 1.3923866748809815,
            "y": -0.3083885610103607
        },
        {
            "x": 1.899261474609375,
            "y": 0.779334306716919
        },
        {
            "x": -0.40816807746887209,
            "y": 0.3533887267112732
        },
        {
            "x": -1.6810388565063477,
            "y": 0.09723997116088867
        }
    ],
    "triangles": [
        1,
        4,
        3,
        3,
        2,
        1,
        1,
        0,
        4
    ],
    "carDensity": 5.0,
    "suspension": 0.9372435808181763,
    "motorSpeed": 1015,
    "frontDensity": 3.0999999046325685,
    "frontRadius": 0.5124717950820923,
    "frontOffset": 1.0203348398208619,
    "backDensity": 2.4000000953674318,
    "backRadius": 0.44102662801742556,
    "backOffset": -1.4264838695526124,
    "score": 64,
    "maxDistance": 57,
    "maxTime": 8.0
}{
    "ID": 78999,
    "genomaID": "CV3TD11",
    "color": {
        "x": 0.9940735101699829,
        "y": 0.9590579271316528,
        "z": 0.19860604405403138
    },
    "vertexNumber": 3,
    "colliderVertices": [
        {
            "x": -1.368173360824585,
            "y": -0.09875370562076569
        },
        {
            "x": 1.6201019287109376,
            "y": -0.27021345496177676
        },
        {
            "x": -1.60331392288208,
            "y": 0.008939981460571289
        }
    ],
    "triangles": [
        1,
        0,
        2
    ],
    "carDensity": 3.0,
    "suspension": 0.41827937960624697,
    "motorSpeed": 540,
    "frontDensity": 3.5999999046325685,
    "frontRadius": 0.5606869459152222,
    "frontOffset": 1.1943397521972657,
    "backDensity": 3.5,
    "backRadius": 0.5484949350357056,
    "backOffset": -1.1339696645736695,
    "score": 0,
    "maxDistance": 0,
    "maxTime": 0.0
}