{
    "ID": 41229,
    "genomaID": "CV5TD11",
    "color": {
        "x": 0.10877670347690582,
        "y": 0.17472423613071443,
        "z": 0.84769606590271
    },
    "vertexNumber": 5,
    "colliderVertices": [
        {
            "x": -1.439117670059204,
            "y": -0.014954926446080208
        },
        {
            "x": 1.295898675918579,
            "y": -0.30678513646125796
        },
        {
            "x": 0.014934778213500977,
            "y": 0.11992490291595459
        },
        {
            "x": -0.3326752185821533,
            "y": 0.07099175453186035
        },
        {
            "x": -1.4897170066833497,
            "y": 0.3249494433403015
        }
    ],
    "triangles": [
        1,
        4,
        3,
        3,
        2,
        1,
        1,
        0,
        4
    ],
    "carDensity": 5.0,
    "suspension": 0.6373593807220459,
    "motorSpeed": 1255,
    "frontDensity": 4.199999809265137,
    "frontRadius": 0.6158583760261536,
    "frontOffset": 0.9828351736068726,
    "backDensity": 2.0,
    "backRadius": 0.4013339579105377,
    "backOffset": -1.4634608030319214,
    "score": 842,
    "maxDistance": 834,
    "maxTime": 100.0
}{
    "ID": 41260,
    "genomaID": "CV5TD11",
    "color": {
        "x": 0.955747127532959,
        "y": 0.5249026417732239,
        "z": 0.946269154548645
    },
    "vertexNumber": 5,
    "colliderVertices": [
        {
            "x": -1.4094419479370118,
            "y": -0.33887025713920596
        },
        {
            "x": 1.1706080436706544,
            "y": -0.3648394048213959
        },
        {
            "x": 0.9418677687644959,
            "y": 0.248748779296875
        },
        {
            "x": 0.8810190558433533,
            "y": 0.7004110813140869
        },
        {
            "x": -1.054049015045166,
            "y": 0.6764166355133057
        }
    ],
    "triangles": [
        2,
        1,
        4,
        4,
        3,
        2,
        1,
        0,
        4
    ],
    "carDensity": 5.0,
    "suspension": 0.9560143351554871,
    "motorSpeed": 588,
    "frontDensity": 4.199999809265137,
    "frontRadius": 0.6158583760261536,
    "frontOffset": 0.8756328821182251,
    "backDensity": 2.0,
    "backRadius": 0.4013339579105377,
    "backOffset": -1.2779014110565186,
    "score": 110,
    "maxDistance": 107,
    "maxTime": 29.0
}{
    "ID": 41397,
    "genomaID": "CV3TD9",
    "color": {
        "x": 0.15672196447849275,
        "y": 0.8961608409881592,
        "z": 0.9475356340408325
    },
    "vertexNumber": 3,
    "colliderVertices": [
        {
            "x": -1.936957597732544,
            "y": -0.17771483957767487
        },
        {
            "x": 1.4269418716430665,
            "y": -0.35813799500465395
        },
        {
            "x": 1.2464094161987305,
            "y": 0.20018577575683595
        }
    ],
    "triangles": [
        1,
        0,
        2
    ],
    "carDensity": 3.0,
    "suspension": 0.5426663160324097,
    "motorSpeed": 970,
    "frontDensity": 2.799999952316284,
    "frontRadius": 0.4750826358795166,
    "frontOffset": 1.3667711019515992,
    "backDensity": 3.200000047683716,
    "backRadius": 0.5155273675918579,
    "backOffset": -1.1751564741134644,
    "score": 0,
    "maxDistance": 0,
    "maxTime": 1.0
}