{
    "ID": 27749,
    "genomaID": "CV3TD10",
    "color": {
        "x": 0.6897854208946228,
        "y": 0.6507055163383484,
        "z": 0.5617504715919495
    },
    "vertexNumber": 3,
    "colliderVertices": [
        {
            "x": -1.1869959831237794,
            "y": -0.20262029767036439
        },
        {
            "x": 1.6304540634155274,
            "y": -0.2527209222316742
        },
        {
            "x": 1.100550651550293,
            "y": 0.14265680313110352
        }
    ],
    "triangles": [
        1,
        0,
        2
    ],
    "carDensity": 3.0,
    "suspension": 0.656634509563446,
    "motorSpeed": 1001,
    "frontDensity": 3.799999952316284,
    "frontRadius": 0.5777642726898193,
    "frontOffset": 1.3450982570648194,
    "backDensity": 2.799999952316284,
    "backRadius": 0.47712475061416628,
    "backOffset": -0.6322915554046631,
    "score": 841,
    "maxDistance": 834,
    "maxTime": 109.0
}{
    "ID": 27748,
    "genomaID": "CV3TD8",
    "color": {
        "x": 0.7935675382614136,
        "y": 0.7945517301559448,
        "z": 0.1580130010843277
    },
    "vertexNumber": 3,
    "colliderVertices": [
        {
            "x": -1.7330060005187989,
            "y": -0.12798722088336945
        },
        {
            "x": 1.8385998010635377,
            "y": -0.1550513654947281
        },
        {
            "x": -0.033341169357299808,
            "y": 0.10327625274658203
        }
    ],
    "triangles": [
        1,
        0,
        2
    ],
    "carDensity": 3.0,
    "suspension": 0.9446642398834229,
    "motorSpeed": 936,
    "frontDensity": 3.0,
    "frontRadius": 0.4955796003341675,
    "frontOffset": 1.3200023174285889,
    "backDensity": 2.0,
    "backRadius": 0.4014540910720825,
    "backOffset": -0.7266062498092651,
    "score": 9,
    "maxDistance": 6,
    "maxTime": 2.0
}{
    "ID": 27798,
    "genomaID": "CV6TD13",
    "color": {
        "x": 0.007468582130968571,
        "y": 0.663615882396698,
        "z": 0.7980117797851563
    },
    "vertexNumber": 6,
    "colliderVertices": [
        {
            "x": -1.8878687620162964,
            "y": -0.205717533826828
        },
        {
            "x": 1.6442387104034424,
            "y": -0.08313954621553421
        },
        {
            "x": 1.9977712631225587,
            "y": 0.4395907521247864
        },
        {
            "x": -0.3856027126312256,
            "y": 0.10415399074554444
        },
        {
            "x": -1.2476377487182618,
            "y": 0.7034374475479126
        },
        {
            "x": -1.717836856842041,
            "y": 0.40584319829940798
        }
    ],
    "triangles": [
        0,
        5,
        3,
        3,
        2,
        0,
        5,
        4,
        3,
        2,
        1,
        0
    ],
    "carDensity": 6.0,
    "suspension": 0.911633312702179,
    "motorSpeed": 554,
    "frontDensity": 4.400000095367432,
    "frontRadius": 0.6404500603675842,
    "frontOffset": 1.3561590909957886,
    "backDensity": 2.700000047683716,
    "backRadius": 0.4675832986831665,
    "backOffset": -1.1551902294158936,
    "score": 0,
    "maxDistance": 0,
    "maxTime": 0.0
}