{
    "ID": 71025,
    "genomaID": "CV3TD10",
    "color": {
        "x": 0.6190374493598938,
        "y": 0.044509533792734149,
        "z": 0.25484612584114077
    },
    "vertexNumber": 3,
    "colliderVertices": [
        {
            "x": -1.4622375965118409,
            "y": -0.2035864293575287
        },
        {
            "x": 1.0914838314056397,
            "y": -0.21564599871635438
        },
        {
            "x": -0.004828691482543945,
            "y": 0.18282532691955567
        }
    ],
    "triangles": [
        1,
        0,
        2
    ],
    "carDensity": 3.0,
    "suspension": 0.574528157711029,
    "motorSpeed": 552,
    "frontDensity": 4.400000095367432,
    "frontRadius": 0.6388288140296936,
    "frontOffset": 1.0711299180984498,
    "backDensity": 3.4000000953674318,
    "backRadius": 0.5406278371810913,
    "backOffset": -0.7182741165161133,
    "score": 837,
    "maxDistance": 833,
    "maxTime": 171.0
}{
    "ID": 71108,
    "genomaID": "CV5TD13",
    "color": {
        "x": 0.2735932171344757,
        "y": 0.4931458830833435,
        "z": 0.35553279519081118
    },
    "vertexNumber": 5,
    "colliderVertices": [
        {
            "x": -1.263643741607666,
            "y": -0.2506343424320221
        },
        {
            "x": 1.5576794147491456,
            "y": -0.4132935404777527
        },
        {
            "x": -0.1539928913116455,
            "y": 0.7665179967880249
        },
        {
            "x": -0.7853868007659912,
            "y": 0.9288440942764282
        },
        {
            "x": -1.797029972076416,
            "y": 0.48203712701797488
        }
    ],
    "triangles": [
        1,
        4,
        3,
        3,
        2,
        1,
        1,
        0,
        4
    ],
    "carDensity": 5.0,
    "suspension": 0.4819374084472656,
    "motorSpeed": 571,
    "frontDensity": 4.599999904632568,
    "frontRadius": 0.6568328142166138,
    "frontOffset": 1.30198335647583,
    "backDensity": 3.0,
    "backRadius": 0.5048152208328247,
    "backOffset": -0.9062081575393677,
    "score": 110,
    "maxDistance": 107,
    "maxTime": 28.0
}{
    "ID": 71193,
    "genomaID": "CV6TD14",
    "color": {
        "x": 0.5642829537391663,
        "y": 0.22563651204109193,
        "z": 0.38753825426101687
    },
    "vertexNumber": 6,
    "colliderVertices": [
        {
            "x": -1.643131971359253,
            "y": -0.38362550735473635
        },
        {
            "x": 1.7589884996414185,
            "y": -0.020950140431523324
        },
        {
            "x": 1.7658190727233887,
            "y": 0.6547600030899048
        },
        {
            "x": 1.0778980255126954,
            "y": 0.16716325283050538
        },
        {
            "x": -0.8461000919342041,
            "y": 0.8918836116790772
        },
        {
            "x": -1.4153265953063965,
            "y": 0.857486367225647
        }
    ],
    "triangles": [
        0,
        5,
        3,
        3,
        1,
        0,
        5,
        4,
        3,
        3,
        2,
        1
    ],
    "carDensity": 6.0,
    "suspension": 0.47583049535751345,
    "motorSpeed": 1232,
    "frontDensity": 4.199999809265137,
    "frontRadius": 0.6166029572486877,
    "frontOffset": 1.1734678745269776,
    "backDensity": 4.400000095367432,
    "backRadius": 0.6381941437721252,
    "backOffset": -0.8955603837966919,
    "score": 0,
    "maxDistance": 0,
    "maxTime": 1.0
}