{
    "ID": 34000,
    "genomaID": "CV4TD9",
    "color": {
        "x": 0.5215955376625061,
        "y": 0.5618323683738709,
        "z": 0.9288589954376221
    },
    "vertexNumber": 4,
    "colliderVertices": [
        {
            "x": -1.6357831954956055,
            "y": -0.2989652454853058
        },
        {
            "x": 1.1674466133117676,
            "y": -0.05613119155168533
        },
        {
            "x": 0.7316569685935974,
            "y": 0.5328509211540222
        },
        {
            "x": -1.8846983909606934,
            "y": 0.060707807540893558
        }
    ],
    "triangles": [
        3,
        2,
        1,
        1,
        0,
        3
    ],
    "carDensity": 4.0,
    "suspension": 0.4226558804512024,
    "motorSpeed": 1023,
    "frontDensity": 3.0,
    "frontRadius": 0.4958000183105469,
    "frontOffset": 1.431955099105835,
    "backDensity": 2.299999952316284,
    "backRadius": 0.4268319010734558,
    "backOffset": -1.2706289291381837,
    "score": 839,
    "maxDistance": 833,
    "maxTime": 123.0
}{
    "ID": 33999,
    "genomaID": "CV6TD12",
    "color": {
        "x": 0.9940735101699829,
        "y": 0.9590579271316528,
        "z": 0.19860604405403138
    },
    "vertexNumber": 6,
    "colliderVertices": [
        {
            "x": -1.179315447807312,
            "y": -0.3459233343601227
        },
        {
            "x": 1.8421744108200074,
            "y": -0.35800841450691225
        },
        {
            "x": -0.7259519100189209,
            "y": 0.6611264944076538
        },
        {
            "x": -1.634655475616455,
            "y": 0.6855608224868774
        },
        {
            "x": -1.8086109161376954,
            "y": 0.785675048828125
        },
        {
            "x": -1.8993048667907715,
            "y": 0.5661864876747131
        }
    ],
    "triangles": [
        3,
        1,
        5,
        5,
        4,
        3,
        3,
        2,
        1,
        1,
        0,
        5
    ],
    "carDensity": 6.0,
    "suspension": 0.8224256634712219,
    "motorSpeed": 729,
    "frontDensity": 3.700000047683716,
    "frontRadius": 0.5738586187362671,
    "frontOffset": 1.1604877710342408,
    "backDensity": 2.200000047683716,
    "backRadius": 0.42031246423721316,
    "backOffset": -1.3065974712371827,
    "score": 110,
    "maxDistance": 107,
    "maxTime": 28.0
}{
    "ID": 33996,
    "genomaID": "CV3TD12",
    "color": {
        "x": 0.9384560585021973,
        "y": 0.572151243686676,
        "z": 0.6635225415229797
    },
    "vertexNumber": 3,
    "colliderVertices": [
        {
            "x": -1.903637170791626,
            "y": -0.34076234698295596
        },
        {
            "x": 1.2821147441864014,
            "y": -0.13306786119937898
        },
        {
            "x": -0.22056365013122559,
            "y": 0.42504066228866579
        }
    ],
    "triangles": [
        1,
        0,
        2
    ],
    "carDensity": 3.0,
    "suspension": 0.7190929651260376,
    "motorSpeed": 505,
    "frontDensity": 3.5999999046325685,
    "frontRadius": 0.5615678429603577,
    "frontOffset": 1.1938998699188233,
    "backDensity": 4.900000095367432,
    "backRadius": 0.691365122795105,
    "backOffset": -1.0556074380874634,
    "score": 0,
    "maxDistance": 0,
    "maxTime": 1.0
}