{
    "ID": 53463,
    "genomaID": "CV5TD10",
    "color": {
        "x": 0.06671429425477982,
        "y": 0.23364689946174622,
        "z": 0.5524571537971497
    },
    "vertexNumber": 5,
    "colliderVertices": [
        {
            "x": -1.3492419719696046,
            "y": -0.4082655906677246
        },
        {
            "x": 1.053552269935608,
            "y": -0.13419075310230256
        },
        {
            "x": 1.61085844039917,
            "y": 0.5662475228309631
        },
        {
            "x": 1.2993154525756837,
            "y": 0.005491018295288086
        },
        {
            "x": 1.2357425689697266,
            "y": 0.2507055401802063
        }
    ],
    "triangles": [
        4,
        0,
        1,
        3,
        4,
        1
    ],
    "carDensity": 5.0,
    "suspension": 0.5184028148651123,
    "motorSpeed": 736,
    "frontDensity": 2.4000000953674318,
    "frontRadius": 0.43860378861427309,
    "frontOffset": 0.9311269521713257,
    "backDensity": 2.9000000953674318,
    "backRadius": 0.48516666889190676,
    "backOffset": -0.9487577676773071,
    "score": 838,
    "maxDistance": 833,
    "maxTime": 165.0
}{
    "ID": 53522,
    "genomaID": "CV5TD10",
    "color": {
        "x": 0.4693257212638855,
        "y": 0.7809727191925049,
        "z": 0.19179680943489076
    },
    "vertexNumber": 5,
    "colliderVertices": [
        {
            "x": -1.6093342304229737,
            "y": -0.3689327538013458
        },
        {
            "x": 1.6788618564605713,
            "y": -0.41020452976226809
        },
        {
            "x": 0.07942843437194824,
            "y": 0.7839274406433106
        },
        {
            "x": -0.3161141872406006,
            "y": 0.1977137327194214
        },
        {
            "x": -1.2720766067504883,
            "y": 0.3315536379814148
        }
    ],
    "triangles": [
        1,
        4,
        3,
        3,
        2,
        1,
        1,
        0,
        4
    ],
    "carDensity": 5.0,
    "suspension": 0.5827145576477051,
    "motorSpeed": 653,
    "frontDensity": 2.5999999046325685,
    "frontRadius": 0.4639551341533661,
    "frontOffset": 0.804466187953949,
    "backDensity": 2.200000047683716,
    "backRadius": 0.4199804663658142,
    "backOffset": -1.436220407485962,
    "score": 110,
    "maxDistance": 107,
    "maxTime": 30.0
}{
    "ID": 53479,
    "genomaID": "CV3TD12",
    "color": {
        "x": 0.7441080212593079,
        "y": 0.36986497044563296,
        "z": 0.8987936973571777
    },
    "vertexNumber": 3,
    "colliderVertices": [
        {
            "x": -1.7388486862182618,
            "y": -0.02636212483048439
        },
        {
            "x": 1.7277116775512696,
            "y": -0.48257511854171755
        },
        {
            "x": -1.8256497383117676,
            "y": 0.6015763878822327
        }
    ],
    "triangles": [
        1,
        0,
        2
    ],
    "carDensity": 3.0,
    "suspension": 0.42378655076026919,
    "motorSpeed": 1019,
    "frontDensity": 3.5,
    "frontRadius": 0.5469289422035217,
    "frontOffset": 1.1301014423370362,
    "backDensity": 4.800000190734863,
    "backRadius": 0.6785271167755127,
    "backOffset": -1.207817554473877,
    "score": -2,
    "maxDistance": -1,
    "maxTime": 1.0
}