{
    "ID": 17039,
    "genomaID": "CV6TD13",
    "color": {
        "x": 0.4304834008216858,
        "y": 0.3162631094455719,
        "z": 0.6586865782737732
    },
    "vertexNumber": 6,
    "colliderVertices": [
        {
            "x": -1.376460313796997,
            "y": -0.45153355598449709
        },
        {
            "x": 1.0055947303771973,
            "y": -0.21069881319999696
        },
        {
            "x": 1.7925410270690919,
            "y": 0.14686167240142823
        },
        {
            "x": 0.11534476280212403,
            "y": 0.38598018884658816
        },
        {
            "x": -0.8063352108001709,
            "y": 0.1985313892364502
        },
        {
            "x": -1.9820446968078614,
            "y": 0.8985037803649902
        }
    ],
    "triangles": [
        4,
        2,
        0,
        0,
        5,
        4,
        4,
        3,
        2,
        2,
        1,
        0
    ],
    "carDensity": 6.0,
    "suspension": 0.6527730822563171,
    "motorSpeed": 959,
    "frontDensity": 3.700000047683716,
    "frontRadius": 0.5692428946495056,
    "frontOffset": 1.2612159252166749,
    "backDensity": 2.5999999046325685,
    "backRadius": 0.4572000503540039,
    "backOffset": -1.1458652019500733,
    "score": 839,
    "maxDistance": 833,
    "maxTime": 123.0
}{
    "ID": 17171,
    "genomaID": "CV4TD10",
    "color": {
        "x": 0.8968168497085571,
        "y": 0.15242327749729157,
        "z": 0.8693222999572754
    },
    "vertexNumber": 4,
    "colliderVertices": [
        {
            "x": -1.3975181579589844,
            "y": -0.47446149587631228
        },
        {
            "x": 1.6248795986175538,
            "y": -0.1591828614473343
        },
        {
            "x": 1.2980389595031739,
            "y": 0.8929052352905273
        },
        {
            "x": 0.6539759039878845,
            "y": 0.8801655769348145
        }
    ],
    "triangles": [
        3,
        2,
        1,
        1,
        0,
        3
    ],
    "carDensity": 4.0,
    "suspension": 0.6806688904762268,
    "motorSpeed": 663,
    "frontDensity": 2.0999999046325685,
    "frontRadius": 0.40945035219192507,
    "frontOffset": 0.8813356161117554,
    "backDensity": 3.5999999046325685,
    "backRadius": 0.5558890700340271,
    "backOffset": -1.352239966392517,
    "score": 56,
    "maxDistance": 52,
    "maxTime": 11.0
}{
    "ID": 17199,
    "genomaID": "CV3TD11",
    "color": {
        "x": 0.9940735101699829,
        "y": 0.9590579271316528,
        "z": 0.19860604405403138
    },
    "vertexNumber": 3,
    "colliderVertices": [
        {
            "x": -1.873958706855774,
            "y": -0.12593914568424226
        },
        {
            "x": 1.7440941333770753,
            "y": -0.2829259932041168
        },
        {
            "x": -0.9885647296905518,
            "y": 0.47546857595443728
        }
    ],
    "triangles": [
        1,
        0,
        2
    ],
    "carDensity": 3.0,
    "suspension": 0.4235776960849762,
    "motorSpeed": 680,
    "frontDensity": 2.700000047683716,
    "frontRadius": 0.472487211227417,
    "frontOffset": 0.659736156463623,
    "backDensity": 4.599999904632568,
    "backRadius": 0.6598458886146545,
    "backOffset": -1.3610889911651612,
    "score": 0,
    "maxDistance": 0,
    "maxTime": 1.0
}