{
    "ID": 55975,
    "genomaID": "CV6TD13",
    "color": {
        "x": 0.7235133051872253,
        "y": 0.4873742461204529,
        "z": 0.11970354616641998
    },
    "vertexNumber": 6,
    "colliderVertices": [
        {
            "x": -1.3363161087036133,
            "y": -0.05582732707262039
        },
        {
            "x": 1.6315293312072755,
            "y": -0.033276740461587909
        },
        {
            "x": 0.06913542747497559,
            "y": 0.4323727488517761
        },
        {
            "x": -0.031899213790893558,
            "y": 0.9533041715621948
        },
        {
            "x": -0.935967206954956,
            "y": 0.3402619957923889
        },
        {
            "x": -1.1021842956542969,
            "y": 0.32089751958847048
        }
    ],
    "triangles": [
        4,
        2,
        1,
        1,
        5,
        4,
        4,
        3,
        2,
        1,
        0,
        5
    ],
    "carDensity": 6.0,
    "suspension": 0.6352953910827637,
    "motorSpeed": 787,
    "frontDensity": 4.800000190734863,
    "frontRadius": 0.6788956522941589,
    "frontOffset": 0.7432945966720581,
    "backDensity": 2.5,
    "backRadius": 0.446812242269516,
    "backOffset": -0.6443101167678833,
    "score": 839,
    "maxDistance": 833,
    "maxTime": 134.0
}{
    "ID": 55950,
    "genomaID": "CV6TD14",
    "color": {
        "x": 0.060572512447834018,
        "y": 0.17979909479618073,
        "z": 0.0740131214261055
    },
    "vertexNumber": 6,
    "colliderVertices": [
        {
            "x": -1.7402534484863282,
            "y": -0.33575335144996645
        },
        {
            "x": 1.0971311330795289,
            "y": -0.021982969716191293
        },
        {
            "x": 1.8805088996887208,
            "y": 0.8080470561981201
        },
        {
            "x": 1.4753456115722657,
            "y": 0.9842909574508667
        },
        {
            "x": 0.5834316611289978,
            "y": 0.48524218797683718
        },
        {
            "x": -1.9791083335876465,
            "y": 0.8232603073120117
        }
    ],
    "triangles": [
        4,
        3,
        1,
        1,
        5,
        4,
        3,
        2,
        1,
        1,
        0,
        5
    ],
    "carDensity": 6.0,
    "suspension": 0.568977952003479,
    "motorSpeed": 531,
    "frontDensity": 4.300000190734863,
    "frontRadius": 0.6301756501197815,
    "frontOffset": 1.4997690916061402,
    "backDensity": 3.5,
    "backRadius": 0.5517277717590332,
    "backOffset": -0.8181324601173401,
    "score": 110,
    "maxDistance": 107,
    "maxTime": 30.0
}{
    "ID": 55994,
    "genomaID": "CV4TD11",
    "color": {
        "x": 0.7752962112426758,
        "y": 0.9479353427886963,
        "z": 0.47951334714889529
    },
    "vertexNumber": 4,
    "colliderVertices": [
        {
            "x": -1.55415678024292,
            "y": -0.44816893339157107
        },
        {
            "x": 1.4455525875091553,
            "y": -0.07289738208055496
        },
        {
            "x": 1.2399163246154786,
            "y": 0.034267544746398929
        },
        {
            "x": -1.6631054878234864,
            "y": 0.0842437744140625
        }
    ],
    "triangles": [
        3,
        2,
        1,
        1,
        0,
        3
    ],
    "carDensity": 4.0,
    "suspension": 0.8017596006393433,
    "motorSpeed": 523,
    "frontDensity": 3.700000047683716,
    "frontRadius": 0.5725338459014893,
    "frontOffset": 0.6245667934417725,
    "backDensity": 2.9000000953674318,
    "backRadius": 0.48824363946914675,
    "backOffset": -1.143441915512085,
    "score": 0,
    "maxDistance": 0,
    "maxTime": 0.0
}