{
    "ID": 88984,
    "genomaID": "CV5TD11",
    "color": {
        "x": 0.8737479448318481,
        "y": 0.04795611649751663,
        "z": 0.9033509492874146
    },
    "vertexNumber": 5,
    "colliderVertices": [
        {
            "x": -1.1862741708755494,
            "y": -0.33368536829948428
        },
        {
            "x": 1.4087071418762208,
            "y": -0.09432907402515412
        },
        {
            "x": 1.5960965156555176,
            "y": 0.5666398406028748
        },
        {
            "x": -0.4505589008331299,
            "y": 0.7417430877685547
        },
        {
            "x": -1.477088451385498,
            "y": 0.3005297780036926
        }
    ],
    "triangles": [
        1,
        4,
        3,
        3,
        2,
        1,
        1,
        0,
        4
    ],
    "carDensity": 5.0,
    "suspension": 0.8949363231658936,
    "motorSpeed": 869,
    "frontDensity": 3.9000000953674318,
    "frontRadius": 0.5890916585922241,
    "frontOffset": 1.098568081855774,
    "backDensity": 2.200000047683716,
    "backRadius": 0.4219244718551636,
    "backOffset": -1.2987918853759766,
    "score": 839,
    "maxDistance": 833,
    "maxTime": 138.0
}{
    "ID": 88890,
    "genomaID": "CV5TD12",
    "color": {
        "x": 0.9484285116195679,
        "y": 0.6983360648155212,
        "z": 0.2651731073856354
    },
    "vertexNumber": 5,
    "colliderVertices": [
        {
            "x": -1.8017328977584839,
            "y": -0.31428924202919009
        },
        {
            "x": 1.9133155345916749,
            "y": -0.48061811923980715
        },
        {
            "x": 1.2455053329467774,
            "y": 0.9436098337173462
        },
        {
            "x": 0.7526134848594666,
            "y": 0.5161661505699158
        },
        {
            "x": -1.8272714614868165,
            "y": 0.9098045825958252
        }
    ],
    "triangles": [
        1,
        4,
        3,
        3,
        2,
        1,
        1,
        0,
        4
    ],
    "carDensity": 5.0,
    "suspension": 0.9023823142051697,
    "motorSpeed": 611,
    "frontDensity": 3.799999952316284,
    "frontRadius": 0.5756365656852722,
    "frontOffset": 0.5663119554519653,
    "backDensity": 2.9000000953674318,
    "backRadius": 0.4931129813194275,
    "backOffset": -1.2795984745025635,
    "score": 110,
    "maxDistance": 107,
    "maxTime": 30.0
}{
    "ID": 89000,
    "genomaID": "CV5TD10",
    "color": {
        "x": 0.5215955376625061,
        "y": 0.5618323683738709,
        "z": 0.9288589954376221
    },
    "vertexNumber": 5,
    "colliderVertices": [
        {
            "x": -1.7195212841033936,
            "y": -0.3360532224178314
        },
        {
            "x": 1.6005783081054688,
            "y": -0.34371450543403628
        },
        {
            "x": -0.4116089344024658,
            "y": 0.006636142730712891
        },
        {
            "x": -0.6672484874725342,
            "y": 0.13655352592468263
        },
        {
            "x": -1.6118721961975098,
            "y": 0.6233296990394592
        }
    ],
    "triangles": [
        3,
        2,
        0,
        0,
        4,
        3,
        2,
        1,
        0
    ],
    "carDensity": 5.0,
    "suspension": 0.6308615207672119,
    "motorSpeed": 1044,
    "frontDensity": 2.5,
    "frontRadius": 0.44776228070259097,
    "frontOffset": 1.2441657781600953,
    "backDensity": 2.9000000953674318,
    "backRadius": 0.48540908098220827,
    "backOffset": -0.6930691003799439,
    "score": 0,
    "maxDistance": 0,
    "maxTime": 1.0
}