{
    "ID": 53056,
    "genomaID": "CV4TD11",
    "color": {
        "x": 0.7674797773361206,
        "y": 0.27107957005500796,
        "z": 0.8932945728302002
    },
    "vertexNumber": 4,
    "colliderVertices": [
        {
            "x": -1.6034581661224366,
            "y": -0.14642764627933503
        },
        {
            "x": 1.7810620069503785,
            "y": -0.4744122624397278
        },
        {
            "x": 0.68581622838974,
            "y": 0.023729920387268068
        },
        {
            "x": -0.28222012519836428,
            "y": 0.9129376411437988
        }
    ],
    "triangles": [
        0,
        3,
        2,
        2,
        1,
        0
    ],
    "carDensity": 4.0,
    "suspension": 0.665407121181488,
    "motorSpeed": 723,
    "frontDensity": 3.700000047683716,
    "frontRadius": 0.5745819807052612,
    "frontOffset": 1.2131917476654053,
    "backDensity": 3.0,
    "backRadius": 0.49531522393226626,
    "backOffset": -1.2991642951965333,
    "score": 839,
    "maxDistance": 834,
    "maxTime": 148.0
}{
    "ID": 53143,
    "genomaID": "CV6TD11",
    "color": {
        "x": 0.6736112236976624,
        "y": 0.5103936791419983,
        "z": 0.7824075222015381
    },
    "vertexNumber": 6,
    "colliderVertices": [
        {
            "x": -1.953743577003479,
            "y": -0.23706898093223573
        },
        {
            "x": 1.2528557777404786,
            "y": -0.3678792417049408
        },
        {
            "x": 1.434079647064209,
            "y": 0.4034178853034973
        },
        {
            "x": -0.1771533489227295,
            "y": 0.2570813298225403
        },
        {
            "x": -0.7054798603057861,
            "y": 0.4075848460197449
        },
        {
            "x": -1.524756908416748,
            "y": 0.6230557560920715
        }
    ],
    "triangles": [
        3,
        1,
        5,
        5,
        4,
        3,
        3,
        2,
        1,
        1,
        0,
        5
    ],
    "carDensity": 6.0,
    "suspension": 0.4809738099575043,
    "motorSpeed": 622,
    "frontDensity": 2.200000047683716,
    "frontRadius": 0.4173869788646698,
    "frontOffset": 1.432086706161499,
    "backDensity": 2.799999952316284,
    "backRadius": 0.47706905007362368,
    "backOffset": -0.8703588247299194,
    "score": 110,
    "maxDistance": 107,
    "maxTime": 31.0
}{
    "ID": 53013,
    "genomaID": "CV4TD14",
    "color": {
        "x": 0.20137444138526917,
        "y": 0.9602519273757935,
        "z": 0.924277663230896
    },
    "vertexNumber": 4,
    "colliderVertices": [
        {
            "x": -1.4465391635894776,
            "y": -0.3168235123157501
        },
        {
            "x": 1.6949360370635987,
            "y": -0.22760072350502015
        },
        {
            "x": -1.6876511573791505,
            "y": 0.0211637020111084
        },
        {
            "x": -1.8193764686584473,
            "y": 0.25667697191238406
        }
    ],
    "triangles": [
        3,
        0,
        1
    ],
    "carDensity": 4.0,
    "suspension": 0.7351831793785095,
    "motorSpeed": 724,
    "frontDensity": 4.800000190734863,
    "frontRadius": 0.6764239072799683,
    "frontOffset": 0.6312341690063477,
    "backDensity": 4.900000095367432,
    "backRadius": 0.6852060556411743,
    "backOffset": -1.4562053680419922,
    "score": -2,
    "maxDistance": -1,
    "maxTime": 1.0
}