{
    "ID": 72630,
    "genomaID": "CV5TD10",
    "color": {
        "x": 0.7764650583267212,
        "y": 0.530526340007782,
        "z": 0.06973171979188919
    },
    "vertexNumber": 5,
    "colliderVertices": [
        {
            "x": -1.0379321575164796,
            "y": -0.47907090187072756
        },
        {
            "x": 1.497690200805664,
            "y": -0.3357223570346832
        },
        {
            "x": 1.3671493530273438,
            "y": 0.6972678899765015
        },
        {
            "x": 0.8019999861717224,
            "y": 0.10677778720855713
        },
        {
            "x": -1.672663688659668,
            "y": 0.4881710410118103
        }
    ],
    "triangles": [
        1,
        4,
        3,
        3,
        2,
        1,
        1,
        0,
        4
    ],
    "carDensity": 5.0,
    "suspension": 0.9430936574935913,
    "motorSpeed": 877,
    "frontDensity": 3.200000047683716,
    "frontRadius": 0.5227445960044861,
    "frontOffset": 1.4425201416015626,
    "backDensity": 2.0999999046325685,
    "backRadius": 0.409370481967926,
    "backOffset": -1.0496145486831666,
    "score": 838,
    "maxDistance": 833,
    "maxTime": 145.0
}{
    "ID": 72785,
    "genomaID": "CV6TD10",
    "color": {
        "x": 0.819506049156189,
        "y": 0.7254945635795593,
        "z": 0.983221173286438
    },
    "vertexNumber": 6,
    "colliderVertices": [
        {
            "x": -1.6248376369476319,
            "y": -0.2727093994617462
        },
        {
            "x": 1.0578930377960206,
            "y": -0.05093777924776077
        },
        {
            "x": 0.24376845359802247,
            "y": 0.8746649026870728
        },
        {
            "x": -1.2192120552062989,
            "y": 0.6287410259246826
        },
        {
            "x": -1.3338127136230469,
            "y": 0.8404462337493897
        },
        {
            "x": -1.4086112976074219,
            "y": 0.08780252933502197
        }
    ],
    "triangles": [
        3,
        1,
        5,
        5,
        4,
        3,
        3,
        2,
        1,
        1,
        0,
        5
    ],
    "carDensity": 6.0,
    "suspension": 0.6885015368461609,
    "motorSpeed": 522,
    "frontDensity": 2.5,
    "frontRadius": 0.4491495192050934,
    "frontOffset": 1.0829344987869263,
    "backDensity": 2.200000047683716,
    "backRadius": 0.41789329051971438,
    "backOffset": -1.2704386711120606,
    "score": 110,
    "maxDistance": 107,
    "maxTime": 35.0
}{
    "ID": 72794,
    "genomaID": "CV4TD10",
    "color": {
        "x": 0.7752962112426758,
        "y": 0.9479353427886963,
        "z": 0.47951334714889529
    },
    "vertexNumber": 4,
    "colliderVertices": [
        {
            "x": -1.7239630222320557,
            "y": -0.41732650995254519
        },
        {
            "x": 1.350916862487793,
            "y": -0.0555267408490181
        },
        {
            "x": 0.5286092162132263,
            "y": 0.6183173060417175
        },
        {
            "x": 0.4724266529083252,
            "y": 0.7037391662597656
        }
    ],
    "triangles": [
        0,
        3,
        2,
        2,
        1,
        0
    ],
    "carDensity": 4.0,
    "suspension": 0.5285841226577759,
    "motorSpeed": 548,
    "frontDensity": 4.099999904632568,
    "frontRadius": 0.6106372475624085,
    "frontOffset": 0.9669309854507446,
    "backDensity": 2.4000000953674318,
    "backRadius": 0.4414224624633789,
    "backOffset": -0.948381781578064,
    "score": 0,
    "maxDistance": 0,
    "maxTime": 0.0
}