{
    "ID": 42381,
    "genomaID": "CV3TD8",
    "color": {
        "x": 0.7923214435577393,
        "y": 0.6388874650001526,
        "z": 0.06714070588350296
    },
    "vertexNumber": 3,
    "colliderVertices": [
        {
            "x": -1.3615379333496094,
            "y": -0.4060933589935303
        },
        {
            "x": 1.1465387344360352,
            "y": -0.05710852891206741
        },
        {
            "x": 1.1191892623901368,
            "y": 0.31011778116226199
        }
    ],
    "triangles": [
        1,
        0,
        2
    ],
    "carDensity": 3.0,
    "suspension": 0.9063589572906494,
    "motorSpeed": 1267,
    "frontDensity": 3.0999999046325685,
    "frontRadius": 0.5135741829872131,
    "frontOffset": 1.472862958908081,
    "backDensity": 2.0999999046325685,
    "backRadius": 0.40862369537353518,
    "backOffset": -1.307755470275879,
    "score": 842,
    "maxDistance": 834,
    "maxTime": 104.0
}{
    "ID": 42345,
    "genomaID": "CV4TD10",
    "color": {
        "x": 0.7966121435165405,
        "y": 0.7505625486373901,
        "z": 0.8146111965179443
    },
    "vertexNumber": 4,
    "colliderVertices": [
        {
            "x": -1.8634161949157715,
            "y": -0.37732940912246706
        },
        {
            "x": 1.3495454788208008,
            "y": -0.34014907479286196
        },
        {
            "x": 1.5692439079284669,
            "y": 0.623665988445282
        },
        {
            "x": -1.53271484375,
            "y": 0.17267966270446778
        }
    ],
    "triangles": [
        3,
        2,
        1,
        1,
        0,
        3
    ],
    "carDensity": 4.0,
    "suspension": 0.4930471181869507,
    "motorSpeed": 533,
    "frontDensity": 2.4000000953674318,
    "frontRadius": 0.43567776679992678,
    "frontOffset": 0.7120777368545532,
    "backDensity": 4.0,
    "backRadius": 0.5971954464912415,
    "backOffset": -1.3248924016952515,
    "score": 110,
    "maxDistance": 107,
    "maxTime": 32.0
}{
    "ID": 42395,
    "genomaID": "CV3TD9",
    "color": {
        "x": 0.8998357057571411,
        "y": 0.8908003568649292,
        "z": 0.7213954329490662
    },
    "vertexNumber": 3,
    "colliderVertices": [
        {
            "x": -1.5762269496917725,
            "y": -0.2248256504535675
        },
        {
            "x": 1.8850986957550049,
            "y": -0.29792341589927676
        },
        {
            "x": 1.7772278785705567,
            "y": 0.745925784111023
        }
    ],
    "triangles": [
        1,
        0,
        2
    ],
    "carDensity": 3.0,
    "suspension": 0.7473464608192444,
    "motorSpeed": 505,
    "frontDensity": 2.4000000953674318,
    "frontRadius": 0.4361420273780823,
    "frontOffset": 0.6456136703491211,
    "backDensity": 4.199999809265137,
    "backRadius": 0.6220249533653259,
    "backOffset": -1.3793344497680665,
    "score": 0,
    "maxDistance": 0,
    "maxTime": 0.0
}