{
    "ID": 77847,
    "genomaID": "CV3TD9",
    "color": {
        "x": 0.9835523366928101,
        "y": 0.8206956386566162,
        "z": 0.12562014162540437
    },
    "vertexNumber": 3,
    "colliderVertices": [
        {
            "x": -1.2234270572662354,
            "y": -0.1629418283700943
        },
        {
            "x": 1.0923563241958619,
            "y": -0.1905170977115631
        },
        {
            "x": 1.2327618598937989,
            "y": 0.29397624731063845
        }
    ],
    "triangles": [
        1,
        0,
        2
    ],
    "carDensity": 3.0,
    "suspension": 0.5805256366729736,
    "motorSpeed": 702,
    "frontDensity": 3.700000047683716,
    "frontRadius": 0.5685032606124878,
    "frontOffset": 1.2559336423873902,
    "backDensity": 2.200000047683716,
    "backRadius": 0.4181830585002899,
    "backOffset": -1.3910832405090333,
    "score": 838,
    "maxDistance": 833,
    "maxTime": 156.0
}{
    "ID": 77976,
    "genomaID": "CV4TD9",
    "color": {
        "x": 0.4965903162956238,
        "y": 0.4066302180290222,
        "z": 0.722085177898407
    },
    "vertexNumber": 4,
    "colliderVertices": [
        {
            "x": -1.717294454574585,
            "y": -0.27569058537483218
        },
        {
            "x": 1.9967834949493409,
            "y": -0.17174126207828523
        },
        {
            "x": -0.3149755001068115,
            "y": 0.9564908742904663
        },
        {
            "x": -0.5034916400909424,
            "y": 0.4290338158607483
        }
    ],
    "triangles": [
        3,
        2,
        1,
        1,
        0,
        3
    ],
    "carDensity": 4.0,
    "suspension": 0.691081166267395,
    "motorSpeed": 1472,
    "frontDensity": 2.700000047683716,
    "frontRadius": 0.47271889448165896,
    "frontOffset": 1.3480031490325928,
    "backDensity": 2.299999952316284,
    "backRadius": 0.4253627061843872,
    "backOffset": -1.4663541316986085,
    "score": 29,
    "maxDistance": 22,
    "maxTime": 3.0
}{
    "ID": 77973,
    "genomaID": "CV3TD10",
    "color": {
        "x": 0.3879707455635071,
        "y": 0.9005974531173706,
        "z": 0.17669905722141267
    },
    "vertexNumber": 3,
    "colliderVertices": [
        {
            "x": -1.452146053314209,
            "y": -0.4066181778907776
        },
        {
            "x": 1.303530216217041,
            "y": -0.11953122913837433
        },
        {
            "x": -1.2628908157348633,
            "y": 0.15747106075286866
        }
    ],
    "triangles": [
        1,
        0,
        2
    ],
    "carDensity": 3.0,
    "suspension": 0.7953413724899292,
    "motorSpeed": 1352,
    "frontDensity": 2.799999952316284,
    "frontRadius": 0.4778510332107544,
    "frontOffset": 1.1745984554290772,
    "backDensity": 4.199999809265137,
    "backRadius": 0.6179238557815552,
    "backOffset": -1.036753535270691,
    "score": -2,
    "maxDistance": -1,
    "maxTime": 1.0
}