{
    "ID": 54127,
    "genomaID": "CV3TD9",
    "color": {
        "x": 0.34507325291633608,
        "y": 0.416928231716156,
        "z": 0.9772810935974121
    },
    "vertexNumber": 3,
    "colliderVertices": [
        {
            "x": -1.3115241527557374,
            "y": -0.4037802219390869
        },
        {
            "x": 1.3492679595947266,
            "y": -0.19474884867668153
        },
        {
            "x": 0.8677753806114197,
            "y": 0.30533045530319216
        }
    ],
    "triangles": [
        1,
        0,
        2
    ],
    "carDensity": 3.0,
    "suspension": 0.8330919146537781,
    "motorSpeed": 1185,
    "frontDensity": 3.700000047683716,
    "frontRadius": 0.5662456154823303,
    "frontOffset": 1.1190274953842164,
    "backDensity": 2.5,
    "backRadius": 0.45194143056869509,
    "backOffset": -1.154374599456787,
    "score": 841,
    "maxDistance": 833,
    "maxTime": 101.0
}{
    "ID": 54080,
    "genomaID": "CV4TD9",
    "color": {
        "x": 0.5870503783226013,
        "y": 0.07104790955781937,
        "z": 0.577752411365509
    },
    "vertexNumber": 4,
    "colliderVertices": [
        {
            "x": -1.291778802871704,
            "y": -0.19253584742546082
        },
        {
            "x": 1.598327875137329,
            "y": -0.16386480629444123
        },
        {
            "x": 1.5871977806091309,
            "y": 0.2331622838973999
        },
        {
            "x": -1.8365964889526368,
            "y": 0.6458760499954224
        }
    ],
    "triangles": [
        3,
        2,
        1,
        1,
        0,
        3
    ],
    "carDensity": 4.0,
    "suspension": 0.7305261492729187,
    "motorSpeed": 1288,
    "frontDensity": 3.200000047683716,
    "frontRadius": 0.5157043933868408,
    "frontOffset": 1.3495376110076905,
    "backDensity": 2.200000047683716,
    "backRadius": 0.4233599305152893,
    "backOffset": -1.3273652791976929,
    "score": 24,
    "maxDistance": 18,
    "maxTime": 3.0
}{
    "ID": 54173,
    "genomaID": "CV3TD12",
    "color": {
        "x": 0.3879707455635071,
        "y": 0.9005974531173706,
        "z": 0.17669905722141267
    },
    "vertexNumber": 3,
    "colliderVertices": [
        {
            "x": -1.3910784721374512,
            "y": -0.2613823711872101
        },
        {
            "x": 1.7932239770889283,
            "y": -0.3960314989089966
        },
        {
            "x": -1.232719898223877,
            "y": 0.26378804445266726
        }
    ],
    "triangles": [
        1,
        0,
        2
    ],
    "carDensity": 3.0,
    "suspension": 0.5148121118545532,
    "motorSpeed": 1063,
    "frontDensity": 3.799999952316284,
    "frontRadius": 0.5798642635345459,
    "frontOffset": 0.8297058939933777,
    "backDensity": 4.699999809265137,
    "backRadius": 0.6741143465042114,
    "backOffset": -1.2079658508300782,
    "score": -2,
    "maxDistance": -1,
    "maxTime": 1.0
}