{
    "ID": 59465,
    "genomaID": "CV3TD9",
    "color": {
        "x": 0.9944192171096802,
        "y": 0.5381777882575989,
        "z": 0.13308598101139069
    },
    "vertexNumber": 3,
    "colliderVertices": [
        {
            "x": -1.2491888999938965,
            "y": -0.49547749757766726
        },
        {
            "x": 1.1999632120132447,
            "y": -0.13080920279026032
        },
        {
            "x": -0.8225915431976318,
            "y": 0.45162826776504519
        }
    ],
    "triangles": [
        1,
        0,
        2
    ],
    "carDensity": 3.0,
    "suspension": 0.4067835509777069,
    "motorSpeed": 1000,
    "frontDensity": 4.400000095367432,
    "frontRadius": 0.6390271186828613,
    "frontOffset": 1.0913461446762086,
    "backDensity": 2.200000047683716,
    "backRadius": 0.41934114694595339,
    "backOffset": -0.724636435508728,
    "score": 840,
    "maxDistance": 833,
    "maxTime": 107.0
}{
    "ID": 59581,
    "genomaID": "CV5TD10",
    "color": {
        "x": 0.7923214435577393,
        "y": 0.6388874650001526,
        "z": 0.06714070588350296
    },
    "vertexNumber": 5,
    "colliderVertices": [
        {
            "x": -1.5039353370666505,
            "y": -0.49577873945236208
        },
        {
            "x": 1.7326141595840455,
            "y": -0.2021215260028839
        },
        {
            "x": 1.85626220703125,
            "y": 0.8116776943206787
        },
        {
            "x": 0.8826226592063904,
            "y": 0.4034276604652405
        },
        {
            "x": 0.09178996086120606,
            "y": 0.6313965320587158
        }
    ],
    "triangles": [
        1,
        4,
        3,
        3,
        2,
        1,
        1,
        0,
        4
    ],
    "carDensity": 5.0,
    "suspension": 0.8104082345962524,
    "motorSpeed": 725,
    "frontDensity": 2.5,
    "frontRadius": 0.44862407445907595,
    "frontOffset": 1.372694730758667,
    "backDensity": 3.0999999046325685,
    "backRadius": 0.5085486173629761,
    "backOffset": -1.2760165929794312,
    "score": 48,
    "maxDistance": 44,
    "maxTime": 9.0
}{
    "ID": 59589,
    "genomaID": "CV5TD11",
    "color": {
        "x": 0.9647618532180786,
        "y": 0.31417956948280337,
        "z": 0.8723796606063843
    },
    "vertexNumber": 5,
    "colliderVertices": [
        {
            "x": -1.7018485069274903,
            "y": -0.17999638617038728
        },
        {
            "x": 1.4850997924804688,
            "y": -0.2873794734477997
        },
        {
            "x": 1.0647664070129395,
            "y": 0.28041571378707888
        },
        {
            "x": -0.04550433158874512,
            "y": 0.7949649095535278
        },
        {
            "x": -1.3995966911315919,
            "y": 0.660625696182251
        }
    ],
    "triangles": [
        1,
        4,
        3,
        3,
        2,
        1,
        1,
        0,
        4
    ],
    "carDensity": 5.0,
    "suspension": 0.70037442445755,
    "motorSpeed": 1092,
    "frontDensity": 4.5,
    "frontRadius": 0.6541860699653626,
    "frontOffset": 0.6885617971420288,
    "backDensity": 2.4000000953674318,
    "backRadius": 0.43775397539138796,
    "backOffset": -1.476836085319519,
    "score": 0,
    "maxDistance": 0,
    "maxTime": 1.0
}