{
    "ID": 47797,
    "genomaID": "CV4TD11",
    "color": {
        "x": 0.15672196447849275,
        "y": 0.8961608409881592,
        "z": 0.9475356340408325
    },
    "vertexNumber": 4,
    "colliderVertices": [
        {
            "x": -1.6409835815429688,
            "y": -0.025144759565591813
        },
        {
            "x": 1.1030160188674927,
            "y": -0.12931980192661286
        },
        {
            "x": -0.2682673931121826,
            "y": 0.049836039543151858
        },
        {
            "x": -0.30496668815612795,
            "y": 0.09801268577575684
        }
    ],
    "triangles": [
        0,
        3,
        2,
        2,
        1,
        0
    ],
    "carDensity": 4.0,
    "suspension": 0.582603931427002,
    "motorSpeed": 1209,
    "frontDensity": 3.799999952316284,
    "frontRadius": 0.5847536325454712,
    "frontOffset": 1.2158191204071046,
    "backDensity": 2.700000047683716,
    "backRadius": 0.474585622549057,
    "backOffset": -0.9434210062026978,
    "score": 842,
    "maxDistance": 834,
    "maxTime": 100.0
}{
    "ID": 47699,
    "genomaID": "CV5TD11",
    "color": {
        "x": 0.6266306042671204,
        "y": 0.6281366944313049,
        "z": 0.8323445320129395
    },
    "vertexNumber": 5,
    "colliderVertices": [
        {
            "x": -1.6766026020050049,
            "y": -0.02083289809525013
        },
        {
            "x": 1.1846551895141602,
            "y": -0.4891114830970764
        },
        {
            "x": 1.7867507934570313,
            "y": 0.23759591579437257
        },
        {
            "x": 0.8764767050743103,
            "y": 0.836522102355957
        },
        {
            "x": -0.9236185550689697,
            "y": 0.881557822227478
        }
    ],
    "triangles": [
        1,
        4,
        3,
        3,
        2,
        1,
        1,
        0,
        4
    ],
    "carDensity": 5.0,
    "suspension": 0.7745129466056824,
    "motorSpeed": 535,
    "frontDensity": 3.200000047683716,
    "frontRadius": 0.5163339972496033,
    "frontOffset": 1.046899437904358,
    "backDensity": 3.0999999046325685,
    "backRadius": 0.5103713274002075,
    "backOffset": -0.8754507303237915,
    "score": 110,
    "maxDistance": 107,
    "maxTime": 31.0
}{
    "ID": 47796,
    "genomaID": "CV5TD11",
    "color": {
        "x": 0.9384560585021973,
        "y": 0.572151243686676,
        "z": 0.6635225415229797
    },
    "vertexNumber": 5,
    "colliderVertices": [
        {
            "x": -1.919434666633606,
            "y": -0.34872159361839297
        },
        {
            "x": 1.7395175695419312,
            "y": -0.17437274754047395
        },
        {
            "x": -0.43959593772888186,
            "y": 0.009030580520629883
        },
        {
            "x": -1.1290268898010255,
            "y": 0.010864615440368653
        },
        {
            "x": -1.1760950088500977,
            "y": 0.9676333665847778
        }
    ],
    "triangles": [
        3,
        2,
        0,
        0,
        4,
        3,
        2,
        1,
        0
    ],
    "carDensity": 5.0,
    "suspension": 0.8466545343399048,
    "motorSpeed": 540,
    "frontDensity": 2.5,
    "frontRadius": 0.4502442181110382,
    "frontOffset": 1.0654553174972535,
    "backDensity": 3.5,
    "backRadius": 0.5505953431129456,
    "backOffset": -0.7195744514465332,
    "score": 0,
    "maxDistance": 0,
    "maxTime": 1.0
}