{
    "ID": 39762,
    "genomaID": "CV4TD13",
    "color": {
        "x": 0.19489112496376038,
        "y": 0.42218655347824099,
        "z": 0.01322043128311634
    },
    "vertexNumber": 4,
    "colliderVertices": [
        {
            "x": -1.2138490676879883,
            "y": -0.02839762344956398
        },
        {
            "x": 1.2575862407684327,
            "y": -0.4825131297111511
        },
        {
            "x": 0.4445526599884033,
            "y": 0.3611258864402771
        },
        {
            "x": -1.673823356628418,
            "y": 0.7818022966384888
        }
    ],
    "triangles": [
        3,
        2,
        1,
        1,
        0,
        3
    ],
    "carDensity": 4.0,
    "suspension": 0.7072438597679138,
    "motorSpeed": 876,
    "frontDensity": 4.800000190734863,
    "frontRadius": 0.6842783689498901,
    "frontOffset": 0.8590961694717407,
    "backDensity": 4.400000095367432,
    "backRadius": 0.6416545510292053,
    "backOffset": -1.499111533164978,
    "score": 840,
    "maxDistance": 832,
    "maxTime": 102.0
}{
    "ID": 39781,
    "genomaID": "CV6TD10",
    "color": {
        "x": 0.7923214435577393,
        "y": 0.6388874650001526,
        "z": 0.06714070588350296
    },
    "vertexNumber": 6,
    "colliderVertices": [
        {
            "x": -1.5263023376464844,
            "y": -0.08739668875932694
        },
        {
            "x": 1.9020572900772095,
            "y": -0.42154961824417117
        },
        {
            "x": 1.8302788734436036,
            "y": 0.396290123462677
        },
        {
            "x": 1.359349250793457,
            "y": 0.8659894466400147
        },
        {
            "x": -0.5190021991729736,
            "y": 0.3508160710334778
        },
        {
            "x": -1.326491355895996,
            "y": 0.037877559661865237
        }
    ],
    "triangles": [
        3,
        1,
        5,
        5,
        4,
        3,
        3,
        2,
        1,
        1,
        0,
        5
    ],
    "carDensity": 6.0,
    "suspension": 0.7933427691459656,
    "motorSpeed": 746,
    "frontDensity": 2.200000047683716,
    "frontRadius": 0.4190315008163452,
    "frontOffset": 0.7541256546974182,
    "backDensity": 2.0,
    "backRadius": 0.40184134244918826,
    "backOffset": -0.5508850812911987,
    "score": 50,
    "maxDistance": 46,
    "maxTime": 10.0
}{
    "ID": 39799,
    "genomaID": "CV5TD14",
    "color": {
        "x": 0.9940735101699829,
        "y": 0.9590579271316528,
        "z": 0.19860604405403138
    },
    "vertexNumber": 5,
    "colliderVertices": [
        {
            "x": -1.509551763534546,
            "y": -0.29414984583854678
        },
        {
            "x": 1.7920469045639039,
            "y": -0.444153368473053
        },
        {
            "x": 1.5658035278320313,
            "y": 0.7914921045303345
        },
        {
            "x": 1.3620591163635255,
            "y": 0.5130541920661926
        },
        {
            "x": -1.7204737663269044,
            "y": 0.9988085031509399
        }
    ],
    "triangles": [
        1,
        4,
        3,
        3,
        2,
        1,
        1,
        0,
        4
    ],
    "carDensity": 5.0,
    "suspension": 0.4037962257862091,
    "motorSpeed": 876,
    "frontDensity": 4.400000095367432,
    "frontRadius": 0.6412955522537231,
    "frontOffset": 0.5334968566894531,
    "backDensity": 4.800000190734863,
    "backRadius": 0.6764935255050659,
    "backOffset": -1.0424100160598755,
    "score": 0,
    "maxDistance": 0,
    "maxTime": 1.0
}