{
    "ID": 6003,
    "genomaID": "CV3TD9",
    "color": {
        "x": 0.5844698548316956,
        "y": 0.052113063633441928,
        "z": 0.6512853503227234
    },
    "vertexNumber": 3,
    "colliderVertices": [
        {
            "x": -1.962017297744751,
            "y": -0.26604822278022768
        },
        {
            "x": 1.3397867679595948,
            "y": -0.4222397804260254
        },
        {
            "x": -1.7122807502746583,
            "y": 0.030222654342651368
        }
    ],
    "triangles": [
        1,
        0,
        2
    ],
    "carDensity": 3.0,
    "suspension": 0.8448265790939331,
    "motorSpeed": 727,
    "frontDensity": 2.9000000953674318,
    "frontRadius": 0.4882361888885498,
    "frontOffset": 1.1058109998703004,
    "backDensity": 3.0999999046325685,
    "backRadius": 0.5073754191398621,
    "backOffset": -0.540819525718689,
    "score": 838,
    "maxDistance": 833,
    "maxTime": 153.0
}{
    "ID": 6121,
    "genomaID": "CV5TD10",
    "color": {
        "x": 0.5296991467475891,
        "y": 0.8375436067581177,
        "z": 0.9095902442932129
    },
    "vertexNumber": 5,
    "colliderVertices": [
        {
            "x": -1.3392162322998047,
            "y": -0.18885281682014466
        },
        {
            "x": 1.5533640384674073,
            "y": -0.1524365097284317
        },
        {
            "x": 0.48860669136047366,
            "y": 0.6714690923690796
        },
        {
            "x": -1.030073642730713,
            "y": 0.6709537506103516
        },
        {
            "x": -1.9136409759521485,
            "y": 0.4137718081474304
        }
    ],
    "triangles": [
        1,
        4,
        3,
        3,
        2,
        1,
        1,
        0,
        4
    ],
    "carDensity": 5.0,
    "suspension": 0.7886346578598023,
    "motorSpeed": 647,
    "frontDensity": 2.200000047683716,
    "frontRadius": 0.4242652654647827,
    "frontOffset": 1.3249194622039796,
    "backDensity": 2.5999999046325685,
    "backRadius": 0.45606571435928347,
    "backOffset": -0.8828107118606567,
    "score": 110,
    "maxDistance": 107,
    "maxTime": 30.0
}{
    "ID": 6199,
    "genomaID": "CV4TD10",
    "color": {
        "x": 0.9940735101699829,
        "y": 0.9590579271316528,
        "z": 0.19860604405403138
    },
    "vertexNumber": 4,
    "colliderVertices": [
        {
            "x": -1.467590093612671,
            "y": -0.4763539433479309
        },
        {
            "x": 1.3321082592010499,
            "y": -0.45710289478302
        },
        {
            "x": 1.5691413879394532,
            "y": 0.04779052734375
        },
        {
            "x": -1.7637596130371094,
            "y": 0.9435456991195679
        }
    ],
    "triangles": [
        3,
        2,
        1,
        1,
        0,
        3
    ],
    "carDensity": 4.0,
    "suspension": 0.9061915874481201,
    "motorSpeed": 739,
    "frontDensity": 3.5,
    "frontRadius": 0.5522831082344055,
    "frontOffset": 1.2340244054794312,
    "backDensity": 2.0999999046325685,
    "backRadius": 0.40855008363723757,
    "backOffset": -0.7687161564826965,
    "score": 0,
    "maxDistance": 0,
    "maxTime": 0.0
}