{
    "ID": 13443,
    "genomaID": "CV3TD7",
    "color": {
        "x": 0.2540118992328644,
        "y": 0.8673475980758667,
        "z": 0.4122801423072815
    },
    "vertexNumber": 3,
    "colliderVertices": [
        {
            "x": -1.3201537132263184,
            "y": -0.012657703831791878
        },
        {
            "x": 1.5133256912231446,
            "y": -0.059804148972034457
        },
        {
            "x": -0.054048776626586917,
            "y": 0.08032405376434326
        }
    ],
    "triangles": [
        1,
        0,
        2
    ],
    "carDensity": 3.0,
    "suspension": 0.9097360372543335,
    "motorSpeed": 856,
    "frontDensity": 2.4000000953674318,
    "frontRadius": 0.4440411329269409,
    "frontOffset": 0.9099262952804565,
    "backDensity": 2.4000000953674318,
    "backRadius": 0.43814629316329958,
    "backOffset": -0.7088239192962647,
    "score": 838,
    "maxDistance": 833,
    "maxTime": 146.0
}{
    "ID": 13560,
    "genomaID": "CV6TD12",
    "color": {
        "x": 0.34339073300361636,
        "y": 0.25217536091804507,
        "z": 0.680949866771698
    },
    "vertexNumber": 6,
    "colliderVertices": [
        {
            "x": -1.1311651468276978,
            "y": -0.3950064182281494
        },
        {
            "x": 1.6463700532913209,
            "y": -0.10007263720035553
        },
        {
            "x": 1.6118121147155762,
            "y": 0.6776552200317383
        },
        {
            "x": 1.4329261779785157,
            "y": 0.9126284122467041
        },
        {
            "x": -0.25462889671325686,
            "y": 0.7363700866699219
        },
        {
            "x": -1.8866634368896485,
            "y": 0.33824604749679568
        }
    ],
    "triangles": [
        3,
        1,
        5,
        5,
        4,
        3,
        3,
        2,
        1,
        1,
        0,
        5
    ],
    "carDensity": 6.0,
    "suspension": 0.9163902401924133,
    "motorSpeed": 574,
    "frontDensity": 3.0999999046325685,
    "frontRadius": 0.5112563967704773,
    "frontOffset": 1.25142502784729,
    "backDensity": 3.4000000953674318,
    "backRadius": 0.5448773503303528,
    "backOffset": -1.1927403211593629,
    "score": 107,
    "maxDistance": 103,
    "maxTime": 21.0
}{
    "ID": 13596,
    "genomaID": "CV6TD13",
    "color": {
        "x": 0.9384560585021973,
        "y": 0.572151243686676,
        "z": 0.6635225415229797
    },
    "vertexNumber": 6,
    "colliderVertices": [
        {
            "x": -1.7187645435333253,
            "y": -0.28293076157569888
        },
        {
            "x": 1.381906270980835,
            "y": -0.3428221642971039
        },
        {
            "x": 1.9010915756225587,
            "y": 0.4727169871330261
        },
        {
            "x": 1.1552848815917969,
            "y": 0.7062300443649292
        },
        {
            "x": -0.5426456928253174,
            "y": 0.0060776472091674809
        },
        {
            "x": -1.797846794128418,
            "y": 0.8399761915206909
        }
    ],
    "triangles": [
        4,
        2,
        0,
        0,
        5,
        4,
        4,
        3,
        2,
        2,
        1,
        0
    ],
    "carDensity": 6.0,
    "suspension": 0.9202293753623962,
    "motorSpeed": 1206,
    "frontDensity": 3.4000000953674318,
    "frontRadius": 0.5445644855499268,
    "frontOffset": 0.8844069242477417,
    "backDensity": 4.400000095367432,
    "backRadius": 0.6404624581336975,
    "backOffset": -1.0526732206344605,
    "score": 0,
    "maxDistance": 0,
    "maxTime": 1.0
}