{
    "ID": 87662,
    "genomaID": "CV3TD9",
    "color": {
        "x": 0.7729123830795288,
        "y": 0.6549203991889954,
        "z": 0.9844603538513184
    },
    "vertexNumber": 3,
    "colliderVertices": [
        {
            "x": -1.6792664527893067,
            "y": -0.3927086591720581
        },
        {
            "x": 1.0675997734069825,
            "y": -0.2980358898639679
        },
        {
            "x": -1.3208751678466797,
            "y": 0.003258228302001953
        }
    ],
    "triangles": [
        1,
        0,
        2
    ],
    "carDensity": 3.0,
    "suspension": 0.8022840023040772,
    "motorSpeed": 1062,
    "frontDensity": 3.799999952316284,
    "frontRadius": 0.5827556252479553,
    "frontOffset": 0.5043667554855347,
    "backDensity": 2.299999952316284,
    "backRadius": 0.42895281314849856,
    "backOffset": -1.463501214981079,
    "score": 840,
    "maxDistance": 833,
    "maxTime": 108.0
}{
    "ID": 87717,
    "genomaID": "CV5TD11",
    "color": {
        "x": 0.0035197739489376547,
        "y": 0.27181652188301089,
        "z": 0.0037561659701168539
    },
    "vertexNumber": 5,
    "colliderVertices": [
        {
            "x": -1.2648820877075196,
            "y": -0.10020776093006134
        },
        {
            "x": 1.8818774223327637,
            "y": -0.0914340689778328
        },
        {
            "x": 0.6828979849815369,
            "y": 0.9135630130767822
        },
        {
            "x": -1.487687110900879,
            "y": 0.17622339725494386
        },
        {
            "x": -1.665797233581543,
            "y": 0.13174974918365479
        }
    ],
    "triangles": [
        1,
        4,
        3,
        3,
        2,
        1,
        1,
        0,
        4
    ],
    "carDensity": 5.0,
    "suspension": 0.9468435049057007,
    "motorSpeed": 1315,
    "frontDensity": 3.0,
    "frontRadius": 0.5038273334503174,
    "frontOffset": 1.149004578590393,
    "backDensity": 2.799999952316284,
    "backRadius": 0.4771219789981842,
    "backOffset": -1.3495306968688965,
    "score": 26,
    "maxDistance": 21,
    "maxTime": 4.0
}{
    "ID": 87795,
    "genomaID": "CV6TD13",
    "color": {
        "x": 0.8998357057571411,
        "y": 0.8908003568649292,
        "z": 0.7213954329490662
    },
    "vertexNumber": 6,
    "colliderVertices": [
        {
            "x": -1.4023141860961915,
            "y": -0.1831488162279129
        },
        {
            "x": 1.7258522510528565,
            "y": -0.055576153099536899
        },
        {
            "x": 1.8850955963134766,
            "y": 0.49718838930130007
        },
        {
            "x": 1.355909824371338,
            "y": 0.1688762903213501
        },
        {
            "x": -1.1018872261047364,
            "y": 0.7174452543258667
        },
        {
            "x": -1.98423433303833,
            "y": 0.9303159713745117
        }
    ],
    "triangles": [
        4,
        3,
        1,
        1,
        5,
        4,
        3,
        2,
        1,
        1,
        0,
        5
    ],
    "carDensity": 6.0,
    "suspension": 0.48633259534835818,
    "motorSpeed": 720,
    "frontDensity": 3.0,
    "frontRadius": 0.49808093905448916,
    "frontOffset": 0.6302160024642944,
    "backDensity": 4.099999904632568,
    "backRadius": 0.6072799563407898,
    "backOffset": -1.2679214477539063,
    "score": 0,
    "maxDistance": 0,
    "maxTime": 1.0
}