{
    "ID": 40465,
    "genomaID": "CV3TD11",
    "color": {
        "x": 0.9944192171096802,
        "y": 0.5381777882575989,
        "z": 0.13308598101139069
    },
    "vertexNumber": 3,
    "colliderVertices": [
        {
            "x": -1.390207290649414,
            "y": -0.22803166508674622
        },
        {
            "x": 1.408456802368164,
            "y": -0.24166449904441834
        },
        {
            "x": 1.1269478797912598,
            "y": 0.3751010298728943
        }
    ],
    "triangles": [
        1,
        0,
        2
    ],
    "carDensity": 3.0,
    "suspension": 0.8090208172798157,
    "motorSpeed": 570,
    "frontDensity": 4.800000190734863,
    "frontRadius": 0.6780257821083069,
    "frontOffset": 1.339441180229187,
    "backDensity": 3.0,
    "backRadius": 0.4981473684310913,
    "backOffset": -1.29742431640625,
    "score": 838,
    "maxDistance": 833,
    "maxTime": 165.0
}{
    "ID": 40494,
    "genomaID": "CV4TD13",
    "color": {
        "x": 0.4431062340736389,
        "y": 0.8133289813995361,
        "z": 0.5577889084815979
    },
    "vertexNumber": 4,
    "colliderVertices": [
        {
            "x": -1.5342252254486085,
            "y": -0.20558300614356996
        },
        {
            "x": 1.6973142623901368,
            "y": -0.18269403278827668
        },
        {
            "x": -0.12762713432312013,
            "y": 0.08936762809753418
        },
        {
            "x": -1.4535999298095704,
            "y": 0.33034974336624148
        }
    ],
    "triangles": [
        0,
        3,
        2,
        2,
        1,
        0
    ],
    "carDensity": 4.0,
    "suspension": 0.5873310565948486,
    "motorSpeed": 516,
    "frontDensity": 3.9000000953674318,
    "frontRadius": 0.5917924642562866,
    "frontOffset": 1.390972375869751,
    "backDensity": 4.800000190734863,
    "backRadius": 0.6821019649505615,
    "backOffset": -1.4032691717147828,
    "score": 24,
    "maxDistance": 20,
    "maxTime": 5.0
}{
    "ID": 40550,
    "genomaID": "CV3TD9",
    "color": {
        "x": 0.060572512447834018,
        "y": 0.17979909479618073,
        "z": 0.0740131214261055
    },
    "vertexNumber": 3,
    "colliderVertices": [
        {
            "x": -1.407928705215454,
            "y": -0.4996882677078247
        },
        {
            "x": 1.4969062805175782,
            "y": -0.1824849396944046
        },
        {
            "x": -1.6722745895385743,
            "y": 0.07939410209655762
        }
    ],
    "triangles": [
        1,
        0,
        2
    ],
    "carDensity": 3.0,
    "suspension": 0.9556645750999451,
    "motorSpeed": 598,
    "frontDensity": 2.4000000953674318,
    "frontRadius": 0.4369755983352661,
    "frontOffset": 1.002113938331604,
    "backDensity": 4.400000095367432,
    "backRadius": 0.6446318030357361,
    "backOffset": -1.4708070755004883,
    "score": -2,
    "maxDistance": -1,
    "maxTime": 1.0
}