{
    "ID": 60893,
    "genomaID": "CV5TD12",
    "color": {
        "x": 0.5993987917900086,
        "y": 0.7753390073776245,
        "z": 0.4819919466972351
    },
    "vertexNumber": 5,
    "colliderVertices": [
        {
            "x": -1.7857376337051392,
            "y": -0.28790226578712466
        },
        {
            "x": 1.4160706996917725,
            "y": -0.30883607268333437
        },
        {
            "x": 1.304494857788086,
            "y": 0.37557023763656618
        },
        {
            "x": -0.580341100692749,
            "y": 0.25946515798568728
        },
        {
            "x": -1.2659707069396973,
            "y": 0.7147970199584961
        }
    ],
    "triangles": [
        3,
        2,
        0,
        0,
        4,
        3,
        2,
        1,
        0
    ],
    "carDensity": 5.0,
    "suspension": 0.5466970205307007,
    "motorSpeed": 783,
    "frontDensity": 3.799999952316284,
    "frontRadius": 0.5771965384483337,
    "frontOffset": 1.4983770847320557,
    "backDensity": 2.5999999046325685,
    "backRadius": 0.4589332938194275,
    "backOffset": -0.9127744436264038,
    "score": 838,
    "maxDistance": 833,
    "maxTime": 147.0
}{
    "ID": 60975,
    "genomaID": "CV5TD10",
    "color": {
        "x": 0.7235133051872253,
        "y": 0.4873742461204529,
        "z": 0.11970354616641998
    },
    "vertexNumber": 5,
    "colliderVertices": [
        {
            "x": -1.7815957069396973,
            "y": -0.02369028702378273
        },
        {
            "x": 1.5039663314819337,
            "y": -0.32132628560066225
        },
        {
            "x": 0.8459596037864685,
            "y": 0.6347101926803589
        },
        {
            "x": -0.21533751487731934,
            "y": 0.7892264127731323
        },
        {
            "x": -0.6853382587432861,
            "y": 0.7504090070724487
        }
    ],
    "triangles": [
        1,
        4,
        3,
        3,
        2,
        1,
        1,
        0,
        4
    ],
    "carDensity": 5.0,
    "suspension": 0.6759630441665649,
    "motorSpeed": 990,
    "frontDensity": 2.5999999046325685,
    "frontRadius": 0.4602336883544922,
    "frontOffset": 1.2612848281860352,
    "backDensity": 2.0,
    "backRadius": 0.40005937218666079,
    "backOffset": -0.5344926118850708,
    "score": 20,
    "maxDistance": 15,
    "maxTime": 3.0
}{
    "ID": 61000,
    "genomaID": "CV4TD11",
    "color": {
        "x": 0.5215955376625061,
        "y": 0.5618323683738709,
        "z": 0.9288589954376221
    },
    "vertexNumber": 4,
    "colliderVertices": [
        {
            "x": -1.2898650169372559,
            "y": -0.17340053617954255
        },
        {
            "x": 1.0101635456085206,
            "y": -0.38527554273605349
        },
        {
            "x": 0.8993834853172302,
            "y": 0.5724223256111145
        },
        {
            "x": -0.8241217136383057,
            "y": 0.950650691986084
        }
    ],
    "triangles": [
        3,
        2,
        1,
        1,
        0,
        3
    ],
    "carDensity": 4.0,
    "suspension": 0.703064501285553,
    "motorSpeed": 1416,
    "frontDensity": 3.299999952316284,
    "frontRadius": 0.5300781726837158,
    "frontOffset": 1.160810947418213,
    "backDensity": 4.199999809265137,
    "backRadius": 0.6162073612213135,
    "backOffset": -1.4829990863800049,
    "score": 0,
    "maxDistance": 0,
    "maxTime": 1.0
}