{
    "ID": 17541,
    "genomaID": "CV3TD10",
    "color": {
        "x": 0.7975248098373413,
        "y": 0.8521243333816528,
        "z": 0.5743963122367859
    },
    "vertexNumber": 3,
    "colliderVertices": [
        {
            "x": -1.2350375652313233,
            "y": -0.41404372453689577
        },
        {
            "x": 1.7492883205413819,
            "y": -0.32601198554039
        },
        {
            "x": 1.0970630645751954,
            "y": 0.37362605333328249
        }
    ],
    "triangles": [
        1,
        0,
        2
    ],
    "carDensity": 3.0,
    "suspension": 0.6986385583877564,
    "motorSpeed": 847,
    "frontDensity": 4.800000190734863,
    "frontRadius": 0.6765554547309876,
    "frontOffset": 1.4586551189422608,
    "backDensity": 2.0999999046325685,
    "backRadius": 0.4148189425468445,
    "backOffset": -0.8072876334190369,
    "score": 840,
    "maxDistance": 833,
    "maxTime": 115.0
}{
    "ID": 17526,
    "genomaID": "CV5TD11",
    "color": {
        "x": 0.8036543130874634,
        "y": 0.793694019317627,
        "z": 0.23018959164619447
    },
    "vertexNumber": 5,
    "colliderVertices": [
        {
            "x": -1.4791412353515626,
            "y": -0.2707984149456024
        },
        {
            "x": 1.5661535263061524,
            "y": -0.3764129877090454
        },
        {
            "x": 1.8159914016723633,
            "y": 0.4084731936454773
        },
        {
            "x": 0.9498752951622009,
            "y": 0.38643568754196169
        },
        {
            "x": -1.4153265953063965,
            "y": 0.47097891569137576
        }
    ],
    "triangles": [
        1,
        4,
        3,
        3,
        2,
        1,
        1,
        0,
        4
    ],
    "carDensity": 5.0,
    "suspension": 0.9122573137283325,
    "motorSpeed": 587,
    "frontDensity": 2.799999952316284,
    "frontRadius": 0.4804636240005493,
    "frontOffset": 1.2389181852340699,
    "backDensity": 2.5999999046325685,
    "backRadius": 0.46044716238975527,
    "backOffset": -1.30501127243042,
    "score": 111,
    "maxDistance": 108,
    "maxTime": 31.0
}{
    "ID": 17584,
    "genomaID": "CV5TD12",
    "color": {
        "x": 0.8737479448318481,
        "y": 0.04795611649751663,
        "z": 0.9033509492874146
    },
    "vertexNumber": 5,
    "colliderVertices": [
        {
            "x": -1.9099701642990113,
            "y": -0.2978377044200897
        },
        {
            "x": 1.8935728073120118,
            "y": -0.262160986661911
        },
        {
            "x": 1.0640430450439454,
            "y": 0.08394050598144531
        },
        {
            "x": -0.8467543125152588,
            "y": 0.2589567303657532
        },
        {
            "x": -1.342151165008545,
            "y": 0.5110525488853455
        }
    ],
    "triangles": [
        3,
        2,
        0,
        0,
        4,
        3,
        2,
        1,
        0
    ],
    "carDensity": 5.0,
    "suspension": 0.8237689137458801,
    "motorSpeed": 709,
    "frontDensity": 4.199999809265137,
    "frontRadius": 0.6228320598602295,
    "frontOffset": 0.5616258382797241,
    "backDensity": 2.799999952316284,
    "backRadius": 0.47628694772720339,
    "backOffset": -1.3524601459503174,
    "score": 0,
    "maxDistance": 0,
    "maxTime": 1.0
}