{
    "ID": 10649,
    "genomaID": "CV5TD11",
    "color": {
        "x": 0.06346309930086136,
        "y": 0.2216205894947052,
        "z": 0.3993304371833801
    },
    "vertexNumber": 5,
    "colliderVertices": [
        {
            "x": -1.9073299169540406,
            "y": -0.24091008305549622
        },
        {
            "x": 1.9852344989776612,
            "y": -0.48654669523239138
        },
        {
            "x": 1.629312515258789,
            "y": 0.004311323165893555
        },
        {
            "x": 1.1807923316955567,
            "y": 0.9594368934631348
        },
        {
            "x": -0.7781507968902588,
            "y": 0.8777689933776856
        }
    ],
    "triangles": [
        2,
        1,
        4,
        4,
        3,
        2,
        1,
        0,
        4
    ],
    "carDensity": 5.0,
    "suspension": 0.47083157300949099,
    "motorSpeed": 890,
    "frontDensity": 4.300000190734863,
    "frontRadius": 0.6302803754806519,
    "frontOffset": 1.423194169998169,
    "backDensity": 2.4000000953674318,
    "backRadius": 0.43814629316329958,
    "backOffset": -0.757576048374176,
    "score": 838,
    "maxDistance": 832,
    "maxTime": 129.0
}{
    "ID": 10736,
    "genomaID": "CV6TD12",
    "color": {
        "x": 0.9054360389709473,
        "y": 0.8720237016677856,
        "z": 0.05983436852693558
    },
    "vertexNumber": 6,
    "colliderVertices": [
        {
            "x": -1.9101152420043946,
            "y": -0.016802610829472543
        },
        {
            "x": 1.9542877674102784,
            "y": -0.46297985315322878
        },
        {
            "x": 0.38063597679138186,
            "y": 0.5826385617256165
        },
        {
            "x": 0.11462807655334473,
            "y": 0.07802474498748779
        },
        {
            "x": -1.0690183639526368,
            "y": 0.29097944498062136
        },
        {
            "x": -1.4134645462036133,
            "y": 0.5686061978340149
        }
    ],
    "triangles": [
        0,
        4,
        3,
        3,
        1,
        0,
        0,
        5,
        4,
        3,
        2,
        1
    ],
    "carDensity": 6.0,
    "suspension": 0.9617699980735779,
    "motorSpeed": 1320,
    "frontDensity": 3.700000047683716,
    "frontRadius": 0.5711695551872253,
    "frontOffset": 1.2820184230804444,
    "backDensity": 2.299999952316284,
    "backRadius": 0.4292994737625122,
    "backOffset": -1.2011768817901612,
    "score": 18,
    "maxDistance": 14,
    "maxTime": 3.0
}{
    "ID": 10664,
    "genomaID": "CV5TD11",
    "color": {
        "x": 0.8816301822662354,
        "y": 0.08485902100801468,
        "z": 0.7657746076583862
    },
    "vertexNumber": 5,
    "colliderVertices": [
        {
            "x": -1.0053904056549073,
            "y": -0.35291585326194765
        },
        {
            "x": 1.8152140378952027,
            "y": -0.3380644619464874
        },
        {
            "x": 0.8161458373069763,
            "y": 0.8526028394699097
        },
        {
            "x": 0.666047990322113,
            "y": 0.722712516784668
        },
        {
            "x": -1.22794771194458,
            "y": 0.3809430003166199
        }
    ],
    "triangles": [
        1,
        4,
        3,
        3,
        2,
        1,
        1,
        0,
        4
    ],
    "carDensity": 5.0,
    "suspension": 0.659707248210907,
    "motorSpeed": 1006,
    "frontDensity": 4.099999904632568,
    "frontRadius": 0.6148228049278259,
    "frontOffset": 0.7450487613677979,
    "backDensity": 2.0999999046325685,
    "backRadius": 0.4115540683269501,
    "backOffset": -1.1721293926239014,
    "score": -1,
    "maxDistance": -1,
    "maxTime": 3.0
}