{
    "ID": 58197,
    "genomaID": "CV6TD12",
    "color": {
        "x": 0.15672196447849275,
        "y": 0.8961608409881592,
        "z": 0.9475356340408325
    },
    "vertexNumber": 6,
    "colliderVertices": [
        {
            "x": -1.3157122135162354,
            "y": -0.25175777077674868
        },
        {
            "x": 1.5440967082977296,
            "y": -0.26941779255867007
        },
        {
            "x": 1.398651123046875,
            "y": 0.7831237316131592
        },
        {
            "x": 0.6496099829673767,
            "y": 0.3462609648704529
        },
        {
            "x": -0.575969934463501,
            "y": 0.829105019569397
        },
        {
            "x": -1.6046600341796876,
            "y": 0.10570263862609863
        }
    ],
    "triangles": [
        3,
        1,
        5,
        5,
        4,
        3,
        3,
        2,
        1,
        1,
        0,
        5
    ],
    "carDensity": 6.0,
    "suspension": 0.8258277177810669,
    "motorSpeed": 825,
    "frontDensity": 4.400000095367432,
    "frontRadius": 0.6377766132354736,
    "frontOffset": 0.6715247631072998,
    "backDensity": 2.5,
    "backRadius": 0.4459151029586792,
    "backOffset": -0.9660824537277222,
    "score": 839,
    "maxDistance": 833,
    "maxTime": 136.0
}{
    "ID": 58069,
    "genomaID": "CV4TD9",
    "color": {
        "x": 0.1729806810617447,
        "y": 0.09450186789035797,
        "z": 0.4630308747291565
    },
    "vertexNumber": 4,
    "colliderVertices": [
        {
            "x": -1.0119960308074952,
            "y": -0.08453024178743363
        },
        {
            "x": 1.1970316171646119,
            "y": -0.022441687062382699
        },
        {
            "x": 1.7230749130249024,
            "y": 0.38042181730270388
        },
        {
            "x": -0.923997163772583,
            "y": 0.873117208480835
        }
    ],
    "triangles": [
        3,
        2,
        1,
        1,
        0,
        3
    ],
    "carDensity": 4.0,
    "suspension": 0.5568146705627441,
    "motorSpeed": 603,
    "frontDensity": 2.5,
    "frontRadius": 0.44745635986328127,
    "frontOffset": 0.714983344078064,
    "backDensity": 2.9000000953674318,
    "backRadius": 0.4859548509120941,
    "backOffset": -1.3640159368515015,
    "score": 109,
    "maxDistance": 107,
    "maxTime": 39.0
}{
    "ID": 58200,
    "genomaID": "CV4TD12",
    "color": {
        "x": 0.5215955376625061,
        "y": 0.5618323683738709,
        "z": 0.9288589954376221
    },
    "vertexNumber": 4,
    "colliderVertices": [
        {
            "x": -1.9443434476852418,
            "y": -0.42551708221435549
        },
        {
            "x": 1.6061625480651856,
            "y": -0.10794080793857575
        },
        {
            "x": 0.17787718772888184,
            "y": 0.15720510482788087
        },
        {
            "x": -1.6186294555664063,
            "y": 0.1033257246017456
        }
    ],
    "triangles": [
        3,
        2,
        1,
        1,
        0,
        3
    ],
    "carDensity": 4.0,
    "suspension": 0.9191772937774658,
    "motorSpeed": 1473,
    "frontDensity": 3.700000047683716,
    "frontRadius": 0.5733750462532044,
    "frontOffset": 0.8716400861740112,
    "backDensity": 3.700000047683716,
    "backRadius": 0.5664222836494446,
    "backOffset": -0.5697921514511108,
    "score": 0,
    "maxDistance": 0,
    "maxTime": 1.0
}