{
    "ID": 66851,
    "genomaID": "CV6TD15",
    "color": {
        "x": 0.15562929213047028,
        "y": 0.5364177823066711,
        "z": 0.5983572602272034
    },
    "vertexNumber": 6,
    "colliderVertices": [
        {
            "x": -1.5859341621398926,
            "y": -0.22008302807807923
        },
        {
            "x": 1.8867995738983155,
            "y": -0.36162713170051577
        },
        {
            "x": 0.15598034858703614,
            "y": 0.2634614109992981
        },
        {
            "x": 0.0812070369720459,
            "y": 0.24120771884918214
        },
        {
            "x": -0.3062093257904053,
            "y": 0.7856324911117554
        },
        {
            "x": -0.9133765697479248,
            "y": 0.8223246335983276
        }
    ],
    "triangles": [
        0,
        5,
        3,
        3,
        1,
        0,
        5,
        4,
        3,
        3,
        2,
        1
    ],
    "carDensity": 6.0,
    "suspension": 0.4538125693798065,
    "motorSpeed": 571,
    "frontDensity": 4.900000095367432,
    "frontRadius": 0.6869330406188965,
    "frontOffset": 1.1209465265274048,
    "backDensity": 3.799999952316284,
    "backRadius": 0.5834110975265503,
    "backOffset": -1.2300790548324586,
    "score": 838,
    "maxDistance": 833,
    "maxTime": 159.0
}{
    "ID": 66929,
    "genomaID": "CV6TD12",
    "color": {
        "x": 0.6530440449714661,
        "y": 0.9044967889785767,
        "z": 0.6782868504524231
    },
    "vertexNumber": 6,
    "colliderVertices": [
        {
            "x": -1.3304781913757325,
            "y": -0.18409664928913117
        },
        {
            "x": 1.970350980758667,
            "y": -0.45185452699661257
        },
        {
            "x": 1.357367992401123,
            "y": 0.45423656702041628
        },
        {
            "x": 0.1600968837738037,
            "y": 0.6105281710624695
        },
        {
            "x": -0.918175458908081,
            "y": 0.7092177867889404
        },
        {
            "x": -1.8275260925292969,
            "y": 0.19993913173675538
        }
    ],
    "triangles": [
        3,
        1,
        5,
        5,
        4,
        3,
        3,
        2,
        1,
        1,
        0,
        5
    ],
    "carDensity": 6.0,
    "suspension": 0.6178393959999085,
    "motorSpeed": 537,
    "frontDensity": 3.0,
    "frontRadius": 0.49623745679855349,
    "frontOffset": 0.6333054304122925,
    "backDensity": 3.0,
    "backRadius": 0.5044510364532471,
    "backOffset": -1.1954290866851807,
    "score": 110,
    "maxDistance": 107,
    "maxTime": 31.0
}{
    "ID": 66994,
    "genomaID": "CV3TD9",
    "color": {
        "x": 0.7752962112426758,
        "y": 0.9479353427886963,
        "z": 0.47951334714889529
    },
    "vertexNumber": 3,
    "colliderVertices": [
        {
            "x": -1.2184364795684815,
            "y": -0.4043413996696472
        },
        {
            "x": 1.1397520303726197,
            "y": -0.002612829441204667
        },
        {
            "x": -0.2733781337738037,
            "y": 0.007161736488342285
        }
    ],
    "triangles": [
        1,
        0,
        2
    ],
    "carDensity": 3.0,
    "suspension": 0.6120456457138062,
    "motorSpeed": 551,
    "frontDensity": 4.099999904632568,
    "frontRadius": 0.6072083711624146,
    "frontOffset": 0.9456189870834351,
    "backDensity": 2.5,
    "backRadius": 0.4535578489303589,
    "backOffset": -1.251122236251831,
    "score": 0,
    "maxDistance": 0,
    "maxTime": 0.0
}