{
    "ID": 6421,
    "genomaID": "CV3TD9",
    "color": {
        "x": 0.31335368752479555,
        "y": 0.19815567135810853,
        "z": 0.5050206780433655
    },
    "vertexNumber": 3,
    "colliderVertices": [
        {
            "x": -1.1863477230072022,
            "y": -0.44585156440734866
        },
        {
            "x": 1.3402459621429444,
            "y": -0.2951335608959198
        },
        {
            "x": -0.7966320514678955,
            "y": 0.23655104637145997
        }
    ],
    "triangles": [
        1,
        0,
        2
    ],
    "carDensity": 3.0,
    "suspension": 0.7478541135787964,
    "motorSpeed": 1051,
    "frontDensity": 3.799999952316284,
    "frontRadius": 0.5794098973274231,
    "frontOffset": 1.4794410467147828,
    "backDensity": 2.5,
    "backRadius": 0.4492712914943695,
    "backOffset": -1.430712103843689,
    "score": 841,
    "maxDistance": 834,
    "maxTime": 107.0
}{
    "ID": 6467,
    "genomaID": "CV6TD12",
    "color": {
        "x": 0.9468283653259277,
        "y": 0.8337873220443726,
        "z": 0.18291200697422028
    },
    "vertexNumber": 6,
    "colliderVertices": [
        {
            "x": -1.6044213771820069,
            "y": -0.23977431654930116
        },
        {
            "x": 1.3061797618865967,
            "y": -0.20462778210639954
        },
        {
            "x": 1.9847021102905274,
            "y": 0.5903603434562683
        },
        {
            "x": 1.4567170143127442,
            "y": 0.974629282951355
        },
        {
            "x": 0.522368848323822,
            "y": 0.012129426002502442
        },
        {
            "x": -0.7173206806182861,
            "y": 0.0015070438385009766
        }
    ],
    "triangles": [
        4,
        3,
        1,
        1,
        5,
        4,
        3,
        2,
        1,
        1,
        0,
        5
    ],
    "carDensity": 6.0,
    "suspension": 0.6209375262260437,
    "motorSpeed": 599,
    "frontDensity": 3.0999999046325685,
    "frontRadius": 0.5144401788711548,
    "frontOffset": 1.4948227405548096,
    "backDensity": 3.4000000953674318,
    "backRadius": 0.5399868488311768,
    "backOffset": -0.7467610836029053,
    "score": 52,
    "maxDistance": 48,
    "maxTime": 10.0
}{
    "ID": 6589,
    "genomaID": "CV6TD14",
    "color": {
        "x": 0.9647618532180786,
        "y": 0.31417956948280337,
        "z": 0.8723796606063843
    },
    "vertexNumber": 6,
    "colliderVertices": [
        {
            "x": -1.904547929763794,
            "y": -0.4737396836280823
        },
        {
            "x": 1.593156099319458,
            "y": -0.11992694437503815
        },
        {
            "x": 1.4652700424194337,
            "y": 0.4057512879371643
        },
        {
            "x": -0.9237048625946045,
            "y": 0.5314872860908508
        },
        {
            "x": -1.3131771087646485,
            "y": 0.08603310585021973
        },
        {
            "x": -1.40317964553833,
            "y": 0.9656052589416504
        }
    ],
    "triangles": [
        4,
        2,
        0,
        0,
        5,
        4,
        4,
        3,
        2,
        2,
        1,
        0
    ],
    "carDensity": 6.0,
    "suspension": 0.4385419189929962,
    "motorSpeed": 757,
    "frontDensity": 3.299999952316284,
    "frontRadius": 0.5307079553604126,
    "frontOffset": 0.5494320392608643,
    "backDensity": 4.699999809265137,
    "backRadius": 0.6699814200401306,
    "backOffset": -1.132727861404419,
    "score": 0,
    "maxDistance": 0,
    "maxTime": 1.0
}