{
    "ID": 68896,
    "genomaID": "CV3TD10",
    "color": {
        "x": 0.5704224705696106,
        "y": 0.6996987462043762,
        "z": 0.3751198649406433
    },
    "vertexNumber": 3,
    "colliderVertices": [
        {
            "x": -1.0328807830810547,
            "y": -0.03555918112397194
        },
        {
            "x": 1.2427247762680054,
            "y": -0.4428771138191223
        },
        {
            "x": 0.30013298988342287,
            "y": 0.6609007120132446
        }
    ],
    "triangles": [
        1,
        0,
        2
    ],
    "carDensity": 3.0,
    "suspension": 0.8810492753982544,
    "motorSpeed": 1043,
    "frontDensity": 4.199999809265137,
    "frontRadius": 0.6205833554267883,
    "frontOffset": 1.1198495626449586,
    "backDensity": 2.700000047683716,
    "backRadius": 0.4725218415260315,
    "backOffset": -1.3633078336715699,
    "score": 842,
    "maxDistance": 834,
    "maxTime": 104.0
}{
    "ID": 68977,
    "genomaID": "CV5TD12",
    "color": {
        "x": 0.3432641327381134,
        "y": 0.7636579275131226,
        "z": 0.986485481262207
    },
    "vertexNumber": 5,
    "colliderVertices": [
        {
            "x": -1.04770028591156,
            "y": -0.15281565487384797
        },
        {
            "x": 1.8778533935546876,
            "y": -0.4463886022567749
        },
        {
            "x": 1.2727985382080079,
            "y": 0.625541090965271
        },
        {
            "x": 0.25347256660461428,
            "y": 0.31364399194717409
        },
        {
            "x": -1.414834976196289,
            "y": 0.2854779362678528
        }
    ],
    "triangles": [
        1,
        4,
        3,
        3,
        2,
        1,
        1,
        0,
        4
    ],
    "carDensity": 5.0,
    "suspension": 0.6061699986457825,
    "motorSpeed": 1137,
    "frontDensity": 3.700000047683716,
    "frontRadius": 0.5654196739196777,
    "frontOffset": 1.486737608909607,
    "backDensity": 2.9000000953674318,
    "backRadius": 0.48767951130867007,
    "backOffset": -1.4975593090057374,
    "score": 21,
    "maxDistance": 16,
    "maxTime": 3.0
}{
    "ID": 68999,
    "genomaID": "CV6TD13",
    "color": {
        "x": 0.9940735101699829,
        "y": 0.9590579271316528,
        "z": 0.19860604405403138
    },
    "vertexNumber": 6,
    "colliderVertices": [
        {
            "x": -1.8729498386383057,
            "y": -0.16772766411304475
        },
        {
            "x": 1.5197458267211915,
            "y": -0.27026841044425967
        },
        {
            "x": 1.2495183944702149,
            "y": 0.8021113872528076
        },
        {
            "x": 0.8564791083335877,
            "y": 0.5585371851921082
        },
        {
            "x": -0.6220605373382568,
            "y": 0.6124388575553894
        },
        {
            "x": -0.7821943759918213,
            "y": 0.7097443342208862
        }
    ],
    "triangles": [
        0,
        4,
        3,
        3,
        1,
        0,
        0,
        5,
        4,
        3,
        2,
        1
    ],
    "carDensity": 6.0,
    "suspension": 0.7508354783058167,
    "motorSpeed": 625,
    "frontDensity": 4.900000095367432,
    "frontRadius": 0.6867316961288452,
    "frontOffset": 1.3753085136413575,
    "backDensity": 2.200000047683716,
    "backRadius": 0.42083102464675906,
    "backOffset": -0.8399003744125366,
    "score": 0,
    "maxDistance": 0,
    "maxTime": 0.0
}