{
    "ID": 80509,
    "genomaID": "CV5TD11",
    "color": {
        "x": 0.655386745929718,
        "y": 0.1359734684228897,
        "z": 0.7639102935791016
    },
    "vertexNumber": 5,
    "colliderVertices": [
        {
            "x": -1.9398090839385987,
            "y": -0.3870823383331299
        },
        {
            "x": 1.5631601810455323,
            "y": -0.28597787022590639
        },
        {
            "x": 1.5906519889831544,
            "y": 0.6075997948646545
        },
        {
            "x": 0.014620065689086914,
            "y": 0.6109828352928162
        },
        {
            "x": -1.584874153137207,
            "y": 0.9474208354949951
        }
    ],
    "triangles": [
        1,
        4,
        3,
        3,
        2,
        1,
        1,
        0,
        4
    ],
    "carDensity": 5.0,
    "suspension": 0.7712507247924805,
    "motorSpeed": 946,
    "frontDensity": 4.400000095367432,
    "frontRadius": 0.6430180072784424,
    "frontOffset": 0.9742599725723267,
    "backDensity": 2.0,
    "backRadius": 0.4039577841758728,
    "backOffset": -0.567650556564331,
    "score": 839,
    "maxDistance": 833,
    "maxTime": 137.0
}{
    "ID": 80492,
    "genomaID": "CV5TD12",
    "color": {
        "x": 0.2562396824359894,
        "y": 0.5361202359199524,
        "z": 0.34479406476020815
    },
    "vertexNumber": 5,
    "colliderVertices": [
        {
            "x": -1.9403434991836548,
            "y": -0.3208915889263153
        },
        {
            "x": 1.5700948238372803,
            "y": -0.294283002614975
        },
        {
            "x": 1.7600750923156739,
            "y": 0.9450445175170898
        },
        {
            "x": 0.13777565956115724,
            "y": 0.5743390917778015
        },
        {
            "x": -0.7185332775115967,
            "y": 0.0416262149810791
        }
    ],
    "triangles": [
        1,
        4,
        3,
        3,
        2,
        1,
        1,
        0,
        4
    ],
    "carDensity": 5.0,
    "suspension": 0.5351777672767639,
    "motorSpeed": 600,
    "frontDensity": 4.400000095367432,
    "frontRadius": 0.6390570998191834,
    "frontOffset": 1.2160513401031495,
    "backDensity": 3.200000047683716,
    "backRadius": 0.5157251358032227,
    "backOffset": -0.8008010983467102,
    "score": 56,
    "maxDistance": 51,
    "maxTime": 9.0
}{
    "ID": 80595,
    "genomaID": "CV4TD11",
    "color": {
        "x": 0.8998357057571411,
        "y": 0.8908003568649292,
        "z": 0.7213954329490662
    },
    "vertexNumber": 4,
    "colliderVertices": [
        {
            "x": -1.3063814640045167,
            "y": -0.23951831459999085
        },
        {
            "x": 1.223695993423462,
            "y": -0.396003782749176
        },
        {
            "x": 0.3872716426849365,
            "y": 0.37833231687545779
        },
        {
            "x": -0.44664454460144045,
            "y": 0.751987099647522
        }
    ],
    "triangles": [
        3,
        2,
        1,
        1,
        0,
        3
    ],
    "carDensity": 4.0,
    "suspension": 0.6002076864242554,
    "motorSpeed": 1346,
    "frontDensity": 4.5,
    "frontRadius": 0.6483857035636902,
    "frontOffset": 1.476041555404663,
    "backDensity": 2.700000047683716,
    "backRadius": 0.46810901165008547,
    "backOffset": -1.067560076713562,
    "score": 0,
    "maxDistance": 0,
    "maxTime": 1.0
}