{
    "ID": 28005,
    "genomaID": "CV5TD12",
    "color": {
        "x": 0.8478690385818481,
        "y": 0.9933429956436157,
        "z": 0.9804973602294922
    },
    "vertexNumber": 5,
    "colliderVertices": [
        {
            "x": -1.181496500968933,
            "y": -0.2896808087825775
        },
        {
            "x": 1.6616051197052003,
            "y": -0.3539065420627594
        },
        {
            "x": 0.5832361578941345,
            "y": 0.4385374188423157
        },
        {
            "x": 0.43605828285217287,
            "y": 0.004230618476867676
        },
        {
            "x": 0.1038520336151123,
            "y": 0.21200382709503175
        }
    ],
    "triangles": [
        3,
        1,
        0,
        0,
        4,
        3,
        3,
        2,
        1
    ],
    "carDensity": 5.0,
    "suspension": 0.4890424907207489,
    "motorSpeed": 642,
    "frontDensity": 4.300000190734863,
    "frontRadius": 0.6346443891525269,
    "frontOffset": 1.154929518699646,
    "backDensity": 2.700000047683716,
    "backRadius": 0.4715283513069153,
    "backOffset": -1.4759914875030518,
    "score": 839,
    "maxDistance": 834,
    "maxTime": 154.0
}{
    "ID": 28056,
    "genomaID": "CV5TD10",
    "color": {
        "x": 0.7674797773361206,
        "y": 0.27107957005500796,
        "z": 0.8932945728302002
    },
    "vertexNumber": 5,
    "colliderVertices": [
        {
            "x": -1.9561333656311036,
            "y": -0.40825146436691286
        },
        {
            "x": 1.5012640953063965,
            "y": -0.45946627855300906
        },
        {
            "x": 1.659097671508789,
            "y": 0.731848955154419
        },
        {
            "x": -1.563760757446289,
            "y": 0.6468443870544434
        },
        {
            "x": -1.7022571563720704,
            "y": 0.3010790944099426
        }
    ],
    "triangles": [
        1,
        4,
        3,
        3,
        2,
        1,
        1,
        0,
        4
    ],
    "carDensity": 5.0,
    "suspension": 0.8259132504463196,
    "motorSpeed": 639,
    "frontDensity": 2.0999999046325685,
    "frontRadius": 0.407279372215271,
    "frontOffset": 1.1498886346817017,
    "backDensity": 3.299999952316284,
    "backRadius": 0.5308586955070496,
    "backOffset": -1.2770392894744874,
    "score": 105,
    "maxDistance": 100,
    "maxTime": 20.0
}{
    "ID": 28199,
    "genomaID": "CV3TD9",
    "color": {
        "x": 0.9940735101699829,
        "y": 0.9590579271316528,
        "z": 0.19860604405403138
    },
    "vertexNumber": 3,
    "colliderVertices": [
        {
            "x": -1.4665966033935547,
            "y": -0.09237337857484818
        },
        {
            "x": 1.8365229368209839,
            "y": -0.40391087532043459
        },
        {
            "x": 0.5364755988121033,
            "y": 0.46398812532424929
        }
    ],
    "triangles": [
        1,
        0,
        2
    ],
    "carDensity": 3.0,
    "suspension": 0.8120438456535339,
    "motorSpeed": 757,
    "frontDensity": 2.4000000953674318,
    "frontRadius": 0.43731606006622317,
    "frontOffset": 1.0244797468185425,
    "backDensity": 4.199999809265137,
    "backRadius": 0.6174027919769287,
    "backOffset": -1.429854393005371,
    "score": 0,
    "maxDistance": 0,
    "maxTime": 1.0
}