{
    "ID": 35551,
    "genomaID": "CV6TD11",
    "color": {
        "x": 0.8238571882247925,
        "y": 0.0679624155163765,
        "z": 0.5267165303230286
    },
    "vertexNumber": 6,
    "colliderVertices": [
        {
            "x": -1.2960717678070069,
            "y": -0.3041049540042877
        },
        {
            "x": 1.7574615478515626,
            "y": -0.24540123343467713
        },
        {
            "x": 0.18583941459655763,
            "y": 0.015384674072265625
        },
        {
            "x": -0.22852826118469239,
            "y": 0.41738778352737429
        },
        {
            "x": -1.3364009857177735,
            "y": 0.9118880033493042
        },
        {
            "x": -1.9367451667785645,
            "y": 0.02708601951599121
        }
    ],
    "triangles": [
        5,
        4,
        2,
        2,
        1,
        5,
        4,
        3,
        2,
        1,
        0,
        5
    ],
    "carDensity": 6.0,
    "suspension": 0.6634050011634827,
    "motorSpeed": 1014,
    "frontDensity": 3.200000047683716,
    "frontRadius": 0.5184363126754761,
    "frontOffset": 1.20760178565979,
    "backDensity": 2.299999952316284,
    "backRadius": 0.433561772108078,
    "backOffset": -0.5008671283721924,
    "score": 619,
    "maxDistance": 613,
    "maxTime": 92.0
}{
    "ID": 35592,
    "genomaID": "CV4TD8",
    "color": {
        "x": 0.22602656483650208,
        "y": 0.3610272705554962,
        "z": 0.9402545690536499
    },
    "vertexNumber": 4,
    "colliderVertices": [
        {
            "x": -1.8091387748718262,
            "y": -0.32216402888298037
        },
        {
            "x": 1.7858577966690064,
            "y": -0.45905447006225588
        },
        {
            "x": 1.9420766830444337,
            "y": 0.7170742750167847
        },
        {
            "x": -1.3182506561279297,
            "y": 0.9886703491210938
        }
    ],
    "triangles": [
        3,
        2,
        1,
        1,
        0,
        3
    ],
    "carDensity": 4.0,
    "suspension": 0.5226761698722839,
    "motorSpeed": 674,
    "frontDensity": 2.0999999046325685,
    "frontRadius": 0.4148632884025574,
    "frontOffset": 1.4524421691894532,
    "backDensity": 2.0999999046325685,
    "backRadius": 0.4065503478050232,
    "backOffset": -1.2860949039459229,
    "score": 110,
    "maxDistance": 107,
    "maxTime": 31.0
}{
    "ID": 35599,
    "genomaID": "CV6TD13",
    "color": {
        "x": 0.9940735101699829,
        "y": 0.9590579271316528,
        "z": 0.19860604405403138
    },
    "vertexNumber": 6,
    "colliderVertices": [
        {
            "x": -1.428074836730957,
            "y": -0.2884732186794281
        },
        {
            "x": 1.1145943403244019,
            "y": -0.36502066254615786
        },
        {
            "x": 1.9025602340698243,
            "y": 0.15004849433898927
        },
        {
            "x": 1.1791882514953614,
            "y": 0.44069451093673708
        },
        {
            "x": 0.8492044806480408,
            "y": 0.46897560358047488
        },
        {
            "x": -0.8143951892852783,
            "y": 0.2828372120857239
        }
    ],
    "triangles": [
        3,
        1,
        5,
        5,
        4,
        3,
        3,
        2,
        1,
        1,
        0,
        5
    ],
    "carDensity": 6.0,
    "suspension": 0.510980486869812,
    "motorSpeed": 527,
    "frontDensity": 3.799999952316284,
    "frontRadius": 0.5822558999061585,
    "frontOffset": 0.7134588956832886,
    "backDensity": 2.9000000953674318,
    "backRadius": 0.4912579655647278,
    "backOffset": -0.7946557402610779,
    "score": 0,
    "maxDistance": 0,
    "maxTime": 0.0
}