{
    "ID": 44809,
    "genomaID": "CV3TD9",
    "color": {
        "x": 0.2144545614719391,
        "y": 0.2746181786060333,
        "z": 0.4705435633659363
    },
    "vertexNumber": 3,
    "colliderVertices": [
        {
            "x": -1.205005168914795,
            "y": -0.028272811323404313
        },
        {
            "x": 1.5686149597167969,
            "y": -0.14770551025867463
        },
        {
            "x": 1.6755590438842774,
            "y": 0.04184854030609131
        }
    ],
    "triangles": [
        1,
        0,
        2
    ],
    "carDensity": 3.0,
    "suspension": 0.9214473962783814,
    "motorSpeed": 696,
    "frontDensity": 3.200000047683716,
    "frontRadius": 0.521885097026825,
    "frontOffset": 1.2373943328857422,
    "backDensity": 3.299999952316284,
    "backRadius": 0.5256167650222778,
    "backOffset": -0.8055430054664612,
    "score": 838,
    "maxDistance": 833,
    "maxTime": 153.0
}{
    "ID": 44958,
    "genomaID": "CV4TD8",
    "color": {
        "x": 0.6218525767326355,
        "y": 0.5183783173561096,
        "z": 0.7621996402740479
    },
    "vertexNumber": 4,
    "colliderVertices": [
        {
            "x": -1.9405181407928467,
            "y": -0.36947187781333926
        },
        {
            "x": 1.5536901950836182,
            "y": -0.12454797327518463
        },
        {
            "x": -0.8259408473968506,
            "y": 0.8238580226898193
        },
        {
            "x": -1.1816620826721192,
            "y": 0.5933865904808044
        }
    ],
    "triangles": [
        3,
        2,
        1,
        1,
        0,
        3
    ],
    "carDensity": 4.0,
    "suspension": 0.4269137978553772,
    "motorSpeed": 690,
    "frontDensity": 2.4000000953674318,
    "frontRadius": 0.4358777403831482,
    "frontOffset": 1.1628365516662598,
    "backDensity": 2.200000047683716,
    "backRadius": 0.42445504665374758,
    "backOffset": -0.8076303601264954,
    "score": 109,
    "maxDistance": 106,
    "maxTime": 32.0
}{
    "ID": 44999,
    "genomaID": "CV6TD13",
    "color": {
        "x": 0.9940735101699829,
        "y": 0.9590579271316528,
        "z": 0.19860604405403138
    },
    "vertexNumber": 6,
    "colliderVertices": [
        {
            "x": -1.0495474338531495,
            "y": -0.47058558464050295
        },
        {
            "x": 1.0863327980041505,
            "y": -0.49391233921051028
        },
        {
            "x": 1.3824286460876465,
            "y": 0.31628328561782839
        },
        {
            "x": -0.5567867755889893,
            "y": 0.500522792339325
        },
        {
            "x": -1.3600883483886719,
            "y": 0.3525579571723938
        },
        {
            "x": -1.6274890899658204,
            "y": 0.7968685626983643
        }
    ],
    "triangles": [
        4,
        2,
        0,
        0,
        5,
        4,
        4,
        3,
        2,
        2,
        1,
        0
    ],
    "carDensity": 6.0,
    "suspension": 0.6824225187301636,
    "motorSpeed": 722,
    "frontDensity": 3.0999999046325685,
    "frontRadius": 0.507804274559021,
    "frontOffset": 1.4499356746673585,
    "backDensity": 4.0,
    "backRadius": 0.5967550873756409,
    "backOffset": -0.6116338968276978,
    "score": 0,
    "maxDistance": 0,
    "maxTime": 1.0
}