{
    "ID": 87286,
    "genomaID": "CV4TD10",
    "color": {
        "x": 0.9700497388839722,
        "y": 0.5540516972541809,
        "z": 0.9125975370407105
    },
    "vertexNumber": 4,
    "colliderVertices": [
        {
            "x": -1.2371165752410889,
            "y": -0.10145308077335358
        },
        {
            "x": 1.0853891372680665,
            "y": -0.032417718321084979
        },
        {
            "x": 0.23810124397277833,
            "y": 0.11773073673248291
        },
        {
            "x": -0.8954174518585205,
            "y": 0.33791035413742068
        }
    ],
    "triangles": [
        0,
        3,
        2,
        2,
        1,
        0
    ],
    "carDensity": 4.0,
    "suspension": 0.9393661022186279,
    "motorSpeed": 1062,
    "frontDensity": 3.799999952316284,
    "frontRadius": 0.5827556252479553,
    "frontOffset": 0.5043667554855347,
    "backDensity": 2.200000047683716,
    "backRadius": 0.4219244718551636,
    "backOffset": -1.463501214981079,
    "score": 841,
    "maxDistance": 834,
    "maxTime": 108.0
}{
    "ID": 87337,
    "genomaID": "CV5TD11",
    "color": {
        "x": 0.6247989535331726,
        "y": 0.2805894911289215,
        "z": 0.004084229934960604
    },
    "vertexNumber": 5,
    "colliderVertices": [
        {
            "x": -1.0891926288604737,
            "y": -0.45378202199935915
        },
        {
            "x": 1.9007132053375245,
            "y": -0.34724941849708559
        },
        {
            "x": 1.3421645164489747,
            "y": 0.5377334952354431
        },
        {
            "x": -1.7835302352905274,
            "y": 0.9337950944900513
        },
        {
            "x": -1.8504242897033692,
            "y": 0.4825757145881653
        }
    ],
    "triangles": [
        1,
        4,
        3,
        3,
        2,
        1,
        1,
        0,
        4
    ],
    "carDensity": 5.0,
    "suspension": 0.4253920912742615,
    "motorSpeed": 525,
    "frontDensity": 3.5999999046325685,
    "frontRadius": 0.5566108226776123,
    "frontOffset": 0.5508453845977783,
    "backDensity": 2.200000047683716,
    "backRadius": 0.4242004156112671,
    "backOffset": -1.435981035232544,
    "score": 110,
    "maxDistance": 107,
    "maxTime": 32.0
}{
    "ID": 87260,
    "genomaID": "CV4TD11",
    "color": {
        "x": 0.955747127532959,
        "y": 0.5249026417732239,
        "z": 0.946269154548645
    },
    "vertexNumber": 4,
    "colliderVertices": [
        {
            "x": -1.335745096206665,
            "y": -0.20121118426322938
        },
        {
            "x": 1.299776554107666,
            "y": -0.02016383595764637
        },
        {
            "x": 1.3705453872680665,
            "y": 0.1951611042022705
        },
        {
            "x": 1.2766752243041993,
            "y": 0.13693654537200929
        }
    ],
    "triangles": [
        3,
        2,
        1,
        1,
        0,
        3
    ],
    "carDensity": 4.0,
    "suspension": 0.6015990972518921,
    "motorSpeed": 525,
    "frontDensity": 4.800000190734863,
    "frontRadius": 0.6842948198318481,
    "frontOffset": 0.5508453845977783,
    "backDensity": 2.200000047683716,
    "backRadius": 0.4242004156112671,
    "backOffset": -0.9374858140945435,
    "score": -3,
    "maxDistance": -2,
    "maxTime": 2.0
}