{
    "ID": 56295,
    "genomaID": "CV3TD11",
    "color": {
        "x": 0.7950618267059326,
        "y": 0.5954403281211853,
        "z": 0.21345928311347962
    },
    "vertexNumber": 3,
    "colliderVertices": [
        {
            "x": -1.2776930332183838,
            "y": -0.1763438731431961
        },
        {
            "x": 1.1391469240188599,
            "y": -0.4679022431373596
        },
        {
            "x": -1.1477570533752442,
            "y": 0.1525435447692871
        }
    ],
    "triangles": [
        1,
        0,
        2
    ],
    "carDensity": 3.0,
    "suspension": 0.6031192541122437,
    "motorSpeed": 893,
    "frontDensity": 4.699999809265137,
    "frontRadius": 0.6712390184402466,
    "frontOffset": 1.479621410369873,
    "backDensity": 2.9000000953674318,
    "backRadius": 0.4859548509120941,
    "backOffset": -1.2647294998168946,
    "score": 841,
    "maxDistance": 834,
    "maxTime": 110.0
}{
    "ID": 56330,
    "genomaID": "CV6TD10",
    "color": {
        "x": 0.07822931557893753,
        "y": 0.23043778538703919,
        "z": 0.42850440740585329
    },
    "vertexNumber": 6,
    "colliderVertices": [
        {
            "x": -1.7727094888687134,
            "y": -0.2218228280544281
        },
        {
            "x": 1.1412017345428467,
            "y": -0.48139649629592898
        },
        {
            "x": 1.6635594367980958,
            "y": 0.7973692417144775
        },
        {
            "x": 1.635164737701416,
            "y": 0.7049400806427002
        },
        {
            "x": 0.45249485969543459,
            "y": 0.6056119799613953
        },
        {
            "x": -0.8548057079315186,
            "y": 0.9529235363006592
        }
    ],
    "triangles": [
        5,
        0,
        1,
        4,
        5,
        1,
        3,
        4,
        1
    ],
    "carDensity": 6.0,
    "suspension": 0.8364764451980591,
    "motorSpeed": 758,
    "frontDensity": 2.200000047683716,
    "frontRadius": 0.4162917733192444,
    "frontOffset": 1.2112458944320679,
    "backDensity": 2.4000000953674318,
    "backRadius": 0.44408363103866579,
    "backOffset": -1.3073033094406129,
    "score": 108,
    "maxDistance": 103,
    "maxTime": 20.0
}{
    "ID": 56390,
    "genomaID": "CV6TD11",
    "color": {
        "x": 0.1991659700870514,
        "y": 0.9097517728805542,
        "z": 0.7071341872215271
    },
    "vertexNumber": 6,
    "colliderVertices": [
        {
            "x": -1.5489952564239503,
            "y": -0.40765923261642458
        },
        {
            "x": 1.8884927034378052,
            "y": -0.4002581834793091
        },
        {
            "x": 0.8889274001121521,
            "y": 0.20571482181549073
        },
        {
            "x": 0.6051811575889587,
            "y": 0.9009467363357544
        },
        {
            "x": 0.38478970527648928,
            "y": 0.3189215064048767
        },
        {
            "x": -0.37726283073425295,
            "y": 0.24922096729278565
        }
    ],
    "triangles": [
        4,
        2,
        1,
        1,
        5,
        4,
        4,
        3,
        2,
        1,
        0,
        5
    ],
    "carDensity": 6.0,
    "suspension": 0.848007321357727,
    "motorSpeed": 1366,
    "frontDensity": 2.799999952316284,
    "frontRadius": 0.477097749710083,
    "frontOffset": 0.5067112445831299,
    "backDensity": 2.299999952316284,
    "backRadius": 0.42918509244918826,
    "backOffset": -0.8785806894302368,
    "score": 0,
    "maxDistance": 0,
    "maxTime": 2.0
}