{
    "ID": 10017,
    "genomaID": "CV3TD8",
    "color": {
        "x": 0.6515150666236877,
        "y": 0.49562376737594607,
        "z": 0.21108368039131165
    },
    "vertexNumber": 3,
    "colliderVertices": [
        {
            "x": -1.3355317115783692,
            "y": -0.1149115115404129
        },
        {
            "x": 1.6514906883239747,
            "y": -0.39477699995040896
        },
        {
            "x": -0.0241696834564209,
            "y": 0.4189583659172058
        }
    ],
    "triangles": [
        1,
        0,
        2
    ],
    "carDensity": 3.0,
    "suspension": 0.6276532411575317,
    "motorSpeed": 795,
    "frontDensity": 3.299999952316284,
    "frontRadius": 0.530863344669342,
    "frontOffset": 0.8759433031082153,
    "backDensity": 2.5,
    "backRadius": 0.44957780838012698,
    "backOffset": -1.4416316747665406,
    "score": 838,
    "maxDistance": 833,
    "maxTime": 147.0
}{
    "ID": 10121,
    "genomaID": "CV4TD9",
    "color": {
        "x": 0.5296991467475891,
        "y": 0.8375436067581177,
        "z": 0.9095902442932129
    },
    "vertexNumber": 4,
    "colliderVertices": [
        {
            "x": -1.5364415645599366,
            "y": -0.3209058940410614
        },
        {
            "x": 1.9231332540512086,
            "y": -0.2959849536418915
        },
        {
            "x": 1.3867692947387696,
            "y": 0.7628868818283081
        },
        {
            "x": -0.36235880851745608,
            "y": 0.3677064776420593
        }
    ],
    "triangles": [
        3,
        2,
        1,
        1,
        0,
        3
    ],
    "carDensity": 4.0,
    "suspension": 0.7369309067726135,
    "motorSpeed": 768,
    "frontDensity": 2.799999952316284,
    "frontRadius": 0.4785003662109375,
    "frontOffset": 0.6871742010116577,
    "backDensity": 2.0999999046325685,
    "backRadius": 0.4095626473426819,
    "backOffset": -1.109277367591858,
    "score": 57,
    "maxDistance": 52,
    "maxTime": 10.0
}{
    "ID": 10199,
    "genomaID": "CV4TD11",
    "color": {
        "x": 0.9940735101699829,
        "y": 0.9590579271316528,
        "z": 0.19860604405403138
    },
    "vertexNumber": 4,
    "colliderVertices": [
        {
            "x": -1.9297128915786744,
            "y": -0.4028477668762207
        },
        {
            "x": 1.1517810821533204,
            "y": -0.2242574393749237
        },
        {
            "x": 0.05659651756286621,
            "y": 0.4037697911262512
        },
        {
            "x": -0.00787043571472168,
            "y": 0.5374643206596375
        }
    ],
    "triangles": [
        0,
        3,
        2,
        2,
        1,
        0
    ],
    "carDensity": 4.0,
    "suspension": 0.8840367197990418,
    "motorSpeed": 638,
    "frontDensity": 3.9000000953674318,
    "frontRadius": 0.5902475118637085,
    "frontOffset": 0.9717835187911987,
    "backDensity": 3.200000047683716,
    "backRadius": 0.5208449363708496,
    "backOffset": -1.2488505840301514,
    "score": 0,
    "maxDistance": 0,
    "maxTime": 0.0
}