{
    "ID": 90404,
    "genomaID": "CV6TD14",
    "color": {
        "x": 0.12078036367893219,
        "y": 0.947822093963623,
        "z": 0.738856852054596
    },
    "vertexNumber": 6,
    "colliderVertices": [
        {
            "x": -1.2336554527282715,
            "y": -0.014329316094517708
        },
        {
            "x": 1.0422494411468506,
            "y": -0.08420223742723465
        },
        {
            "x": 0.8857941031455994,
            "y": 0.11767697334289551
        },
        {
            "x": 0.42197394371032717,
            "y": 0.5611482262611389
        },
        {
            "x": -1.169440746307373,
            "y": 0.7371407747268677
        },
        {
            "x": -1.264460563659668,
            "y": 0.4439437985420227
        }
    ],
    "triangles": [
        3,
        1,
        5,
        5,
        4,
        3,
        3,
        2,
        1,
        1,
        0,
        5
    ],
    "carDensity": 6.0,
    "suspension": 0.7714077234268189,
    "motorSpeed": 597,
    "frontDensity": 4.900000095367432,
    "frontRadius": 0.694659948348999,
    "frontOffset": 1.3221062421798707,
    "backDensity": 3.299999952316284,
    "backRadius": 0.5253796577453613,
    "backOffset": -1.1676729917526246,
    "score": 838,
    "maxDistance": 833,
    "maxTime": 160.0
}{
    "ID": 90456,
    "genomaID": "CV6TD13",
    "color": {
        "x": 0.7674797773361206,
        "y": 0.27107957005500796,
        "z": 0.8932945728302002
    },
    "vertexNumber": 6,
    "colliderVertices": [
        {
            "x": -1.7426636219024659,
            "y": -0.3494105041027069
        },
        {
            "x": 1.2706387042999268,
            "y": -0.00814682338386774
        },
        {
            "x": 1.3457074165344239,
            "y": 0.6141595244407654
        },
        {
            "x": 0.8498849272727966,
            "y": 0.6613234281539917
        },
        {
            "x": -0.915116548538208,
            "y": 0.989293098449707
        },
        {
            "x": -1.0192737579345704,
            "y": 0.6293035745620728
        }
    ],
    "triangles": [
        3,
        1,
        5,
        5,
        4,
        3,
        3,
        2,
        1,
        1,
        0,
        5
    ],
    "carDensity": 6.0,
    "suspension": 0.4315168857574463,
    "motorSpeed": 1146,
    "frontDensity": 3.4000000953674318,
    "frontRadius": 0.5407312512397766,
    "frontOffset": 1.3527565002441407,
    "backDensity": 3.5,
    "backRadius": 0.5527374744415283,
    "backOffset": -0.8416746854782105,
    "score": 10,
    "maxDistance": 8,
    "maxTime": 3.0
}{
    "ID": 90599,
    "genomaID": "CV5TD12",
    "color": {
        "x": 0.9940735101699829,
        "y": 0.9590579271316528,
        "z": 0.19860604405403138
    },
    "vertexNumber": 5,
    "colliderVertices": [
        {
            "x": -1.420341968536377,
            "y": -0.4585787057876587
        },
        {
            "x": 1.225182056427002,
            "y": -0.08256686478853226
        },
        {
            "x": 1.2965798377990723,
            "y": 0.3417896628379822
        },
        {
            "x": -1.1319456100463868,
            "y": 0.29849427938461306
        },
        {
            "x": -1.9138407707214356,
            "y": 0.11449551582336426
        }
    ],
    "triangles": [
        1,
        4,
        3,
        3,
        2,
        1,
        1,
        0,
        4
    ],
    "carDensity": 5.0,
    "suspension": 0.5762673616409302,
    "motorSpeed": 1053,
    "frontDensity": 4.599999904632568,
    "frontRadius": 0.6566261053085327,
    "frontOffset": 0.9365469217300415,
    "backDensity": 2.4000000953674318,
    "backRadius": 0.43817001581192019,
    "backOffset": -0.5078433752059937,
    "score": 0,
    "maxDistance": 0,
    "maxTime": 1.0
}