{
    "ID": 69682,
    "genomaID": "CV3TD10",
    "color": {
        "x": 0.7805708646774292,
        "y": 0.7405419945716858,
        "z": 0.8432096242904663
    },
    "vertexNumber": 3,
    "colliderVertices": [
        {
            "x": -1.8099428415298463,
            "y": -0.2744269073009491
        },
        {
            "x": 1.0305734872817994,
            "y": -0.07655156403779984
        },
        {
            "x": -1.6599621772766114,
            "y": 0.033478498458862308
        }
    ],
    "triangles": [
        1,
        0,
        2
    ],
    "carDensity": 3.0,
    "suspension": 0.7330034375190735,
    "motorSpeed": 1204,
    "frontDensity": 4.0,
    "frontRadius": 0.5973453521728516,
    "frontOffset": 1.3530786037445069,
    "backDensity": 2.799999952316284,
    "backRadius": 0.47861039638519289,
    "backOffset": -0.82216876745224,
    "score": 841,
    "maxDistance": 833,
    "maxTime": 97.0
}{
    "ID": 69786,
    "genomaID": "CV3TD8",
    "color": {
        "x": 0.3109702169895172,
        "y": 0.4493226408958435,
        "z": 0.5858866572380066
    },
    "vertexNumber": 3,
    "colliderVertices": [
        {
            "x": -1.1387187242507935,
            "y": -0.472969651222229
        },
        {
            "x": 1.945495367050171,
            "y": -0.12623663246631623
        },
        {
            "x": -1.4646987915039063,
            "y": 0.46976763010025027
        }
    ],
    "triangles": [
        1,
        0,
        2
    ],
    "carDensity": 3.0,
    "suspension": 0.5623687505722046,
    "motorSpeed": 548,
    "frontDensity": 2.200000047683716,
    "frontRadius": 0.4215519428253174,
    "frontOffset": 1.1281052827835084,
    "backDensity": 2.9000000953674318,
    "backRadius": 0.49374401569366457,
    "backOffset": -1.2196240425109864,
    "score": 110,
    "maxDistance": 107,
    "maxTime": 35.0
}{
    "ID": 69799,
    "genomaID": "CV6TD14",
    "color": {
        "x": 0.9940735101699829,
        "y": 0.9590579271316528,
        "z": 0.19860604405403138
    },
    "vertexNumber": 6,
    "colliderVertices": [
        {
            "x": -1.8729498386383057,
            "y": -0.16772766411304475
        },
        {
            "x": 1.5197458267211915,
            "y": -0.27026841044425967
        },
        {
            "x": 1.2495183944702149,
            "y": 0.8021113872528076
        },
        {
            "x": 0.8564791083335877,
            "y": 0.5585371851921082
        },
        {
            "x": -0.6220605373382568,
            "y": 0.6124388575553894
        },
        {
            "x": -0.7821943759918213,
            "y": 0.7097443342208862
        }
    ],
    "triangles": [
        0,
        4,
        3,
        3,
        1,
        0,
        0,
        5,
        4,
        3,
        2,
        1
    ],
    "carDensity": 6.0,
    "suspension": 0.5539063215255737,
    "motorSpeed": 570,
    "frontDensity": 4.400000095367432,
    "frontRadius": 0.6407837271690369,
    "frontOffset": 1.0376609563827515,
    "backDensity": 4.5,
    "backRadius": 0.6472612619400024,
    "backOffset": -0.9277917146682739,
    "score": 0,
    "maxDistance": 0,
    "maxTime": 1.0
}