{
    "ID": 11415,
    "genomaID": "CV3TD9",
    "color": {
        "x": 0.8472846746444702,
        "y": 0.2803927958011627,
        "z": 0.011020184494554997
    },
    "vertexNumber": 3,
    "colliderVertices": [
        {
            "x": -1.3400969505310059,
            "y": -0.142982617020607
        },
        {
            "x": 1.0789086818695069,
            "y": -0.4996721148490906
        },
        {
            "x": 0.08067631721496582,
            "y": 0.7689125537872315
        }
    ],
    "triangles": [
        1,
        0,
        2
    ],
    "carDensity": 3.0,
    "suspension": 0.9908944964408875,
    "motorSpeed": 683,
    "frontDensity": 3.799999952316284,
    "frontRadius": 0.5763704776763916,
    "frontOffset": 0.9082421064376831,
    "backDensity": 2.200000047683716,
    "backRadius": 0.42286860942840578,
    "backOffset": -1.1732242107391358,
    "score": 839,
    "maxDistance": 834,
    "maxTime": 166.0
}{
    "ID": 11516,
    "genomaID": "CV6TD13",
    "color": {
        "x": 0.9991718530654907,
        "y": 0.6624305844306946,
        "z": 0.2766973078250885
    },
    "vertexNumber": 6,
    "colliderVertices": [
        {
            "x": -1.651963472366333,
            "y": -0.008624852634966374
        },
        {
            "x": 1.5243213176727296,
            "y": -0.46189576387405398
        },
        {
            "x": 1.2307171821594239,
            "y": 0.9128245115280151
        },
        {
            "x": 0.0018355846405029297,
            "y": 0.9881094694137573
        },
        {
            "x": -0.24549651145935059,
            "y": 0.8145977258682251
        },
        {
            "x": -0.5523850917816162,
            "y": 0.6570383310317993
        }
    ],
    "triangles": [
        4,
        3,
        1,
        1,
        5,
        4,
        3,
        2,
        1,
        1,
        0,
        5
    ],
    "carDensity": 6.0,
    "suspension": 0.8501963019371033,
    "motorSpeed": 984,
    "frontDensity": 3.299999952316284,
    "frontRadius": 0.5321025848388672,
    "frontOffset": 1.4076427221298218,
    "backDensity": 3.5,
    "backRadius": 0.551733136177063,
    "backOffset": -0.9642702341079712,
    "score": 16,
    "maxDistance": 12,
    "maxTime": 3.0
}{
    "ID": 11592,
    "genomaID": "CV5TD14",
    "color": {
        "x": 0.22602656483650208,
        "y": 0.3610272705554962,
        "z": 0.9402545690536499
    },
    "vertexNumber": 5,
    "colliderVertices": [
        {
            "x": -1.9073299169540406,
            "y": -0.24091008305549622
        },
        {
            "x": 1.9852344989776612,
            "y": -0.48654669523239138
        },
        {
            "x": 1.629312515258789,
            "y": 0.004311323165893555
        },
        {
            "x": 1.1807923316955567,
            "y": 0.9594368934631348
        },
        {
            "x": -0.7781507968902588,
            "y": 0.8777689933776856
        }
    ],
    "triangles": [
        2,
        1,
        4,
        4,
        3,
        2,
        1,
        0,
        4
    ],
    "carDensity": 5.0,
    "suspension": 0.9936351776123047,
    "motorSpeed": 890,
    "frontDensity": 3.5,
    "frontRadius": 0.5480546355247498,
    "frontOffset": 1.0713070631027222,
    "backDensity": 5.0,
    "backRadius": 0.6976761221885681,
    "backOffset": -0.6712609529495239,
    "score": 0,
    "maxDistance": 0,
    "maxTime": 1.0
}