{
    "ID": 18460,
    "genomaID": "CV3TD9",
    "color": {
        "x": 0.955747127532959,
        "y": 0.5249026417732239,
        "z": 0.946269154548645
    },
    "vertexNumber": 3,
    "colliderVertices": [
        {
            "x": -1.4211840629577637,
            "y": -0.045821789652109149
        },
        {
            "x": 1.1704816818237305,
            "y": -0.38699084520339968
        },
        {
            "x": -1.5923681259155274,
            "y": 0.47031170129776
        }
    ],
    "triangles": [
        1,
        0,
        2
    ],
    "carDensity": 3.0,
    "suspension": 0.7182117700576782,
    "motorSpeed": 1030,
    "frontDensity": 4.199999809265137,
    "frontRadius": 0.6246392130851746,
    "frontOffset": 1.2807620763778687,
    "backDensity": 2.200000047683716,
    "backRadius": 0.4171164035797119,
    "backOffset": -1.3684978485107422,
    "score": 840,
    "maxDistance": 833,
    "maxTime": 107.0
}{
    "ID": 18525,
    "genomaID": "CV6TD11",
    "color": {
        "x": 0.6804956793785095,
        "y": 0.7641780376434326,
        "z": 0.47687357664108279
    },
    "vertexNumber": 6,
    "colliderVertices": [
        {
            "x": -1.5936486721038819,
            "y": -0.40033024549484255
        },
        {
            "x": 1.6092309951782227,
            "y": -0.17405696213245393
        },
        {
            "x": 1.872115135192871,
            "y": 0.06402277946472168
        },
        {
            "x": 1.1652512550354005,
            "y": 0.3631446957588196
        },
        {
            "x": -1.7294058799743653,
            "y": 0.21131110191345216
        },
        {
            "x": -1.9446125030517579,
            "y": 0.8666560649871826
        }
    ],
    "triangles": [
        4,
        2,
        0,
        0,
        5,
        4,
        4,
        3,
        2,
        2,
        1,
        0
    ],
    "carDensity": 6.0,
    "suspension": 0.610379695892334,
    "motorSpeed": 655,
    "frontDensity": 3.0999999046325685,
    "frontRadius": 0.5059872269630432,
    "frontOffset": 0.5373342037200928,
    "backDensity": 2.0,
    "backRadius": 0.4008471369743347,
    "backOffset": -0.9190832376480103,
    "score": 110,
    "maxDistance": 107,
    "maxTime": 30.0
}{
    "ID": 18598,
    "genomaID": "CV3TD8",
    "color": {
        "x": 0.007468582130968571,
        "y": 0.663615882396698,
        "z": 0.7980117797851563
    },
    "vertexNumber": 3,
    "colliderVertices": [
        {
            "x": -1.0864055156707764,
            "y": -0.17059125006198884
        },
        {
            "x": 1.2600929737091065,
            "y": -0.3346222937107086
        },
        {
            "x": -1.968611717224121,
            "y": 0.3026438355445862
        }
    ],
    "triangles": [
        1,
        0,
        2
    ],
    "carDensity": 3.0,
    "suspension": 0.49050790071487429,
    "motorSpeed": 780,
    "frontDensity": 3.200000047683716,
    "frontRadius": 0.5216612815856934,
    "frontOffset": 1.3129589557647706,
    "backDensity": 2.0,
    "backRadius": 0.40461233258247378,
    "backOffset": -1.2344496250152588,
    "score": 0,
    "maxDistance": 0,
    "maxTime": 0.0
}