{
    "ID": 67963,
    "genomaID": "CV4TD10",
    "color": {
        "x": 0.3706665337085724,
        "y": 0.9056942462921143,
        "z": 0.9423221349716187
    },
    "vertexNumber": 4,
    "colliderVertices": [
        {
            "x": -1.159226894378662,
            "y": -0.3625763952732086
        },
        {
            "x": 1.3223881721496583,
            "y": -0.00015121699834708124
        },
        {
            "x": -0.8607199192047119,
            "y": 0.9493598937988281
        },
        {
            "x": -0.9759786128997803,
            "y": 0.41267722845077517
        }
    ],
    "triangles": [
        3,
        2,
        1,
        1,
        0,
        3
    ],
    "carDensity": 4.0,
    "suspension": 0.5714616775512695,
    "motorSpeed": 751,
    "frontDensity": 3.0999999046325685,
    "frontRadius": 0.5071160793304443,
    "frontOffset": 1.4923781156539918,
    "backDensity": 2.9000000953674318,
    "backRadius": 0.4872090816497803,
    "backOffset": -1.3648443222045899,
    "score": 839,
    "maxDistance": 834,
    "maxTime": 151.0
}{
    "ID": 67970,
    "genomaID": "CV3TD8",
    "color": {
        "x": 0.979041576385498,
        "y": 0.04679716005921364,
        "z": 0.36990347504615786
    },
    "vertexNumber": 3,
    "colliderVertices": [
        {
            "x": -1.6181819438934327,
            "y": -0.09973414242267609
        },
        {
            "x": 1.7567511796951295,
            "y": -0.18022550642490388
        },
        {
            "x": 0.15915942192077638,
            "y": 0.9076099395751953
        }
    ],
    "triangles": [
        1,
        0,
        2
    ],
    "carDensity": 3.0,
    "suspension": 0.5388345718383789,
    "motorSpeed": 577,
    "frontDensity": 2.0999999046325685,
    "frontRadius": 0.4096252918243408,
    "frontOffset": 0.9875346422195435,
    "backDensity": 2.700000047683716,
    "backRadius": 0.46580904722213747,
    "backOffset": -0.8806785345077515,
    "score": 110,
    "maxDistance": 107,
    "maxTime": 32.0
}{
    "ID": 67999,
    "genomaID": "CV3TD10",
    "color": {
        "x": 0.9940735101699829,
        "y": 0.9590579271316528,
        "z": 0.19860604405403138
    },
    "vertexNumber": 3,
    "colliderVertices": [
        {
            "x": -1.2252388000488282,
            "y": -0.34580621123313906
        },
        {
            "x": 1.379979133605957,
            "y": -0.32511278986930849
        },
        {
            "x": 1.4157114028930665,
            "y": 0.2636314034461975
        }
    ],
    "triangles": [
        1,
        0,
        2
    ],
    "carDensity": 3.0,
    "suspension": 0.5639942288398743,
    "motorSpeed": 663,
    "frontDensity": 3.0999999046325685,
    "frontRadius": 0.5071160793304443,
    "frontOffset": 1.2463659048080445,
    "backDensity": 3.700000047683716,
    "backRadius": 0.5728766322135925,
    "backOffset": -1.4421137571334839,
    "score": 0,
    "maxDistance": 0,
    "maxTime": 0.0
}