{
    "ID": 31081,
    "genomaID": "CV4TD9",
    "color": {
        "x": 0.4226837754249573,
        "y": 0.21045950055122376,
        "z": 0.3845255970954895
    },
    "vertexNumber": 4,
    "colliderVertices": [
        {
            "x": -1.4597938060760499,
            "y": -0.1983349621295929
        },
        {
            "x": 1.2619802951812745,
            "y": -0.36257144808769228
        },
        {
            "x": 1.74137544631958,
            "y": 0.14263474941253663
        },
        {
            "x": -1.7290477752685547,
            "y": 0.7849799394607544
        }
    ],
    "triangles": [
        3,
        2,
        1,
        1,
        0,
        3
    ],
    "carDensity": 4.0,
    "suspension": 0.4641595780849457,
    "motorSpeed": 814,
    "frontDensity": 2.700000047683716,
    "frontRadius": 0.4745166301727295,
    "frontOffset": 1.2628166675567628,
    "backDensity": 2.299999952316284,
    "backRadius": 0.43080824613571169,
    "backOffset": -1.413560152053833,
    "score": 838,
    "maxDistance": 833,
    "maxTime": 159.0
}{
    "ID": 31094,
    "genomaID": "CV6TD11",
    "color": {
        "x": 0.4431062340736389,
        "y": 0.8133289813995361,
        "z": 0.5577889084815979
    },
    "vertexNumber": 6,
    "colliderVertices": [
        {
            "x": -1.0953751802444459,
            "y": -0.28350457549095156
        },
        {
            "x": 1.931037425994873,
            "y": -0.4706553816795349
        },
        {
            "x": 1.8940825462341309,
            "y": 0.7016211748123169
        },
        {
            "x": 0.6466984152793884,
            "y": 0.5592722296714783
        },
        {
            "x": 0.5364207625389099,
            "y": 0.3455234169960022
        },
        {
            "x": -0.9251415729522705,
            "y": 0.4008055329322815
        }
    ],
    "triangles": [
        4,
        3,
        1,
        1,
        5,
        4,
        3,
        2,
        1,
        1,
        0,
        5
    ],
    "carDensity": 6.0,
    "suspension": 0.8675377368927002,
    "motorSpeed": 893,
    "frontDensity": 2.700000047683716,
    "frontRadius": 0.4699387550354004,
    "frontOffset": 1.216500997543335,
    "backDensity": 2.4000000953674318,
    "backRadius": 0.43601691722869875,
    "backOffset": -1.2591636180877686,
    "score": 51,
    "maxDistance": 46,
    "maxTime": 8.0
}{
    "ID": 31196,
    "genomaID": "CV4TD10",
    "color": {
        "x": 0.9384560585021973,
        "y": 0.572151243686676,
        "z": 0.6635225415229797
    },
    "vertexNumber": 4,
    "colliderVertices": [
        {
            "x": -1.6788480281829835,
            "y": -0.2921871840953827
        },
        {
            "x": 1.8276647329330445,
            "y": -0.16465891897678376
        },
        {
            "x": 1.6315579414367676,
            "y": 0.0909872055053711
        },
        {
            "x": -0.17992854118347169,
            "y": 0.5616127848625183
        }
    ],
    "triangles": [
        3,
        2,
        1,
        1,
        0,
        3
    ],
    "carDensity": 4.0,
    "suspension": 0.7611262798309326,
    "motorSpeed": 1139,
    "frontDensity": 2.200000047683716,
    "frontRadius": 0.41724106669425967,
    "frontOffset": 1.020994782447815,
    "backDensity": 4.0,
    "backRadius": 0.6040668487548828,
    "backOffset": -1.1648566722869874,
    "score": 0,
    "maxDistance": 0,
    "maxTime": 1.0
}