{
    "ID": 65224,
    "genomaID": "CV6TD13",
    "color": {
        "x": 0.004335165489464998,
        "y": 0.7617206573486328,
        "z": 0.6319701075553894
    },
    "vertexNumber": 6,
    "colliderVertices": [
        {
            "x": -1.3304781913757325,
            "y": -0.18409664928913117
        },
        {
            "x": 1.970350980758667,
            "y": -0.45185452699661257
        },
        {
            "x": 1.357367992401123,
            "y": 0.45423656702041628
        },
        {
            "x": 0.1600968837738037,
            "y": 0.6105281710624695
        },
        {
            "x": -0.918175458908081,
            "y": 0.7092177867889404
        },
        {
            "x": -1.8275260925292969,
            "y": 0.19993913173675538
        }
    ],
    "triangles": [
        3,
        1,
        5,
        5,
        4,
        3,
        3,
        2,
        1,
        1,
        0,
        5
    ],
    "carDensity": 6.0,
    "suspension": 0.8604093194007874,
    "motorSpeed": 791,
    "frontDensity": 4.300000190734863,
    "frontRadius": 0.6349680423736572,
    "frontOffset": 0.9250158071517944,
    "backDensity": 2.799999952316284,
    "backRadius": 0.4779096841812134,
    "backOffset": -1.4393904209136963,
    "score": 838,
    "maxDistance": 832,
    "maxTime": 135.0
}{
    "ID": 65337,
    "genomaID": "CV5TD10",
    "color": {
        "x": 0.6247989535331726,
        "y": 0.2805894911289215,
        "z": 0.004084229934960604
    },
    "vertexNumber": 5,
    "colliderVertices": [
        {
            "x": -1.814800500869751,
            "y": -0.1748216301202774
        },
        {
            "x": 1.4950811862945557,
            "y": -0.42022573947906496
        },
        {
            "x": -0.12972760200500489,
            "y": 0.8230900764465332
        },
        {
            "x": -0.20276284217834474,
            "y": 0.67319655418396
        },
        {
            "x": -1.6712908744812012,
            "y": 0.3871052861213684
        }
    ],
    "triangles": [
        1,
        4,
        3,
        3,
        2,
        1,
        1,
        0,
        4
    ],
    "carDensity": 5.0,
    "suspension": 0.6958423852920532,
    "motorSpeed": 571,
    "frontDensity": 2.5999999046325685,
    "frontRadius": 0.45963364839553835,
    "frontOffset": 0.7874708771705627,
    "backDensity": 2.0,
    "backRadius": 0.4010539650917053,
    "backOffset": -0.8875974416732788,
    "score": 110,
    "maxDistance": 107,
    "maxTime": 33.0
}{
    "ID": 65398,
    "genomaID": "CV5TD13",
    "color": {
        "x": 0.007468582130968571,
        "y": 0.663615882396698,
        "z": 0.7980117797851563
    },
    "vertexNumber": 5,
    "colliderVertices": [
        {
            "x": -1.7388243675231934,
            "y": -0.11809690296649933
        },
        {
            "x": 1.5015778541564942,
            "y": -0.03479534760117531
        },
        {
            "x": 0.9906801581382752,
            "y": 0.3644563555717468
        },
        {
            "x": 0.5134610533714294,
            "y": 0.9261562824249268
        },
        {
            "x": 0.019022703170776368,
            "y": 0.8370124101638794
        }
    ],
    "triangles": [
        2,
        1,
        4,
        4,
        3,
        2,
        1,
        0,
        4
    ],
    "carDensity": 5.0,
    "suspension": 0.6987160444259644,
    "motorSpeed": 1083,
    "frontDensity": 3.700000047683716,
    "frontRadius": 0.5721491575241089,
    "frontOffset": 0.9250158071517944,
    "backDensity": 4.400000095367432,
    "backRadius": 0.6449466943740845,
    "backOffset": -0.632692813873291,
    "score": 0,
    "maxDistance": 0,
    "maxTime": 1.0
}