{
    "ID": 45577,
    "genomaID": "CV4TD11",
    "color": {
        "x": 0.3432641327381134,
        "y": 0.7636579275131226,
        "z": 0.986485481262207
    },
    "vertexNumber": 4,
    "colliderVertices": [
        {
            "x": -1.1411595344543458,
            "y": -0.05666334182024002
        },
        {
            "x": 1.1507270336151124,
            "y": -0.3804498314857483
        },
        {
            "x": -0.9642188549041748,
            "y": 0.2762834429740906
        },
        {
            "x": -1.3595662117004395,
            "y": 0.6609001159667969
        }
    ],
    "triangles": [
        0,
        3,
        2,
        2,
        1,
        0
    ],
    "carDensity": 4.0,
    "suspension": 0.9912083148956299,
    "motorSpeed": 765,
    "frontDensity": 5.0,
    "frontRadius": 0.697124719619751,
    "frontOffset": 1.1432875394821168,
    "backDensity": 2.4000000953674318,
    "backRadius": 0.4445236921310425,
    "backOffset": -0.9266787767410278,
    "score": 840,
    "maxDistance": 834,
    "maxTime": 124.0
}{
    "ID": 45508,
    "genomaID": "CV6TD13",
    "color": {
        "x": 0.2735932171344757,
        "y": 0.4931458830833435,
        "z": 0.35553279519081118
    },
    "vertexNumber": 6,
    "colliderVertices": [
        {
            "x": -1.645547866821289,
            "y": -0.2440614402294159
        },
        {
            "x": 1.5520226955413819,
            "y": -0.06613446027040482
        },
        {
            "x": 1.249608039855957,
            "y": 0.7751799821853638
        },
        {
            "x": 0.33589720726013186,
            "y": 0.17533862590789796
        },
        {
            "x": -1.408639907836914,
            "y": 0.23067617416381837
        },
        {
            "x": -1.488431453704834,
            "y": 0.6312493085861206
        }
    ],
    "triangles": [
        0,
        4,
        3,
        3,
        1,
        0,
        0,
        5,
        4,
        3,
        2,
        1
    ],
    "carDensity": 6.0,
    "suspension": 0.8168389201164246,
    "motorSpeed": 1354,
    "frontDensity": 3.700000047683716,
    "frontRadius": 0.5731780529022217,
    "frontOffset": 1.4026076793670655,
    "backDensity": 3.4000000953674318,
    "backRadius": 0.540929913520813,
    "backOffset": -0.9951080083847046,
    "score": 16,
    "maxDistance": 12,
    "maxTime": 3.0
}{
    "ID": 45599,
    "genomaID": "CV3TD9",
    "color": {
        "x": 0.9940735101699829,
        "y": 0.9590579271316528,
        "z": 0.19860604405403138
    },
    "vertexNumber": 3,
    "colliderVertices": [
        {
            "x": -1.6853947639465333,
            "y": -0.41127705574035647
        },
        {
            "x": 1.0798871517181397,
            "y": -0.3584885895252228
        },
        {
            "x": 0.6765918135643005,
            "y": 0.8853422403335571
        }
    ],
    "triangles": [
        1,
        0,
        2
    ],
    "carDensity": 3.0,
    "suspension": 0.7803719639778137,
    "motorSpeed": 891,
    "frontDensity": 2.0999999046325685,
    "frontRadius": 0.4120250642299652,
    "frontOffset": 0.5728555917739868,
    "backDensity": 4.199999809265137,
    "backRadius": 0.6172795295715332,
    "backOffset": -0.8853791952133179,
    "score": 0,
    "maxDistance": 0,
    "maxTime": 1.0
}