{
    "ID": 34006,
    "genomaID": "CV4TD9",
    "color": {
        "x": 0.4919068217277527,
        "y": 0.47097188234329226,
        "z": 0.8336561918258667
    },
    "vertexNumber": 4,
    "colliderVertices": [
        {
            "x": -1.6357831954956055,
            "y": -0.2989652454853058
        },
        {
            "x": 1.1674466133117676,
            "y": -0.05613119155168533
        },
        {
            "x": 0.7316569685935974,
            "y": 0.5328509211540222
        },
        {
            "x": -1.8846983909606934,
            "y": 0.060707807540893558
        }
    ],
    "triangles": [
        3,
        2,
        1,
        1,
        0,
        3
    ],
    "carDensity": 4.0,
    "suspension": 0.4226558804512024,
    "motorSpeed": 1023,
    "frontDensity": 3.0,
    "frontRadius": 0.4958000183105469,
    "frontOffset": 1.431955099105835,
    "backDensity": 2.299999952316284,
    "backRadius": 0.4268319010734558,
    "backOffset": -1.2706289291381837,
    "score": 839,
    "maxDistance": 833,
    "maxTime": 124.0
}{
    "ID": 34190,
    "genomaID": "CV5TD10",
    "color": {
        "x": 0.1991659700870514,
        "y": 0.9097517728805542,
        "z": 0.7071341872215271
    },
    "vertexNumber": 5,
    "colliderVertices": [
        {
            "x": -1.397214412689209,
            "y": -0.07387376576662064
        },
        {
            "x": 1.2506003379821778,
            "y": -0.22732266783714295
        },
        {
            "x": 1.7462115287780762,
            "y": 0.6457955837249756
        },
        {
            "x": 0.3667161464691162,
            "y": 0.2826210856437683
        },
        {
            "x": -1.974961757659912,
            "y": 0.73309326171875
        }
    ],
    "triangles": [
        1,
        4,
        3,
        3,
        2,
        1,
        1,
        0,
        4
    ],
    "carDensity": 5.0,
    "suspension": 0.8522569537162781,
    "motorSpeed": 648,
    "frontDensity": 2.5999999046325685,
    "frontRadius": 0.4648701250553131,
    "frontOffset": 1.1069403886795045,
    "backDensity": 2.5,
    "backRadius": 0.4529067277908325,
    "backOffset": -1.2096397876739503,
    "score": 110,
    "maxDistance": 107,
    "maxTime": 30.0
}{
    "ID": 34200,
    "genomaID": "CV3TD10",
    "color": {
        "x": 0.5215955376625061,
        "y": 0.5618323683738709,
        "z": 0.9288589954376221
    },
    "vertexNumber": 3,
    "colliderVertices": [
        {
            "x": -1.3695008754730225,
            "y": -0.3810890316963196
        },
        {
            "x": 1.1254534721374512,
            "y": -0.3591664135456085
        },
        {
            "x": 1.4143857955932618,
            "y": 0.5714917778968811
        }
    ],
    "triangles": [
        1,
        0,
        2
    ],
    "carDensity": 3.0,
    "suspension": 0.8367258906364441,
    "motorSpeed": 722,
    "frontDensity": 2.4000000953674318,
    "frontRadius": 0.44388753175735476,
    "frontOffset": 1.4775303602218629,
    "backDensity": 5.0,
    "backRadius": 0.6998147368431091,
    "backOffset": -1.314716100692749,
    "score": 0,
    "maxDistance": 0,
    "maxTime": 1.0
}