{
    "ID": 30367,
    "genomaID": "CV3TD9",
    "color": {
        "x": 0.6213507056236267,
        "y": 0.4953119158744812,
        "z": 0.37864941358566286
    },
    "vertexNumber": 3,
    "colliderVertices": [
        {
            "x": -1.1729145050048829,
            "y": -0.0717163160443306
        },
        {
            "x": 1.5817320346832276,
            "y": -0.48449909687042239
        },
        {
            "x": 0.6507357954978943,
            "y": 0.08175778388977051
        }
    ],
    "triangles": [
        1,
        0,
        2
    ],
    "carDensity": 3.0,
    "suspension": 0.5694558620452881,
    "motorSpeed": 654,
    "frontDensity": 3.200000047683716,
    "frontRadius": 0.5249026417732239,
    "frontOffset": 0.7920457720756531,
    "backDensity": 3.200000047683716,
    "backRadius": 0.5172072052955627,
    "backOffset": -1.449666976928711,
    "score": 839,
    "maxDistance": 834,
    "maxTime": 162.0
}{
    "ID": 30309,
    "genomaID": "CV6TD12",
    "color": {
        "x": 0.655386745929718,
        "y": 0.1359734684228897,
        "z": 0.7639102935791016
    },
    "vertexNumber": 6,
    "colliderVertices": [
        {
            "x": -1.6491129398345948,
            "y": -0.12480105459690094
        },
        {
            "x": 1.1638164520263672,
            "y": -0.2645794451236725
        },
        {
            "x": 1.3335542678833008,
            "y": 0.44081300497055056
        },
        {
            "x": -1.3057975769042969,
            "y": 0.916145920753479
        },
        {
            "x": -1.5554237365722657,
            "y": 0.9536761045455933
        },
        {
            "x": -1.8554153442382813,
            "y": 0.8515259027481079
        }
    ],
    "triangles": [
        3,
        1,
        5,
        5,
        4,
        3,
        3,
        2,
        1,
        1,
        0,
        5
    ],
    "carDensity": 6.0,
    "suspension": 0.559830367565155,
    "motorSpeed": 626,
    "frontDensity": 3.0999999046325685,
    "frontRadius": 0.5112014412879944,
    "frontOffset": 1.3885314464569092,
    "backDensity": 2.9000000953674318,
    "backRadius": 0.488720566034317,
    "backOffset": -0.5783630609512329,
    "score": 110,
    "maxDistance": 107,
    "maxTime": 28.0
}{
    "ID": 30397,
    "genomaID": "CV4TD12",
    "color": {
        "x": 0.15672196447849275,
        "y": 0.8961608409881592,
        "z": 0.9475356340408325
    },
    "vertexNumber": 4,
    "colliderVertices": [
        {
            "x": -1.0372180938720704,
            "y": -0.4813882112503052
        },
        {
            "x": 1.9831032752990723,
            "y": -0.17421407997608186
        },
        {
            "x": -0.1993868350982666,
            "y": 0.08726847171783447
        },
        {
            "x": -1.8696966171264649,
            "y": 0.8601676225662231
        }
    ],
    "triangles": [
        0,
        3,
        2,
        2,
        1,
        0
    ],
    "carDensity": 4.0,
    "suspension": 0.8087528944015503,
    "motorSpeed": 996,
    "frontDensity": 4.0,
    "frontRadius": 0.602783203125,
    "frontOffset": 1.0047498941421509,
    "backDensity": 4.300000190734863,
    "backRadius": 0.630071222782135,
    "backOffset": -1.0642644166946412,
    "score": 0,
    "maxDistance": 0,
    "maxTime": 1.0
}