{
    "ID": 42612,
    "genomaID": "CV6TD12",
    "color": {
        "x": 0.8143876791000366,
        "y": 0.36038604378700259,
        "z": 0.46041685342788699
    },
    "vertexNumber": 6,
    "colliderVertices": [
        {
            "x": -1.5183758735656739,
            "y": -0.15895016491413117
        },
        {
            "x": 1.177075982093811,
            "y": -0.28527548909187319
        },
        {
            "x": 1.1201272010803223,
            "y": 0.7580318450927734
        },
        {
            "x": -0.5879414081573486,
            "y": 0.6154795289039612
        },
        {
            "x": -1.239201545715332,
            "y": 0.420490562915802
        },
        {
            "x": -1.5142860412597657,
            "y": 0.4273619055747986
        }
    ],
    "triangles": [
        4,
        3,
        1,
        1,
        5,
        4,
        3,
        2,
        1,
        1,
        0,
        5
    ],
    "carDensity": 6.0,
    "suspension": 0.5172867774963379,
    "motorSpeed": 740,
    "frontDensity": 3.5,
    "frontRadius": 0.5538797378540039,
    "frontOffset": 1.3223321437835694,
    "backDensity": 2.299999952316284,
    "backRadius": 0.42982763051986697,
    "backOffset": -1.2445743083953858,
    "score": 838,
    "maxDistance": 833,
    "maxTime": 165.0
}{
    "ID": 42711,
    "genomaID": "CV6TD10",
    "color": {
        "x": 0.5590316653251648,
        "y": 0.8262414932250977,
        "z": 0.9543015956878662
    },
    "vertexNumber": 6,
    "colliderVertices": [
        {
            "x": -1.6482329368591309,
            "y": -0.2899015247821808
        },
        {
            "x": 1.1419473886489869,
            "y": -0.3028844892978668
        },
        {
            "x": 1.39613676071167,
            "y": 0.9506947994232178
        },
        {
            "x": 0.43206095695495608,
            "y": 0.7007495164871216
        },
        {
            "x": 0.06281590461730957,
            "y": 0.9783285856246948
        },
        {
            "x": -0.5178272724151611,
            "y": 0.13953840732574464
        }
    ],
    "triangles": [
        3,
        1,
        5,
        5,
        4,
        3,
        3,
        2,
        1,
        1,
        0,
        5
    ],
    "carDensity": 6.0,
    "suspension": 0.5339279174804688,
    "motorSpeed": 690,
    "frontDensity": 2.299999952316284,
    "frontRadius": 0.4279375374317169,
    "frontOffset": 1.3933080434799195,
    "backDensity": 2.4000000953674318,
    "backRadius": 0.44232654571533205,
    "backOffset": -1.1276969909667969,
    "score": 110,
    "maxDistance": 107,
    "maxTime": 30.0
}{
    "ID": 42789,
    "genomaID": "CV6TD14",
    "color": {
        "x": 0.9647618532180786,
        "y": 0.31417956948280337,
        "z": 0.8723796606063843
    },
    "vertexNumber": 6,
    "colliderVertices": [
        {
            "x": -1.8552066087722779,
            "y": -0.2902235686779022
        },
        {
            "x": 1.4690587520599366,
            "y": -0.4661909341812134
        },
        {
            "x": 1.5259819030761719,
            "y": 0.5858514904975891
        },
        {
            "x": 0.28146815299987795,
            "y": 0.28009456396102908
        },
        {
            "x": 0.21238303184509278,
            "y": 0.875338077545166
        },
        {
            "x": -0.31156229972839358,
            "y": 0.6262854337692261
        }
    ],
    "triangles": [
        3,
        1,
        5,
        5,
        4,
        3,
        3,
        2,
        1,
        1,
        0,
        5
    ],
    "carDensity": 6.0,
    "suspension": 0.9964529871940613,
    "motorSpeed": 1381,
    "frontDensity": 3.0999999046325685,
    "frontRadius": 0.5131022930145264,
    "frontOffset": 1.2454848289489747,
    "backDensity": 4.699999809265137,
    "backRadius": 0.6665043830871582,
    "backOffset": -1.3046200275421143,
    "score": 0,
    "maxDistance": 0,
    "maxTime": 1.0
}