{
    "ID": 32804,
    "genomaID": "CV4TD12",
    "color": {
        "x": 0.12078036367893219,
        "y": 0.947822093963623,
        "z": 0.738856852054596
    },
    "vertexNumber": 4,
    "colliderVertices": [
        {
            "x": -1.046560525894165,
            "y": -0.4034007787704468
        },
        {
            "x": 1.4744131565093995,
            "y": -0.17177559435367585
        },
        {
            "x": -0.6778481006622315,
            "y": 0.15971791744232179
        },
        {
            "x": -1.1348814964294434,
            "y": 0.04960489273071289
        }
    ],
    "triangles": [
        3,
        2,
        1,
        1,
        0,
        3
    ],
    "carDensity": 4.0,
    "suspension": 0.7360997796058655,
    "motorSpeed": 894,
    "frontDensity": 4.699999809265137,
    "frontRadius": 0.671108603477478,
    "frontOffset": 0.9596956968307495,
    "backDensity": 3.0999999046325685,
    "backRadius": 0.5136964321136475,
    "backOffset": -1.3945930004119874,
    "score": 841,
    "maxDistance": 834,
    "maxTime": 110.0
}{
    "ID": 32941,
    "genomaID": "CV4TD8",
    "color": {
        "x": 0.7975248098373413,
        "y": 0.8521243333816528,
        "z": 0.5743963122367859
    },
    "vertexNumber": 4,
    "colliderVertices": [
        {
            "x": -1.5303752422332764,
            "y": -0.30495044589042666
        },
        {
            "x": 1.018599033355713,
            "y": -0.48279356956481936
        },
        {
            "x": 0.09989047050476074,
            "y": 0.8737928867340088
        },
        {
            "x": -1.9086203575134278,
            "y": 0.4917212128639221
        }
    ],
    "triangles": [
        3,
        2,
        1,
        1,
        0,
        3
    ],
    "carDensity": 4.0,
    "suspension": 0.6182678937911987,
    "motorSpeed": 714,
    "frontDensity": 2.200000047683716,
    "frontRadius": 0.4157981276512146,
    "frontOffset": 1.1629736423492432,
    "backDensity": 2.0999999046325685,
    "backRadius": 0.4065503478050232,
    "backOffset": -1.474494218826294,
    "score": 110,
    "maxDistance": 107,
    "maxTime": 30.0
}{
    "ID": 32997,
    "genomaID": "CV3TD9",
    "color": {
        "x": 0.15672196447849275,
        "y": 0.8961608409881592,
        "z": 0.9475356340408325
    },
    "vertexNumber": 3,
    "colliderVertices": [
        {
            "x": -1.6182587146759034,
            "y": -0.24785175919532777
        },
        {
            "x": 1.7756285667419434,
            "y": -0.1300421506166458
        },
        {
            "x": 0.4557511806488037,
            "y": 0.5540905594825745
        }
    ],
    "triangles": [
        1,
        0,
        2
    ],
    "carDensity": 3.0,
    "suspension": 0.8714788556098938,
    "motorSpeed": 508,
    "frontDensity": 2.200000047683716,
    "frontRadius": 0.41838717460632326,
    "frontOffset": 0.848587155342102,
    "backDensity": 3.5999999046325685,
    "backRadius": 0.5590213537216187,
    "backOffset": -1.3089364767074586,
    "score": 0,
    "maxDistance": 0,
    "maxTime": 0.0
}