{
    "ID": 7403,
    "genomaID": "CV3TD10",
    "color": {
        "x": 0.5844698548316956,
        "y": 0.052113063633441928,
        "z": 0.6512853503227234
    },
    "vertexNumber": 3,
    "colliderVertices": [
        {
            "x": -1.5132267475128174,
            "y": -0.17815949022769929
        },
        {
            "x": 1.1074047088623047,
            "y": -0.0960284024477005
        },
        {
            "x": 0.9768480658531189,
            "y": 0.12328588962554932
        }
    ],
    "triangles": [
        1,
        0,
        2
    ],
    "carDensity": 3.0,
    "suspension": 0.8255887031555176,
    "motorSpeed": 608,
    "frontDensity": 4.199999809265137,
    "frontRadius": 0.6220530271530151,
    "frontOffset": 1.1102169752120972,
    "backDensity": 2.9000000953674318,
    "backRadius": 0.4925231337547302,
    "backOffset": -0.8898328542709351,
    "score": 838,
    "maxDistance": 833,
    "maxTime": 163.0
}{
    "ID": 7421,
    "genomaID": "CV6TD14",
    "color": {
        "x": 0.31335368752479555,
        "y": 0.19815567135810853,
        "z": 0.5050206780433655
    },
    "vertexNumber": 6,
    "colliderVertices": [
        {
            "x": -1.5411615371704102,
            "y": -0.24248597025871278
        },
        {
            "x": 1.8967585563659669,
            "y": -0.25580886006355288
        },
        {
            "x": 1.9334301948547364,
            "y": 0.16850638389587403
        },
        {
            "x": 1.7035365104675294,
            "y": 0.09979665279388428
        },
        {
            "x": 0.8612627387046814,
            "y": 0.5701016783714294
        },
        {
            "x": 0.46657347679138186,
            "y": 0.6928417682647705
        }
    ],
    "triangles": [
        3,
        1,
        5,
        5,
        4,
        3,
        3,
        2,
        1,
        1,
        0,
        5
    ],
    "carDensity": 6.0,
    "suspension": 0.8641833066940308,
    "motorSpeed": 599,
    "frontDensity": 4.800000190734863,
    "frontRadius": 0.6823322772979736,
    "frontOffset": 0.8516932725906372,
    "backDensity": 3.0999999046325685,
    "backRadius": 0.5106959342956543,
    "backOffset": -1.4714057445526124,
    "score": 63,
    "maxDistance": 58,
    "maxTime": 10.0
}{
    "ID": 7598,
    "genomaID": "CV5TD12",
    "color": {
        "x": 0.007468582130968571,
        "y": 0.663615882396698,
        "z": 0.7980117797851563
    },
    "vertexNumber": 5,
    "colliderVertices": [
        {
            "x": -1.8797537088394166,
            "y": -0.1192566305398941
        },
        {
            "x": 1.3117895126342774,
            "y": -0.49426108598709109
        },
        {
            "x": 0.9633235335350037,
            "y": 0.36142200231552126
        },
        {
            "x": -0.0074498653411865238,
            "y": 0.27135318517684939
        },
        {
            "x": -1.221621036529541,
            "y": 0.33686190843582156
        }
    ],
    "triangles": [
        1,
        4,
        3,
        3,
        2,
        1,
        1,
        0,
        4
    ],
    "carDensity": 5.0,
    "suspension": 0.5268567800521851,
    "motorSpeed": 551,
    "frontDensity": 4.599999904632568,
    "frontRadius": 0.6627869606018066,
    "frontOffset": 1.499220609664917,
    "backDensity": 2.299999952316284,
    "backRadius": 0.4294806122779846,
    "backOffset": -1.4942066669464112,
    "score": 0,
    "maxDistance": 0,
    "maxTime": 0.0
}