{
    "ID": 18203,
    "genomaID": "CV6TD11",
    "color": {
        "x": 0.5844698548316956,
        "y": 0.052113063633441928,
        "z": 0.6512853503227234
    },
    "vertexNumber": 6,
    "colliderVertices": [
        {
            "x": -1.253960371017456,
            "y": -0.3967655301094055
        },
        {
            "x": 1.253925085067749,
            "y": -0.09763379395008087
        },
        {
            "x": 1.3387269973754883,
            "y": 0.9973945617675781
        },
        {
            "x": 0.7222327589988709,
            "y": 0.04301023483276367
        },
        {
            "x": 0.3700706958770752,
            "y": 0.4095870852470398
        },
        {
            "x": -1.6738381385803223,
            "y": 0.44157224893569949
        }
    ],
    "triangles": [
        3,
        1,
        5,
        5,
        4,
        3,
        3,
        2,
        1,
        1,
        0,
        5
    ],
    "carDensity": 6.0,
    "suspension": 0.49050790071487429,
    "motorSpeed": 780,
    "frontDensity": 3.200000047683716,
    "frontRadius": 0.5216612815856934,
    "frontOffset": 1.3129589557647706,
    "backDensity": 2.5,
    "backRadius": 0.4491806626319885,
    "backOffset": -0.8215919137001038,
    "score": 838,
    "maxDistance": 833,
    "maxTime": 155.0
}{
    "ID": 18353,
    "genomaID": "CV6TD11",
    "color": {
        "x": 0.3312263786792755,
        "y": 0.736440122127533,
        "z": 0.65642911195755
    },
    "vertexNumber": 6,
    "colliderVertices": [
        {
            "x": -1.412687063217163,
            "y": -0.35930201411247256
        },
        {
            "x": 1.9788563251495362,
            "y": -0.41131746768951418
        },
        {
            "x": -0.29198384284973147,
            "y": 0.09859514236450196
        },
        {
            "x": -0.9647843837738037,
            "y": 0.3352436423301697
        },
        {
            "x": -1.9145965576171876,
            "y": 0.012709259986877442
        },
        {
            "x": -1.958864688873291,
            "y": 0.16229164600372315
        }
    ],
    "triangles": [
        5,
        0,
        1,
        2,
        3,
        4,
        5,
        1,
        2
    ],
    "carDensity": 6.0,
    "suspension": 0.8312398791313171,
    "motorSpeed": 582,
    "frontDensity": 2.5,
    "frontRadius": 0.4496805667877197,
    "frontOffset": 0.897361159324646,
    "backDensity": 2.700000047683716,
    "backRadius": 0.46746236085891726,
    "backOffset": -1.001268982887268,
    "score": 110,
    "maxDistance": 107,
    "maxTime": 31.0
}{
    "ID": 18400,
    "genomaID": "CV6TD12",
    "color": {
        "x": 0.5215955376625061,
        "y": 0.5618323683738709,
        "z": 0.9288589954376221
    },
    "vertexNumber": 6,
    "colliderVertices": [
        {
            "x": -1.426736831665039,
            "y": -0.21493598818778993
        },
        {
            "x": 1.7115731239318848,
            "y": -0.32544901967048647
        },
        {
            "x": 1.7554802894592286,
            "y": 0.6267954111099243
        },
        {
            "x": 1.4873571395874024,
            "y": 0.40516215562820437
        },
        {
            "x": -0.3835170269012451,
            "y": 0.39986294507980349
        },
        {
            "x": -1.3439083099365235,
            "y": 0.15790069103240968
        }
    ],
    "triangles": [
        3,
        1,
        5,
        5,
        4,
        3,
        3,
        2,
        1,
        1,
        0,
        5
    ],
    "carDensity": 6.0,
    "suspension": 0.6726312637329102,
    "motorSpeed": 1354,
    "frontDensity": 2.9000000953674318,
    "frontRadius": 0.49412667751312258,
    "frontOffset": 0.5362856388092041,
    "backDensity": 3.0999999046325685,
    "backRadius": 0.50873863697052,
    "backOffset": -1.3312461376190186,
    "score": 0,
    "maxDistance": 0,
    "maxTime": 1.0
}