{
    "ID": 45607,
    "genomaID": "CV6TD12",
    "color": {
        "x": 0.6317546963691711,
        "y": 0.16316796839237214,
        "z": 0.5255669951438904
    },
    "vertexNumber": 6,
    "colliderVertices": [
        {
            "x": -1.48408842086792,
            "y": -0.22321221232414246
        },
        {
            "x": 1.9651042222976685,
            "y": -0.39630383253097536
        },
        {
            "x": 0.5203928351402283,
            "y": 0.7433068752288818
        },
        {
            "x": -0.9013445377349854,
            "y": 0.45911532640457156
        },
        {
            "x": -1.0748810768127442,
            "y": 0.2989421486854553
        },
        {
            "x": -1.248049259185791,
            "y": 0.4300118088722229
        }
    ],
    "triangles": [
        4,
        2,
        0,
        0,
        5,
        4,
        4,
        3,
        2,
        2,
        1,
        0
    ],
    "carDensity": 6.0,
    "suspension": 0.9548380374908447,
    "motorSpeed": 765,
    "frontDensity": 3.9000000953674318,
    "frontRadius": 0.5873497724533081,
    "frontOffset": 1.1432875394821168,
    "backDensity": 2.5,
    "backRadius": 0.4494001865386963,
    "backOffset": -0.9266787767410278,
    "score": 838,
    "maxDistance": 833,
    "maxTime": 146.0
}{
    "ID": 45732,
    "genomaID": "CV5TD10",
    "color": {
        "x": 0.07389343529939652,
        "y": 0.03187299147248268,
        "z": 0.6703830361366272
    },
    "vertexNumber": 5,
    "colliderVertices": [
        {
            "x": -1.7928818464279175,
            "y": -0.48169654607772829
        },
        {
            "x": 1.926466941833496,
            "y": -0.49739837646484377
        },
        {
            "x": -0.44023680686950686,
            "y": 0.5934099555015564
        },
        {
            "x": -1.0534381866455079,
            "y": 0.9926338195800781
        },
        {
            "x": -1.9807147979736329,
            "y": 0.479993999004364
        }
    ],
    "triangles": [
        2,
        1,
        4,
        4,
        3,
        2,
        1,
        0,
        4
    ],
    "carDensity": 5.0,
    "suspension": 0.9309355020523071,
    "motorSpeed": 1433,
    "frontDensity": 2.0,
    "frontRadius": 0.4049779176712036,
    "frontOffset": 0.5925345420837402,
    "backDensity": 2.5999999046325685,
    "backRadius": 0.4596301317214966,
    "backOffset": -1.2986929416656495,
    "score": 16,
    "maxDistance": 12,
    "maxTime": 3.0
}{
    "ID": 45799,
    "genomaID": "CV4TD11",
    "color": {
        "x": 0.9940735101699829,
        "y": 0.9590579271316528,
        "z": 0.19860604405403138
    },
    "vertexNumber": 4,
    "colliderVertices": [
        {
            "x": -1.051641583442688,
            "y": -0.12499184906482697
        },
        {
            "x": 1.0250998735427857,
            "y": -0.15716953575611115
        },
        {
            "x": 1.6468186378479005,
            "y": 0.7815930843353272
        },
        {
            "x": -0.22577595710754395,
            "y": 0.2671430706977844
        }
    ],
    "triangles": [
        3,
        2,
        1,
        1,
        0,
        3
    ],
    "carDensity": 4.0,
    "suspension": 0.7132629752159119,
    "motorSpeed": 1458,
    "frontDensity": 3.0999999046325685,
    "frontRadius": 0.5054016709327698,
    "frontOffset": 1.3058465719223023,
    "backDensity": 4.300000190734863,
    "backRadius": 0.6290439367294312,
    "backOffset": -0.9266787767410278,
    "score": 0,
    "maxDistance": 0,
    "maxTime": 1.0
}