{
    "ID": 75203,
    "genomaID": "CV6TD15",
    "color": {
        "x": 0.5844698548316956,
        "y": 0.052113063633441928,
        "z": 0.6512853503227234
    },
    "vertexNumber": 6,
    "colliderVertices": [
        {
            "x": -1.8407127857208253,
            "y": -0.04082179442048073
        },
        {
            "x": 1.8200691938400269,
            "y": -0.49180668592453005
        },
        {
            "x": 0.6907457709312439,
            "y": 0.6551421880722046
        },
        {
            "x": 0.12856030464172364,
            "y": 0.1226729154586792
        },
        {
            "x": -1.1815733909606934,
            "y": 0.49483639001846316
        },
        {
            "x": -1.27280855178833,
            "y": 0.07629835605621338
        }
    ],
    "triangles": [
        3,
        1,
        5,
        5,
        4,
        3,
        3,
        2,
        1,
        1,
        0,
        5
    ],
    "carDensity": 6.0,
    "suspension": 0.4944325089454651,
    "motorSpeed": 602,
    "frontDensity": 4.599999904632568,
    "frontRadius": 0.6588287949562073,
    "frontOffset": 1.115432620048523,
    "backDensity": 3.5999999046325685,
    "backRadius": 0.5614467859268189,
    "backOffset": -1.3952969312667847,
    "score": 838,
    "maxDistance": 833,
    "maxTime": 153.0
}{
    "ID": 75318,
    "genomaID": "CV4TD10",
    "color": {
        "x": 0.5498951077461243,
        "y": 0.7128847241401672,
        "z": 0.9665544033050537
    },
    "vertexNumber": 4,
    "colliderVertices": [
        {
            "x": -1.2430589199066163,
            "y": -0.012814166024327279
        },
        {
            "x": 1.6426657438278199,
            "y": -0.18235071003437043
        },
        {
            "x": 0.3230564594268799,
            "y": 0.8039629459381104
        },
        {
            "x": -0.16808009147644044,
            "y": 0.64620041847229
        }
    ],
    "triangles": [
        3,
        2,
        1,
        1,
        0,
        3
    ],
    "carDensity": 4.0,
    "suspension": 0.6489369869232178,
    "motorSpeed": 632,
    "frontDensity": 4.199999809265137,
    "frontRadius": 0.620099663734436,
    "frontOffset": 1.4759739637374879,
    "backDensity": 2.0,
    "backRadius": 0.40323418378829958,
    "backOffset": -1.4157440662384034,
    "score": 59,
    "maxDistance": 54,
    "maxTime": 10.0
}{
    "ID": 75272,
    "genomaID": "CV6TD12",
    "color": {
        "x": 0.6227342486381531,
        "y": 0.3031499683856964,
        "z": 0.6144463419914246
    },
    "vertexNumber": 6,
    "colliderVertices": [
        {
            "x": -1.4908168315887452,
            "y": -0.14139695465564729
        },
        {
            "x": 1.3314905166625977,
            "y": -0.22175326943397523
        },
        {
            "x": -0.4088137149810791,
            "y": 0.900825023651123
        },
        {
            "x": -1.3318028450012208,
            "y": 0.9217157363891602
        },
        {
            "x": -1.395613193511963,
            "y": 0.85969078540802
        },
        {
            "x": -1.8422536849975587,
            "y": 0.8355245590209961
        }
    ],
    "triangles": [
        4,
        3,
        1,
        1,
        5,
        4,
        3,
        2,
        1,
        1,
        0,
        5
    ],
    "carDensity": 6.0,
    "suspension": 0.646458089351654,
    "motorSpeed": 1076,
    "frontDensity": 4.199999809265137,
    "frontRadius": 0.616088330745697,
    "frontOffset": 0.5185211896896362,
    "backDensity": 2.0,
    "backRadius": 0.4002561569213867,
    "backOffset": -1.1738171577453614,
    "score": -1,
    "maxDistance": -1,
    "maxTime": 2.0
}