{
    "ID": 11912,
    "genomaID": "CV4TD9",
    "color": {
        "x": 0.7944051027297974,
        "y": 0.09403432905673981,
        "z": 0.8064427375793457
    },
    "vertexNumber": 4,
    "colliderVertices": [
        {
            "x": -1.3185625076293946,
            "y": -0.3552403748035431
        },
        {
            "x": 1.2901225090026856,
            "y": -0.48586785793304446
        },
        {
            "x": -0.10196805000305176,
            "y": 0.9303276538848877
        },
        {
            "x": -0.7482550144195557,
            "y": 0.2295064926147461
        }
    ],
    "triangles": [
        3,
        2,
        1,
        1,
        0,
        3
    ],
    "carDensity": 4.0,
    "suspension": 0.9987615942955017,
    "motorSpeed": 802,
    "frontDensity": 3.200000047683716,
    "frontRadius": 0.5203235149383545,
    "frontOffset": 1.4480856657028199,
    "backDensity": 2.4000000953674318,
    "backRadius": 0.43814629316329958,
    "backOffset": -1.4768788814544678,
    "score": 838,
    "maxDistance": 833,
    "maxTime": 150.0
}{
    "ID": 11999,
    "genomaID": "CV5TD11",
    "color": {
        "x": 0.9940735101699829,
        "y": 0.9590579271316528,
        "z": 0.19860604405403138
    },
    "vertexNumber": 5,
    "colliderVertices": [
        {
            "x": -1.750051736831665,
            "y": -0.11783440411090851
        },
        {
            "x": 1.6918060779571534,
            "y": -0.1627945452928543
        },
        {
            "x": 0.7573041319847107,
            "y": 0.030890226364135743
        },
        {
            "x": 0.07340073585510254,
            "y": 0.14250576496124268
        },
        {
            "x": -1.169328212738037,
            "y": 0.9905341863632202
        }
    ],
    "triangles": [
        3,
        2,
        0,
        0,
        4,
        3,
        2,
        1,
        0
    ],
    "carDensity": 5.0,
    "suspension": 0.9908944964408875,
    "motorSpeed": 683,
    "frontDensity": 3.5999999046325685,
    "frontRadius": 0.5606523156166077,
    "frontOffset": 1.2290170192718506,
    "backDensity": 2.200000047683716,
    "backRadius": 0.42286860942840578,
    "backOffset": -0.7221182584762573,
    "score": 110,
    "maxDistance": 107,
    "maxTime": 28.0
}{
    "ID": 11994,
    "genomaID": "CV3TD9",
    "color": {
        "x": 0.7752962112426758,
        "y": 0.9479353427886963,
        "z": 0.47951334714889529
    },
    "vertexNumber": 3,
    "colliderVertices": [
        {
            "x": -1.7439544200897217,
            "y": -0.04166216030716896
        },
        {
            "x": 1.5868375301361085,
            "y": -0.3488989770412445
        },
        {
            "x": 0.4437873363494873,
            "y": 0.2244408130645752
        }
    ],
    "triangles": [
        1,
        0,
        2
    ],
    "carDensity": 3.0,
    "suspension": 0.49307817220687868,
    "motorSpeed": 507,
    "frontDensity": 3.299999952316284,
    "frontRadius": 0.531562864780426,
    "frontOffset": 0.602480411529541,
    "backDensity": 3.200000047683716,
    "backRadius": 0.5215157270431519,
    "backOffset": -0.8351448774337769,
    "score": 0,
    "maxDistance": 0,
    "maxTime": 0.0
}