{
    "ID": 43876,
    "genomaID": "CV3TD9",
    "color": {
        "x": 0.9359581470489502,
        "y": 0.09859634935855866,
        "z": 0.9203523397445679
    },
    "vertexNumber": 3,
    "colliderVertices": [
        {
            "x": -1.9632070064544678,
            "y": -0.14826776087284089
        },
        {
            "x": 1.407179355621338,
            "y": -0.4491809606552124
        },
        {
            "x": -0.5586721897125244,
            "y": 0.4526011347770691
        }
    ],
    "triangles": [
        1,
        0,
        2
    ],
    "carDensity": 3.0,
    "suspension": 0.867253839969635,
    "motorSpeed": 703,
    "frontDensity": 3.299999952316284,
    "frontRadius": 0.5284082293510437,
    "frontOffset": 1.0740607976913453,
    "backDensity": 2.5999999046325685,
    "backRadius": 0.4633820056915283,
    "backOffset": -1.261582374572754,
    "score": 838,
    "maxDistance": 833,
    "maxTime": 164.0
}{
    "ID": 43899,
    "genomaID": "CV5TD12",
    "color": {
        "x": 0.6266306042671204,
        "y": 0.6281366944313049,
        "z": 0.8323445320129395
    },
    "vertexNumber": 5,
    "colliderVertices": [
        {
            "x": -1.4040958881378174,
            "y": -0.2595991790294647
        },
        {
            "x": 1.9086767435073853,
            "y": -0.47428154945373537
        },
        {
            "x": 1.6741032600402833,
            "y": 0.8447985649108887
        },
        {
            "x": 1.483633041381836,
            "y": 0.5193844437599182
        },
        {
            "x": -0.30127978324890139,
            "y": 0.7936996221542358
        }
    ],
    "triangles": [
        1,
        4,
        3,
        3,
        2,
        1,
        1,
        0,
        4
    ],
    "carDensity": 5.0,
    "suspension": 0.48376068472862246,
    "motorSpeed": 573,
    "frontDensity": 2.9000000953674318,
    "frontRadius": 0.48884502053260805,
    "frontOffset": 1.2342357635498047,
    "backDensity": 3.9000000953674318,
    "backRadius": 0.5891040563583374,
    "backOffset": -0.9096421003341675,
    "score": 106,
    "maxDistance": 102,
    "maxTime": 21.0
}{
    "ID": 44000,
    "genomaID": "CV4TD13",
    "color": {
        "x": 0.5215955376625061,
        "y": 0.5618323683738709,
        "z": 0.9288589954376221
    },
    "vertexNumber": 4,
    "colliderVertices": [
        {
            "x": -1.7201480865478516,
            "y": -0.37924736738204958
        },
        {
            "x": 1.4345791339874268,
            "y": -0.01257634349167347
        },
        {
            "x": -0.9705049991607666,
            "y": 0.032402992248535159
        },
        {
            "x": -1.4473109245300294,
            "y": 0.6029720902442932
        }
    ],
    "triangles": [
        0,
        3,
        2,
        2,
        1,
        0
    ],
    "carDensity": 4.0,
    "suspension": 0.9855145812034607,
    "motorSpeed": 665,
    "frontDensity": 4.0,
    "frontRadius": 0.5988678932189941,
    "frontOffset": 1.3535621166229249,
    "backDensity": 4.699999809265137,
    "backRadius": 0.6727199554443359,
    "backOffset": -1.3988417387008668,
    "score": 0,
    "maxDistance": 0,
    "maxTime": 1.0
}