{
    "ID": 24901,
    "genomaID": "CV3TD9",
    "color": {
        "x": 0.6011318564414978,
        "y": 0.5768736004829407,
        "z": 0.17201127111911775
    },
    "vertexNumber": 3,
    "colliderVertices": [
        {
            "x": -1.6710333824157715,
            "y": -0.15075047314167024
        },
        {
            "x": 1.7607738971710206,
            "y": -0.20653507113456727
        },
        {
            "x": 1.9492011070251465,
            "y": 0.034656524658203128
        }
    ],
    "triangles": [
        1,
        0,
        2
    ],
    "carDensity": 3.0,
    "suspension": 0.5238102078437805,
    "motorSpeed": 693,
    "frontDensity": 3.200000047683716,
    "frontRadius": 0.5190246105194092,
    "frontOffset": 1.2749848365783692,
    "backDensity": 2.9000000953674318,
    "backRadius": 0.48695459961891177,
    "backOffset": -0.9604493379592896,
    "score": 838,
    "maxDistance": 833,
    "maxTime": 159.0
}{
    "ID": 24875,
    "genomaID": "CV3TD9",
    "color": {
        "x": 0.0240405835211277,
        "y": 0.19670024514198304,
        "z": 0.3202921450138092
    },
    "vertexNumber": 3,
    "colliderVertices": [
        {
            "x": -1.2839009761810303,
            "y": -0.03046375885605812
        },
        {
            "x": 1.2967267036437989,
            "y": -0.048200495541095737
        },
        {
            "x": -1.2495789527893067,
            "y": 0.5071433186531067
        }
    ],
    "triangles": [
        1,
        0,
        2
    ],
    "carDensity": 3.0,
    "suspension": 0.8142751455307007,
    "motorSpeed": 693,
    "frontDensity": 4.300000190734863,
    "frontRadius": 0.6335988640785217,
    "frontOffset": 1.2215564250946046,
    "backDensity": 2.299999952316284,
    "backRadius": 0.42936086654663088,
    "backOffset": -1.1235915422439576,
    "score": 7,
    "maxDistance": 5,
    "maxTime": 2.0
}{
    "ID": 24998,
    "genomaID": "CV3TD11",
    "color": {
        "x": 0.007468582130968571,
        "y": 0.663615882396698,
        "z": 0.7980117797851563
    },
    "vertexNumber": 3,
    "colliderVertices": [
        {
            "x": -1.617161512374878,
            "y": -0.29109081625938418
        },
        {
            "x": 1.201873779296875,
            "y": -0.16882993280887605
        },
        {
            "x": 0.271679162979126,
            "y": 0.6377887725830078
        }
    ],
    "triangles": [
        1,
        0,
        2
    ],
    "carDensity": 3.0,
    "suspension": 0.9883474707603455,
    "motorSpeed": 545,
    "frontDensity": 4.599999904632568,
    "frontRadius": 0.6565114259719849,
    "frontOffset": 1.0001112222671509,
    "backDensity": 2.799999952316284,
    "backRadius": 0.481403112411499,
    "backOffset": -1.122076392173767,
    "score": 0,
    "maxDistance": 0,
    "maxTime": 0.0
}