{
    "ID": 32106,
    "genomaID": "CV3TD8",
    "color": {
        "x": 0.6932232975959778,
        "y": 0.5851419568061829,
        "z": 0.6882917284965515
    },
    "vertexNumber": 3,
    "colliderVertices": [
        {
            "x": -1.0210357904434205,
            "y": -0.004066408146172762
        },
        {
            "x": 1.9924837350845338,
            "y": -0.3114528954029083
        },
        {
            "x": 0.5013822913169861,
            "y": 0.06032109260559082
        }
    ],
    "triangles": [
        1,
        0,
        2
    ],
    "carDensity": 3.0,
    "suspension": 0.5128390789031982,
    "motorSpeed": 857,
    "frontDensity": 2.5999999046325685,
    "frontRadius": 0.46283507347106936,
    "frontOffset": 1.43687903881073,
    "backDensity": 2.4000000953674318,
    "backRadius": 0.43601691722869875,
    "backOffset": -1.496032476425171,
    "score": 838,
    "maxDistance": 833,
    "maxTime": 146.0
}{
    "ID": 32134,
    "genomaID": "CV6TD12",
    "color": {
        "x": 0.23967471718788148,
        "y": 0.5861781239509583,
        "z": 0.3909059166908264
    },
    "vertexNumber": 6,
    "colliderVertices": [
        {
            "x": -1.7772079706192017,
            "y": -0.3785029649734497
        },
        {
            "x": 1.909879446029663,
            "y": -0.12666459381580354
        },
        {
            "x": 1.0513057708740235,
            "y": 0.3015027642250061
        },
        {
            "x": 0.6690763831138611,
            "y": 0.23653936386108399
        },
        {
            "x": -0.5352990627288818,
            "y": 0.9128738641738892
        },
        {
            "x": -1.0027227401733399,
            "y": 0.4447864890098572
        }
    ],
    "triangles": [
        3,
        1,
        5,
        5,
        4,
        3,
        3,
        2,
        1,
        1,
        0,
        5
    ],
    "carDensity": 6.0,
    "suspension": 0.5516706705093384,
    "motorSpeed": 562,
    "frontDensity": 3.4000000953674318,
    "frontRadius": 0.537381649017334,
    "frontOffset": 0.5662411451339722,
    "backDensity": 2.5999999046325685,
    "backRadius": 0.4648944139480591,
    "backOffset": -1.372338056564331,
    "score": 110,
    "maxDistance": 107,
    "maxTime": 30.0
}{
    "ID": 32200,
    "genomaID": "CV5TD13",
    "color": {
        "x": 0.5215955376625061,
        "y": 0.5618323683738709,
        "z": 0.9288589954376221
    },
    "vertexNumber": 5,
    "colliderVertices": [
        {
            "x": -1.5254888534545899,
            "y": -0.06421346217393875
        },
        {
            "x": 1.0716516971588135,
            "y": -0.4617917537689209
        },
        {
            "x": 1.9874234199523926,
            "y": 0.4771694540977478
        },
        {
            "x": 0.5452837347984314,
            "y": 0.6817609071731567
        },
        {
            "x": -0.2597482204437256,
            "y": 0.17263901233673097
        }
    ],
    "triangles": [
        1,
        4,
        3,
        3,
        2,
        1,
        1,
        0,
        4
    ],
    "carDensity": 5.0,
    "suspension": 0.8093817234039307,
    "motorSpeed": 1211,
    "frontDensity": 3.0,
    "frontRadius": 0.4953538179397583,
    "frontOffset": 1.2710474729537964,
    "backDensity": 4.800000190734863,
    "backRadius": 0.6765519380569458,
    "backOffset": -1.4407494068145753,
    "score": 0,
    "maxDistance": 0,
    "maxTime": 1.0
}