{
    "ID": 43107,
    "genomaID": "CV6TD14",
    "color": {
        "x": 0.12847758829593659,
        "y": 0.48697811365127566,
        "z": 0.8028489351272583
    },
    "vertexNumber": 6,
    "colliderVertices": [
        {
            "x": -1.2403573989868165,
            "y": -0.22308483719825746
        },
        {
            "x": 1.9597476720809937,
            "y": -0.34069177508354189
        },
        {
            "x": 1.6437873840332032,
            "y": 0.42428332567214968
        },
        {
            "x": 1.4888801574707032,
            "y": 0.651496171951294
        },
        {
            "x": -0.9677059650421143,
            "y": 0.49590450525283816
        },
        {
            "x": -1.897099494934082,
            "y": 0.17754411697387696
        }
    ],
    "triangles": [
        3,
        1,
        5,
        5,
        4,
        3,
        3,
        2,
        1,
        1,
        0,
        5
    ],
    "carDensity": 6.0,
    "suspension": 0.5201641321182251,
    "motorSpeed": 639,
    "frontDensity": 5.0,
    "frontRadius": 0.6994370818138123,
    "frontOffset": 1.1326422691345215,
    "backDensity": 3.0,
    "backRadius": 0.4982694387435913,
    "backOffset": -1.3481085300445557,
    "score": 838,
    "maxDistance": 833,
    "maxTime": 152.0
}{
    "ID": 43150,
    "genomaID": "CV4TD9",
    "color": {
        "x": 0.060572512447834018,
        "y": 0.17979909479618073,
        "z": 0.0740131214261055
    },
    "vertexNumber": 4,
    "colliderVertices": [
        {
            "x": -1.2995045185089112,
            "y": -0.14326436817646027
        },
        {
            "x": 1.5571134090423585,
            "y": -0.16645295917987824
        },
        {
            "x": 1.9683785438537598,
            "y": 0.7527611255645752
        },
        {
            "x": -1.7406044006347657,
            "y": 0.31127113103866579
        }
    ],
    "triangles": [
        3,
        2,
        1,
        1,
        0,
        3
    ],
    "carDensity": 4.0,
    "suspension": 0.9789708852767944,
    "motorSpeed": 511,
    "frontDensity": 2.0999999046325685,
    "frontRadius": 0.40957459807395937,
    "frontOffset": 1.3003473281860352,
    "backDensity": 2.799999952316284,
    "backRadius": 0.47742849588394167,
    "backOffset": -0.6741905212402344,
    "score": 109,
    "maxDistance": 107,
    "maxTime": 37.0
}{
    "ID": 43198,
    "genomaID": "CV6TD12",
    "color": {
        "x": 0.007468582130968571,
        "y": 0.663615882396698,
        "z": 0.7980117797851563
    },
    "vertexNumber": 6,
    "colliderVertices": [
        {
            "x": -1.130596399307251,
            "y": -0.0318339504301548
        },
        {
            "x": 1.1074222326278687,
            "y": -0.492270827293396
        },
        {
            "x": 0.21735310554504395,
            "y": 0.16567730903625489
        },
        {
            "x": 0.1617119312286377,
            "y": 0.6490815877914429
        },
        {
            "x": -0.5498044490814209,
            "y": 0.08796703815460205
        },
        {
            "x": -1.8264713287353516,
            "y": 0.6438021659851074
        }
    ],
    "triangles": [
        4,
        2,
        0,
        0,
        5,
        4,
        4,
        3,
        2,
        2,
        1,
        0
    ],
    "carDensity": 6.0,
    "suspension": 0.7805442810058594,
    "motorSpeed": 1205,
    "frontDensity": 3.0999999046325685,
    "frontRadius": 0.5135741829872131,
    "frontOffset": 1.4564331769943238,
    "backDensity": 2.799999952316284,
    "backRadius": 0.48067718744277956,
    "backOffset": -1.3147823810577393,
    "score": 0,
    "maxDistance": 0,
    "maxTime": 1.0
}