{
    "ID": 16054,
    "genomaID": "CV6TD13",
    "color": {
        "x": 0.7432203888893127,
        "y": 0.599513828754425,
        "z": 0.1527956873178482
    },
    "vertexNumber": 6,
    "colliderVertices": [
        {
            "x": -1.551614761352539,
            "y": -0.4971836805343628
        },
        {
            "x": 1.9383957386016846,
            "y": -0.09204889088869095
        },
        {
            "x": 1.1717848777770997,
            "y": 0.18754041194915772
        },
        {
            "x": 0.0028421878814697267,
            "y": 0.9844300746917725
        },
        {
            "x": -0.33553528785705569,
            "y": 0.26531869173049929
        },
        {
            "x": -0.7288486957550049,
            "y": 0.9834295511245728
        }
    ],
    "triangles": [
        4,
        2,
        0,
        0,
        5,
        4,
        4,
        3,
        2,
        2,
        1,
        0
    ],
    "carDensity": 6.0,
    "suspension": 0.8882777094841003,
    "motorSpeed": 700,
    "frontDensity": 4.300000190734863,
    "frontRadius": 0.6316841244697571,
    "frontOffset": 1.3613542318344117,
    "backDensity": 2.799999952316284,
    "backRadius": 0.47687047719955447,
    "backOffset": -1.1327377557754517,
    "score": 838,
    "maxDistance": 833,
    "maxTime": 152.0
}{
    "ID": 16113,
    "genomaID": "CV6TD10",
    "color": {
        "x": 0.4124513268470764,
        "y": 0.2282067835330963,
        "z": 0.17610050737857819
    },
    "vertexNumber": 6,
    "colliderVertices": [
        {
            "x": -1.3408818244934083,
            "y": -0.16232611238956452
        },
        {
            "x": 1.330315351486206,
            "y": -0.2865011990070343
        },
        {
            "x": 1.9175825119018555,
            "y": 0.11287271976470947
        },
        {
            "x": 1.5173287391662598,
            "y": 0.12036120891571045
        },
        {
            "x": -0.7964766025543213,
            "y": 0.9491068124771118
        },
        {
            "x": -1.8950104713439942,
            "y": 0.011868953704833985
        }
    ],
    "triangles": [
        3,
        1,
        5,
        5,
        4,
        3,
        3,
        2,
        1,
        1,
        0,
        5
    ],
    "carDensity": 6.0,
    "suspension": 0.429375559091568,
    "motorSpeed": 640,
    "frontDensity": 2.4000000953674318,
    "frontRadius": 0.44229215383529665,
    "frontOffset": 1.2451738119125367,
    "backDensity": 2.4000000953674318,
    "backRadius": 0.4359564483165741,
    "backOffset": -1.0500365495681763,
    "score": 110,
    "maxDistance": 107,
    "maxTime": 30.0
}{
    "ID": 16199,
    "genomaID": "CV5TD10",
    "color": {
        "x": 0.9940735101699829,
        "y": 0.9590579271316528,
        "z": 0.19860604405403138
    },
    "vertexNumber": 5,
    "colliderVertices": [
        {
            "x": -1.0605257749557496,
            "y": -0.4258626699447632
        },
        {
            "x": 1.421630859375,
            "y": -0.10718567669391632
        },
        {
            "x": -0.5631864070892334,
            "y": 0.6402550935745239
        },
        {
            "x": -1.7449183464050294,
            "y": 0.08438766002655029
        },
        {
            "x": -1.8952784538269044,
            "y": 0.28981059789657595
        }
    ],
    "triangles": [
        4,
        0,
        1,
        1,
        2,
        3
    ],
    "carDensity": 5.0,
    "suspension": 0.7832406759262085,
    "motorSpeed": 663,
    "frontDensity": 2.0999999046325685,
    "frontRadius": 0.40945035219192507,
    "frontOffset": 0.8669041395187378,
    "backDensity": 3.200000047683716,
    "backRadius": 0.5200899839401245,
    "backOffset": -0.8472915887832642,
    "score": 0,
    "maxDistance": 0,
    "maxTime": 1.0
}