{
    "ID": 28349,
    "genomaID": "CV6TD13",
    "color": {
        "x": 0.6897854208946228,
        "y": 0.6507055163383484,
        "z": 0.5617504715919495
    },
    "vertexNumber": 6,
    "colliderVertices": [
        {
            "x": -1.2140402793884278,
            "y": -0.17731358110904694
        },
        {
            "x": 1.7350455522537232,
            "y": -0.49832022190093996
        },
        {
            "x": 1.5567479133605958,
            "y": 0.1117926836013794
        },
        {
            "x": 1.2938780784606934,
            "y": 0.12375068664550781
        },
        {
            "x": -0.5094788074493408,
            "y": 0.5454135537147522
        },
        {
            "x": -0.8128249645233154,
            "y": 0.02423417568206787
        }
    ],
    "triangles": [
        3,
        1,
        5,
        5,
        4,
        3,
        3,
        2,
        1,
        1,
        0,
        5
    ],
    "carDensity": 6.0,
    "suspension": 0.6990087628364563,
    "motorSpeed": 747,
    "frontDensity": 4.400000095367432,
    "frontRadius": 0.6404520869255066,
    "frontOffset": 1.2051708698272706,
    "backDensity": 3.0999999046325685,
    "backRadius": 0.5058810114860535,
    "backOffset": -1.445096731185913,
    "score": 839,
    "maxDistance": 833,
    "maxTime": 135.0
}{
    "ID": 28399,
    "genomaID": "CV4TD8",
    "color": {
        "x": 0.9940735101699829,
        "y": 0.9590579271316528,
        "z": 0.19860604405403138
    },
    "vertexNumber": 4,
    "colliderVertices": [
        {
            "x": -1.3702528476715088,
            "y": -0.030595961958169938
        },
        {
            "x": 1.652823567390442,
            "y": -0.2618245780467987
        },
        {
            "x": -1.028778076171875,
            "y": 0.437572181224823
        },
        {
            "x": -1.3573126792907715,
            "y": 0.37887459993362429
        }
    ],
    "triangles": [
        3,
        2,
        1,
        1,
        0,
        3
    ],
    "carDensity": 4.0,
    "suspension": 0.8219892978668213,
    "motorSpeed": 630,
    "frontDensity": 2.0999999046325685,
    "frontRadius": 0.4098379611968994,
    "frontOffset": 1.4967916011810303,
    "backDensity": 2.5,
    "backRadius": 0.4546373188495636,
    "backOffset": -1.0789214372634888,
    "score": 110,
    "maxDistance": 107,
    "maxTime": 35.0
}{
    "ID": 28397,
    "genomaID": "CV5TD12",
    "color": {
        "x": 0.15672196447849275,
        "y": 0.8961608409881592,
        "z": 0.9475356340408325
    },
    "vertexNumber": 5,
    "colliderVertices": [
        {
            "x": -1.010074257850647,
            "y": -0.19943341612815858
        },
        {
            "x": 1.6900150775909424,
            "y": -0.28309544920921328
        },
        {
            "x": 1.7440681457519532,
            "y": 0.9521546363830566
        },
        {
            "x": 0.8096827864646912,
            "y": 0.6292036771774292
        },
        {
            "x": -1.8911018371582032,
            "y": 0.9974843263626099
        }
    ],
    "triangles": [
        1,
        4,
        3,
        3,
        2,
        1,
        1,
        0,
        4
    ],
    "carDensity": 5.0,
    "suspension": 0.6212074756622315,
    "motorSpeed": 1227,
    "frontDensity": 4.400000095367432,
    "frontRadius": 0.6404520869255066,
    "frontOffset": 1.1695477962493897,
    "backDensity": 3.0999999046325685,
    "backRadius": 0.5058810114860535,
    "backOffset": -0.7706124186515808,
    "score": 0,
    "maxDistance": 0,
    "maxTime": 1.0
}