{
    "ID": 89208,
    "genomaID": "CV5TD13",
    "color": {
        "x": 0.6648332476615906,
        "y": 0.49264246225357058,
        "z": 0.02354145422577858
    },
    "vertexNumber": 5,
    "colliderVertices": [
        {
            "x": -1.7754206657409669,
            "y": -0.4410780668258667
        },
        {
            "x": 1.8906508684158326,
            "y": -0.27264949679374697
        },
        {
            "x": 1.6252555847167969,
            "y": 0.31131511926651
        },
        {
            "x": -0.7875750064849854,
            "y": 0.8159689903259277
        },
        {
            "x": -1.632434368133545,
            "y": 0.2335195541381836
        }
    ],
    "triangles": [
        1,
        4,
        3,
        3,
        2,
        1,
        1,
        0,
        4
    ],
    "carDensity": 5.0,
    "suspension": 0.9949421882629395,
    "motorSpeed": 621,
    "frontDensity": 4.599999904632568,
    "frontRadius": 0.6603094339370728,
    "frontOffset": 0.6903005838394165,
    "backDensity": 3.299999952316284,
    "backRadius": 0.5290428400039673,
    "backOffset": -1.4376273155212403,
    "score": 838,
    "maxDistance": 833,
    "maxTime": 159.0
}{
    "ID": 89360,
    "genomaID": "CV6TD11",
    "color": {
        "x": 0.34339073300361636,
        "y": 0.25217536091804507,
        "z": 0.680949866771698
    },
    "vertexNumber": 6,
    "colliderVertices": [
        {
            "x": -1.824297547340393,
            "y": -0.48117709159851076
        },
        {
            "x": 1.6970535516738892,
            "y": -0.35961583256721499
        },
        {
            "x": 1.4381160736083985,
            "y": 0.8976572751998901
        },
        {
            "x": 0.8794378638267517,
            "y": 0.654839038848877
        },
        {
            "x": 0.4670531749725342,
            "y": 0.32374924421310427
        },
        {
            "x": -1.252673625946045,
            "y": 0.9346681833267212
        }
    ],
    "triangles": [
        4,
        3,
        1,
        1,
        5,
        4,
        3,
        2,
        1,
        1,
        0,
        5
    ],
    "carDensity": 6.0,
    "suspension": 0.7810236811637878,
    "motorSpeed": 830,
    "frontDensity": 2.0999999046325685,
    "frontRadius": 0.4055735468864441,
    "frontOffset": 1.1148170232772828,
    "backDensity": 3.0,
    "backRadius": 0.5026800632476807,
    "backOffset": -1.2965039014816285,
    "score": 54,
    "maxDistance": 49,
    "maxTime": 9.0
}{
    "ID": 89400,
    "genomaID": "CV6TD12",
    "color": {
        "x": 0.5215955376625061,
        "y": 0.5618323683738709,
        "z": 0.9288589954376221
    },
    "vertexNumber": 6,
    "colliderVertices": [
        {
            "x": -1.4023141860961915,
            "y": -0.1831488162279129
        },
        {
            "x": 1.7258522510528565,
            "y": -0.055576153099536899
        },
        {
            "x": 1.8850955963134766,
            "y": 0.49718838930130007
        },
        {
            "x": 1.355909824371338,
            "y": 0.1688762903213501
        },
        {
            "x": -1.1018872261047364,
            "y": 0.7174452543258667
        },
        {
            "x": -1.98423433303833,
            "y": 0.9303159713745117
        }
    ],
    "triangles": [
        4,
        3,
        1,
        1,
        5,
        4,
        3,
        2,
        1,
        1,
        0,
        5
    ],
    "carDensity": 6.0,
    "suspension": 0.8355998396873474,
    "motorSpeed": 1352,
    "frontDensity": 2.4000000953674318,
    "frontRadius": 0.4357655644416809,
    "frontOffset": 1.0642091035842896,
    "backDensity": 4.0,
    "backRadius": 0.5980573892593384,
    "backOffset": -1.2248766422271729,
    "score": 0,
    "maxDistance": 0,
    "maxTime": 1.0
}