{
    "ID": 42512,
    "genomaID": "CV3TD8",
    "color": {
        "x": 0.7944051027297974,
        "y": 0.09403432905673981,
        "z": 0.8064427375793457
    },
    "vertexNumber": 3,
    "colliderVertices": [
        {
            "x": -1.3615379333496094,
            "y": -0.4060933589935303
        },
        {
            "x": 1.1465387344360352,
            "y": -0.05710852891206741
        },
        {
            "x": 1.1191892623901368,
            "y": 0.31011778116226199
        }
    ],
    "triangles": [
        1,
        0,
        2
    ],
    "carDensity": 3.0,
    "suspension": 0.9063589572906494,
    "motorSpeed": 1267,
    "frontDensity": 2.9000000953674318,
    "frontRadius": 0.49103134870529177,
    "frontOffset": 1.472862958908081,
    "backDensity": 2.0999999046325685,
    "backRadius": 0.40862369537353518,
    "backOffset": -1.307755470275879,
    "score": 841,
    "maxDistance": 833,
    "maxTime": 101.0
}{
    "ID": 42530,
    "genomaID": "CV3TD11",
    "color": {
        "x": 0.07822931557893753,
        "y": 0.23043778538703919,
        "z": 0.42850440740585329
    },
    "vertexNumber": 3,
    "colliderVertices": [
        {
            "x": -1.146274209022522,
            "y": -0.457636296749115
        },
        {
            "x": 1.7105708122253419,
            "y": -0.07261062413454056
        },
        {
            "x": 0.8889836668968201,
            "y": 0.008816719055175782
        }
    ],
    "triangles": [
        1,
        0,
        2
    ],
    "carDensity": 3.0,
    "suspension": 0.7135720252990723,
    "motorSpeed": 570,
    "frontDensity": 4.099999904632568,
    "frontRadius": 0.6086084842681885,
    "frontOffset": 0.8028530478477478,
    "backDensity": 4.5,
    "backRadius": 0.6462891101837158,
    "backOffset": -1.3532847166061402,
    "score": 10,
    "maxDistance": 8,
    "maxTime": 3.0
}{
    "ID": 42598,
    "genomaID": "CV5TD11",
    "color": {
        "x": 0.007468582130968571,
        "y": 0.663615882396698,
        "z": 0.7980117797851563
    },
    "vertexNumber": 5,
    "colliderVertices": [
        {
            "x": -1.8779255151748658,
            "y": -0.049719877541065219
        },
        {
            "x": 1.1691646575927735,
            "y": -0.1628483682870865
        },
        {
            "x": 0.06177878379821777,
            "y": 0.7153496742248535
        },
        {
            "x": -0.4648115634918213,
            "y": 0.4253208041191101
        },
        {
            "x": -0.560168981552124,
            "y": 0.8627315759658814
        }
    ],
    "triangles": [
        3,
        1,
        0,
        0,
        4,
        3,
        3,
        2,
        1
    ],
    "carDensity": 5.0,
    "suspension": 0.6497035622596741,
    "motorSpeed": 1458,
    "frontDensity": 3.200000047683716,
    "frontRadius": 0.521885097026825,
    "frontOffset": 1.2873491048812867,
    "backDensity": 3.200000047683716,
    "backRadius": 0.5240058898925781,
    "backOffset": -0.6712930202484131,
    "score": 0,
    "maxDistance": 0,
    "maxTime": 1.0
}