{
    "ID": 11671,
    "genomaID": "CV6TD13",
    "color": {
        "x": 0.7090700268745422,
        "y": 0.8479454517364502,
        "z": 0.43009573221206667
    },
    "vertexNumber": 6,
    "colliderVertices": [
        {
            "x": -1.8430458307266236,
            "y": -0.1997576653957367
        },
        {
            "x": 1.7380539178848267,
            "y": -0.08681196719408035
        },
        {
            "x": 1.2493829727172852,
            "y": 0.6869655847549439
        },
        {
            "x": 0.8585695624351502,
            "y": 0.6475802659988403
        },
        {
            "x": 0.8292383551597595,
            "y": 0.2362232208251953
        },
        {
            "x": -0.9935691356658936,
            "y": 0.802916407585144
        }
    ],
    "triangles": [
        4,
        3,
        1,
        1,
        5,
        4,
        3,
        2,
        1,
        1,
        0,
        5
    ],
    "carDensity": 6.0,
    "suspension": 0.730380654335022,
    "motorSpeed": 672,
    "frontDensity": 4.5,
    "frontRadius": 0.6474043726921082,
    "frontOffset": 1.357994556427002,
    "backDensity": 3.200000047683716,
    "backRadius": 0.524358332157135,
    "backOffset": -1.3528311252593995,
    "score": 838,
    "maxDistance": 833,
    "maxTime": 148.0
}{
    "ID": 11755,
    "genomaID": "CV6TD11",
    "color": {
        "x": 0.8557708263397217,
        "y": 0.6137358546257019,
        "z": 0.43973666429519656
    },
    "vertexNumber": 6,
    "colliderVertices": [
        {
            "x": -1.1663187742233277,
            "y": -0.4368225932121277
        },
        {
            "x": 1.2968342304229737,
            "y": -0.3380918800830841
        },
        {
            "x": 1.0321712493896485,
            "y": 0.11315357685089112
        },
        {
            "x": -0.48077988624572756,
            "y": 0.6185845732688904
        },
        {
            "x": -1.4431166648864747,
            "y": 0.7732347249984741
        },
        {
            "x": -1.8864150047302247,
            "y": 0.293887197971344
        }
    ],
    "triangles": [
        3,
        1,
        5,
        5,
        4,
        3,
        3,
        2,
        1,
        1,
        0,
        5
    ],
    "carDensity": 6.0,
    "suspension": 0.9162170886993408,
    "motorSpeed": 625,
    "frontDensity": 2.799999952316284,
    "frontRadius": 0.4785003662109375,
    "frontOffset": 1.3554761409759522,
    "backDensity": 2.200000047683716,
    "backRadius": 0.4164072573184967,
    "backOffset": -1.3671119213104249,
    "score": 110,
    "maxDistance": 107,
    "maxTime": 30.0
}{
    "ID": 11797,
    "genomaID": "CV3TD9",
    "color": {
        "x": 0.15672196447849275,
        "y": 0.8961608409881592,
        "z": 0.9475356340408325
    },
    "vertexNumber": 3,
    "colliderVertices": [
        {
            "x": -1.5375990867614747,
            "y": -0.30484363436698916
        },
        {
            "x": 1.1677249670028687,
            "y": -0.37981438636779787
        },
        {
            "x": 1.1113529205322266,
            "y": 0.740790605545044
        }
    ],
    "triangles": [
        1,
        0,
        2
    ],
    "carDensity": 3.0,
    "suspension": 0.8828932046890259,
    "motorSpeed": 1400,
    "frontDensity": 2.700000047683716,
    "frontRadius": 0.4729822874069214,
    "frontOffset": 1.4941675662994385,
    "backDensity": 2.9000000953674318,
    "backRadius": 0.4910986125469208,
    "backOffset": -0.527646541595459,
    "score": 0,
    "maxDistance": 0,
    "maxTime": 1.0
}