{
    "ID": 49779,
    "genomaID": "CV5TD11",
    "color": {
        "x": 0.031481269747018817,
        "y": 0.9139512777328491,
        "z": 0.8916786909103394
    },
    "vertexNumber": 5,
    "colliderVertices": [
        {
            "x": -1.9454994201660157,
            "y": -0.384765088558197
        },
        {
            "x": 1.672476053237915,
            "y": -0.12494422495365143
        },
        {
            "x": 1.2569551467895508,
            "y": 0.0036066770553588869
        },
        {
            "x": 1.061506748199463,
            "y": 0.807769775390625
        },
        {
            "x": 0.08314013481140137,
            "y": 0.9998488426208496
        }
    ],
    "triangles": [
        2,
        0,
        4,
        4,
        3,
        2,
        2,
        1,
        0
    ],
    "carDensity": 5.0,
    "suspension": 0.45095810294151308,
    "motorSpeed": 915,
    "frontDensity": 3.799999952316284,
    "frontRadius": 0.5828259587287903,
    "frontOffset": 1.2720239162445069,
    "backDensity": 2.200000047683716,
    "backRadius": 0.42104363441467287,
    "backOffset": -1.3287572860717774,
    "score": 839,
    "maxDistance": 833,
    "maxTime": 132.0
}{
    "ID": 49739,
    "genomaID": "CV5TD9",
    "color": {
        "x": 0.5990172028541565,
        "y": 0.8914331197738648,
        "z": 0.09296739846467972
    },
    "vertexNumber": 5,
    "colliderVertices": [
        {
            "x": -1.6887686252593995,
            "y": -0.45892810821533205
        },
        {
            "x": 1.9574635028839112,
            "y": -0.22018328309059144
        },
        {
            "x": 0.15855717658996583,
            "y": 0.9142659902572632
        },
        {
            "x": -0.8008668422698975,
            "y": 0.2318558692932129
        },
        {
            "x": -0.9747064113616943,
            "y": 0.31905311346054079
        }
    ],
    "triangles": [
        3,
        2,
        0,
        0,
        4,
        3,
        2,
        1,
        0
    ],
    "carDensity": 5.0,
    "suspension": 0.8506262302398682,
    "motorSpeed": 728,
    "frontDensity": 2.5,
    "frontRadius": 0.45270147919654848,
    "frontOffset": 0.823345959186554,
    "backDensity": 2.0999999046325685,
    "backRadius": 0.40770214796066286,
    "backOffset": -1.3573507070541382,
    "score": 110,
    "maxDistance": 107,
    "maxTime": 34.0
}{
    "ID": 49800,
    "genomaID": "CV6TD14",
    "color": {
        "x": 0.5215955376625061,
        "y": 0.5618323683738709,
        "z": 0.9288589954376221
    },
    "vertexNumber": 6,
    "colliderVertices": [
        {
            "x": -1.2987608909606934,
            "y": -0.3842841386795044
        },
        {
            "x": 1.9830540418624879,
            "y": -0.46560579538345339
        },
        {
            "x": 0.20302462577819825,
            "y": 0.37802428007125857
        },
        {
            "x": -0.03726649284362793,
            "y": 0.7787866592407227
        },
        {
            "x": -1.2348027229309083,
            "y": 0.4678090214729309
        },
        {
            "x": -1.2413902282714844,
            "y": 0.30896443128585818
        }
    ],
    "triangles": [
        4,
        2,
        1,
        1,
        5,
        4,
        4,
        3,
        2,
        1,
        0,
        5
    ],
    "carDensity": 6.0,
    "suspension": 0.7593311667442322,
    "motorSpeed": 1474,
    "frontDensity": 2.799999952316284,
    "frontRadius": 0.48023444414138796,
    "frontOffset": 0.6073458194732666,
    "backDensity": 4.800000190734863,
    "backRadius": 0.6768630146980286,
    "backOffset": -1.1920604705810547,
    "score": 0,
    "maxDistance": 0,
    "maxTime": 1.0
}