{
    "ID": 35906,
    "genomaID": "CV4TD11",
    "color": {
        "x": 0.6932232975959778,
        "y": 0.5851419568061829,
        "z": 0.6882917284965515
    },
    "vertexNumber": 4,
    "colliderVertices": [
        {
            "x": -1.3951945304870606,
            "y": -0.40995925664901736
        },
        {
            "x": 1.840172290802002,
            "y": -0.3930622339248657
        },
        {
            "x": 1.0665040016174317,
            "y": 0.8055795431137085
        },
        {
            "x": 0.8190388083457947,
            "y": 0.9095300436019898
        }
    ],
    "triangles": [
        3,
        2,
        1,
        1,
        0,
        3
    ],
    "carDensity": 4.0,
    "suspension": 0.5338007211685181,
    "motorSpeed": 722,
    "frontDensity": 4.300000190734863,
    "frontRadius": 0.6271325945854187,
    "frontOffset": 1.3966511487960816,
    "backDensity": 3.0999999046325685,
    "backRadius": 0.5102084875106812,
    "backOffset": -1.0304816961288453,
    "score": 839,
    "maxDistance": 833,
    "maxTime": 138.0
}{
    "ID": 35891,
    "genomaID": "CV5TD11",
    "color": {
        "x": 0.20815685391426087,
        "y": 0.6329551339149475,
        "z": 0.4211469292640686
    },
    "vertexNumber": 5,
    "colliderVertices": [
        {
            "x": -1.1651240587234498,
            "y": -0.3689151108264923
        },
        {
            "x": 1.9978045225143433,
            "y": -0.17600692808628083
        },
        {
            "x": 0.4224660396575928,
            "y": 0.7703959941864014
        },
        {
            "x": 0.15163350105285645,
            "y": 0.29861265420913699
        },
        {
            "x": -1.6998200416564942,
            "y": 0.17154169082641602
        }
    ],
    "triangles": [
        1,
        4,
        3,
        3,
        2,
        1,
        1,
        0,
        4
    ],
    "carDensity": 5.0,
    "suspension": 0.9336978197097778,
    "motorSpeed": 625,
    "frontDensity": 2.0,
    "frontRadius": 0.401427298784256,
    "frontOffset": 1.4940598011016846,
    "backDensity": 3.5999999046325685,
    "backRadius": 0.5578429698944092,
    "backOffset": -1.1836330890655518,
    "score": 102,
    "maxDistance": 98,
    "maxTime": 20.0
}{
    "ID": 35962,
    "genomaID": "CV4TD11",
    "color": {
        "x": 0.19489112496376038,
        "y": 0.42218655347824099,
        "z": 0.01322043128311634
    },
    "vertexNumber": 4,
    "colliderVertices": [
        {
            "x": -1.305476188659668,
            "y": -0.30744972825050356
        },
        {
            "x": 1.5682318210601807,
            "y": -0.26168379187583926
        },
        {
            "x": -0.02411484718322754,
            "y": 0.4554644227027893
        },
        {
            "x": -0.8154857158660889,
            "y": 0.723308801651001
        }
    ],
    "triangles": [
        3,
        2,
        1,
        1,
        0,
        3
    ],
    "carDensity": 4.0,
    "suspension": 0.8398923277854919,
    "motorSpeed": 1370,
    "frontDensity": 2.299999952316284,
    "frontRadius": 0.4269668459892273,
    "frontOffset": 1.4356348514556885,
    "backDensity": 4.599999904632568,
    "backRadius": 0.661304235458374,
    "backOffset": -1.4027421474456788,
    "score": -2,
    "maxDistance": -1,
    "maxTime": 1.0
}