{
    "ID": 79291,
    "genomaID": "CV4TD11",
    "color": {
        "x": 0.20815685391426087,
        "y": 0.6329551339149475,
        "z": 0.4211469292640686
    },
    "vertexNumber": 4,
    "colliderVertices": [
        {
            "x": -1.8179258108139039,
            "y": -0.07808203250169754
        },
        {
            "x": 1.019519567489624,
            "y": -0.016600193455815316
        },
        {
            "x": 1.2912077903747559,
            "y": 0.6513384580612183
        },
        {
            "x": -0.27011990547180178,
            "y": 0.642022967338562
        }
    ],
    "triangles": [
        3,
        2,
        1,
        1,
        0,
        3
    ],
    "carDensity": 4.0,
    "suspension": 0.49555766582489016,
    "motorSpeed": 607,
    "frontDensity": 4.5,
    "frontRadius": 0.6492307782173157,
    "frontOffset": 1.0982145071029664,
    "backDensity": 3.0999999046325685,
    "backRadius": 0.5142945051193237,
    "backOffset": -1.2435729503631592,
    "score": 838,
    "maxDistance": 833,
    "maxTime": 159.0
}{
    "ID": 79260,
    "genomaID": "CV6TD11",
    "color": {
        "x": 0.955747127532959,
        "y": 0.5249026417732239,
        "z": 0.946269154548645
    },
    "vertexNumber": 6,
    "colliderVertices": [
        {
            "x": -1.5167210102081299,
            "y": -0.3510955274105072
        },
        {
            "x": 1.969664454460144,
            "y": -0.010529638268053532
        },
        {
            "x": 1.3228082656860352,
            "y": 0.5581173300743103
        },
        {
            "x": -1.1229562759399415,
            "y": 0.546242892742157
        },
        {
            "x": -1.8781566619873047,
            "y": 0.6522417068481445
        },
        {
            "x": -1.9870476722717286,
            "y": 0.23692023754119874
        }
    ],
    "triangles": [
        3,
        1,
        5,
        5,
        4,
        3,
        3,
        2,
        1,
        1,
        0,
        5
    ],
    "carDensity": 6.0,
    "suspension": 0.7929994463920593,
    "motorSpeed": 1154,
    "frontDensity": 3.4000000953674318,
    "frontRadius": 0.5447418689727783,
    "frontOffset": 1.1730931997299195,
    "backDensity": 2.0,
    "backRadius": 0.4039577841758728,
    "backOffset": -0.6021754741668701,
    "score": 21,
    "maxDistance": 16,
    "maxTime": 3.0
}{
    "ID": 79342,
    "genomaID": "CV3TD11",
    "color": {
        "x": 0.34754279255867007,
        "y": 0.14802326261997224,
        "z": 0.25972965359687807
    },
    "vertexNumber": 3,
    "colliderVertices": [
        {
            "x": -1.6073687076568604,
            "y": -0.35413506627082827
        },
        {
            "x": 1.4491424560546876,
            "y": -0.30085834860801699
        },
        {
            "x": 0.2636067867279053,
            "y": 0.5978185534477234
        }
    ],
    "triangles": [
        1,
        0,
        2
    ],
    "carDensity": 3.0,
    "suspension": 0.6662084460258484,
    "motorSpeed": 953,
    "frontDensity": 2.5999999046325685,
    "frontRadius": 0.45985671877861025,
    "frontOffset": 1.4254381656646729,
    "backDensity": 4.900000095367432,
    "backRadius": 0.6889804005622864,
    "backOffset": -1.3969076871871949,
    "score": -2,
    "maxDistance": -1,
    "maxTime": 1.0
}