{
    "ID": 7034,
    "genomaID": "CV3TD9",
    "color": {
        "x": 0.39052826166152956,
        "y": 0.3341362774372101,
        "z": 0.23784449696540833
    },
    "vertexNumber": 3,
    "colliderVertices": [
        {
            "x": -1.1863477230072022,
            "y": -0.44585156440734866
        },
        {
            "x": 1.3402459621429444,
            "y": -0.2951335608959198
        },
        {
            "x": -0.7966320514678955,
            "y": 0.23655104637145997
        }
    ],
    "triangles": [
        1,
        0,
        2
    ],
    "carDensity": 3.0,
    "suspension": 0.9778434634208679,
    "motorSpeed": 1051,
    "frontDensity": 3.799999952316284,
    "frontRadius": 0.5794098973274231,
    "frontOffset": 1.4529070854187012,
    "backDensity": 2.5,
    "backRadius": 0.4492712914943695,
    "backOffset": -1.0420194864273072,
    "score": 841,
    "maxDistance": 834,
    "maxTime": 107.0
}{
    "ID": 7127,
    "genomaID": "CV6TD10",
    "color": {
        "x": 0.34507325291633608,
        "y": 0.416928231716156,
        "z": 0.9772810935974121
    },
    "vertexNumber": 6,
    "colliderVertices": [
        {
            "x": -1.495915412902832,
            "y": -0.09560276567935944
        },
        {
            "x": 1.892807960510254,
            "y": -0.25522491335868838
        },
        {
            "x": 1.8088626861572266,
            "y": 0.772250771522522
        },
        {
            "x": 1.616312026977539,
            "y": 0.3609737753868103
        },
        {
            "x": 0.45508694648742678,
            "y": 0.30804842710494997
        },
        {
            "x": -0.9082419872283936,
            "y": 0.8723641633987427
        }
    ],
    "triangles": [
        0,
        4,
        3,
        3,
        1,
        0,
        0,
        5,
        4,
        3,
        2,
        1
    ],
    "carDensity": 6.0,
    "suspension": 0.42003580927848818,
    "motorSpeed": 621,
    "frontDensity": 2.299999952316284,
    "frontRadius": 0.43112391233444216,
    "frontOffset": 1.0701693296432496,
    "backDensity": 2.0,
    "backRadius": 0.40149426460266116,
    "backOffset": -1.3726983070373536,
    "score": 110,
    "maxDistance": 107,
    "maxTime": 32.0
}{
    "ID": 7199,
    "genomaID": "CV6TD13",
    "color": {
        "x": 0.9940735101699829,
        "y": 0.9590579271316528,
        "z": 0.19860604405403138
    },
    "vertexNumber": 6,
    "colliderVertices": [
        {
            "x": -1.287452220916748,
            "y": -0.19564345479011537
        },
        {
            "x": 1.1675102710723878,
            "y": -0.39785879850387576
        },
        {
            "x": 1.337204933166504,
            "y": 0.747586727142334
        },
        {
            "x": 0.9655947089195252,
            "y": 0.7494802474975586
        },
        {
            "x": -0.48253560066223147,
            "y": 0.5326847434043884
        },
        {
            "x": -0.527935266494751,
            "y": 0.11292505264282227
        }
    ],
    "triangles": [
        3,
        1,
        5,
        5,
        4,
        3,
        3,
        2,
        1,
        1,
        0,
        5
    ],
    "carDensity": 6.0,
    "suspension": 0.9016120433807373,
    "motorSpeed": 675,
    "frontDensity": 3.4000000953674318,
    "frontRadius": 0.5365664958953857,
    "frontOffset": 0.5215301513671875,
    "backDensity": 4.300000190734863,
    "backRadius": 0.6251064538955689,
    "backOffset": -0.7092158794403076,
    "score": 0,
    "maxDistance": 0,
    "maxTime": 1.0
}