{
    "ID": 62601,
    "genomaID": "CV6TD14",
    "color": {
        "x": 0.9056204557418823,
        "y": 0.5030476450920105,
        "z": 0.6939377188682556
    },
    "vertexNumber": 6,
    "colliderVertices": [
        {
            "x": -1.823158860206604,
            "y": -0.19402232766151429
        },
        {
            "x": 1.9206459522247315,
            "y": -0.45289671421051028
        },
        {
            "x": 0.9057912230491638,
            "y": 0.763535737991333
        },
        {
            "x": 0.2508089542388916,
            "y": 0.45940130949020388
        },
        {
            "x": -0.2533414363861084,
            "y": 0.17715394496917725
        },
        {
            "x": -1.6274561882019044,
            "y": 0.6806973218917847
        }
    ],
    "triangles": [
        1,
        0,
        4,
        4,
        3,
        1,
        0,
        5,
        4,
        3,
        2,
        1
    ],
    "carDensity": 6.0,
    "suspension": 0.9362256526947022,
    "motorSpeed": 571,
    "frontDensity": 4.5,
    "frontRadius": 0.6492375731468201,
    "frontOffset": 0.7100111246109009,
    "backDensity": 4.0,
    "backRadius": 0.6004526019096375,
    "backOffset": -1.4363360404968262,
    "score": 838,
    "maxDistance": 833,
    "maxTime": 159.0
}{
    "ID": 62679,
    "genomaID": "CV5TD10",
    "color": {
        "x": 0.7441080212593079,
        "y": 0.36986497044563296,
        "z": 0.8987936973571777
    },
    "vertexNumber": 5,
    "colliderVertices": [
        {
            "x": -1.9142425060272217,
            "y": -0.27298370003700259
        },
        {
            "x": 1.5081329345703126,
            "y": -0.3394217789173126
        },
        {
            "x": 1.1347870826721192,
            "y": 0.28157085180282595
        },
        {
            "x": 1.0059137344360352,
            "y": 0.8617372512817383
        },
        {
            "x": -1.830564022064209,
            "y": 0.7331250905990601
        }
    ],
    "triangles": [
        2,
        1,
        4,
        4,
        3,
        2,
        1,
        0,
        4
    ],
    "carDensity": 5.0,
    "suspension": 0.8577238321304321,
    "motorSpeed": 774,
    "frontDensity": 3.0,
    "frontRadius": 0.49556398391723635,
    "frontOffset": 0.7276082038879395,
    "backDensity": 2.0,
    "backRadius": 0.4006533622741699,
    "backOffset": -1.1669819355010987,
    "score": 110,
    "maxDistance": 107,
    "maxTime": 29.0
}{
    "ID": 62797,
    "genomaID": "CV4TD13",
    "color": {
        "x": 0.15672196447849275,
        "y": 0.8961608409881592,
        "z": 0.9475356340408325
    },
    "vertexNumber": 4,
    "colliderVertices": [
        {
            "x": -1.3499078750610352,
            "y": -0.3147731125354767
        },
        {
            "x": 1.143585205078125,
            "y": -0.30230608582496645
        },
        {
            "x": 1.8585329055786133,
            "y": 0.6587398052215576
        },
        {
            "x": -1.1507372856140137,
            "y": 0.62812340259552
        }
    ],
    "triangles": [
        3,
        2,
        1,
        1,
        0,
        3
    ],
    "carDensity": 4.0,
    "suspension": 0.4247454106807709,
    "motorSpeed": 1055,
    "frontDensity": 4.400000095367432,
    "frontRadius": 0.6412935256958008,
    "frontOffset": 1.1594833135604859,
    "backDensity": 4.800000190734863,
    "backRadius": 0.6823079586029053,
    "backOffset": -1.2383434772491456,
    "score": 0,
    "maxDistance": 0,
    "maxTime": 1.0
}