{
    "ID": 4443,
    "genomaID": "CV6TD13",
    "color": {
        "x": 0.2540118992328644,
        "y": 0.8673475980758667,
        "z": 0.4122801423072815
    },
    "vertexNumber": 6,
    "colliderVertices": [
        {
            "x": -1.6303415298461915,
            "y": -0.2758794128894806
        },
        {
            "x": 1.45589280128479,
            "y": -0.09479863941669464
        },
        {
            "x": 0.5458254218101502,
            "y": 0.8269146680831909
        },
        {
            "x": 0.3488438129425049,
            "y": 0.6192019581794739
        },
        {
            "x": -0.03463625907897949,
            "y": 0.02210831642150879
        },
        {
            "x": -0.9564144611358643,
            "y": 0.6112213730812073
        }
    ],
    "triangles": [
        1,
        0,
        4,
        4,
        3,
        1,
        0,
        5,
        4,
        3,
        2,
        1
    ],
    "carDensity": 6.0,
    "suspension": 0.9721841812133789,
    "motorSpeed": 672,
    "frontDensity": 4.300000190734863,
    "frontRadius": 0.6271011233329773,
    "frontOffset": 1.3798387050628663,
    "backDensity": 2.5999999046325685,
    "backRadius": 0.45847952365875246,
    "backOffset": -1.0527583360671998,
    "score": 838,
    "maxDistance": 833,
    "maxTime": 160.0
}{
    "ID": 4586,
    "genomaID": "CV5TD9",
    "color": {
        "x": 0.3109702169895172,
        "y": 0.4493226408958435,
        "z": 0.5858866572380066
    },
    "vertexNumber": 5,
    "colliderVertices": [
        {
            "x": -1.13160240650177,
            "y": -0.36699482798576357
        },
        {
            "x": 1.4036381244659424,
            "y": -0.10825254023075104
        },
        {
            "x": 0.9585580229759216,
            "y": 0.8315929174423218
        },
        {
            "x": -0.5842936038970947,
            "y": 0.6661696434020996
        },
        {
            "x": -1.3893485069274903,
            "y": 0.7950187921524048
        }
    ],
    "triangles": [
        1,
        4,
        3,
        3,
        2,
        1,
        1,
        0,
        4
    ],
    "carDensity": 5.0,
    "suspension": 0.5026079416275024,
    "motorSpeed": 672,
    "frontDensity": 2.299999952316284,
    "frontRadius": 0.4289788603782654,
    "frontOffset": 1.2990692853927613,
    "backDensity": 2.0,
    "backRadius": 0.40087851881980898,
    "backOffset": -1.1619635820388795,
    "score": 110,
    "maxDistance": 107,
    "maxTime": 30.0
}{
    "ID": 4537,
    "genomaID": "CV3TD10",
    "color": {
        "x": 0.6247989535331726,
        "y": 0.2805894911289215,
        "z": 0.004084229934960604
    },
    "vertexNumber": 3,
    "colliderVertices": [
        {
            "x": -1.6086037158966065,
            "y": -0.14997662603855134
        },
        {
            "x": 1.2091906070709229,
            "y": -0.36324748396873476
        },
        {
            "x": -0.4596889019012451,
            "y": 0.49846380949020388
        }
    ],
    "triangles": [
        1,
        0,
        2
    ],
    "carDensity": 3.0,
    "suspension": 0.7924878001213074,
    "motorSpeed": 994,
    "frontDensity": 2.0,
    "frontRadius": 0.40091079473495486,
    "frontOffset": 1.3031772375106812,
    "backDensity": 4.599999904632568,
    "backRadius": 0.6601768136024475,
    "backOffset": -1.4789886474609376,
    "score": -2,
    "maxDistance": -1,
    "maxTime": 1.0
}