{
    "ID": 85833,
    "genomaID": "CV3TD12",
    "color": {
        "x": 0.558299720287323,
        "y": 0.7585036754608154,
        "z": 0.7892447710037231
    },
    "vertexNumber": 3,
    "colliderVertices": [
        {
            "x": -1.889404058456421,
            "y": -0.331832617521286
        },
        {
            "x": 1.231467843055725,
            "y": -0.47882622480392458
        },
        {
            "x": 0.8475918173789978,
            "y": 0.6396996974945068
        }
    ],
    "triangles": [
        1,
        0,
        2
    ],
    "carDensity": 3.0,
    "suspension": 0.750359296798706,
    "motorSpeed": 534,
    "frontDensity": 4.400000095367432,
    "frontRadius": 0.6401666402816773,
    "frontOffset": 1.32008695602417,
    "backDensity": 4.800000190734863,
    "backRadius": 0.6794084310531616,
    "backOffset": -1.4409058094024659,
    "score": 838,
    "maxDistance": 833,
    "maxTime": 160.0
}{
    "ID": 85883,
    "genomaID": "CV6TD12",
    "color": {
        "x": 0.742556631565094,
        "y": 0.9618244171142578,
        "z": 0.8822040557861328
    },
    "vertexNumber": 6,
    "colliderVertices": [
        {
            "x": -1.1027113199234009,
            "y": -0.34002557396888735
        },
        {
            "x": 1.9613020420074463,
            "y": -0.1704888492822647
        },
        {
            "x": 1.8412775993347169,
            "y": 0.6640549898147583
        },
        {
            "x": 0.7225331664085388,
            "y": 0.4174639582633972
        },
        {
            "x": -0.003809690475463867,
            "y": 0.7479748725891113
        },
        {
            "x": -1.9637269973754883,
            "y": 0.5722278952598572
        }
    ],
    "triangles": [
        3,
        1,
        5,
        5,
        4,
        3,
        3,
        2,
        1,
        1,
        0,
        5
    ],
    "carDensity": 6.0,
    "suspension": 0.6987524032592773,
    "motorSpeed": 643,
    "frontDensity": 3.799999952316284,
    "frontRadius": 0.5789390802383423,
    "frontOffset": 1.4029204845428467,
    "backDensity": 2.4000000953674318,
    "backRadius": 0.4382007420063019,
    "backOffset": -1.3487675189971924,
    "score": 110,
    "maxDistance": 107,
    "maxTime": 27.0
}{
    "ID": 85976,
    "genomaID": "CV6TD12",
    "color": {
        "x": 0.4965903162956238,
        "y": 0.4066302180290222,
        "z": 0.722085177898407
    },
    "vertexNumber": 6,
    "colliderVertices": [
        {
            "x": -1.1558648347854615,
            "y": -0.40418165922164919
        },
        {
            "x": 1.8250558376312256,
            "y": -0.3851349353790283
        },
        {
            "x": 0.5481314063072205,
            "y": 0.3383871912956238
        },
        {
            "x": -0.5887138843536377,
            "y": 0.1701517105102539
        },
        {
            "x": -1.8892245292663575,
            "y": 0.5363242030143738
        },
        {
            "x": -1.9869718551635743,
            "y": 0.8024312257766724
        }
    ],
    "triangles": [
        0,
        1,
        2,
        0,
        2,
        3,
        5,
        0,
        3
    ],
    "carDensity": 6.0,
    "suspension": 0.8413336873054504,
    "motorSpeed": 1333,
    "frontDensity": 4.199999809265137,
    "frontRadius": 0.6210620403289795,
    "frontOffset": 0.7183090448379517,
    "backDensity": 2.200000047683716,
    "backRadius": 0.42267146706581118,
    "backOffset": -1.2497689723968506,
    "score": 0,
    "maxDistance": 0,
    "maxTime": 1.0
}