{
    "ID": 22627,
    "genomaID": "CV4TD11",
    "color": {
        "x": 0.9768151044845581,
        "y": 0.8478507995605469,
        "z": 0.5279435515403748
    },
    "vertexNumber": 4,
    "colliderVertices": [
        {
            "x": -1.4150125980377198,
            "y": -0.3627876341342926
        },
        {
            "x": 1.5202751159667969,
            "y": -0.17483492195606233
        },
        {
            "x": -0.19143414497375489,
            "y": 0.49211496114730837
        },
        {
            "x": -1.532541275024414,
            "y": 0.4228910803794861
        }
    ],
    "triangles": [
        3,
        2,
        1,
        1,
        0,
        3
    ],
    "carDensity": 4.0,
    "suspension": 0.9033182263374329,
    "motorSpeed": 1164,
    "frontDensity": 4.699999809265137,
    "frontRadius": 0.6747586131095886,
    "frontOffset": 1.4602653980255128,
    "backDensity": 2.0999999046325685,
    "backRadius": 0.4067964553833008,
    "backOffset": -0.7225946187973023,
    "score": 841,
    "maxDistance": 833,
    "maxTime": 99.0
}{
    "ID": 22743,
    "genomaID": "CV5TD12",
    "color": {
        "x": 0.6736112236976624,
        "y": 0.5103936791419983,
        "z": 0.7824075222015381
    },
    "vertexNumber": 5,
    "colliderVertices": [
        {
            "x": -1.599036455154419,
            "y": -0.42580628395080569
        },
        {
            "x": 1.9080111980438233,
            "y": -0.2611577808856964
        },
        {
            "x": 1.1733946800231934,
            "y": 0.8990943431854248
        },
        {
            "x": 0.5587348341941834,
            "y": 0.7779570817947388
        },
        {
            "x": -1.6976208686828614,
            "y": 0.3242700695991516
        }
    ],
    "triangles": [
        1,
        4,
        3,
        3,
        2,
        1,
        1,
        0,
        4
    ],
    "carDensity": 5.0,
    "suspension": 0.5090900659561157,
    "motorSpeed": 756,
    "frontDensity": 3.0999999046325685,
    "frontRadius": 0.5143048763275147,
    "frontOffset": 0.7596701979637146,
    "backDensity": 3.5,
    "backRadius": 0.5512551665306091,
    "backOffset": -1.3932989835739136,
    "score": 109,
    "maxDistance": 103,
    "maxTime": 16.0
}{
    "ID": 22799,
    "genomaID": "CV4TD11",
    "color": {
        "x": 0.9940735101699829,
        "y": 0.9590579271316528,
        "z": 0.19860604405403138
    },
    "vertexNumber": 4,
    "colliderVertices": [
        {
            "x": -1.5969581604003907,
            "y": -0.07807803899049759
        },
        {
            "x": 1.225816011428833,
            "y": -0.03565824404358864
        },
        {
            "x": -0.2540557384490967,
            "y": 0.9348869323730469
        },
        {
            "x": -1.025270938873291,
            "y": 0.958416223526001
        }
    ],
    "triangles": [
        3,
        2,
        1,
        1,
        0,
        3
    ],
    "carDensity": 4.0,
    "suspension": 0.4177773892879486,
    "motorSpeed": 693,
    "frontDensity": 3.0999999046325685,
    "frontRadius": 0.5127370357513428,
    "frontOffset": 0.8747493028640747,
    "backDensity": 4.400000095367432,
    "backRadius": 0.6399617195129395,
    "backOffset": -0.8310930132865906,
    "score": 0,
    "maxDistance": 0,
    "maxTime": 1.0
}