{
    "ID": 59053,
    "genomaID": "CV3TD11",
    "color": {
        "x": 0.2045927345752716,
        "y": 0.26329317688941958,
        "z": 0.5411593317985535
    },
    "vertexNumber": 3,
    "colliderVertices": [
        {
            "x": -1.2839548587799073,
            "y": -0.39801883697509768
        },
        {
            "x": 1.3292531967163087,
            "y": -0.28613874316215517
        },
        {
            "x": -0.49996209144592287,
            "y": 0.43626469373703005
        }
    ],
    "triangles": [
        1,
        0,
        2
    ],
    "carDensity": 3.0,
    "suspension": 0.7899472117424011,
    "motorSpeed": 543,
    "frontDensity": 4.099999904632568,
    "frontRadius": 0.6066164970397949,
    "frontOffset": 0.7062656879425049,
    "backDensity": 4.300000190734863,
    "backRadius": 0.6273403763771057,
    "backOffset": -0.8269092440605164,
    "score": 838,
    "maxDistance": 833,
    "maxTime": 166.0
}{
    "ID": 59166,
    "genomaID": "CV6TD12",
    "color": {
        "x": 0.5154733061790466,
        "y": 0.9423816204071045,
        "z": 0.8530888557434082
    },
    "vertexNumber": 6,
    "colliderVertices": [
        {
            "x": -1.146105408668518,
            "y": -0.41277527809143069
        },
        {
            "x": 1.8949806690216065,
            "y": -0.07259953767061234
        },
        {
            "x": 1.7428560256958008,
            "y": 0.5792058110237122
        },
        {
            "x": 0.6092233061790466,
            "y": 0.6049371361732483
        },
        {
            "x": 0.08925795555114746,
            "y": 0.7262736558914185
        },
        {
            "x": -0.5241062641143799,
            "y": 0.09852123260498047
        }
    ],
    "triangles": [
        3,
        1,
        5,
        5,
        4,
        3,
        3,
        2,
        1,
        1,
        0,
        5
    ],
    "carDensity": 6.0,
    "suspension": 0.5585399866104126,
    "motorSpeed": 577,
    "frontDensity": 2.9000000953674318,
    "frontRadius": 0.49248427152633669,
    "frontOffset": 0.512117862701416,
    "backDensity": 2.700000047683716,
    "backRadius": 0.473777174949646,
    "backOffset": -0.8619550466537476,
    "score": 106,
    "maxDistance": 102,
    "maxTime": 21.0
}{
    "ID": 59198,
    "genomaID": "CV3TD8",
    "color": {
        "x": 0.007468582130968571,
        "y": 0.663615882396698,
        "z": 0.7980117797851563
    },
    "vertexNumber": 3,
    "colliderVertices": [
        {
            "x": -1.0265073776245118,
            "y": -0.41825777292251589
        },
        {
            "x": 1.7524569034576417,
            "y": -0.22002580761909486
        },
        {
            "x": 0.7554592490196228,
            "y": 0.18964362144470216
        }
    ],
    "triangles": [
        1,
        0,
        2
    ],
    "carDensity": 3.0,
    "suspension": 0.5659524202346802,
    "motorSpeed": 596,
    "frontDensity": 3.299999952316284,
    "frontRadius": 0.5318933129310608,
    "frontOffset": 1.0221096277236939,
    "backDensity": 2.200000047683716,
    "backRadius": 0.41707777976989748,
    "backOffset": -1.4968879222869874,
    "score": 0,
    "maxDistance": 0,
    "maxTime": 0.0
}