{
    "ID": 54334,
    "genomaID": "CV4TD10",
    "color": {
        "x": 0.23967471718788148,
        "y": 0.5861781239509583,
        "z": 0.3909059166908264
    },
    "vertexNumber": 4,
    "colliderVertices": [
        {
            "x": -1.0535237789154053,
            "y": -0.2826407253742218
        },
        {
            "x": 1.437070369720459,
            "y": -0.2785910665988922
        },
        {
            "x": 0.7984184622764587,
            "y": 0.026944994926452638
        },
        {
            "x": -1.8814783096313477,
            "y": 0.04869437217712402
        }
    ],
    "triangles": [
        3,
        2,
        1,
        1,
        0,
        3
    ],
    "carDensity": 4.0,
    "suspension": 0.6533255577087402,
    "motorSpeed": 1081,
    "frontDensity": 4.099999904632568,
    "frontRadius": 0.6108862161636353,
    "frontOffset": 1.478214979171753,
    "backDensity": 2.200000047683716,
    "backRadius": 0.42104363441467287,
    "backOffset": -1.057381510734558,
    "score": 841,
    "maxDistance": 834,
    "maxTime": 105.0
}{
    "ID": 54273,
    "genomaID": "CV6TD13",
    "color": {
        "x": 0.6363747715950012,
        "y": 0.34903600811958315,
        "z": 0.7492515444755554
    },
    "vertexNumber": 6,
    "colliderVertices": [
        {
            "x": -1.249262809753418,
            "y": -0.2048434317111969
        },
        {
            "x": 1.7011947631835938,
            "y": -0.1247463971376419
        },
        {
            "x": 1.3751354217529297,
            "y": 0.0399785041809082
        },
        {
            "x": 0.8525328040122986,
            "y": 0.827133297920227
        },
        {
            "x": 0.03164792060852051,
            "y": 0.6222681403160095
        },
        {
            "x": -1.1364107131958008,
            "y": 0.42944878339767458
        }
    ],
    "triangles": [
        4,
        2,
        1,
        1,
        5,
        4,
        4,
        3,
        2,
        1,
        0,
        5
    ],
    "carDensity": 6.0,
    "suspension": 0.7399156093597412,
    "motorSpeed": 1023,
    "frontDensity": 3.5999999046325685,
    "frontRadius": 0.5625194311141968,
    "frontOffset": 1.4012119770050049,
    "backDensity": 2.5999999046325685,
    "backRadius": 0.4578039050102234,
    "backOffset": -1.3883942365646363,
    "score": 17,
    "maxDistance": 13,
    "maxTime": 3.0
}{
    "ID": 54397,
    "genomaID": "CV4TD9",
    "color": {
        "x": 0.15672196447849275,
        "y": 0.8961608409881592,
        "z": 0.9475356340408325
    },
    "vertexNumber": 4,
    "colliderVertices": [
        {
            "x": -1.4680476188659669,
            "y": -0.13839389383792878
        },
        {
            "x": 1.6641987562179566,
            "y": -0.3339044153690338
        },
        {
            "x": -0.5330488681793213,
            "y": 0.020452022552490236
        },
        {
            "x": -0.7880051136016846,
            "y": 0.0793755054473877
        }
    ],
    "triangles": [
        0,
        3,
        2,
        2,
        1,
        0
    ],
    "carDensity": 4.0,
    "suspension": 0.6090471148490906,
    "motorSpeed": 517,
    "frontDensity": 2.799999952316284,
    "frontRadius": 0.48295825719833376,
    "frontOffset": 1.0262311697006226,
    "backDensity": 2.4000000953674318,
    "backRadius": 0.4443880617618561,
    "backOffset": -0.9046605825424194,
    "score": 0,
    "maxDistance": 0,
    "maxTime": 0.0
}