{
    "ID": 46466,
    "genomaID": "CV6TD13",
    "color": {
        "x": 0.6297621130943298,
        "y": 0.18905451893806458,
        "z": 0.38149791955947878
    },
    "vertexNumber": 6,
    "colliderVertices": [
        {
            "x": -1.7296419143676758,
            "y": -0.49075764417648318
        },
        {
            "x": 1.448580265045166,
            "y": -0.36508074402809145
        },
        {
            "x": 1.3358087539672852,
            "y": 0.06369912624359131
        },
        {
            "x": 0.7611350417137146,
            "y": 0.9501819610595703
        },
        {
            "x": 0.1269237995147705,
            "y": 0.6203668713569641
        },
        {
            "x": -1.1208829879760743,
            "y": 0.8723021745681763
        }
    ],
    "triangles": [
        4,
        3,
        1,
        1,
        5,
        4,
        3,
        2,
        1,
        1,
        0,
        5
    ],
    "carDensity": 6.0,
    "suspension": 0.9482036232948303,
    "motorSpeed": 663,
    "frontDensity": 3.700000047683716,
    "frontRadius": 0.5701664686203003,
    "frontOffset": 1.4963905811309815,
    "backDensity": 3.299999952316284,
    "backRadius": 0.5271269083023071,
    "backOffset": -0.7014937400817871,
    "score": 838,
    "maxDistance": 833,
    "maxTime": 159.0
}{
    "ID": 46524,
    "genomaID": "CV4TD11",
    "color": {
        "x": 0.16484393179416657,
        "y": 0.40456444025039675,
        "z": 0.48491185903549197
    },
    "vertexNumber": 4,
    "colliderVertices": [
        {
            "x": -1.7942386865615845,
            "y": -0.4385102391242981
        },
        {
            "x": 1.185990810394287,
            "y": -0.2898462116718292
        },
        {
            "x": 1.3409805297851563,
            "y": 0.09743142127990723
        },
        {
            "x": 0.08209967613220215,
            "y": 0.29017430543899538
        }
    ],
    "triangles": [
        3,
        2,
        1,
        1,
        0,
        3
    ],
    "carDensity": 4.0,
    "suspension": 0.8434825539588928,
    "motorSpeed": 1009,
    "frontDensity": 4.0,
    "frontRadius": 0.5984582901000977,
    "frontOffset": 1.4693524837493897,
    "backDensity": 3.299999952316284,
    "backRadius": 0.5340120792388916,
    "backOffset": -1.4282338619232178,
    "score": 10,
    "maxDistance": 7,
    "maxTime": 2.0
}{
    "ID": 46518,
    "genomaID": "CV4TD13",
    "color": {
        "x": 0.5498951077461243,
        "y": 0.7128847241401672,
        "z": 0.9665544033050537
    },
    "vertexNumber": 4,
    "colliderVertices": [
        {
            "x": -1.0881012678146363,
            "y": -0.012963177636265755
        },
        {
            "x": 1.4728093147277833,
            "y": -0.014287533238530159
        },
        {
            "x": 0.2685849666595459,
            "y": 0.052567243576049808
        },
        {
            "x": -0.3690340518951416,
            "y": 0.00003230571746826172
        }
    ],
    "triangles": [
        3,
        2,
        1,
        1,
        0,
        3
    ],
    "carDensity": 4.0,
    "suspension": 0.637013852596283,
    "motorSpeed": 1424,
    "frontDensity": 4.199999809265137,
    "frontRadius": 0.6152080297470093,
    "frontOffset": 1.3935844898223878,
    "backDensity": 4.599999904632568,
    "backRadius": 0.656278133392334,
    "backOffset": -1.4226672649383546,
    "score": -4,
    "maxDistance": -2,
    "maxTime": 1.0
}