{
    "ID": 19880,
    "genomaID": "CV3TD10",
    "color": {
        "x": 0.5870503783226013,
        "y": 0.07104790955781937,
        "z": 0.577752411365509
    },
    "vertexNumber": 3,
    "colliderVertices": [
        {
            "x": -1.5970354080200196,
            "y": -0.26039502024650576
        },
        {
            "x": 1.5334315299987794,
            "y": -0.059409983456134799
        },
        {
            "x": -1.2692780494689942,
            "y": 0.03236961364746094
        }
    ],
    "triangles": [
        1,
        0,
        2
    ],
    "carDensity": 3.0,
    "suspension": 0.7260377407073975,
    "motorSpeed": 859,
    "frontDensity": 4.400000095367432,
    "frontRadius": 0.6410424709320068,
    "frontOffset": 0.689997673034668,
    "backDensity": 2.5999999046325685,
    "backRadius": 0.46483856439590456,
    "backOffset": -0.8875974416732788,
    "score": 840,
    "maxDistance": 833,
    "maxTime": 117.0
}{
    "ID": 19814,
    "genomaID": "CV6TD11",
    "color": {
        "x": 0.12324179708957672,
        "y": 0.19671598076820374,
        "z": 0.6594435572624207
    },
    "vertexNumber": 6,
    "colliderVertices": [
        {
            "x": -1.2263007164001465,
            "y": -0.17563708126544953
        },
        {
            "x": 1.7188538312911988,
            "y": -0.08163923770189285
        },
        {
            "x": 1.806767463684082,
            "y": 0.9718047380447388
        },
        {
            "x": 1.2488231658935547,
            "y": 0.8322063684463501
        },
        {
            "x": 0.30392909049987795,
            "y": 0.45458942651748659
        },
        {
            "x": 0.2691004276275635,
            "y": 0.5712420344352722
        }
    ],
    "triangles": [
        4,
        2,
        0,
        0,
        5,
        4,
        4,
        3,
        2,
        2,
        1,
        0
    ],
    "carDensity": 6.0,
    "suspension": 0.9108914136886597,
    "motorSpeed": 1251,
    "frontDensity": 2.5999999046325685,
    "frontRadius": 0.46297845244407656,
    "frontOffset": 1.4885108470916749,
    "backDensity": 2.299999952316284,
    "backRadius": 0.42661720514297488,
    "backOffset": -1.409705400466919,
    "score": 107,
    "maxDistance": 99,
    "maxTime": 12.0
}{
    "ID": 19998,
    "genomaID": "CV5TD13",
    "color": {
        "x": 0.007468582130968571,
        "y": 0.663615882396698,
        "z": 0.7980117797851563
    },
    "vertexNumber": 5,
    "colliderVertices": [
        {
            "x": -1.2461750507354737,
            "y": -0.3014008700847626
        },
        {
            "x": 1.0103399753570557,
            "y": -0.3452031910419464
        },
        {
            "x": -0.772475004196167,
            "y": 0.9671663045883179
        },
        {
            "x": -1.0055208206176758,
            "y": 0.45372694730758669
        },
        {
            "x": -1.2979302406311036,
            "y": 0.5517174601554871
        }
    ],
    "triangles": [
        1,
        4,
        3,
        3,
        2,
        1,
        1,
        0,
        4
    ],
    "carDensity": 5.0,
    "suspension": 0.6147738695144653,
    "motorSpeed": 712,
    "frontDensity": 4.599999904632568,
    "frontRadius": 0.6617041230201721,
    "frontOffset": 1.05754816532135,
    "backDensity": 2.5999999046325685,
    "backRadius": 0.46483856439590456,
    "backOffset": -1.499250888824463,
    "score": 0,
    "maxDistance": 0,
    "maxTime": 0.0
}