{
    "ID": 2225,
    "genomaID": "CV3TD10",
    "color": {
        "x": 0.08411300927400589,
        "y": 0.5545133948326111,
        "z": 0.6977234482765198
    },
    "vertexNumber": 3,
    "colliderVertices": [
        {
            "x": -1.437804937362671,
            "y": -0.3500090539455414
        },
        {
            "x": 1.0593849420547486,
            "y": -0.33571311831474306
        },
        {
            "x": -1.7774004936218262,
            "y": 0.5586497187614441
        }
    ],
    "triangles": [
        1,
        0,
        2
    ],
    "carDensity": 3.0,
    "suspension": 0.7562699317932129,
    "motorSpeed": 1002,
    "frontDensity": 4.199999809265137,
    "frontRadius": 0.6231561303138733,
    "frontOffset": 0.9122720956802368,
    "backDensity": 2.9000000953674318,
    "backRadius": 0.49362969398498537,
    "backOffset": -0.8515983819961548,
    "score": 916,
    "maxDistance": 834,
    "maxTime": 101.9000015258789,
    "speed": 8
}{
    "ID": 2233,
    "genomaID": "CV5TD12",
    "color": {
        "x": 0.9128752946853638,
        "y": 0.0025876762811094524,
        "z": 0.16460515558719636
    },
    "vertexNumber": 5,
    "colliderVertices": [
        {
            "x": -1.9467065334320069,
            "y": -0.09774990379810333
        },
        {
            "x": 1.8523627519607545,
            "y": -0.2928808629512787
        },
        {
            "x": 1.785123348236084,
            "y": 0.08279097080230713
        },
        {
            "x": 0.7302226424217224,
            "y": 0.06580460071563721
        },
        {
            "x": -1.3647751808166505,
            "y": 0.8004345893859863
        }
    ],
    "triangles": [
        3,
        2,
        0,
        0,
        4,
        3,
        2,
        1,
        0
    ],
    "carDensity": 5.0,
    "suspension": 0.8943528532981873,
    "motorSpeed": 585,
    "frontDensity": 4.5,
    "frontRadius": 0.6500036120414734,
    "frontOffset": 0.91612708568573,
    "backDensity": 2.700000047683716,
    "backRadius": 0.4729686975479126,
    "backOffset": -0.9843913316726685,
    "score": 885,
    "maxDistance": 833,
    "maxTime": 161.5,
    "speed": 5
}{
    "ID": 2207,
    "genomaID": "CV6TD12",
    "color": {
        "x": 0.6988031268119812,
        "y": 0.7504338026046753,
        "z": 0.44245868921279909
    },
    "vertexNumber": 6,
    "colliderVertices": [
        {
            "x": -1.5299866199493409,
            "y": -0.024643424898386
        },
        {
            "x": 1.423614263534546,
            "y": -0.4264817237854004
        },
        {
            "x": 1.1909546852111817,
            "y": 0.1320648193359375
        },
        {
            "x": 0.36618781089782717,
            "y": 0.9822146892547607
        },
        {
            "x": -0.8911697864532471,
            "y": 0.5108776688575745
        },
        {
            "x": -1.8707690238952637,
            "y": 0.6083585619926453
        }
    ],
    "triangles": [
        4,
        3,
        1,
        1,
        5,
        4,
        3,
        2,
        1,
        1,
        0,
        5
    ],
    "carDensity": 6.0,
    "suspension": 0.4702964723110199,
    "motorSpeed": 742,
    "frontDensity": 3.700000047683716,
    "frontRadius": 0.5709813237190247,
    "frontOffset": 1.2341136932373047,
    "backDensity": 2.0,
    "backRadius": 0.40485697984695437,
    "backOffset": -1.4337713718414307,
    "score": 269,
    "maxDistance": 214,
    "maxTime": 38.599998474121097,
    "speed": 6
}{
    "ID": 2214,
    "genomaID": "CV6TD12",
    "color": {
        "x": 0.31346121430397036,
        "y": 0.9137648344039917,
        "z": 0.8099422454833984
    },
    "vertexNumber": 6,
    "colliderVertices": [
        {
            "x": -1.3001139163970948,
            "y": -0.16981466114521027
        },
        {
            "x": 1.2057530879974366,
            "y": -0.3909047842025757
        },
        {
            "x": 1.101356029510498,
            "y": 0.6989139318466187
        },
        {
            "x": 0.19667696952819825,
            "y": 0.9427180290222168
        },
        {
            "x": 0.046569108963012698,
            "y": 0.099395751953125
        },
        {
            "x": -0.6573774814605713,
            "y": 0.24129927158355714
        }
    ],
    "triangles": [
        4,
        3,
        1,
        1,
        5,
        4,
        3,
        2,
        1,
        1,
        0,
        5
    ],
    "carDensity": 6.0,
    "suspension": 0.6928684711456299,
    "motorSpeed": 742,
    "frontDensity": 3.799999952316284,
    "frontRadius": 0.5763121247291565,
    "frontOffset": 0.7293468713760376,
    "backDensity": 2.0,
    "backRadius": 0.4006373882293701,
    "backOffset": -1.4337713718414307,
    "score": 27,
    "maxDistance": 4,
    "maxTime": 1.7999999523162842,
    "speed": 2
}{
    "ID": 2397,
    "genomaID": "CV3TD12",
    "color": {
        "x": 0.3678264915943146,
        "y": 0.035842422395944598,
        "z": 0.5074222683906555
    },
    "vertexNumber": 3,
    "colliderVertices": [
        {
            "x": -1.1585068702697755,
            "y": -0.029806677252054216
        },
        {
            "x": 1.362579584121704,
            "y": -0.4607669711112976
        },
        {
            "x": -1.1038827896118165,
            "y": 0.24087738990783692
        }
    ],
    "triangles": [
        1,
        0,
        2
    ],
    "carDensity": 3.0,
    "suspension": 0.698472261428833,
    "motorSpeed": 1005,
    "frontDensity": 3.9000000953674318,
    "frontRadius": 0.5863022804260254,
    "frontOffset": 0.8350316286087036,
    "backDensity": 4.900000095367432,
    "backRadius": 0.688765287399292,
    "backOffset": -1.3489618301391602,
    "score": 0,
    "maxDistance": -1,
    "maxTime": 0.800000011920929,
    "speed": -1
}