{
    "ID": 6534,
    "genomaID": "CV3TD9",
    "color": {
        "x": 0.019747497513890268,
        "y": 0.49497002363204958,
        "z": 0.6875776648521423
    },
    "vertexNumber": 3,
    "colliderVertices": [
        {
            "x": -1.1994199752807618,
            "y": -0.2213364541530609
        },
        {
            "x": 1.576453685760498,
            "y": -0.44079065322875979
        },
        {
            "x": -1.5219764709472657,
            "y": 0.3868129849433899
        }
    ],
    "triangles": [
        1,
        0,
        2
    ],
    "carDensity": 3.0,
    "suspension": 0.9053434729576111,
    "motorSpeed": 1050,
    "frontDensity": 3.799999952316284,
    "frontRadius": 0.5824572443962097,
    "frontOffset": 1.463263750076294,
    "backDensity": 2.299999952316284,
    "backRadius": 0.42583245038986208,
    "backOffset": -1.3309605121612549,
    "score": 915,
    "maxDistance": 834,
    "maxTime": 103.5,
    "speed": 8
}{
    "ID": 6472,
    "genomaID": "CV3TD9",
    "color": {
        "x": 0.4326699376106262,
        "y": 0.2814704477787018,
        "z": 0.15411271154880525
    },
    "vertexNumber": 3,
    "colliderVertices": [
        {
            "x": -1.6107566356658936,
            "y": -0.1353864222764969
        },
        {
            "x": 1.149987816810608,
            "y": -0.1525537520647049
        },
        {
            "x": 0.35546278953552248,
            "y": 0.44467097520828249
        }
    ],
    "triangles": [
        1,
        0,
        2
    ],
    "carDensity": 3.0,
    "suspension": 0.43034452199935915,
    "motorSpeed": 742,
    "frontDensity": 3.700000047683716,
    "frontRadius": 0.5709813237190247,
    "frontOffset": 1.28336501121521,
    "backDensity": 2.0,
    "backRadius": 0.40485697984695437,
    "backOffset": -1.4337713718414307,
    "score": 892,
    "maxDistance": 833,
    "maxTime": 141.1999969482422,
    "speed": 6
}{
    "ID": 6418,
    "genomaID": "CV3TD8",
    "color": {
        "x": 0.915553092956543,
        "y": 0.9274778366088867,
        "z": 0.896312952041626
    },
    "vertexNumber": 3,
    "colliderVertices": [
        {
            "x": -1.1994199752807618,
            "y": -0.2213364541530609
        },
        {
            "x": 1.576453685760498,
            "y": -0.44079065322875979
        },
        {
            "x": -1.5219764709472657,
            "y": 0.3868129849433899
        }
    ],
    "triangles": [
        1,
        0,
        2
    ],
    "carDensity": 3.0,
    "suspension": 0.6363176107406616,
    "motorSpeed": 742,
    "frontDensity": 3.0,
    "frontRadius": 0.5029277205467224,
    "frontOffset": 0.571771502494812,
    "backDensity": 2.299999952316284,
    "backRadius": 0.4303075075149536,
    "backOffset": -1.3309605121612549,
    "score": 888,
    "maxDistance": 833,
    "maxTime": 152.60000610351563,
    "speed": 5
}{
    "ID": 6423,
    "genomaID": "CV5TD9",
    "color": {
        "x": 0.32355204224586489,
        "y": 0.5536883473396301,
        "z": 0.3207128345966339
    },
    "vertexNumber": 5,
    "colliderVertices": [
        {
            "x": -1.7088184356689454,
            "y": -0.2940578758716583
        },
        {
            "x": 1.6479041576385499,
            "y": -0.11329366266727448
        },
        {
            "x": 1.768796443939209,
            "y": 0.8439363241195679
        },
        {
            "x": 1.102466106414795,
            "y": 0.7772620916366577
        },
        {
            "x": -0.21146321296691895,
            "y": 0.5965593457221985
        }
    ],
    "triangles": [
        1,
        4,
        3,
        3,
        2,
        1,
        1,
        0,
        4
    ],
    "carDensity": 5.0,
    "suspension": 0.9053434729576111,
    "motorSpeed": 1050,
    "frontDensity": 2.5,
    "frontRadius": 0.44569146633148196,
    "frontOffset": 1.0987869501113892,
    "backDensity": 2.299999952316284,
    "backRadius": 0.42583245038986208,
    "backOffset": -1.3309605121612549,
    "score": 112,
    "maxDistance": 46,
    "maxTime": 7.0,
    "speed": 7
}{
    "ID": 6483,
    "genomaID": "CV3TD12",
    "color": {
        "x": 0.11441744863986969,
        "y": 0.6135293841362,
        "z": 0.24875202775001527
    },
    "vertexNumber": 3,
    "colliderVertices": [
        {
            "x": -1.1994199752807618,
            "y": -0.2213364541530609
        },
        {
            "x": 1.576453685760498,
            "y": -0.44079065322875979
        },
        {
            "x": -1.5219764709472657,
            "y": 0.3868129849433899
        }
    ],
    "triangles": [
        1,
        0,
        2
    ],
    "carDensity": 3.0,
    "suspension": 0.6363176107406616,
    "motorSpeed": 742,
    "frontDensity": 3.700000047683716,
    "frontRadius": 0.5674160122871399,
    "frontOffset": 1.1167594194412232,
    "backDensity": 5.0,
    "backRadius": 0.6989635825157166,
    "backOffset": -1.3309605121612549,
    "score": -11,
    "maxDistance": -1,
    "maxTime": 1.0,
    "speed": -1
}