{
    "ID": 13226,
    "genomaID": "CV3TD9",
    "color": {
        "x": 0.37734872102737429,
        "y": 0.05533326417207718,
        "z": 0.3728255331516266
    },
    "vertexNumber": 3,
    "colliderVertices": [
        {
            "x": -1.1994199752807618,
            "y": -0.2213364541530609
        },
        {
            "x": 1.576453685760498,
            "y": -0.44079065322875979
        },
        {
            "x": -1.5219764709472657,
            "y": 0.3868129849433899
        }
    ],
    "triangles": [
        1,
        0,
        2
    ],
    "carDensity": 3.0,
    "suspension": 0.7687572240829468,
    "motorSpeed": 1133,
    "frontDensity": 3.799999952316284,
    "frontRadius": 0.5824572443962097,
    "frontOffset": 0.8710168600082398,
    "backDensity": 2.299999952316284,
    "backRadius": 0.42583245038986208,
    "backOffset": -1.043042540550232,
    "score": 918,
    "maxDistance": 833,
    "maxTime": 98.30000305175781,
    "speed": 8
}{
    "ID": 13222,
    "genomaID": "CV3TD9",
    "color": {
        "x": 0.41338640451431277,
        "y": 0.9809062480926514,
        "z": 0.37899667024612429
    },
    "vertexNumber": 3,
    "colliderVertices": [
        {
            "x": -1.1994199752807618,
            "y": -0.2213364541530609
        },
        {
            "x": 1.576453685760498,
            "y": -0.44079065322875979
        },
        {
            "x": -1.5219764709472657,
            "y": 0.3868129849433899
        }
    ],
    "triangles": [
        1,
        0,
        2
    ],
    "carDensity": 3.0,
    "suspension": 0.7492998838424683,
    "motorSpeed": 1050,
    "frontDensity": 3.799999952316284,
    "frontRadius": 0.5824572443962097,
    "frontOffset": 1.4140498638153077,
    "backDensity": 2.299999952316284,
    "backRadius": 0.42583245038986208,
    "backOffset": -0.9128340482711792,
    "score": 914,
    "maxDistance": 834,
    "maxTime": 104.0,
    "speed": 8
}{
    "ID": 13221,
    "genomaID": "CV3TD7",
    "color": {
        "x": 0.12466301023960114,
        "y": 0.48094648122787478,
        "z": 0.8884217739105225
    },
    "vertexNumber": 3,
    "colliderVertices": [
        {
            "x": -1.1994199752807618,
            "y": -0.2213364541530609
        },
        {
            "x": 1.576453685760498,
            "y": -0.44079065322875979
        },
        {
            "x": -1.5219764709472657,
            "y": 0.3868129849433899
        }
    ],
    "triangles": [
        1,
        0,
        2
    ],
    "carDensity": 3.0,
    "suspension": 0.8330618143081665,
    "motorSpeed": 981,
    "frontDensity": 2.299999952316284,
    "frontRadius": 0.43311768770217898,
    "frontOffset": 0.5786713361740112,
    "backDensity": 2.200000047683716,
    "backRadius": 0.4223526418209076,
    "backOffset": -1.1716187000274659,
    "score": 895,
    "maxDistance": 833,
    "maxTime": 134.5,
    "speed": 6
}{
    "ID": 13204,
    "genomaID": "CV3TD7",
    "color": {
        "x": 0.5496072173118591,
        "y": 0.35849347710609438,
        "z": 0.7129729390144348
    },
    "vertexNumber": 3,
    "colliderVertices": [
        {
            "x": -1.1994199752807618,
            "y": -0.2213364541530609
        },
        {
            "x": 1.576453685760498,
            "y": -0.44079065322875979
        },
        {
            "x": -1.5219764709472657,
            "y": 0.3868129849433899
        }
    ],
    "triangles": [
        1,
        0,
        2
    ],
    "carDensity": 3.0,
    "suspension": 0.7687572240829468,
    "motorSpeed": 1050,
    "frontDensity": 2.200000047683716,
    "frontRadius": 0.4227609634399414,
    "frontOffset": 1.0976139307022095,
    "backDensity": 2.299999952316284,
    "backRadius": 0.42583245038986208,
    "backOffset": -1.2010862827301026,
    "score": 26,
    "maxDistance": 4,
    "maxTime": 1.7999999523162842,
    "speed": 2
}{
    "ID": 13397,
    "genomaID": "CV3TD7",
    "color": {
        "x": 0.3678264915943146,
        "y": 0.035842422395944598,
        "z": 0.5074222683906555
    },
    "vertexNumber": 3,
    "colliderVertices": [
        {
            "x": -1.1994199752807618,
            "y": -0.2213364541530609
        },
        {
            "x": 1.576453685760498,
            "y": -0.44079065322875979
        },
        {
            "x": -1.5219764709472657,
            "y": 0.3868129849433899
        }
    ],
    "triangles": [
        1,
        0,
        2
    ],
    "carDensity": 3.0,
    "suspension": 0.4975568950176239,
    "motorSpeed": 1417,
    "frontDensity": 2.200000047683716,
    "frontRadius": 0.41639769077301028,
    "frontOffset": 0.8903435468673706,
    "backDensity": 2.5,
    "backRadius": 0.4506983757019043,
    "backOffset": -1.4974043369293213,
    "score": 0,
    "maxDistance": 0,
    "maxTime": 0.800000011920929,
    "speed": 0
}