{
    "ID": 1030,
    "genomaID": "CV3TD9",
    "color": {
        "x": 0.933652400970459,
        "y": 0.4103100895881653,
        "z": 0.006938816048204899
    },
    "vertexNumber": 3,
    "colliderVertices": [
        {
            "x": -1.3373703956604005,
            "y": -0.32616886496543887
        },
        {
            "x": 1.0131357908248902,
            "y": -0.33950868248939516
        },
        {
            "x": -1.1282148361206055,
            "y": 0.8894268274307251
        }
    ],
    "triangles": [
        1,
        0,
        2
    ],
    "carDensity": 3.0,
    "suspension": 0.5156676769256592,
    "motorSpeed": 1276,
    "frontDensity": 3.9000000953674318,
    "frontRadius": 0.5904365181922913,
    "frontOffset": 1.2963106632232667,
    "backDensity": 2.0999999046325685,
    "backRadius": 0.40654048323631289,
    "backOffset": -0.9364100694656372,
    "score": 920,
    "maxDistance": 833,
    "maxTime": 95.69999694824219,
    "speed": 9
}{
    "ID": 1006,
    "genomaID": "CV3TD11",
    "color": {
        "x": 0.7481699585914612,
        "y": 0.45295506715774538,
        "z": 0.5505676865577698
    },
    "vertexNumber": 3,
    "colliderVertices": [
        {
            "x": -1.3133316040039063,
            "y": -0.3234528601169586
        },
        {
            "x": 1.9700132608413697,
            "y": -0.21216562390327454
        },
        {
            "x": 0.4271361827850342,
            "y": 0.5323043465614319
        }
    ],
    "triangles": [
        1,
        0,
        2
    ],
    "carDensity": 3.0,
    "suspension": 0.5082234144210815,
    "motorSpeed": 1069,
    "frontDensity": 4.099999904632568,
    "frontRadius": 0.6117784380912781,
    "frontOffset": 1.059388279914856,
    "backDensity": 3.5,
    "backRadius": 0.5457572937011719,
    "backOffset": -1.4261645078659058,
    "score": 221,
    "maxDistance": 142,
    "maxTime": 18.0,
    "speed": 8
}{
    "ID": 1102,
    "genomaID": "CV4TD10",
    "color": {
        "x": 0.42976051568984988,
        "y": 0.28915396332740786,
        "z": 0.9662636518478394
    },
    "vertexNumber": 4,
    "colliderVertices": [
        {
            "x": -1.8132407665252686,
            "y": -0.35229572653770449
        },
        {
            "x": 1.1989556550979615,
            "y": -0.19266679883003236
        },
        {
            "x": 1.6841516494750977,
            "y": 0.6243970990180969
        },
        {
            "x": -0.5891492366790772,
            "y": 0.4622935652732849
        }
    ],
    "triangles": [
        3,
        2,
        1,
        1,
        0,
        3
    ],
    "carDensity": 4.0,
    "suspension": 0.5013971328735352,
    "motorSpeed": 690,
    "frontDensity": 3.5999999046325685,
    "frontRadius": 0.5609225034713745,
    "frontOffset": 0.8665076494216919,
    "backDensity": 2.5,
    "backRadius": 0.45012104511260989,
    "backOffset": -1.4373767375946046,
    "score": 193,
    "maxDistance": 136,
    "maxTime": 24.0,
    "speed": 6
}{
    "ID": 1031,
    "genomaID": "CV3TD8",
    "color": {
        "x": 0.24792686104774476,
        "y": 0.6722297072410584,
        "z": 0.7211788296699524
    },
    "vertexNumber": 3,
    "colliderVertices": [
        {
            "x": -1.774295449256897,
            "y": -0.43680477142333987
        },
        {
            "x": 1.3906209468841553,
            "y": -0.4272916316986084
        },
        {
            "x": -0.28132176399230959,
            "y": 0.5986563563346863
        }
    ],
    "triangles": [
        1,
        0,
        2
    ],
    "carDensity": 3.0,
    "suspension": 0.8943528532981873,
    "motorSpeed": 585,
    "frontDensity": 3.0999999046325685,
    "frontRadius": 0.5055605173110962,
    "frontOffset": 0.8885034322738648,
    "backDensity": 2.4000000953674318,
    "backRadius": 0.44257742166519167,
    "backOffset": -1.2096766233444214,
    "score": 186,
    "maxDistance": 141,
    "maxTime": 31.399999618530275,
    "speed": 4
}{
    "ID": 1196,
    "genomaID": "CV3TD9",
    "color": {
        "x": 0.03708780184388161,
        "y": 0.6936801075935364,
        "z": 0.23400500416755677
    },
    "vertexNumber": 3,
    "colliderVertices": [
        {
            "x": -1.4587998390197755,
            "y": -0.1219111829996109
        },
        {
            "x": 1.0652388334274293,
            "y": -0.3931155204772949
        },
        {
            "x": -1.5885348320007325,
            "y": 0.43098264932632449
        }
    ],
    "triangles": [
        1,
        0,
        2
    ],
    "carDensity": 3.0,
    "suspension": 0.6928684711456299,
    "motorSpeed": 958,
    "frontDensity": 3.700000047683716,
    "frontRadius": 0.5709813237190247,
    "frontOffset": 0.9624146223068237,
    "backDensity": 2.0,
    "backRadius": 0.40485697984695437,
    "backOffset": -1.4337713718414307,
    "score": 0,
    "maxDistance": 0,
    "maxTime": 1.0,
    "speed": 0
}