{
    "ID": 7939,
    "genomaID": "CV3TD9",
    "color": {
        "x": 0.9476953744888306,
        "y": 0.336377888917923,
        "z": 0.22495678067207337
    },
    "vertexNumber": 3,
    "colliderVertices": [
        {
            "x": -1.1994199752807618,
            "y": -0.2213364541530609
        },
        {
            "x": 1.576453685760498,
            "y": -0.44079065322875979
        },
        {
            "x": -1.5219764709472657,
            "y": 0.3868129849433899
        }
    ],
    "triangles": [
        1,
        0,
        2
    ],
    "carDensity": 3.0,
    "suspension": 0.40035757422447207,
    "motorSpeed": 1050,
    "frontDensity": 3.799999952316284,
    "frontRadius": 0.5824572443962097,
    "frontOffset": 1.3656809329986573,
    "backDensity": 2.299999952316284,
    "backRadius": 0.42583245038986208,
    "backOffset": -1.148762583732605,
    "score": 914,
    "maxDistance": 834,
    "maxTime": 104.0,
    "speed": 8
}{
    "ID": 7894,
    "genomaID": "CV3TD10",
    "color": {
        "x": 0.6399825215339661,
        "y": 0.16161789000034333,
        "z": 0.2885212004184723
    },
    "vertexNumber": 3,
    "colliderVertices": [
        {
            "x": -1.2894551753997803,
            "y": -0.47892969846725466
        },
        {
            "x": 1.6492505073547364,
            "y": -0.3897058367729187
        },
        {
            "x": 0.783359944820404,
            "y": 0.4463927149772644
        }
    ],
    "triangles": [
        1,
        0,
        2
    ],
    "carDensity": 3.0,
    "suspension": 0.5490400791168213,
    "motorSpeed": 742,
    "frontDensity": 3.700000047683716,
    "frontRadius": 0.5709813237190247,
    "frontOffset": 1.490144968032837,
    "backDensity": 2.700000047683716,
    "backRadius": 0.4731896221637726,
    "backOffset": -1.4337713718414307,
    "score": 894,
    "maxDistance": 833,
    "maxTime": 135.60000610351563,
    "speed": 6
}{
    "ID": 7801,
    "genomaID": "CV3TD9",
    "color": {
        "x": 0.8272284269332886,
        "y": 0.24100199341773988,
        "z": 0.9499204158782959
    },
    "vertexNumber": 3,
    "colliderVertices": [
        {
            "x": -1.9482289552688599,
            "y": -0.4443376064300537
        },
        {
            "x": 1.5487501621246338,
            "y": -0.25610288977622988
        },
        {
            "x": -1.3368010520935059,
            "y": 0.037310004234313968
        }
    ],
    "triangles": [
        1,
        0,
        2
    ],
    "carDensity": 3.0,
    "suspension": 0.9984103441238403,
    "motorSpeed": 709,
    "frontDensity": 3.700000047683716,
    "frontRadius": 0.5654898881912231,
    "frontOffset": 1.2039350271224976,
    "backDensity": 2.0999999046325685,
    "backRadius": 0.41194814443588259,
    "backOffset": -1.0729032754898072,
    "score": 888,
    "maxDistance": 833,
    "maxTime": 150.10000610351563,
    "speed": 6
}{
    "ID": 7952,
    "genomaID": "CV3TD10",
    "color": {
        "x": 0.23777928948402406,
        "y": 0.7201579213142395,
        "z": 0.1878766119480133
    },
    "vertexNumber": 3,
    "colliderVertices": [
        {
            "x": -1.4073028564453126,
            "y": -0.32710781693458559
        },
        {
            "x": 1.2709643840789796,
            "y": -0.41675275564193728
        },
        {
            "x": 0.4441344738006592,
            "y": 0.04766130447387695
        }
    ],
    "triangles": [
        1,
        0,
        2
    ],
    "carDensity": 3.0,
    "suspension": 0.8933860063552856,
    "motorSpeed": 742,
    "frontDensity": 4.0,
    "frontRadius": 0.5959906578063965,
    "frontOffset": 1.323103904724121,
    "backDensity": 2.9000000953674318,
    "backRadius": 0.4864836037158966,
    "backOffset": -1.1102763414382935,
    "score": 30,
    "maxDistance": 5,
    "maxTime": 2.0,
    "speed": 2
}{
    "ID": 7999,
    "genomaID": "CV3TD10",
    "color": {
        "x": 0.22255316376686097,
        "y": 0.6644458174705505,
        "z": 0.7237061858177185
    },
    "vertexNumber": 3,
    "colliderVertices": [
        {
            "x": -1.1994199752807618,
            "y": -0.2213364541530609
        },
        {
            "x": 1.576453685760498,
            "y": -0.44079065322875979
        },
        {
            "x": -1.5219764709472657,
            "y": 0.3868129849433899
        }
    ],
    "triangles": [
        1,
        0,
        2
    ],
    "carDensity": 3.0,
    "suspension": 0.955211877822876,
    "motorSpeed": 1050,
    "frontDensity": 2.700000047683716,
    "frontRadius": 0.4722994863986969,
    "frontOffset": 1.0987869501113892,
    "backDensity": 4.099999904632568,
    "backRadius": 0.6087467074394226,
    "backOffset": -1.074454665184021,
    "score": -11,
    "maxDistance": -1,
    "maxTime": 1.0,
    "speed": -1
}