{
    "ID": 13867,
    "genomaID": "CV3TD10",
    "color": {
        "x": 0.43899983167648318,
        "y": 0.17573334276676179,
        "z": 0.989298939704895
    },
    "vertexNumber": 3,
    "colliderVertices": [
        {
            "x": -1.1994199752807618,
            "y": -0.2213364541530609
        },
        {
            "x": 1.576453685760498,
            "y": -0.44079065322875979
        },
        {
            "x": -1.5219764709472657,
            "y": 0.3868129849433899
        }
    ],
    "triangles": [
        1,
        0,
        2
    ],
    "carDensity": 3.0,
    "suspension": 0.6552329063415527,
    "motorSpeed": 1050,
    "frontDensity": 4.0,
    "frontRadius": 0.6007194519042969,
    "frontOffset": 1.4611871242523194,
    "backDensity": 2.799999952316284,
    "backRadius": 0.48304396867752077,
    "backOffset": -0.6134203672409058,
    "score": 919,
    "maxDistance": 834,
    "maxTime": 98.30000305175781,
    "speed": 8
}{
    "ID": 13836,
    "genomaID": "CV3TD9",
    "color": {
        "x": 0.26969113945961,
        "y": 0.732894241809845,
        "z": 0.8638585805892944
    },
    "vertexNumber": 3,
    "colliderVertices": [
        {
            "x": -1.1994199752807618,
            "y": -0.2213364541530609
        },
        {
            "x": 1.576453685760498,
            "y": -0.44079065322875979
        },
        {
            "x": -1.5219764709472657,
            "y": 0.3868129849433899
        }
    ],
    "triangles": [
        1,
        0,
        2
    ],
    "carDensity": 3.0,
    "suspension": 0.7492998838424683,
    "motorSpeed": 1050,
    "frontDensity": 3.799999952316284,
    "frontRadius": 0.5824572443962097,
    "frontOffset": 1.4140498638153077,
    "backDensity": 2.299999952316284,
    "backRadius": 0.42583245038986208,
    "backOffset": -0.7977897524833679,
    "score": 914,
    "maxDistance": 834,
    "maxTime": 104.19999694824219,
    "speed": 8
}{
    "ID": 13917,
    "genomaID": "CV3TD10",
    "color": {
        "x": 0.05791676789522171,
        "y": 0.4669416546821594,
        "z": 0.15335942804813386
    },
    "vertexNumber": 3,
    "colliderVertices": [
        {
            "x": -1.5103428363800049,
            "y": -0.16662175953388215
        },
        {
            "x": 1.1318963766098023,
            "y": -0.4118785858154297
        },
        {
            "x": -1.582639217376709,
            "y": 0.20442736148834229
        }
    ],
    "triangles": [
        1,
        0,
        2
    ],
    "carDensity": 3.0,
    "suspension": 0.523897647857666,
    "motorSpeed": 1050,
    "frontDensity": 3.799999952316284,
    "frontRadius": 0.5786217451095581,
    "frontOffset": 1.4021518230438233,
    "backDensity": 2.700000047683716,
    "backRadius": 0.4738900065422058,
    "backOffset": -1.280032992362976,
    "score": 535,
    "maxDistance": 452,
    "maxTime": 54.70000076293945,
    "speed": 8
}{
    "ID": 13926,
    "genomaID": "CV3TD10",
    "color": {
        "x": 0.10239996016025543,
        "y": 0.5455564856529236,
        "z": 0.9199621677398682
    },
    "vertexNumber": 3,
    "colliderVertices": [
        {
            "x": -1.1994199752807618,
            "y": -0.2213364541530609
        },
        {
            "x": 1.576453685760498,
            "y": -0.44079065322875979
        },
        {
            "x": -1.5219764709472657,
            "y": 0.3868129849433899
        }
    ],
    "triangles": [
        1,
        0,
        2
    ],
    "carDensity": 3.0,
    "suspension": 0.49829065799713137,
    "motorSpeed": 1050,
    "frontDensity": 3.799999952316284,
    "frontRadius": 0.5824572443962097,
    "frontOffset": 1.2197822332382203,
    "backDensity": 3.4000000953674318,
    "backRadius": 0.5436737537384033,
    "backOffset": -1.0502029657363892,
    "score": 26,
    "maxDistance": 4,
    "maxTime": 1.7999999523162842,
    "speed": 2
}{
    "ID": 13994,
    "genomaID": "CV3TD11",
    "color": {
        "x": 0.6260215640068054,
        "y": 0.5819882750511169,
        "z": 0.43483883142471316
    },
    "vertexNumber": 3,
    "colliderVertices": [
        {
            "x": -1.374882698059082,
            "y": -0.21151086688041688
        },
        {
            "x": 1.1403863430023194,
            "y": -0.1737293154001236
        },
        {
            "x": -0.7944719791412354,
            "y": 0.26357585191726687
        }
    ],
    "triangles": [
        1,
        0,
        2
    ],
    "carDensity": 3.0,
    "suspension": 0.4768422842025757,
    "motorSpeed": 1050,
    "frontDensity": 3.799999952316284,
    "frontRadius": 0.5841118097305298,
    "frontOffset": 1.200298547744751,
    "backDensity": 3.9000000953674318,
    "backRadius": 0.5894030332565308,
    "backOffset": -0.8608185052871704,
    "score": 0,
    "maxDistance": 0,
    "maxTime": 0.800000011920929,
    "speed": 0
}