{
    "ID": 179,
    "genomaID": "CV4TD11",
    "color": {
        "x": 0.2989640533924103,
        "y": 0.10936130583286286,
        "z": 0.11599542200565338
    },
    "vertexNumber": 4,
    "colliderVertices": [
        {
            "x": -1.4402883052825928,
            "y": -0.15523357689380647
        },
        {
            "x": 1.7919560670852662,
            "y": -0.3177189528942108
        },
        {
            "x": 0.4021170139312744,
            "y": 0.22942864894866944
        },
        {
            "x": -1.5010647773742676,
            "y": 0.1372584104537964
        }
    ],
    "triangles": [
        3,
        2,
        1,
        1,
        0,
        3
    ],
    "carDensity": 4.0,
    "suspension": 0.7828031778335571,
    "motorSpeed": 655,
    "frontDensity": 4.0,
    "frontRadius": 0.5970914363861084,
    "frontOffset": 1.30391526222229,
    "backDensity": 3.299999952316284,
    "backRadius": 0.5335473418235779,
    "backOffset": -1.255859375,
    "score": 891,
    "maxDistance": 833,
    "maxTime": 143.89999389648438,
    "speed": 6
}{
    "ID": 117,
    "genomaID": "CV5TD13",
    "color": {
        "x": 0.05791676789522171,
        "y": 0.4669416546821594,
        "z": 0.15335942804813386
    },
    "vertexNumber": 5,
    "colliderVertices": [
        {
            "x": -1.8479255437850953,
            "y": -0.4575256109237671
        },
        {
            "x": 1.950864553451538,
            "y": -0.10699500143527985
        },
        {
            "x": 1.7867374420166016,
            "y": 0.4173831343650818
        },
        {
            "x": 1.3230271339416505,
            "y": 0.6924949884414673
        },
        {
            "x": -0.1519315242767334,
            "y": 0.8972747325897217
        }
    ],
    "triangles": [
        1,
        4,
        3,
        3,
        2,
        1,
        1,
        0,
        4
    ],
    "carDensity": 5.0,
    "suspension": 0.5008422136306763,
    "motorSpeed": 997,
    "frontDensity": 3.5999999046325685,
    "frontRadius": 0.5573588609695435,
    "frontOffset": 1.3430440425872803,
    "backDensity": 4.300000190734863,
    "backRadius": 0.6326819062232971,
    "backOffset": -1.428098440170288,
    "score": 40,
    "maxDistance": 6,
    "maxTime": 1.7999999523162842,
    "speed": 3
}{
    "ID": 9,
    "genomaID": "CV6TD15",
    "color": {
        "x": 0.3479447662830353,
        "y": 0.2396637499332428,
        "z": 0.7079716324806213
    },
    "vertexNumber": 6,
    "colliderVertices": [
        {
            "x": -1.092172622680664,
            "y": -0.2558065354824066
        },
        {
            "x": 1.7985574007034302,
            "y": -0.02695697918534279
        },
        {
            "x": 1.1080923080444337,
            "y": 0.6897889375686646
        },
        {
            "x": 0.14568543434143067,
            "y": 0.7394846677780151
        },
        {
            "x": -1.505765438079834,
            "y": 0.2711222767829895
        },
        {
            "x": -1.6816425323486329,
            "y": 0.30481189489364626
        }
    ],
    "triangles": [
        4,
        2,
        0,
        0,
        5,
        4,
        4,
        3,
        2,
        2,
        1,
        0
    ],
    "carDensity": 6.0,
    "suspension": 0.9551734924316406,
    "motorSpeed": 858,
    "frontDensity": 4.099999904632568,
    "frontRadius": 0.6056548953056336,
    "frontOffset": 0.7733737826347351,
    "backDensity": 4.800000190734863,
    "backRadius": 0.676455020904541,
    "backOffset": -0.9791768789291382,
    "score": 0,
    "maxDistance": 0,
    "maxTime": 0.800000011920929,
    "speed": 0
}{
    "ID": 96,
    "genomaID": "CV6TD12",
    "color": {
        "x": 0.4214617609977722,
        "y": 0.9515104293823242,
        "z": 0.08355153352022171
    },
    "vertexNumber": 6,
    "colliderVertices": [
        {
            "x": -1.6572175025939942,
            "y": -0.31199899315834048
        },
        {
            "x": 1.5280919075012208,
            "y": -0.31955817341804507
        },
        {
            "x": 1.3639698028564454,
            "y": 0.11609065532684326
        },
        {
            "x": 0.6917042136192322,
            "y": 0.7728489637374878
        },
        {
            "x": 0.27476954460144045,
            "y": 0.26450127363204958
        },
        {
            "x": -0.47867655754089358,
            "y": 0.6647990942001343
        }
    ],
    "triangles": [
        4,
        2,
        0,
        0,
        5,
        4,
        4,
        3,
        2,
        2,
        1,
        0
    ],
    "carDensity": 6.0,
    "suspension": 0.4957806169986725,
    "motorSpeed": 1366,
    "frontDensity": 2.9000000953674318,
    "frontRadius": 0.4933946132659912,
    "frontOffset": 0.6098946332931519,
    "backDensity": 2.700000047683716,
    "backRadius": 0.47084957361221316,
    "backOffset": -0.6945322751998901,
    "score": 0,
    "maxDistance": 0,
    "maxTime": 0.800000011920929,
    "speed": 0
}{
    "ID": 200,
    "genomaID": "CV5TD12",
    "color": {
        "x": 0.26062169671058657,
        "y": 0.4016384482383728,
        "z": 0.8414312601089478
    },
    "vertexNumber": 5,
    "colliderVertices": [
        {
            "x": -1.5702786445617676,
            "y": -0.18939200043678285
        },
        {
            "x": 1.287949562072754,
            "y": -0.15233547985553742
        },
        {
            "x": 0.6060957312583923,
            "y": 0.5789127945899963
        },
        {
            "x": 0.01683831214904785,
            "y": 0.34830349683761599
        },
        {
            "x": -0.5818612575531006,
            "y": 0.5121073126792908
        }
    ],
    "triangles": [
        1,
        4,
        3,
        3,
        2,
        1,
        1,
        0,
        4
    ],
    "carDensity": 5.0,
    "suspension": 0.4449082612991333,
    "motorSpeed": 890,
    "frontDensity": 3.9000000953674318,
    "frontRadius": 0.5877968668937683,
    "frontOffset": 0.7010458707809448,
    "backDensity": 3.0,
    "backRadius": 0.49643367528915408,
    "backOffset": -0.595065712928772,
    "score": 0,
    "maxDistance": 0,
    "maxTime": 0.800000011920929,
    "speed": 0
}