{
    "ID": 15201,
    "genomaID": "CV3TD10",
    "color": {
        "x": 0.8272284269332886,
        "y": 0.24100199341773988,
        "z": 0.9499204158782959
    },
    "vertexNumber": 3,
    "colliderVertices": [
        {
            "x": -1.1994199752807618,
            "y": -0.2213364541530609
        },
        {
            "x": 1.576453685760498,
            "y": -0.44079065322875979
        },
        {
            "x": -1.5219764709472657,
            "y": 0.3868129849433899
        }
    ],
    "triangles": [
        1,
        0,
        2
    ],
    "carDensity": 3.0,
    "suspension": 0.6902725100517273,
    "motorSpeed": 1050,
    "frontDensity": 3.799999952316284,
    "frontRadius": 0.5841118097305298,
    "frontOffset": 0.9288924932479858,
    "backDensity": 2.799999952316284,
    "backRadius": 0.47797691822052,
    "backOffset": -1.051028847694397,
    "score": 917,
    "maxDistance": 834,
    "maxTime": 100.5999984741211,
    "speed": 8
}{
    "ID": 15223,
    "genomaID": "CV3TD11",
    "color": {
        "x": 0.32355204224586489,
        "y": 0.5536883473396301,
        "z": 0.3207128345966339
    },
    "vertexNumber": 3,
    "colliderVertices": [
        {
            "x": -1.1994199752807618,
            "y": -0.2213364541530609
        },
        {
            "x": 1.576453685760498,
            "y": -0.44079065322875979
        },
        {
            "x": -1.5219764709472657,
            "y": 0.3868129849433899
        }
    ],
    "triangles": [
        1,
        0,
        2
    ],
    "carDensity": 3.0,
    "suspension": 0.9266434907913208,
    "motorSpeed": 915,
    "frontDensity": 4.800000190734863,
    "frontRadius": 0.6798734068870544,
    "frontOffset": 1.354394793510437,
    "backDensity": 2.5999999046325685,
    "backRadius": 0.4628947675228119,
    "backOffset": -0.768424928188324,
    "score": 913,
    "maxDistance": 832,
    "maxTime": 103.19999694824219,
    "speed": 8
}{
    "ID": 15341,
    "genomaID": "CV3TD9",
    "color": {
        "x": 0.9206932783126831,
        "y": 0.7835369110107422,
        "z": 0.27818718552589419
    },
    "vertexNumber": 3,
    "colliderVertices": [
        {
            "x": -1.1994199752807618,
            "y": -0.2213364541530609
        },
        {
            "x": 1.576453685760498,
            "y": -0.44079065322875979
        },
        {
            "x": -1.5219764709472657,
            "y": 0.3868129849433899
        }
    ],
    "triangles": [
        1,
        0,
        2
    ],
    "carDensity": 3.0,
    "suspension": 0.4891637861728668,
    "motorSpeed": 1050,
    "frontDensity": 3.9000000953674318,
    "frontRadius": 0.5927705764770508,
    "frontOffset": 0.822126567363739,
    "backDensity": 2.299999952316284,
    "backRadius": 0.4338122606277466,
    "backOffset": -1.4000775814056397,
    "score": 911,
    "maxDistance": 830,
    "maxTime": 102.5,
    "speed": 8
}{
    "ID": 15284,
    "genomaID": "CV3TD9",
    "color": {
        "x": 0.21008184552192689,
        "y": 0.8643343448638916,
        "z": 0.7106449007987976
    },
    "vertexNumber": 3,
    "colliderVertices": [
        {
            "x": -1.1994199752807618,
            "y": -0.2213364541530609
        },
        {
            "x": 1.576453685760498,
            "y": -0.44079065322875979
        },
        {
            "x": -1.5219764709472657,
            "y": 0.3868129849433899
        }
    ],
    "triangles": [
        1,
        0,
        2
    ],
    "carDensity": 3.0,
    "suspension": 0.6794562339782715,
    "motorSpeed": 936,
    "frontDensity": 3.799999952316284,
    "frontRadius": 0.5841118097305298,
    "frontOffset": 0.5087887048721314,
    "backDensity": 2.0999999046325685,
    "backRadius": 0.40943288803100588,
    "backOffset": -1.051028847694397,
    "score": 61,
    "maxDistance": 17,
    "maxTime": 3.799999952316284,
    "speed": 4
}{
    "ID": 15394,
    "genomaID": "CV3TD10",
    "color": {
        "x": 0.6260215640068054,
        "y": 0.5819882750511169,
        "z": 0.43483883142471316
    },
    "vertexNumber": 3,
    "colliderVertices": [
        {
            "x": -1.1994199752807618,
            "y": -0.2213364541530609
        },
        {
            "x": 1.576453685760498,
            "y": -0.44079065322875979
        },
        {
            "x": -1.5219764709472657,
            "y": 0.3868129849433899
        }
    ],
    "triangles": [
        1,
        0,
        2
    ],
    "carDensity": 3.0,
    "suspension": 0.487985759973526,
    "motorSpeed": 1050,
    "frontDensity": 3.799999952316284,
    "frontRadius": 0.5824572443962097,
    "frontOffset": 0.5786713361740112,
    "backDensity": 2.5999999046325685,
    "backRadius": 0.4561857581138611,
    "backOffset": -0.5563478469848633,
    "score": 0,
    "maxDistance": 0,
    "maxTime": 0.800000011920929,
    "speed": 0
}