{
    "ID": 7103,
    "genomaID": "CV4TD10",
    "color": {
        "x": 0.7257903218269348,
        "y": 0.6254753470420837,
        "z": 0.05415094643831253
    },
    "vertexNumber": 4,
    "colliderVertices": [
        {
            "x": -1.3310623168945313,
            "y": -0.1556272655725479
        },
        {
            "x": 1.3112199306488038,
            "y": -0.4891207814216614
        },
        {
            "x": -0.9975411891937256,
            "y": 0.5222464203834534
        },
        {
            "x": -1.6430034637451172,
            "y": 0.001446843147277832
        }
    ],
    "triangles": [
        3,
        2,
        1,
        1,
        0,
        3
    ],
    "carDensity": 4.0,
    "suspension": 0.43034452199935915,
    "motorSpeed": 1106,
    "frontDensity": 4.300000190734863,
    "frontRadius": 0.6254090070724487,
    "frontOffset": 1.28336501121521,
    "backDensity": 2.0,
    "backRadius": 0.40485697984695437,
    "backOffset": -1.4337713718414307,
    "score": 917,
    "maxDistance": 833,
    "maxTime": 99.69999694824219,
    "speed": 8
}{
    "ID": 7122,
    "genomaID": "CV3TD9",
    "color": {
        "x": 0.9508256912231445,
        "y": 0.25672855973243716,
        "z": 0.06313038617372513
    },
    "vertexNumber": 3,
    "colliderVertices": [
        {
            "x": -1.2894551753997803,
            "y": -0.47892969846725466
        },
        {
            "x": 1.6492505073547364,
            "y": -0.3897058367729187
        },
        {
            "x": 0.783359944820404,
            "y": 0.4463927149772644
        }
    ],
    "triangles": [
        1,
        0,
        2
    ],
    "carDensity": 3.0,
    "suspension": 0.9214135408401489,
    "motorSpeed": 742,
    "frontDensity": 3.700000047683716,
    "frontRadius": 0.5709813237190247,
    "frontOffset": 1.490144968032837,
    "backDensity": 2.0,
    "backRadius": 0.40358179807662966,
    "backOffset": -1.0138903856277466,
    "score": 893,
    "maxDistance": 833,
    "maxTime": 139.8000030517578,
    "speed": 6
}{
    "ID": 7190,
    "genomaID": "CV3TD8",
    "color": {
        "x": 0.09079349786043167,
        "y": 0.843571662902832,
        "z": 0.7027984261512756
    },
    "vertexNumber": 3,
    "colliderVertices": [
        {
            "x": -1.839646577835083,
            "y": -0.1631723791360855
        },
        {
            "x": 1.5296573638916016,
            "y": -0.12267930805683136
        },
        {
            "x": -1.3568434715270997,
            "y": 0.06707751750946045
        }
    ],
    "triangles": [
        1,
        0,
        2
    ],
    "carDensity": 3.0,
    "suspension": 0.5767444372177124,
    "motorSpeed": 742,
    "frontDensity": 3.4000000953674318,
    "frontRadius": 0.5380825400352478,
    "frontOffset": 0.5978492498397827,
    "backDensity": 2.5,
    "backRadius": 0.4507780075073242,
    "backOffset": -0.8747457265853882,
    "score": 891,
    "maxDistance": 833,
    "maxTime": 142.89999389648438,
    "speed": 6
}{
    "ID": 7145,
    "genomaID": "CV5TD12",
    "color": {
        "x": 0.756838321685791,
        "y": 0.5236336588859558,
        "z": 0.3359558880329132
    },
    "vertexNumber": 5,
    "colliderVertices": [
        {
            "x": -1.1080322265625,
            "y": -0.1385924369096756
        },
        {
            "x": 1.647646427154541,
            "y": -0.49484890699386599
        },
        {
            "x": 1.1693134307861329,
            "y": 0.18747162818908692
        },
        {
            "x": 0.9433435797691345,
            "y": 0.9756436347961426
        },
        {
            "x": 0.06167912483215332,
            "y": 0.043520569801330569
        }
    ],
    "triangles": [
        2,
        1,
        4,
        4,
        3,
        2,
        1,
        0,
        4
    ],
    "carDensity": 5.0,
    "suspension": 0.7768731117248535,
    "motorSpeed": 691,
    "frontDensity": 4.199999809265137,
    "frontRadius": 0.6184525489807129,
    "frontOffset": 1.2341136932373047,
    "backDensity": 3.0999999046325685,
    "backRadius": 0.5055469870567322,
    "backOffset": -1.0403586626052857,
    "score": 38,
    "maxDistance": 6,
    "maxTime": 1.899999976158142,
    "speed": 3
}{
    "ID": 7200,
    "genomaID": "CV3TD10",
    "color": {
        "x": 0.26062169671058657,
        "y": 0.4016384482383728,
        "z": 0.8414312601089478
    },
    "vertexNumber": 3,
    "colliderVertices": [
        {
            "x": -1.4587998390197755,
            "y": -0.1219111829996109
        },
        {
            "x": 1.0652388334274293,
            "y": -0.3931155204772949
        },
        {
            "x": -1.5885348320007325,
            "y": 0.43098264932632449
        }
    ],
    "triangles": [
        1,
        0,
        2
    ],
    "carDensity": 3.0,
    "suspension": 0.7297173738479614,
    "motorSpeed": 740,
    "frontDensity": 3.0999999046325685,
    "frontRadius": 0.5128916501998901,
    "frontOffset": 0.8320414423942566,
    "backDensity": 4.400000095367432,
    "backRadius": 0.6384630799293518,
    "backOffset": -0.9707862138748169,
    "score": 0,
    "maxDistance": 0,
    "maxTime": 0.8999999761581421,
    "speed": 0
}