{
    "ID": 1202,
    "genomaID": "CV3TD9",
    "color": {
        "x": 0.5770989060401917,
        "y": 0.642396867275238,
        "z": 0.1415715366601944
    },
    "vertexNumber": 3,
    "colliderVertices": [
        {
            "x": -1.3373703956604005,
            "y": -0.32616886496543887
        },
        {
            "x": 1.0131357908248902,
            "y": -0.33950868248939516
        },
        {
            "x": -1.1282148361206055,
            "y": 0.8894268274307251
        }
    ],
    "triangles": [
        1,
        0,
        2
    ],
    "carDensity": 3.0,
    "suspension": 0.5156676769256592,
    "motorSpeed": 1276,
    "frontDensity": 3.9000000953674318,
    "frontRadius": 0.5904365181922913,
    "frontOffset": 1.2963106632232667,
    "backDensity": 2.0999999046325685,
    "backRadius": 0.40654048323631289,
    "backOffset": -0.9364100694656372,
    "score": 921,
    "maxDistance": 833,
    "maxTime": 94.80000305175781,
    "speed": 9
}{
    "ID": 1299,
    "genomaID": "CV3TD10",
    "color": {
        "x": 0.6687944531440735,
        "y": 0.6660895943641663,
        "z": 0.7493487000465393
    },
    "vertexNumber": 3,
    "colliderVertices": [
        {
            "x": -1.774295449256897,
            "y": -0.43680477142333987
        },
        {
            "x": 1.3906209468841553,
            "y": -0.4272916316986084
        },
        {
            "x": -0.28132176399230959,
            "y": 0.5986563563346863
        }
    ],
    "triangles": [
        1,
        0,
        2
    ],
    "carDensity": 3.0,
    "suspension": 0.8943528532981873,
    "motorSpeed": 1151,
    "frontDensity": 4.199999809265137,
    "frontRadius": 0.6220642924308777,
    "frontOffset": 1.171487808227539,
    "backDensity": 2.700000047683716,
    "backRadius": 0.4729686975479126,
    "backOffset": -1.0066615343093873,
    "score": 234,
    "maxDistance": 151,
    "maxTime": 18.100000381469728,
    "speed": 8
}{
    "ID": 1372,
    "genomaID": "CV5TD13",
    "color": {
        "x": 0.3629784882068634,
        "y": 0.27043417096138,
        "z": 0.5591352581977844
    },
    "vertexNumber": 5,
    "colliderVertices": [
        {
            "x": -1.0951167345046998,
            "y": -0.29530659317970278
        },
        {
            "x": 1.441913366317749,
            "y": -0.007378638722002506
        },
        {
            "x": 1.8909778594970704,
            "y": 0.555812418460846
        },
        {
            "x": -1.5022172927856446,
            "y": 0.22362160682678224
        },
        {
            "x": -1.8129277229309083,
            "y": 0.8927479982376099
        }
    ],
    "triangles": [
        4,
        0,
        1,
        1,
        2,
        3
    ],
    "carDensity": 5.0,
    "suspension": 0.4547789990901947,
    "motorSpeed": 585,
    "frontDensity": 4.199999809265137,
    "frontRadius": 0.6220642924308777,
    "frontOffset": 1.4015328884124756,
    "backDensity": 3.9000000953674318,
    "backRadius": 0.5889202952384949,
    "backOffset": -1.0066615343093873,
    "score": 198,
    "maxDistance": 141,
    "maxTime": 24.600000381469728,
    "speed": 6
}{
    "ID": 1391,
    "genomaID": "CV4TD10",
    "color": {
        "x": 0.34938088059425356,
        "y": 0.7054237723350525,
        "z": 0.7814711332321167
    },
    "vertexNumber": 4,
    "colliderVertices": [
        {
            "x": -1.8263334035873414,
            "y": -0.41150468587875368
        },
        {
            "x": 1.6957941055297852,
            "y": -0.03721005097031593
        },
        {
            "x": 1.9101753234863282,
            "y": 0.9283486604690552
        },
        {
            "x": 0.019642114639282228,
            "y": 0.5796806216239929
        }
    ],
    "triangles": [
        3,
        2,
        1,
        1,
        0,
        3
    ],
    "carDensity": 4.0,
    "suspension": 0.7898732423782349,
    "motorSpeed": 998,
    "frontDensity": 3.200000047683716,
    "frontRadius": 0.5188084840774536,
    "frontOffset": 1.2126576900482178,
    "backDensity": 3.0,
    "backRadius": 0.4957304298877716,
    "backOffset": -0.6661670207977295,
    "score": 30,
    "maxDistance": 5,
    "maxTime": 2.0,
    "speed": 2
}{
    "ID": 1263,
    "genomaID": "CV4TD11",
    "color": {
        "x": 0.298573762178421,
        "y": 0.5798096060752869,
        "z": 0.33015504479408266
    },
    "vertexNumber": 4,
    "colliderVertices": [
        {
            "x": -1.0450328588485718,
            "y": -0.48871999979019167
        },
        {
            "x": 1.841866135597229,
            "y": -0.23995527625083924
        },
        {
            "x": 0.3388698101043701,
            "y": 0.3033751845359802
        },
        {
            "x": 0.3082859516143799,
            "y": 0.4672580361366272
        }
    ],
    "triangles": [
        0,
        3,
        2,
        2,
        1,
        0
    ],
    "carDensity": 4.0,
    "suspension": 0.6802147626876831,
    "motorSpeed": 1279,
    "frontDensity": 2.299999952316284,
    "frontRadius": 0.4285559058189392,
    "frontOffset": 1.4437310695648194,
    "backDensity": 4.800000190734863,
    "backRadius": 0.6832256317138672,
    "backOffset": -1.0608149766921998,
    "score": -11,
    "maxDistance": -1,
    "maxTime": 1.0,
    "speed": -1
}