{
    "ID": 6112,
    "genomaID": "CV3TD9",
    "color": {
        "x": 0.4966152310371399,
        "y": 0.8847523927688599,
        "z": 0.8302253484725952
    },
    "vertexNumber": 3,
    "colliderVertices": [
        {
            "x": -1.4587998390197755,
            "y": -0.1219111829996109
        },
        {
            "x": 1.0652388334274293,
            "y": -0.3931155204772949
        },
        {
            "x": -1.5885348320007325,
            "y": 0.43098264932632449
        }
    ],
    "triangles": [
        1,
        0,
        2
    ],
    "carDensity": 3.0,
    "suspension": 0.6233994960784912,
    "motorSpeed": 1353,
    "frontDensity": 4.0,
    "frontRadius": 0.5983087420463562,
    "frontOffset": 1.4896910190582276,
    "backDensity": 2.0999999046325685,
    "backRadius": 0.412259578704834,
    "backOffset": -0.7319494485855103,
    "score": 925,
    "maxDistance": 834,
    "maxTime": 91.19999694824219,
    "speed": 9
}{
    "ID": 6033,
    "genomaID": "CV6TD12",
    "color": {
        "x": 0.9128752946853638,
        "y": 0.0025876762811094524,
        "z": 0.16460515558719636
    },
    "vertexNumber": 6,
    "colliderVertices": [
        {
            "x": -1.8701449632644654,
            "y": -0.01713442988693714
        },
        {
            "x": 1.9046778678894044,
            "y": -0.17419905960559846
        },
        {
            "x": 1.4269099235534669,
            "y": 0.0361713171005249
        },
        {
            "x": 0.160536527633667,
            "y": 0.15775537490844727
        },
        {
            "x": -1.4152517318725587,
            "y": 0.10648179054260254
        },
        {
            "x": -1.5677781105041505,
            "y": 0.8202896118164063
        }
    ],
    "triangles": [
        4,
        2,
        0,
        0,
        5,
        4,
        4,
        3,
        2,
        2,
        1,
        0
    ],
    "carDensity": 6.0,
    "suspension": 0.8463559150695801,
    "motorSpeed": 740,
    "frontDensity": 3.700000047683716,
    "frontRadius": 0.5709813237190247,
    "frontOffset": 1.1932356357574463,
    "backDensity": 2.5,
    "backRadius": 0.4503074288368225,
    "backOffset": -1.056456446647644,
    "score": 892,
    "maxDistance": 833,
    "maxTime": 141.89999389648438,
    "speed": 6
}{
    "ID": 6162,
    "genomaID": "CV6TD12",
    "color": {
        "x": 0.9894320964813232,
        "y": 0.06616104394197464,
        "z": 0.5209953188896179
    },
    "vertexNumber": 6,
    "colliderVertices": [
        {
            "x": -1.8701449632644654,
            "y": -0.01713442988693714
        },
        {
            "x": 1.9046778678894044,
            "y": -0.17419905960559846
        },
        {
            "x": 1.4269099235534669,
            "y": 0.0361713171005249
        },
        {
            "x": 0.160536527633667,
            "y": 0.15775537490844727
        },
        {
            "x": -1.4152517318725587,
            "y": 0.10648179054260254
        },
        {
            "x": -1.5677781105041505,
            "y": 0.8202896118164063
        }
    ],
    "triangles": [
        4,
        2,
        0,
        0,
        5,
        4,
        4,
        3,
        2,
        2,
        1,
        0
    ],
    "carDensity": 6.0,
    "suspension": 0.8463559150695801,
    "motorSpeed": 740,
    "frontDensity": 3.700000047683716,
    "frontRadius": 0.5709813237190247,
    "frontOffset": 1.1932356357574463,
    "backDensity": 2.299999952316284,
    "backRadius": 0.43406951427459719,
    "backOffset": -1.251875877380371,
    "score": 890,
    "maxDistance": 833,
    "maxTime": 145.3000030517578,
    "speed": 6
}{
    "ID": 6184,
    "genomaID": "CV3TD10",
    "color": {
        "x": 0.2785692512989044,
        "y": 0.9990514516830444,
        "z": 0.4614829421043396
    },
    "vertexNumber": 3,
    "colliderVertices": [
        {
            "x": -1.2894551753997803,
            "y": -0.47892969846725466
        },
        {
            "x": 1.6492505073547364,
            "y": -0.3897058367729187
        },
        {
            "x": 0.783359944820404,
            "y": 0.4463927149772644
        }
    ],
    "triangles": [
        1,
        0,
        2
    ],
    "carDensity": 3.0,
    "suspension": 0.5410700440406799,
    "motorSpeed": 742,
    "frontDensity": 3.700000047683716,
    "frontRadius": 0.5709813237190247,
    "frontOffset": 1.046669363975525,
    "backDensity": 3.200000047683716,
    "backRadius": 0.522020161151886,
    "backOffset": -1.4337713718414307,
    "score": 36,
    "maxDistance": 6,
    "maxTime": 2.0,
    "speed": 3
}{
    "ID": 6197,
    "genomaID": "CV3TD9",
    "color": {
        "x": 0.3678264915943146,
        "y": 0.035842422395944598,
        "z": 0.5074222683906555
    },
    "vertexNumber": 3,
    "colliderVertices": [
        {
            "x": -1.4587998390197755,
            "y": -0.1219111829996109
        },
        {
            "x": 1.0652388334274293,
            "y": -0.3931155204772949
        },
        {
            "x": -1.5885348320007325,
            "y": 0.43098264932632449
        }
    ],
    "triangles": [
        1,
        0,
        2
    ],
    "carDensity": 3.0,
    "suspension": 0.7441768646240234,
    "motorSpeed": 740,
    "frontDensity": 4.0,
    "frontRadius": 0.5983087420463562,
    "frontOffset": 0.9547516107559204,
    "backDensity": 2.0999999046325685,
    "backRadius": 0.4080718159675598,
    "backOffset": -1.096969723701477,
    "score": 0,
    "maxDistance": 0,
    "maxTime": 1.0,
    "speed": 0
}