{
    "ID": 372,
    "genomaID": "CV3TD10",
    "color": {
        "x": 0.3629784882068634,
        "y": 0.27043417096138,
        "z": 0.5591352581977844
    },
    "vertexNumber": 3,
    "colliderVertices": [
        {
            "x": -1.9955832958221436,
            "y": -0.007306099869310856
        },
        {
            "x": 1.6577365398406983,
            "y": -0.19653615355491639
        },
        {
            "x": 1.5622763633728028,
            "y": 0.09580671787261963
        }
    ],
    "triangles": [
        1,
        0,
        2
    ],
    "carDensity": 3.0,
    "suspension": 0.9752967953681946,
    "motorSpeed": 743,
    "frontDensity": 3.9000000953674318,
    "frontRadius": 0.5881838202476502,
    "frontOffset": 1.206824541091919,
    "backDensity": 3.200000047683716,
    "backRadius": 0.5162631869316101,
    "backOffset": -1.3053698539733887,
    "score": 897,
    "maxDistance": 833,
    "maxTime": 130.3000030517578,
    "speed": 6
}{
    "ID": 394,
    "genomaID": "CV4TD10",
    "color": {
        "x": 0.6260215640068054,
        "y": 0.5819882750511169,
        "z": 0.43483883142471316
    },
    "vertexNumber": 4,
    "colliderVertices": [
        {
            "x": -1.5142080783843995,
            "y": -0.48029714822769167
        },
        {
            "x": 1.4698576927185059,
            "y": -0.4031449556350708
        },
        {
            "x": 1.3196210861206055,
            "y": 0.11161923408508301
        },
        {
            "x": -1.474067211151123,
            "y": 0.15549373626708985
        }
    ],
    "triangles": [
        3,
        2,
        1,
        1,
        0,
        3
    ],
    "carDensity": 4.0,
    "suspension": 0.5487138032913208,
    "motorSpeed": 585,
    "frontDensity": 2.799999952316284,
    "frontRadius": 0.48454493284225466,
    "frontOffset": 0.8698445558547974,
    "backDensity": 2.5999999046325685,
    "backRadius": 0.4612334072589874,
    "backOffset": -1.0388911962509156,
    "score": 187,
    "maxDistance": 141,
    "maxTime": 30.799999237060548,
    "speed": 5
}{
    "ID": 357,
    "genomaID": "CV4TD9",
    "color": {
        "x": 0.7914447784423828,
        "y": 0.6066858172416687,
        "z": 0.7874999046325684
    },
    "vertexNumber": 4,
    "colliderVertices": [
        {
            "x": -1.9532145261764527,
            "y": -0.07529795914888382
        },
        {
            "x": 1.806085228919983,
            "y": -0.060939617455005649
        },
        {
            "x": -0.7171170711517334,
            "y": 0.6969021558761597
        },
        {
            "x": -0.8163988590240479,
            "y": 0.8930331468582153
        }
    ],
    "triangles": [
        0,
        3,
        2,
        2,
        1,
        0
    ],
    "carDensity": 4.0,
    "suspension": 0.8222159147262573,
    "motorSpeed": 774,
    "frontDensity": 2.5,
    "frontRadius": 0.4500551223754883,
    "frontOffset": 0.981692910194397,
    "backDensity": 2.700000047683716,
    "backRadius": 0.4692194163799286,
    "backOffset": -1.1074937582015992,
    "score": 31,
    "maxDistance": 5,
    "maxTime": 1.899999976158142,
    "speed": 3
}{
    "ID": 247,
    "genomaID": "CV5TD13",
    "color": {
        "x": 0.6358751654624939,
        "y": 0.21177485585212708,
        "z": 0.3786655068397522
    },
    "vertexNumber": 5,
    "colliderVertices": [
        {
            "x": -1.304823875427246,
            "y": -0.42964595556259158
        },
        {
            "x": 1.3712129592895508,
            "y": -0.19680622220039369
        },
        {
            "x": 1.843048095703125,
            "y": 0.9179545640945435
        },
        {
            "x": 0.19938254356384278,
            "y": 0.18423521518707276
        },
        {
            "x": -0.5731017589569092,
            "y": 0.6943597793579102
        }
    ],
    "triangles": [
        3,
        1,
        0,
        0,
        4,
        3,
        3,
        2,
        1
    ],
    "carDensity": 5.0,
    "suspension": 0.6385417580604553,
    "motorSpeed": 1485,
    "frontDensity": 3.5999999046325685,
    "frontRadius": 0.5601532459259033,
    "frontOffset": 0.5112378597259522,
    "backDensity": 4.0,
    "backRadius": 0.5988007187843323,
    "backOffset": -0.9932256937026978,
    "score": 0,
    "maxDistance": 0,
    "maxTime": 0.8999999761581421,
    "speed": 0
}{
    "ID": 400,
    "genomaID": "CV3TD10",
    "color": {
        "x": 0.26062169671058657,
        "y": 0.4016384482383728,
        "z": 0.8414312601089478
    },
    "vertexNumber": 3,
    "colliderVertices": [
        {
            "x": -1.4622790813446046,
            "y": -0.29836711287498476
        },
        {
            "x": 1.3387701511383057,
            "y": -0.42057478427886965
        },
        {
            "x": 0.7412251830101013,
            "y": 0.6117354035377502
        }
    ],
    "triangles": [
        1,
        0,
        2
    ],
    "carDensity": 3.0,
    "suspension": 0.7644106149673462,
    "motorSpeed": 797,
    "frontDensity": 4.099999904632568,
    "frontRadius": 0.6140142679214478,
    "frontOffset": 1.2218525409698487,
    "backDensity": 3.299999952316284,
    "backRadius": 0.5308959484100342,
    "backOffset": -1.366564154624939,
    "score": 0,
    "maxDistance": 0,
    "maxTime": 0.8999999761581421,
    "speed": 0
}