{
    "ID": 2460,
    "genomaID": "CV3TD9",
    "color": {
        "x": 0.9696687459945679,
        "y": 0.6836618781089783,
        "z": 0.603993833065033
    },
    "vertexNumber": 3,
    "colliderVertices": [
        {
            "x": -1.1585068702697755,
            "y": -0.029806677252054216
        },
        {
            "x": 1.362579584121704,
            "y": -0.4607669711112976
        },
        {
            "x": -1.1038827896118165,
            "y": 0.24087738990783692
        }
    ],
    "triangles": [
        1,
        0,
        2
    ],
    "carDensity": 3.0,
    "suspension": 0.5993589758872986,
    "motorSpeed": 1282,
    "frontDensity": 3.799999952316284,
    "frontRadius": 0.5783849358558655,
    "frontOffset": 1.449400782585144,
    "backDensity": 2.5,
    "backRadius": 0.4537610411643982,
    "backOffset": -1.1175497770309449,
    "score": 924,
    "maxDistance": 834,
    "maxTime": 93.0,
    "speed": 9
}{
    "ID": 2481,
    "genomaID": "CV3TD9",
    "color": {
        "x": 0.9296615123748779,
        "y": 0.8902426958084106,
        "z": 0.2254951298236847
    },
    "vertexNumber": 3,
    "colliderVertices": [
        {
            "x": -1.3816840648651124,
            "y": -0.2585156261920929
        },
        {
            "x": 1.6104960441589356,
            "y": -0.2672710716724396
        },
        {
            "x": -1.2801737785339356,
            "y": 0.2166736125946045
        }
    ],
    "triangles": [
        1,
        0,
        2
    ],
    "carDensity": 3.0,
    "suspension": 0.6890012621879578,
    "motorSpeed": 585,
    "frontDensity": 4.400000095367432,
    "frontRadius": 0.6362850069999695,
    "frontOffset": 1.3518718481063843,
    "backDensity": 2.4000000953674318,
    "backRadius": 0.44417804479599,
    "backOffset": -1.2398900985717774,
    "score": 886,
    "maxDistance": 833,
    "maxTime": 158.1999969482422,
    "speed": 5
}{
    "ID": 2440,
    "genomaID": "CV6TD12",
    "color": {
        "x": 0.35979047417640688,
        "y": 0.25897887349128725,
        "z": 0.829093337059021
    },
    "vertexNumber": 6,
    "colliderVertices": [
        {
            "x": -1.669931173324585,
            "y": -0.26825395226478579
        },
        {
            "x": 1.1483454704284669,
            "y": -0.22945061326026917
        },
        {
            "x": 1.0870733261108399,
            "y": 0.24770653247833253
        },
        {
            "x": -0.5455472469329834,
            "y": 0.47143954038619997
        },
        {
            "x": -1.1484780311584473,
            "y": 0.3981553912162781
        },
        {
            "x": -1.3165020942687989,
            "y": 0.6207470297813416
        }
    ],
    "triangles": [
        4,
        2,
        0,
        0,
        5,
        4,
        4,
        3,
        2,
        2,
        1,
        0
    ],
    "carDensity": 6.0,
    "suspension": 0.6253224611282349,
    "motorSpeed": 742,
    "frontDensity": 3.299999952316284,
    "frontRadius": 0.5315725803375244,
    "frontOffset": 0.9624146223068237,
    "backDensity": 2.9000000953674318,
    "backRadius": 0.49017858505249026,
    "backOffset": -1.4337713718414307,
    "score": 733,
    "maxDistance": 674,
    "maxTime": 114.30000305175781,
    "speed": 6
}{
    "ID": 2413,
    "genomaID": "CV6TD12",
    "color": {
        "x": 0.08075655251741409,
        "y": 0.7761083841323853,
        "z": 0.6514908671379089
    },
    "vertexNumber": 6,
    "colliderVertices": [
        {
            "x": -1.5299866199493409,
            "y": -0.024643424898386
        },
        {
            "x": 1.423614263534546,
            "y": -0.4264817237854004
        },
        {
            "x": 1.1909546852111817,
            "y": 0.1320648193359375
        },
        {
            "x": 0.36618781089782717,
            "y": 0.9822146892547607
        },
        {
            "x": -0.8911697864532471,
            "y": 0.5108776688575745
        },
        {
            "x": -1.8707690238952637,
            "y": 0.6083585619926453
        }
    ],
    "triangles": [
        4,
        3,
        1,
        1,
        5,
        4,
        3,
        2,
        1,
        1,
        0,
        5
    ],
    "carDensity": 6.0,
    "suspension": 0.4702964723110199,
    "motorSpeed": 520,
    "frontDensity": 3.700000047683716,
    "frontRadius": 0.5709813237190247,
    "frontOffset": 0.6068084239959717,
    "backDensity": 2.0,
    "backRadius": 0.40485697984695437,
    "backOffset": -1.4337713718414307,
    "score": 179,
    "maxDistance": 139,
    "maxTime": 34.5,
    "speed": 4
}{
    "ID": 2582,
    "genomaID": "CV3TD10",
    "color": {
        "x": 0.36275604367256167,
        "y": 0.24441435933113099,
        "z": 0.29622164368629458
    },
    "vertexNumber": 3,
    "colliderVertices": [
        {
            "x": -1.7764025926589966,
            "y": -0.10127772390842438
        },
        {
            "x": 1.1070269346237183,
            "y": -0.43934375047683718
        },
        {
            "x": 0.4453566074371338,
            "y": 0.7179968357086182
        }
    ],
    "triangles": [
        1,
        0,
        2
    ],
    "carDensity": 3.0,
    "suspension": 0.6941030025482178,
    "motorSpeed": 742,
    "frontDensity": 3.0999999046325685,
    "frontRadius": 0.5089384317398071,
    "frontOffset": 1.2783877849578858,
    "backDensity": 4.5,
    "backRadius": 0.6547094583511353,
    "backOffset": -1.4337713718414307,
    "score": 0,
    "maxDistance": 0,
    "maxTime": 0.800000011920929,
    "speed": 0
}