{
    "ID": 5831,
    "genomaID": "CV3TD9",
    "color": {
        "x": 0.24792686104774476,
        "y": 0.6722297072410584,
        "z": 0.7211788296699524
    },
    "vertexNumber": 3,
    "colliderVertices": [
        {
            "x": -1.4587998390197755,
            "y": -0.1219111829996109
        },
        {
            "x": 1.0652388334274293,
            "y": -0.3931155204772949
        },
        {
            "x": -1.5885348320007325,
            "y": 0.43098264932632449
        }
    ],
    "triangles": [
        1,
        0,
        2
    ],
    "carDensity": 3.0,
    "suspension": 0.4113853871822357,
    "motorSpeed": 1346,
    "frontDensity": 3.700000047683716,
    "frontRadius": 0.5709813237190247,
    "frontOffset": 1.349926233291626,
    "backDensity": 2.0,
    "backRadius": 0.40485697984695437,
    "backOffset": -1.2302879095077515,
    "score": 923,
    "maxDistance": 833,
    "maxTime": 92.5999984741211,
    "speed": 9
}{
    "ID": 5854,
    "genomaID": "CV3TD9",
    "color": {
        "x": 0.3926573395729065,
        "y": 0.4681163430213928,
        "z": 0.24263814091682435
    },
    "vertexNumber": 3,
    "colliderVertices": [
        {
            "x": -1.4587998390197755,
            "y": -0.1219111829996109
        },
        {
            "x": 1.0652388334274293,
            "y": -0.3931155204772949
        },
        {
            "x": -1.5885348320007325,
            "y": 0.43098264932632449
        }
    ],
    "triangles": [
        1,
        0,
        2
    ],
    "carDensity": 3.0,
    "suspension": 0.9646936058998108,
    "motorSpeed": 691,
    "frontDensity": 4.199999809265137,
    "frontRadius": 0.6184525489807129,
    "frontOffset": 1.2341136932373047,
    "backDensity": 2.4000000953674318,
    "backRadius": 0.43549108505249026,
    "backOffset": -1.0905128717422486,
    "score": 892,
    "maxDistance": 833,
    "maxTime": 141.5,
    "speed": 6
}{
    "ID": 5987,
    "genomaID": "CV3TD9",
    "color": {
        "x": 0.19020095467567445,
        "y": 0.1754399687051773,
        "z": 0.7502707242965698
    },
    "vertexNumber": 3,
    "colliderVertices": [
        {
            "x": -1.4587998390197755,
            "y": -0.1219111829996109
        },
        {
            "x": 1.0652388334274293,
            "y": -0.3931155204772949
        },
        {
            "x": -1.5885348320007325,
            "y": 0.43098264932632449
        }
    ],
    "triangles": [
        1,
        0,
        2
    ],
    "carDensity": 3.0,
    "suspension": 0.9741666316986084,
    "motorSpeed": 596,
    "frontDensity": 4.199999809265137,
    "frontRadius": 0.6184525489807129,
    "frontOffset": 1.2341136932373047,
    "backDensity": 2.4000000953674318,
    "backRadius": 0.43549108505249026,
    "backOffset": -1.140244483947754,
    "score": 884,
    "maxDistance": 833,
    "maxTime": 162.8000030517578,
    "speed": 5
}{
    "ID": 5850,
    "genomaID": "CV3TD11",
    "color": {
        "x": 0.6115785241127014,
        "y": 0.7904064655303955,
        "z": 0.29863038659095766
    },
    "vertexNumber": 3,
    "colliderVertices": [
        {
            "x": -1.2894551753997803,
            "y": -0.47892969846725466
        },
        {
            "x": 1.6492505073547364,
            "y": -0.3897058367729187
        },
        {
            "x": 0.783359944820404,
            "y": 0.4463927149772644
        }
    ],
    "triangles": [
        1,
        0,
        2
    ],
    "carDensity": 3.0,
    "suspension": 0.40883561968803408,
    "motorSpeed": 742,
    "frontDensity": 3.700000047683716,
    "frontRadius": 0.5709813237190247,
    "frontOffset": 1.28336501121521,
    "backDensity": 4.0,
    "backRadius": 0.6029427647590637,
    "backOffset": -1.4337713718414307,
    "score": 25,
    "maxDistance": 4,
    "maxTime": 1.899999976158142,
    "speed": 2
}{
    "ID": 5998,
    "genomaID": "CV3TD12",
    "color": {
        "x": 0.5003820061683655,
        "y": 0.9720162153244019,
        "z": 0.6556368470191956
    },
    "vertexNumber": 3,
    "colliderVertices": [
        {
            "x": -1.3816840648651124,
            "y": -0.2585156261920929
        },
        {
            "x": 1.6104960441589356,
            "y": -0.2672710716724396
        },
        {
            "x": -1.2801737785339356,
            "y": 0.2166736125946045
        }
    ],
    "triangles": [
        1,
        0,
        2
    ],
    "carDensity": 3.0,
    "suspension": 0.8681357502937317,
    "motorSpeed": 1171,
    "frontDensity": 4.699999809265137,
    "frontRadius": 0.6717362999916077,
    "frontOffset": 1.0500046014785767,
    "backDensity": 3.5,
    "backRadius": 0.5485823154449463,
    "backOffset": -1.2398900985717774,
    "score": 0,
    "maxDistance": 0,
    "maxTime": 0.8999999761581421,
    "speed": 0
}