{
    "ID": 13084,
    "genomaID": "CV3TD10",
    "color": {
        "x": 0.21008184552192689,
        "y": 0.8643343448638916,
        "z": 0.7106449007987976
    },
    "vertexNumber": 3,
    "colliderVertices": [
        {
            "x": -1.1994199752807618,
            "y": -0.2213364541530609
        },
        {
            "x": 1.576453685760498,
            "y": -0.44079065322875979
        },
        {
            "x": -1.5219764709472657,
            "y": 0.3868129849433899
        }
    ],
    "triangles": [
        1,
        0,
        2
    ],
    "carDensity": 3.0,
    "suspension": 0.8806406855583191,
    "motorSpeed": 1050,
    "frontDensity": 3.799999952316284,
    "frontRadius": 0.5786217451095581,
    "frontOffset": 0.6607850790023804,
    "backDensity": 2.9000000953674318,
    "backRadius": 0.48734837770462038,
    "backOffset": -1.280032992362976,
    "score": 917,
    "maxDistance": 834,
    "maxTime": 100.0999984741211,
    "speed": 8
}{
    "ID": 13096,
    "genomaID": "CV3TD9",
    "color": {
        "x": 0.4214617609977722,
        "y": 0.9515104293823242,
        "z": 0.08355153352022171
    },
    "vertexNumber": 3,
    "colliderVertices": [
        {
            "x": -1.1994199752807618,
            "y": -0.2213364541530609
        },
        {
            "x": 1.576453685760498,
            "y": -0.44079065322875979
        },
        {
            "x": -1.5219764709472657,
            "y": 0.3868129849433899
        }
    ],
    "triangles": [
        1,
        0,
        2
    ],
    "carDensity": 3.0,
    "suspension": 0.7687572240829468,
    "motorSpeed": 1050,
    "frontDensity": 4.0,
    "frontRadius": 0.5988489985466003,
    "frontOffset": 1.2572789192199708,
    "backDensity": 2.299999952316284,
    "backRadius": 0.42583245038986208,
    "backOffset": -1.2415392398834229,
    "score": 914,
    "maxDistance": 833,
    "maxTime": 102.9000015258789,
    "speed": 8
}{
    "ID": 13126,
    "genomaID": "CV3TD10",
    "color": {
        "x": 0.10239996016025543,
        "y": 0.5455564856529236,
        "z": 0.9199621677398682
    },
    "vertexNumber": 3,
    "colliderVertices": [
        {
            "x": -1.1994199752807618,
            "y": -0.2213364541530609
        },
        {
            "x": 1.576453685760498,
            "y": -0.44079065322875979
        },
        {
            "x": -1.5219764709472657,
            "y": 0.3868129849433899
        }
    ],
    "triangles": [
        1,
        0,
        2
    ],
    "carDensity": 3.0,
    "suspension": 0.7492998838424683,
    "motorSpeed": 1050,
    "frontDensity": 3.799999952316284,
    "frontRadius": 0.5824572443962097,
    "frontOffset": 1.4140498638153077,
    "backDensity": 3.4000000953674318,
    "backRadius": 0.5406988263130188,
    "backOffset": -0.9771648645401001,
    "score": 236,
    "maxDistance": 152,
    "maxTime": 18.0,
    "speed": 8
}{
    "ID": 13071,
    "genomaID": "CV3TD9",
    "color": {
        "x": 0.7341381907463074,
        "y": 0.22564616799354554,
        "z": 0.9814985990524292
    },
    "vertexNumber": 3,
    "colliderVertices": [
        {
            "x": -1.1994199752807618,
            "y": -0.2213364541530609
        },
        {
            "x": 1.576453685760498,
            "y": -0.44079065322875979
        },
        {
            "x": -1.5219764709472657,
            "y": 0.3868129849433899
        }
    ],
    "triangles": [
        1,
        0,
        2
    ],
    "carDensity": 3.0,
    "suspension": 0.7687572240829468,
    "motorSpeed": 1050,
    "frontDensity": 3.5999999046325685,
    "frontRadius": 0.5596327781677246,
    "frontOffset": 0.8710168600082398,
    "backDensity": 2.299999952316284,
    "backRadius": 0.42583245038986208,
    "backOffset": -1.043042540550232,
    "score": 24,
    "maxDistance": 4,
    "maxTime": 2.0,
    "speed": 2
}{
    "ID": 13179,
    "genomaID": "CV3TD10",
    "color": {
        "x": 0.2989640533924103,
        "y": 0.10936130583286286,
        "z": 0.11599542200565338
    },
    "vertexNumber": 3,
    "colliderVertices": [
        {
            "x": -1.1994199752807618,
            "y": -0.2213364541530609
        },
        {
            "x": 1.576453685760498,
            "y": -0.44079065322875979
        },
        {
            "x": -1.5219764709472657,
            "y": 0.3868129849433899
        }
    ],
    "triangles": [
        1,
        0,
        2
    ],
    "carDensity": 3.0,
    "suspension": 0.7492998838424683,
    "motorSpeed": 1050,
    "frontDensity": 3.0,
    "frontRadius": 0.5002721548080444,
    "frontOffset": 0.8812006711959839,
    "backDensity": 4.0,
    "backRadius": 0.5963351130485535,
    "backOffset": -1.3302277326583863,
    "score": -11,
    "maxDistance": -1,
    "maxTime": 1.0,
    "speed": -1
}