{
    "ID": 2654,
    "genomaID": "CV3TD10",
    "color": {
        "x": 0.3926573395729065,
        "y": 0.4681163430213928,
        "z": 0.24263814091682435
    },
    "vertexNumber": 3,
    "colliderVertices": [
        {
            "x": -1.437804937362671,
            "y": -0.3500090539455414
        },
        {
            "x": 1.0593849420547486,
            "y": -0.33571311831474306
        },
        {
            "x": -1.7774004936218262,
            "y": 0.5586497187614441
        }
    ],
    "triangles": [
        1,
        0,
        2
    ],
    "carDensity": 3.0,
    "suspension": 0.7562699317932129,
    "motorSpeed": 1002,
    "frontDensity": 4.199999809265137,
    "frontRadius": 0.6231561303138733,
    "frontOffset": 0.9122720956802368,
    "backDensity": 2.9000000953674318,
    "backRadius": 0.49362969398498537,
    "backOffset": -0.8515983819961548,
    "score": 915,
    "maxDistance": 833,
    "maxTime": 101.69999694824219,
    "speed": 8
}{
    "ID": 2761,
    "genomaID": "CV3TD10",
    "color": {
        "x": 0.8503899574279785,
        "y": 0.411587655544281,
        "z": 0.5609310269355774
    },
    "vertexNumber": 3,
    "colliderVertices": [
        {
            "x": -1.3816840648651124,
            "y": -0.2585156261920929
        },
        {
            "x": 1.6104960441589356,
            "y": -0.2672710716724396
        },
        {
            "x": -1.2801737785339356,
            "y": 0.2166736125946045
        }
    ],
    "triangles": [
        1,
        0,
        2
    ],
    "carDensity": 3.0,
    "suspension": 0.7056245803833008,
    "motorSpeed": 585,
    "frontDensity": 4.300000190734863,
    "frontRadius": 0.631893515586853,
    "frontOffset": 1.3518718481063843,
    "backDensity": 3.200000047683716,
    "backRadius": 0.5239624381065369,
    "backOffset": -1.2787771224975587,
    "score": 887,
    "maxDistance": 833,
    "maxTime": 154.60000610351563,
    "speed": 5
}{
    "ID": 2719,
    "genomaID": "CV3TD9",
    "color": {
        "x": 0.12028087675571442,
        "y": 0.717602550983429,
        "z": 0.047901637852191928
    },
    "vertexNumber": 3,
    "colliderVertices": [
        {
            "x": -1.1585068702697755,
            "y": -0.029806677252054216
        },
        {
            "x": 1.362579584121704,
            "y": -0.4607669711112976
        },
        {
            "x": -1.1038827896118165,
            "y": 0.24087738990783692
        }
    ],
    "triangles": [
        1,
        0,
        2
    ],
    "carDensity": 3.0,
    "suspension": 0.698472261428833,
    "motorSpeed": 569,
    "frontDensity": 3.799999952316284,
    "frontRadius": 0.5814015865325928,
    "frontOffset": 0.5231882333755493,
    "backDensity": 2.5,
    "backRadius": 0.4537610411643982,
    "backOffset": -0.5843300819396973,
    "score": 881,
    "maxDistance": 833,
    "maxTime": 172.1999969482422,
    "speed": 5
}{
    "ID": 2767,
    "genomaID": "CV3TD8",
    "color": {
        "x": 0.8149819374084473,
        "y": 0.6854705214500427,
        "z": 0.8549772500991821
    },
    "vertexNumber": 3,
    "colliderVertices": [
        {
            "x": -1.4587998390197755,
            "y": -0.1219111829996109
        },
        {
            "x": 1.0652388334274293,
            "y": -0.3931155204772949
        },
        {
            "x": -1.5885348320007325,
            "y": 0.43098264932632449
        }
    ],
    "triangles": [
        1,
        0,
        2
    ],
    "carDensity": 3.0,
    "suspension": 0.8611672520637512,
    "motorSpeed": 547,
    "frontDensity": 2.9000000953674318,
    "frontRadius": 0.485398530960083,
    "frontOffset": 1.3888585567474366,
    "backDensity": 2.0,
    "backRadius": 0.40485697984695437,
    "backOffset": -1.1517356634140015,
    "score": 181,
    "maxDistance": 141,
    "maxTime": 35.5,
    "speed": 4
}{
    "ID": 2782,
    "genomaID": "CV3TD12",
    "color": {
        "x": 0.36275604367256167,
        "y": 0.24441435933113099,
        "z": 0.29622164368629458
    },
    "vertexNumber": 3,
    "colliderVertices": [
        {
            "x": -1.9016231298446656,
            "y": -0.00018584731151349843
        },
        {
            "x": 1.262019395828247,
            "y": -0.026923242956399919
        },
        {
            "x": -0.9741113185882568,
            "y": 0.2520748972892761
        }
    ],
    "triangles": [
        1,
        0,
        2
    ],
    "carDensity": 3.0,
    "suspension": 0.5860757827758789,
    "motorSpeed": 569,
    "frontDensity": 3.799999952316284,
    "frontRadius": 0.5814015865325928,
    "frontOffset": 0.5246062278747559,
    "backDensity": 5.0,
    "backRadius": 0.6998010277748108,
    "backOffset": -1.1422308683395386,
    "score": 0,
    "maxDistance": -1,
    "maxTime": 0.8999999761581421,
    "speed": -1
}