{
    "ID": 15671,
    "genomaID": "CV3TD10",
    "color": {
        "x": 0.7341381907463074,
        "y": 0.22564616799354554,
        "z": 0.9814985990524292
    },
    "vertexNumber": 3,
    "colliderVertices": [
        {
            "x": -1.1994199752807618,
            "y": -0.2213364541530609
        },
        {
            "x": 1.576453685760498,
            "y": -0.44079065322875979
        },
        {
            "x": -1.5219764709472657,
            "y": 0.3868129849433899
        }
    ],
    "triangles": [
        1,
        0,
        2
    ],
    "carDensity": 3.0,
    "suspension": 0.999615490436554,
    "motorSpeed": 1050,
    "frontDensity": 3.799999952316284,
    "frontRadius": 0.5824572443962097,
    "frontOffset": 0.7841199040412903,
    "backDensity": 2.700000047683716,
    "backRadius": 0.4729806184768677,
    "backOffset": -1.4420108795166016,
    "score": 916,
    "maxDistance": 834,
    "maxTime": 101.0999984741211,
    "speed": 8
}{
    "ID": 15749,
    "genomaID": "CV3TD10",
    "color": {
        "x": 0.1980818808078766,
        "y": 0.865476131439209,
        "z": 0.11185242235660553
    },
    "vertexNumber": 3,
    "colliderVertices": [
        {
            "x": -1.1994199752807618,
            "y": -0.2213364541530609
        },
        {
            "x": 1.576453685760498,
            "y": -0.44079065322875979
        },
        {
            "x": -1.5219764709472657,
            "y": 0.3868129849433899
        }
    ],
    "triangles": [
        1,
        0,
        2
    ],
    "carDensity": 3.0,
    "suspension": 0.5831873416900635,
    "motorSpeed": 1050,
    "frontDensity": 3.799999952316284,
    "frontRadius": 0.5841118097305298,
    "frontOffset": 0.9288924932479858,
    "backDensity": 2.799999952316284,
    "backRadius": 0.4791136085987091,
    "backOffset": -1.49894380569458,
    "score": 913,
    "maxDistance": 830,
    "maxTime": 100.4000015258789,
    "speed": 8
}{
    "ID": 15690,
    "genomaID": "CV3TD9",
    "color": {
        "x": 0.7746144533157349,
        "y": 0.39056462049484255,
        "z": 0.6369629502296448
    },
    "vertexNumber": 3,
    "colliderVertices": [
        {
            "x": -1.1994199752807618,
            "y": -0.2213364541530609
        },
        {
            "x": 1.576453685760498,
            "y": -0.44079065322875979
        },
        {
            "x": -1.5219764709472657,
            "y": 0.3868129849433899
        }
    ],
    "triangles": [
        1,
        0,
        2
    ],
    "carDensity": 3.0,
    "suspension": 0.9192489981651306,
    "motorSpeed": 1050,
    "frontDensity": 3.799999952316284,
    "frontRadius": 0.5824572443962097,
    "frontOffset": 1.4255657196044922,
    "backDensity": 2.0999999046325685,
    "backRadius": 0.41222256422042849,
    "backOffset": -1.2953855991363526,
    "score": 911,
    "maxDistance": 831,
    "maxTime": 103.9000015258789,
    "speed": 8
}{
    "ID": 15618,
    "genomaID": "CV3TD9",
    "color": {
        "x": 0.915553092956543,
        "y": 0.9274778366088867,
        "z": 0.896312952041626
    },
    "vertexNumber": 3,
    "colliderVertices": [
        {
            "x": -1.1994199752807618,
            "y": -0.2213364541530609
        },
        {
            "x": 1.576453685760498,
            "y": -0.44079065322875979
        },
        {
            "x": -1.5219764709472657,
            "y": 0.3868129849433899
        }
    ],
    "triangles": [
        1,
        0,
        2
    ],
    "carDensity": 3.0,
    "suspension": 0.7225015759468079,
    "motorSpeed": 1050,
    "frontDensity": 3.799999952316284,
    "frontRadius": 0.5824572443962097,
    "frontOffset": 1.3079107999801636,
    "backDensity": 2.299999952316284,
    "backRadius": 0.42583245038986208,
    "backOffset": -0.7352827787399292,
    "score": 19,
    "maxDistance": 3,
    "maxTime": 1.7999999523162842,
    "speed": 2
}{
    "ID": 15789,
    "genomaID": "CV3TD11",
    "color": {
        "x": 0.9699116945266724,
        "y": 0.343287855386734,
        "z": 0.9187369346618652
    },
    "vertexNumber": 3,
    "colliderVertices": [
        {
            "x": -1.1994199752807618,
            "y": -0.2213364541530609
        },
        {
            "x": 1.576453685760498,
            "y": -0.44079065322875979
        },
        {
            "x": -1.5219764709472657,
            "y": 0.3868129849433899
        }
    ],
    "triangles": [
        1,
        0,
        2
    ],
    "carDensity": 3.0,
    "suspension": 0.5711014270782471,
    "motorSpeed": 1050,
    "frontDensity": 4.0,
    "frontRadius": 0.5972282886505127,
    "frontOffset": 0.7153645753860474,
    "backDensity": 4.400000095367432,
    "backRadius": 0.640239417552948,
    "backOffset": -1.4641485214233399,
    "score": 0,
    "maxDistance": -1,
    "maxTime": 0.800000011920929,
    "speed": -1
}