{
    "ID": 9646,
    "genomaID": "CV3TD10",
    "color": {
        "x": 0.7624770402908325,
        "y": 0.48865121603012087,
        "z": 0.14248885214328767
    },
    "vertexNumber": 3,
    "colliderVertices": [
        {
            "x": -1.1994199752807618,
            "y": -0.2213364541530609
        },
        {
            "x": 1.576453685760498,
            "y": -0.44079065322875979
        },
        {
            "x": -1.5219764709472657,
            "y": 0.3868129849433899
        }
    ],
    "triangles": [
        1,
        0,
        2
    ],
    "carDensity": 3.0,
    "suspension": 0.9213539958000183,
    "motorSpeed": 1050,
    "frontDensity": 3.700000047683716,
    "frontRadius": 0.5687763690948486,
    "frontOffset": 0.5786713361740112,
    "backDensity": 2.700000047683716,
    "backRadius": 0.46624988317489626,
    "backOffset": -1.4095019102096558,
    "score": 915,
    "maxDistance": 834,
    "maxTime": 103.0,
    "speed": 8
}{
    "ID": 9634,
    "genomaID": "CV3TD9",
    "color": {
        "x": 0.4116293787956238,
        "y": 0.6505264639854431,
        "z": 0.1302187591791153
    },
    "vertexNumber": 3,
    "colliderVertices": [
        {
            "x": -1.000441074371338,
            "y": -0.11359144747257233
        },
        {
            "x": 1.2386728525161744,
            "y": -0.3152489960193634
        },
        {
            "x": -1.6225323677062989,
            "y": 0.23510658740997315
        }
    ],
    "triangles": [
        1,
        0,
        2
    ],
    "carDensity": 3.0,
    "suspension": 0.4958052337169647,
    "motorSpeed": 742,
    "frontDensity": 3.700000047683716,
    "frontRadius": 0.5709813237190247,
    "frontOffset": 1.490144968032837,
    "backDensity": 2.5,
    "backRadius": 0.4504626393318176,
    "backOffset": -1.4337713718414307,
    "score": 894,
    "maxDistance": 833,
    "maxTime": 137.39999389648438,
    "speed": 6
}{
    "ID": 9779,
    "genomaID": "CV3TD10",
    "color": {
        "x": 0.2989640533924103,
        "y": 0.10936130583286286,
        "z": 0.11599542200565338
    },
    "vertexNumber": 3,
    "colliderVertices": [
        {
            "x": -1.4587998390197755,
            "y": -0.1219111829996109
        },
        {
            "x": 1.0652388334274293,
            "y": -0.3931155204772949
        },
        {
            "x": -1.5885348320007325,
            "y": 0.43098264932632449
        }
    ],
    "triangles": [
        1,
        0,
        2
    ],
    "carDensity": 3.0,
    "suspension": 0.620729923248291,
    "motorSpeed": 718,
    "frontDensity": 3.9000000953674318,
    "frontRadius": 0.5864837765693665,
    "frontOffset": 1.1478638648986817,
    "backDensity": 2.5999999046325685,
    "backRadius": 0.4577569365501404,
    "backOffset": -1.4544332027435303,
    "score": 892,
    "maxDistance": 833,
    "maxTime": 142.3000030517578,
    "speed": 6
}{
    "ID": 9709,
    "genomaID": "CV3TD9",
    "color": {
        "x": 0.17255164682865144,
        "y": 0.09658505022525788,
        "z": 0.11143995821475983
    },
    "vertexNumber": 3,
    "colliderVertices": [
        {
            "x": -1.2894551753997803,
            "y": -0.47892969846725466
        },
        {
            "x": 1.6492505073547364,
            "y": -0.3897058367729187
        },
        {
            "x": 0.783359944820404,
            "y": 0.4463927149772644
        }
    ],
    "triangles": [
        1,
        0,
        2
    ],
    "carDensity": 3.0,
    "suspension": 0.5020860433578491,
    "motorSpeed": 1443,
    "frontDensity": 3.4000000953674318,
    "frontRadius": 0.5423980951309204,
    "frontOffset": 1.462547779083252,
    "backDensity": 2.700000047683716,
    "backRadius": 0.4731896221637726,
    "backOffset": -1.4337713718414307,
    "score": 39,
    "maxDistance": 9,
    "maxTime": 3.0,
    "speed": 3
}{
    "ID": 9756,
    "genomaID": "CV3TD12",
    "color": {
        "x": 0.17763115465641023,
        "y": 0.7659194469451904,
        "z": 0.2650006115436554
    },
    "vertexNumber": 3,
    "colliderVertices": [
        {
            "x": -1.1994199752807618,
            "y": -0.2213364541530609
        },
        {
            "x": 1.576453685760498,
            "y": -0.44079065322875979
        },
        {
            "x": -1.5219764709472657,
            "y": 0.3868129849433899
        }
    ],
    "triangles": [
        1,
        0,
        2
    ],
    "carDensity": 3.0,
    "suspension": 0.9213539958000183,
    "motorSpeed": 1050,
    "frontDensity": 3.700000047683716,
    "frontRadius": 0.5687763690948486,
    "frontOffset": 0.5786713361740112,
    "backDensity": 4.900000095367432,
    "backRadius": 0.6923598051071167,
    "backOffset": -1.4095019102096558,
    "score": -11,
    "maxDistance": -1,
    "maxTime": 1.0,
    "speed": -1
}