{
    "ID": 10240,
    "genomaID": "CV3TD10",
    "color": {
        "x": 0.35979047417640688,
        "y": 0.25897887349128725,
        "z": 0.829093337059021
    },
    "vertexNumber": 3,
    "colliderVertices": [
        {
            "x": -1.1994199752807618,
            "y": -0.2213364541530609
        },
        {
            "x": 1.576453685760498,
            "y": -0.44079065322875979
        },
        {
            "x": -1.5219764709472657,
            "y": 0.3868129849433899
        }
    ],
    "triangles": [
        1,
        0,
        2
    ],
    "carDensity": 3.0,
    "suspension": 0.8373317122459412,
    "motorSpeed": 1045,
    "frontDensity": 3.700000047683716,
    "frontRadius": 0.5687763690948486,
    "frontOffset": 0.5786713361740112,
    "backDensity": 2.700000047683716,
    "backRadius": 0.46624988317489626,
    "backOffset": -1.4534509181976319,
    "score": 915,
    "maxDistance": 834,
    "maxTime": 103.0999984741211,
    "speed": 8
}{
    "ID": 10206,
    "genomaID": "CV3TD10",
    "color": {
        "x": 0.7481699585914612,
        "y": 0.45295506715774538,
        "z": 0.5505676865577698
    },
    "vertexNumber": 3,
    "colliderVertices": [
        {
            "x": -1.7020301818847657,
            "y": -0.07120121270418167
        },
        {
            "x": 1.6651227474212647,
            "y": -0.1508437544107437
        },
        {
            "x": -0.8276035785675049,
            "y": 0.07104039192199707
        }
    ],
    "triangles": [
        1,
        0,
        2
    ],
    "carDensity": 3.0,
    "suspension": 0.7607370018959045,
    "motorSpeed": 742,
    "frontDensity": 3.9000000953674318,
    "frontRadius": 0.5911483764648438,
    "frontOffset": 1.3174052238464356,
    "backDensity": 2.700000047683716,
    "backRadius": 0.4731896221637726,
    "backOffset": -1.4337713718414307,
    "score": 895,
    "maxDistance": 833,
    "maxTime": 133.5,
    "speed": 6
}{
    "ID": 10365,
    "genomaID": "CV3TD10",
    "color": {
        "x": 0.48272019624710085,
        "y": 0.9486371278762817,
        "z": 0.22352638840675355
    },
    "vertexNumber": 3,
    "colliderVertices": [
        {
            "x": -1.4587998390197755,
            "y": -0.1219111829996109
        },
        {
            "x": 1.0652388334274293,
            "y": -0.3931155204772949
        },
        {
            "x": -1.5885348320007325,
            "y": 0.43098264932632449
        }
    ],
    "triangles": [
        1,
        0,
        2
    ],
    "carDensity": 3.0,
    "suspension": 0.4588979482650757,
    "motorSpeed": 691,
    "frontDensity": 4.300000190734863,
    "frontRadius": 0.6285897493362427,
    "frontOffset": 1.1569161415100098,
    "backDensity": 2.700000047683716,
    "backRadius": 0.4681907892227173,
    "backOffset": -1.0312312841415406,
    "score": 893,
    "maxDistance": 833,
    "maxTime": 138.60000610351563,
    "speed": 6
}{
    "ID": 10337,
    "genomaID": "CV5TD11",
    "color": {
        "x": 0.38100963830947878,
        "y": 0.08611465245485306,
        "z": 0.3513776361942291
    },
    "vertexNumber": 5,
    "colliderVertices": [
        {
            "x": -1.9222276210784913,
            "y": -0.15165890753269196
        },
        {
            "x": 1.905777931213379,
            "y": -0.17985714972019196
        },
        {
            "x": 1.4163227081298829,
            "y": 0.09437346458435059
        },
        {
            "x": 0.23821711540222169,
            "y": 0.09440934658050537
        },
        {
            "x": -1.9486494064331055,
            "y": 0.6069174408912659
        }
    ],
    "triangles": [
        3,
        2,
        0,
        0,
        4,
        3,
        2,
        1,
        0
    ],
    "carDensity": 5.0,
    "suspension": 0.4107228219509125,
    "motorSpeed": 949,
    "frontDensity": 3.0,
    "frontRadius": 0.502379298210144,
    "frontOffset": 1.490144968032837,
    "backDensity": 3.200000047683716,
    "backRadius": 0.5151368379592896,
    "backOffset": -1.4185497760772706,
    "score": 38,
    "maxDistance": 6,
    "maxTime": 1.899999976158142,
    "speed": 3
}{
    "ID": 10381,
    "genomaID": "CV3TD11",
    "color": {
        "x": 0.2751145660877228,
        "y": 0.16910268366336823,
        "z": 0.7743202447891235
    },
    "vertexNumber": 3,
    "colliderVertices": [
        {
            "x": -1.4587998390197755,
            "y": -0.1219111829996109
        },
        {
            "x": 1.0652388334274293,
            "y": -0.3931155204772949
        },
        {
            "x": -1.5885348320007325,
            "y": 0.43098264932632449
        }
    ],
    "triangles": [
        1,
        0,
        2
    ],
    "carDensity": 3.0,
    "suspension": 0.4588979482650757,
    "motorSpeed": 691,
    "frontDensity": 4.300000190734863,
    "frontRadius": 0.6285897493362427,
    "frontOffset": 0.6085933446884155,
    "backDensity": 3.5999999046325685,
    "backRadius": 0.5613386034965515,
    "backOffset": -1.0312312841415406,
    "score": 0,
    "maxDistance": 0,
    "maxTime": 0.8999999761581421,
    "speed": 0
}