{
    "ID": 4208,
    "genomaID": "CV3TD9",
    "color": {
        "x": 0.5758574604988098,
        "y": 0.543757975101471,
        "z": 0.9252773523330689
    },
    "vertexNumber": 3,
    "colliderVertices": [
        {
            "x": -1.4587998390197755,
            "y": -0.1219111829996109
        },
        {
            "x": 1.0652388334274293,
            "y": -0.3931155204772949
        },
        {
            "x": -1.5885348320007325,
            "y": 0.43098264932632449
        }
    ],
    "triangles": [
        1,
        0,
        2
    ],
    "carDensity": 3.0,
    "suspension": 0.8463559150695801,
    "motorSpeed": 1152,
    "frontDensity": 3.700000047683716,
    "frontRadius": 0.5709813237190247,
    "frontOffset": 1.408368468284607,
    "backDensity": 2.0999999046325685,
    "backRadius": 0.41194814443588259,
    "backOffset": -0.7659371495246887,
    "score": 916,
    "maxDistance": 833,
    "maxTime": 100.4000015258789,
    "speed": 8
}{
    "ID": 4289,
    "genomaID": "CV3TD9",
    "color": {
        "x": 0.11265148222446442,
        "y": 0.6999970078468323,
        "z": 0.0894860103726387
    },
    "vertexNumber": 3,
    "colliderVertices": [
        {
            "x": -1.4587998390197755,
            "y": -0.1219111829996109
        },
        {
            "x": 1.0652388334274293,
            "y": -0.3931155204772949
        },
        {
            "x": -1.5885348320007325,
            "y": 0.43098264932632449
        }
    ],
    "triangles": [
        1,
        0,
        2
    ],
    "carDensity": 3.0,
    "suspension": 0.9982683658599854,
    "motorSpeed": 740,
    "frontDensity": 3.700000047683716,
    "frontRadius": 0.5685985684394836,
    "frontOffset": 0.8296710848808289,
    "backDensity": 2.299999952316284,
    "backRadius": 0.4319659471511841,
    "backOffset": -1.0713526010513306,
    "score": 891,
    "maxDistance": 833,
    "maxTime": 143.5,
    "speed": 6
}{
    "ID": 4306,
    "genomaID": "CV3TD8",
    "color": {
        "x": 0.4964577555656433,
        "y": 0.06006408482789993,
        "z": 0.10657848417758942
    },
    "vertexNumber": 3,
    "colliderVertices": [
        {
            "x": -1.7764025926589966,
            "y": -0.10127772390842438
        },
        {
            "x": 1.1070269346237183,
            "y": -0.43934375047683718
        },
        {
            "x": 0.4453566074371338,
            "y": 0.7179968357086182
        }
    ],
    "triangles": [
        1,
        0,
        2
    ],
    "carDensity": 3.0,
    "suspension": 0.4722045063972473,
    "motorSpeed": 762,
    "frontDensity": 2.700000047683716,
    "frontRadius": 0.4669467806816101,
    "frontOffset": 0.7705034613609314,
    "backDensity": 2.5,
    "backRadius": 0.44984573125839236,
    "backOffset": -1.369311809539795,
    "score": 889,
    "maxDistance": 834,
    "maxTime": 152.0,
    "speed": 5
}{
    "ID": 4210,
    "genomaID": "CV3TD9",
    "color": {
        "x": 0.8804725408554077,
        "y": 0.2548716366291046,
        "z": 0.4930925965309143
    },
    "vertexNumber": 3,
    "colliderVertices": [
        {
            "x": -1.3816840648651124,
            "y": -0.2585156261920929
        },
        {
            "x": 1.6104960441589356,
            "y": -0.2672710716724396
        },
        {
            "x": -1.2801737785339356,
            "y": 0.2166736125946045
        }
    ],
    "triangles": [
        1,
        0,
        2
    ],
    "carDensity": 3.0,
    "suspension": 0.6553037762641907,
    "motorSpeed": 585,
    "frontDensity": 2.9000000953674318,
    "frontRadius": 0.4867938458919525,
    "frontOffset": 0.5781862735748291,
    "backDensity": 3.0999999046325685,
    "backRadius": 0.5085092186927795,
    "backOffset": -1.2398900985717774,
    "score": 186,
    "maxDistance": 138,
    "maxTime": 28.899999618530275,
    "speed": 5
}{
    "ID": 4396,
    "genomaID": "CV3TD10",
    "color": {
        "x": 0.03708780184388161,
        "y": 0.6936801075935364,
        "z": 0.23400500416755677
    },
    "vertexNumber": 3,
    "colliderVertices": [
        {
            "x": -1.3816840648651124,
            "y": -0.2585156261920929
        },
        {
            "x": 1.6104960441589356,
            "y": -0.2672710716724396
        },
        {
            "x": -1.2801737785339356,
            "y": 0.2166736125946045
        }
    ],
    "triangles": [
        1,
        0,
        2
    ],
    "carDensity": 3.0,
    "suspension": 0.45317497849464419,
    "motorSpeed": 1498,
    "frontDensity": 3.5999999046325685,
    "frontRadius": 0.5593706369400024,
    "frontOffset": 1.3518718481063843,
    "backDensity": 3.200000047683716,
    "backRadius": 0.5240272283554077,
    "backOffset": -1.2398900985717774,
    "score": 0,
    "maxDistance": 0,
    "maxTime": 0.8999999761581421,
    "speed": 0
}