{
    "ID": 5451,
    "genomaID": "CV3TD9",
    "color": {
        "x": 0.816624641418457,
        "y": 0.38733261823654177,
        "z": 0.2566501200199127
    },
    "vertexNumber": 3,
    "colliderVertices": [
        {
            "x": -1.4587998390197755,
            "y": -0.1219111829996109
        },
        {
            "x": 1.0652388334274293,
            "y": -0.3931155204772949
        },
        {
            "x": -1.5885348320007325,
            "y": 0.43098264932632449
        }
    ],
    "triangles": [
        1,
        0,
        2
    ],
    "carDensity": 3.0,
    "suspension": 0.6181259155273438,
    "motorSpeed": 1042,
    "frontDensity": 4.0,
    "frontRadius": 0.5983087420463562,
    "frontOffset": 1.2741897106170655,
    "backDensity": 2.0999999046325685,
    "backRadius": 0.412259578704834,
    "backOffset": -1.096969723701477,
    "score": 914,
    "maxDistance": 834,
    "maxTime": 104.0,
    "speed": 8
}{
    "ID": 5439,
    "genomaID": "CV6TD12",
    "color": {
        "x": 0.4252602458000183,
        "y": 0.8320533037185669,
        "z": 0.4493498206138611
    },
    "vertexNumber": 6,
    "colliderVertices": [
        {
            "x": -1.8701449632644654,
            "y": -0.01713442988693714
        },
        {
            "x": 1.9046778678894044,
            "y": -0.17419905960559846
        },
        {
            "x": 1.4269099235534669,
            "y": 0.0361713171005249
        },
        {
            "x": 0.160536527633667,
            "y": 0.15775537490844727
        },
        {
            "x": -1.4152517318725587,
            "y": 0.10648179054260254
        },
        {
            "x": -1.5677781105041505,
            "y": 0.8202896118164063
        }
    ],
    "triangles": [
        4,
        2,
        0,
        0,
        5,
        4,
        4,
        3,
        2,
        2,
        1,
        0
    ],
    "carDensity": 6.0,
    "suspension": 0.5757706165313721,
    "motorSpeed": 740,
    "frontDensity": 3.700000047683716,
    "frontRadius": 0.5709813237190247,
    "frontOffset": 1.1932356357574463,
    "backDensity": 2.5,
    "backRadius": 0.4503074288368225,
    "backOffset": -1.251875877380371,
    "score": 892,
    "maxDistance": 833,
    "maxTime": 141.6999969482422,
    "speed": 6
}{
    "ID": 5539,
    "genomaID": "CV3TD9",
    "color": {
        "x": 0.9476953744888306,
        "y": 0.336377888917923,
        "z": 0.22495678067207337
    },
    "vertexNumber": 3,
    "colliderVertices": [
        {
            "x": -1.4587998390197755,
            "y": -0.1219111829996109
        },
        {
            "x": 1.0652388334274293,
            "y": -0.3931155204772949
        },
        {
            "x": -1.5885348320007325,
            "y": 0.43098264932632449
        }
    ],
    "triangles": [
        1,
        0,
        2
    ],
    "carDensity": 3.0,
    "suspension": 0.5978020429611206,
    "motorSpeed": 740,
    "frontDensity": 3.700000047683716,
    "frontRadius": 0.5709813237190247,
    "frontOffset": 1.1932356357574463,
    "backDensity": 2.0999999046325685,
    "backRadius": 0.41194814443588259,
    "backOffset": -1.251875877380371,
    "score": 891,
    "maxDistance": 833,
    "maxTime": 143.39999389648438,
    "speed": 6
}{
    "ID": 5533,
    "genomaID": "CV3TD7",
    "color": {
        "x": 0.9513487815856934,
        "y": 0.2956273853778839,
        "z": 0.5481565594673157
    },
    "vertexNumber": 3,
    "colliderVertices": [
        {
            "x": -1.4587998390197755,
            "y": -0.1219111829996109
        },
        {
            "x": 1.0652388334274293,
            "y": -0.3931155204772949
        },
        {
            "x": -1.5885348320007325,
            "y": 0.43098264932632449
        }
    ],
    "triangles": [
        1,
        0,
        2
    ],
    "carDensity": 3.0,
    "suspension": 0.9173610806465149,
    "motorSpeed": 691,
    "frontDensity": 2.4000000953674318,
    "frontRadius": 0.441092312335968,
    "frontOffset": 1.3424818515777588,
    "backDensity": 2.0999999046325685,
    "backRadius": 0.40640753507614138,
    "backOffset": -1.4426114559173585,
    "score": 186,
    "maxDistance": 139,
    "maxTime": 29.899999618530275,
    "speed": 5
}{
    "ID": 5556,
    "genomaID": "CV5TD13",
    "color": {
        "x": 0.17763115465641023,
        "y": 0.7659194469451904,
        "z": 0.2650006115436554
    },
    "vertexNumber": 5,
    "colliderVertices": [
        {
            "x": -1.960828185081482,
            "y": -0.384421169757843
        },
        {
            "x": 1.0738340616226197,
            "y": -0.17536665499210359
        },
        {
            "x": 1.9173436164855958,
            "y": 0.30841606855392458
        },
        {
            "x": 1.3709583282470704,
            "y": 0.20314419269561768
        },
        {
            "x": 0.14812874794006349,
            "y": 0.03220677375793457
        }
    ],
    "triangles": [
        1,
        4,
        3,
        3,
        2,
        1,
        1,
        0,
        4
    ],
    "carDensity": 5.0,
    "suspension": 0.8995001316070557,
    "motorSpeed": 742,
    "frontDensity": 3.5,
    "frontRadius": 0.5467962026596069,
    "frontOffset": 1.0171862840652466,
    "backDensity": 4.300000190734863,
    "backRadius": 0.6319687962532044,
    "backOffset": -1.0227636098861695,
    "score": 0,
    "maxDistance": 0,
    "maxTime": 0.8999999761581421,
    "speed": 0
}