{
    "ID": 0,
    "genomaID": "",
    "color": {
        "x": 0.0,
        "y": 0.0,
        "z": 0.0
    },
    "vertexNumber": 0,
    "colliderVertices": [],
    "triangles": [],
    "carDensity": 0.0,
    "suspension": 0.0,
    "motorSpeed": 0,
    "frontDensity": 0.0,
    "frontRadius": 0.0,
    "frontOffset": 0.0,
    "backDensity": 0.0,
    "backRadius": 0.0,
    "backOffset": 0.0,
    "score": 0,
    "maxDistance": 0,
    "maxTime": 0.0,
    "speed": 0
}{}