{
    "ID": 1539,
    "genomaID": "CV5TD13",
    "color": {
        "x": 0.7228969931602478,
        "y": 0.9353392124176025,
        "z": 0.6896653771400452
    },
    "vertexNumber": 5,
    "colliderVertices": [
        {
            "x": -1.4619419574737549,
            "y": -0.025792304426431657
        },
        {
            "x": 1.2236697673797608,
            "y": -0.03496015444397926
        },
        {
            "x": 0.3147895336151123,
            "y": 0.05308365821838379
        },
        {
            "x": -1.0201373100280762,
            "y": 0.3243566155433655
        },
        {
            "x": -1.6845173835754395,
            "y": 0.1933356523513794
        }
    ],
    "triangles": [
        2,
        1,
        4,
        4,
        3,
        2,
        1,
        0,
        4
    ],
    "carDensity": 5.0,
    "suspension": 0.8824611306190491,
    "motorSpeed": 814,
    "frontDensity": 4.199999809265137,
    "frontRadius": 0.618342399597168,
    "frontOffset": 1.388471007347107,
    "backDensity": 4.300000190734863,
    "backRadius": 0.6291878819465637,
    "backOffset": -0.5823053121566773,
    "score": 914,
    "maxDistance": 834,
    "maxTime": 104.80000305175781,
    "speed": 8
}{}