{
    "ID": 2596,
    "genomaID": "CV3TD9",
    "color": {
        "x": 0.7968368530273438,
        "y": 0.9209276437759399,
        "z": 0.6834040284156799
    },
    "vertexNumber": 3,
    "colliderVertices": [
        {
            "x": -1.8100109100341797,
            "y": -0.00380367087200284
        },
        {
            "x": 1.2179113626480103,
            "y": -0.15298213064670564
        },
        {
            "x": -0.6213815212249756,
            "y": 0.0743112564086914
        }
    ],
    "triangles": [
        1,
        0,
        2
    ],
    "carDensity": 3.0,
    "suspension": 0.6670119762420654,
    "motorSpeed": 1187,
    "frontDensity": 3.5999999046325685,
    "frontRadius": 0.5563618540763855,
    "frontOffset": 0.7802907824516296,
    "backDensity": 2.4000000953674318,
    "backRadius": 0.43603771924972536,
    "backOffset": -0.9906946420669556,
    "score": 916,
    "maxDistance": 833,
    "maxTime": 100.0,
    "speed": 8
}{}