{
    "ID": 191,
    "genomaID": "CV3TD12",
    "color": {
        "x": 0.6320986151695252,
        "y": 0.7900242805480957,
        "z": 0.7594194412231445
    },
    "vertexNumber": 3,
    "colliderVertices": [
        {
            "x": -1.4930150508880616,
            "y": -0.3165034353733063
        },
        {
            "x": 1.1068172454833985,
            "y": -0.36911001801490786
        },
        {
            "x": -0.9810006618499756,
            "y": 0.27049344778060915
        }
    ],
    "triangles": [
        1,
        0,
        2
    ],
    "carDensity": 3.0,
    "suspension": 0.7856539487838745,
    "motorSpeed": 813,
    "frontDensity": 4.599999904632568,
    "frontRadius": 0.6640692949295044,
    "frontOffset": 0.818550169467926,
    "backDensity": 3.700000047683716,
    "backRadius": 0.5691511034965515,
    "backOffset": -1.0819560289382935,
    "score": 912,
    "maxDistance": 834,
    "maxTime": 107.0,
    "speed": 8
}{}