{
    "ID": 112,
    "genomaID": "CV3TD10",
    "color": {
        "x": 0.9661010503768921,
        "y": 0.13922728598117829,
        "z": 0.553335964679718
    },
    "vertexNumber": 3,
    "colliderVertices": [
        {
            "x": -1.0298998355865479,
            "y": -0.2620989978313446
        },
        {
            "x": 1.1388732194900513,
            "y": -0.09969218075275421
        },
        {
            "x": 1.4905095100402833,
            "y": 0.45223158597946169
        }
    ],
    "triangles": [
        1,
        0,
        2
    ],
    "carDensity": 3.0,
    "suspension": 0.7808753252029419,
    "motorSpeed": 664,
    "frontDensity": 3.5999999046325685,
    "frontRadius": 0.5601811408996582,
    "frontOffset": 0.8190175890922546,
    "backDensity": 3.299999952316284,
    "backRadius": 0.5293633341789246,
    "backOffset": -0.6964520215988159,
    "score": 890,
    "maxDistance": 833,
    "maxTime": 145.6999969482422,
    "speed": 6
}{
    "ID": 177,
    "genomaID": "CV6TD11",
    "color": {
        "x": 0.016890766099095346,
        "y": 0.1373162418603897,
        "z": 0.9919557571411133
    },
    "vertexNumber": 6,
    "colliderVertices": [
        {
            "x": -1.9627790451049805,
            "y": -0.07646460086107254
        },
        {
            "x": 1.6956813335418702,
            "y": -0.06911332160234451
        },
        {
            "x": -0.09020829200744629,
            "y": 0.24924695491790772
        },
        {
            "x": -0.4775516986846924,
            "y": 0.32260662317276
        },
        {
            "x": -0.9762461185455322,
            "y": 0.7321902513504028
        },
        {
            "x": -1.4691786766052247,
            "y": 0.34949296712875368
        }
    ],
    "triangles": [
        5,
        3,
        2,
        2,
        1,
        5,
        5,
        4,
        3,
        1,
        0,
        5
    ],
    "carDensity": 6.0,
    "suspension": 0.6601376533508301,
    "motorSpeed": 1365,
    "frontDensity": 2.5999999046325685,
    "frontRadius": 0.46048909425735476,
    "frontOffset": 1.3072197437286378,
    "backDensity": 2.0999999046325685,
    "backRadius": 0.410902738571167,
    "backOffset": -1.1027394533157349,
    "score": 31,
    "maxDistance": 6,
    "maxTime": 2.4000000953674318,
    "speed": 2
}{
    "ID": 160,
    "genomaID": "CV3TD12",
    "color": {
        "x": 0.5056275725364685,
        "y": 0.9069406986236572,
        "z": 0.31218722462654116
    },
    "vertexNumber": 3,
    "colliderVertices": [
        {
            "x": -1.5018157958984376,
            "y": -0.40611791610717776
        },
        {
            "x": 1.2298318147659302,
            "y": -0.22042694687843324
        },
        {
            "x": 0.03756213188171387,
            "y": 0.7359918355941773
        }
    ],
    "triangles": [
        1,
        0,
        2
    ],
    "carDensity": 3.0,
    "suspension": 0.9957752227783203,
    "motorSpeed": 724,
    "frontDensity": 4.199999809265137,
    "frontRadius": 0.6151608228683472,
    "frontOffset": 1.0333250761032105,
    "backDensity": 4.900000095367432,
    "backRadius": 0.6890221834182739,
    "backOffset": -1.3705427646636963,
    "score": 7,
    "maxDistance": 1,
    "maxTime": 1.600000023841858,
    "speed": 1
}{
    "ID": 103,
    "genomaID": "CV6TD15",
    "color": {
        "x": 0.02886844053864479,
        "y": 0.16559173166751862,
        "z": 0.7405775189399719
    },
    "vertexNumber": 6,
    "colliderVertices": [
        {
            "x": -1.2230770587921143,
            "y": -0.3820098042488098
        },
        {
            "x": 1.4650557041168213,
            "y": -0.000056266791943926364
        },
        {
            "x": 1.9629039764404297,
            "y": 0.3956220746040344
        },
        {
            "x": 1.6060566902160645,
            "y": 0.258217990398407
        },
        {
            "x": 1.0735721588134766,
            "y": 0.29367631673812868
        },
        {
            "x": 0.846867024898529,
            "y": 0.5706271529197693
        }
    ],
    "triangles": [
        0,
        4,
        3,
        3,
        1,
        0,
        0,
        5,
        4,
        3,
        2,
        1
    ],
    "carDensity": 6.0,
    "suspension": 0.918023407459259,
    "motorSpeed": 1222,
    "frontDensity": 4.599999904632568,
    "frontRadius": 0.657669723033905,
    "frontOffset": 0.657073974609375,
    "backDensity": 4.0,
    "backRadius": 0.5961965322494507,
    "backOffset": -1.2330973148345948,
    "score": 0,
    "maxDistance": 0,
    "maxTime": 1.100000023841858,
    "speed": 0
}{
    "ID": 97,
    "genomaID": "CV3TD9",
    "color": {
        "x": 0.8480602502822876,
        "y": 0.46600204706192019,
        "z": 0.842664361000061
    },
    "vertexNumber": 3,
    "colliderVertices": [
        {
            "x": -1.555302381515503,
            "y": -0.46514779329299929
        },
        {
            "x": 1.3308846950531006,
            "y": -0.27820196747779848
        },
        {
            "x": 0.7356418967247009,
            "y": 0.1413414478302002
        }
    ],
    "triangles": [
        1,
        0,
        2
    ],
    "carDensity": 3.0,
    "suspension": 0.970866858959198,
    "motorSpeed": 1413,
    "frontDensity": 2.200000047683716,
    "frontRadius": 0.4190385341644287,
    "frontOffset": 1.1873130798339844,
    "backDensity": 4.0,
    "backRadius": 0.5959352254867554,
    "backOffset": -0.9648407697677612,
    "score": -10,
    "maxDistance": -1,
    "maxTime": 1.100000023841858,
    "speed": -1
}