{
    "ID": 10639,
    "genomaID": "CV3TD10",
    "color": {
        "x": 0.9948891401290894,
        "y": 0.5226194262504578,
        "z": 0.08276034146547318
    },
    "vertexNumber": 3,
    "colliderVertices": [
        {
            "x": -1.042431116104126,
            "y": -0.30006143450737
        },
        {
            "x": 1.1143579483032227,
            "y": -0.3498874008655548
        },
        {
            "x": -0.0020673274993896486,
            "y": 0.8548188209533691
        }
    ],
    "triangles": [
        1,
        0,
        2
    ],
    "carDensity": 3.0,
    "suspension": 0.6418779492378235,
    "motorSpeed": 652,
    "frontDensity": 3.5999999046325685,
    "frontRadius": 0.5599193572998047,
    "frontOffset": 1.1743954420089722,
    "backDensity": 2.799999952316284,
    "backRadius": 0.4824411869049072,
    "backOffset": -1.1912262439727784,
    "score": 5,
    "maxDistance": 834,
    "maxTime": 155.0153045654297
}{
    "ID": 10607,
    "genomaID": "CV3TD9",
    "color": {
        "x": 0.6955527663230896,
        "y": 0.457824170589447,
        "z": 0.6547761559486389
    },
    "vertexNumber": 3,
    "colliderVertices": [
        {
            "x": -1.0426174402236939,
            "y": -0.08569992333650589
        },
        {
            "x": 1.5118060111999512,
            "y": -0.05525434762239456
        },
        {
            "x": 1.107914924621582,
            "y": 0.48731285333633425
        }
    ],
    "triangles": [
        1,
        0,
        2
    ],
    "carDensity": 3.0,
    "suspension": 0.8576639890670776,
    "motorSpeed": 537,
    "frontDensity": 3.4000000953674318,
    "frontRadius": 0.5428136587142944,
    "frontOffset": 1.0128008127212525,
    "backDensity": 3.200000047683716,
    "backRadius": 0.5155194997787476,
    "backOffset": -0.6870949268341065,
    "score": 4,
    "maxDistance": 141,
    "maxTime": 30.09048080444336
}{
    "ID": 10746,
    "genomaID": "CV3TD10",
    "color": {
        "x": 0.9768205881118774,
        "y": 0.9499408006668091,
        "z": 0.10584773123264313
    },
    "vertexNumber": 3,
    "colliderVertices": [
        {
            "x": -1.1637550592422486,
            "y": -0.38375604152679446
        },
        {
            "x": 1.4929473400115967,
            "y": -0.4602501392364502
        },
        {
            "x": -1.3407888412475587,
            "y": 0.8400497436523438
        }
    ],
    "triangles": [
        1,
        0,
        2
    ],
    "carDensity": 3.0,
    "suspension": 0.6289873123168945,
    "motorSpeed": 1093,
    "frontDensity": 2.5,
    "frontRadius": 0.45066961646080019,
    "frontOffset": 1.1039189100265504,
    "backDensity": 4.599999904632568,
    "backRadius": 0.6603081226348877,
    "backOffset": -1.1854922771453858,
    "score": 0,
    "maxDistance": -1,
    "maxTime": 0.9852494597434998
}