{
    "ID": 6828,
    "genomaID": "CV4TD11",
    "color": {
        "x": 0.303604394197464,
        "y": 0.731943666934967,
        "z": 0.9138158559799194
    },
    "vertexNumber": 4,
    "colliderVertices": [
        {
            "x": -1.6189756393432618,
            "y": -0.24535110592842103
        },
        {
            "x": 1.5840489864349366,
            "y": -0.24946615099906922
        },
        {
            "x": -0.6181495189666748,
            "y": 0.7665462493896484
        },
        {
            "x": -1.5471534729003907,
            "y": 0.44451719522476199
        }
    ],
    "triangles": [
        3,
        2,
        1,
        1,
        0,
        3
    ],
    "carDensity": 4.0,
    "suspension": 0.5936814546585083,
    "motorSpeed": 510,
    "frontDensity": 4.300000190734863,
    "frontRadius": 0.6262034773826599,
    "frontOffset": 1.012261986732483,
    "backDensity": 2.799999952316284,
    "backRadius": 0.4837462902069092,
    "backOffset": -0.9495621919631958,
    "score": 4,
    "maxDistance": 834,
    "maxTime": 185.60317993164063
}{
    "ID": 6912,
    "genomaID": "CV5TD11",
    "color": {
        "x": 0.179300919175148,
        "y": 0.7085074782371521,
        "z": 0.9952882528305054
    },
    "vertexNumber": 5,
    "colliderVertices": [
        {
            "x": -1.899078607559204,
            "y": -0.34976187348365786
        },
        {
            "x": 1.3050122261047364,
            "y": -0.3380216658115387
        },
        {
            "x": 1.9888687133789063,
            "y": 0.19773387908935548
        },
        {
            "x": 1.0812349319458008,
            "y": 0.7841804027557373
        },
        {
            "x": -1.4157652854919434,
            "y": 0.1957261562347412
        }
    ],
    "triangles": [
        1,
        4,
        3,
        3,
        2,
        1,
        1,
        0,
        4
    ],
    "carDensity": 5.0,
    "suspension": 0.5524532794952393,
    "motorSpeed": 520,
    "frontDensity": 3.700000047683716,
    "frontRadius": 0.5706968307495117,
    "frontOffset": 0.509358286857605,
    "backDensity": 2.200000047683716,
    "backRadius": 0.423719584941864,
    "backOffset": -1.3044474124908448,
    "score": 4,
    "maxDistance": 141,
    "maxTime": 32.56554412841797
}{
    "ID": 6908,
    "genomaID": "CV3TD11",
    "color": {
        "x": 0.7476087212562561,
        "y": 0.6186475157737732,
        "z": 0.1693740040063858
    },
    "vertexNumber": 3,
    "colliderVertices": [
        {
            "x": -1.1265798807144166,
            "y": -0.3061791956424713
        },
        {
            "x": 1.0034197568893433,
            "y": -0.05956459790468216
        },
        {
            "x": -1.3953628540039063,
            "y": 0.499315083026886
        }
    ],
    "triangles": [
        1,
        0,
        2
    ],
    "carDensity": 3.0,
    "suspension": 0.948599100112915,
    "motorSpeed": 1037,
    "frontDensity": 2.9000000953674318,
    "frontRadius": 0.4908943176269531,
    "frontOffset": 0.869808554649353,
    "backDensity": 4.900000095367432,
    "backRadius": 0.6878477931022644,
    "backOffset": -1.1695806980133057,
    "score": -1,
    "maxDistance": -1,
    "maxTime": 1.054449200630188
}