{
    "ID": 15437,
    "genomaID": "CV3TD9",
    "color": {
        "x": 0.4524003863334656,
        "y": 0.5886324048042297,
        "z": 0.9695504903793335
    },
    "vertexNumber": 3,
    "colliderVertices": [
        {
            "x": -1.4815011024475098,
            "y": -0.14282836019992829
        },
        {
            "x": 1.4179050922393799,
            "y": -0.005060494411736727
        },
        {
            "x": -0.10828423500061035,
            "y": 0.4301568865776062
        }
    ],
    "triangles": [
        1,
        0,
        2
    ],
    "carDensity": 3.0,
    "suspension": 0.806545078754425,
    "motorSpeed": 594,
    "frontDensity": 4.199999809265137,
    "frontRadius": 0.6152470111846924,
    "frontOffset": 1.2489813566207886,
    "backDensity": 2.5,
    "backRadius": 0.45445823669433596,
    "backOffset": -0.8160068392753601,
    "score": 5,
    "maxDistance": 834,
    "maxTime": 157.56732177734376
}{
    "ID": 15578,
    "genomaID": "CV4TD11",
    "color": {
        "x": 0.716725766658783,
        "y": 0.22033098340034486,
        "z": 0.18119563162326814
    },
    "vertexNumber": 4,
    "colliderVertices": [
        {
            "x": -1.3661277294158936,
            "y": -0.14903362095355988
        },
        {
            "x": 1.180118441581726,
            "y": -0.17708583176136018
        },
        {
            "x": 1.959233283996582,
            "y": 0.9455122947692871
        },
        {
            "x": -1.404496192932129,
            "y": 0.6460645198822022
        }
    ],
    "triangles": [
        3,
        2,
        1,
        1,
        0,
        3
    ],
    "carDensity": 4.0,
    "suspension": 0.6839128136634827,
    "motorSpeed": 581,
    "frontDensity": 4.099999904632568,
    "frontRadius": 0.606447160243988,
    "frontOffset": 1.3706166744232178,
    "backDensity": 3.200000047683716,
    "backRadius": 0.5171299576759338,
    "backOffset": -1.4517930746078492,
    "score": 5,
    "maxDistance": 141,
    "maxTime": 26.246885299682618
}{
    "ID": 15526,
    "genomaID": "CV3TD10",
    "color": {
        "x": 0.7583445310592651,
        "y": 0.5228323340415955,
        "z": 0.821967363357544
    },
    "vertexNumber": 3,
    "colliderVertices": [
        {
            "x": -1.7557951211929322,
            "y": -0.1391807347536087
        },
        {
            "x": 1.1976048946380616,
            "y": -0.4135192036628723
        },
        {
            "x": -0.6825258731842041,
            "y": 0.06224501132965088
        }
    ],
    "triangles": [
        1,
        0,
        2
    ],
    "carDensity": 3.0,
    "suspension": 0.9902381300926209,
    "motorSpeed": 1363,
    "frontDensity": 3.299999952316284,
    "frontRadius": 0.5256866216659546,
    "frontOffset": 0.5060621500015259,
    "backDensity": 3.799999952316284,
    "backRadius": 0.5826011896133423,
    "backOffset": -0.5271546840667725,
    "score": 0,
    "maxDistance": -1,
    "maxTime": 0.972557783126831
}