{
    "ID": 8266,
    "genomaID": "CV3TD10",
    "color": {
        "x": 0.714479386806488,
        "y": 0.49612730741500857,
        "z": 0.9432059526443481
    },
    "vertexNumber": 3,
    "colliderVertices": [
        {
            "x": -1.029833436012268,
            "y": -0.21489271521568299
        },
        {
            "x": 1.4032278060913087,
            "y": -0.11510463058948517
        },
        {
            "x": -1.6445088386535645,
            "y": 0.31613725423812868
        }
    ],
    "triangles": [
        1,
        0,
        2
    ],
    "carDensity": 3.0,
    "suspension": 0.8647626638412476,
    "motorSpeed": 961,
    "frontDensity": 4.199999809265137,
    "frontRadius": 0.6205994486808777,
    "frontOffset": 1.1178799867630005,
    "backDensity": 3.0,
    "backRadius": 0.5028666853904724,
    "backOffset": -0.8933488130569458,
    "score": 8,
    "maxDistance": 834,
    "maxTime": 102.89342498779297
}{
    "ID": 8352,
    "genomaID": "CV4TD10",
    "color": {
        "x": 0.9547426700592041,
        "y": 0.7760895490646362,
        "z": 0.07050324231386185
    },
    "vertexNumber": 4,
    "colliderVertices": [
        {
            "x": -1.3203938007354737,
            "y": -0.3454238474369049
        },
        {
            "x": 1.89861261844635,
            "y": -0.4030851721763611
        },
        {
            "x": 1.9487757682800294,
            "y": 0.4275866150856018
        },
        {
            "x": -1.3550047874450684,
            "y": 0.9609317779541016
        }
    ],
    "triangles": [
        3,
        2,
        1,
        1,
        0,
        3
    ],
    "carDensity": 4.0,
    "suspension": 0.5211187601089478,
    "motorSpeed": 520,
    "frontDensity": 4.400000095367432,
    "frontRadius": 0.636326253414154,
    "frontOffset": 0.8108897805213928,
    "backDensity": 2.200000047683716,
    "backRadius": 0.41760772466659548,
    "backOffset": -0.6622791290283203,
    "score": 4,
    "maxDistance": 141,
    "maxTime": 30.89769744873047
}{
    "ID": 8205,
    "genomaID": "CV3TD10",
    "color": {
        "x": 0.7067248225212097,
        "y": 0.8855007886886597,
        "z": 0.7682281732559204
    },
    "vertexNumber": 3,
    "colliderVertices": [
        {
            "x": -1.064572811126709,
            "y": -0.12889690697193147
        },
        {
            "x": 1.7934017181396485,
            "y": -0.2678299844264984
        },
        {
            "x": -0.19262242317199708,
            "y": 0.20280706882476808
        }
    ],
    "triangles": [
        1,
        0,
        2
    ],
    "carDensity": 3.0,
    "suspension": 0.7949303388595581,
    "motorSpeed": 1118,
    "frontDensity": 4.400000095367432,
    "frontRadius": 0.6372531056404114,
    "frontOffset": 1.3924801349639893,
    "backDensity": 2.5999999046325685,
    "backRadius": 0.4619591236114502,
    "backOffset": -1.2382099628448487,
    "score": 0,
    "maxDistance": 0,
    "maxTime": 0.0
}