{
    "ID": 5408,
    "genomaID": "CV4TD11",
    "color": {
        "x": 0.6960085034370422,
        "y": 0.17976774275302888,
        "z": 0.22551575303077699
    },
    "vertexNumber": 4,
    "colliderVertices": [
        {
            "x": -1.220844030380249,
            "y": -0.3463612496852875
        },
        {
            "x": 1.215540885925293,
            "y": -0.22655931115150453
        },
        {
            "x": -0.996539831161499,
            "y": 0.5992833971977234
        },
        {
            "x": -1.8966059684753419,
            "y": 0.07217538356781006
        }
    ],
    "triangles": [
        3,
        2,
        1,
        1,
        0,
        3
    ],
    "carDensity": 4.0,
    "suspension": 0.5777702331542969,
    "motorSpeed": 533,
    "frontDensity": 4.699999809265137,
    "frontRadius": 0.6724361181259155,
    "frontOffset": 0.5882996320724487,
    "backDensity": 2.0999999046325685,
    "backRadius": 0.41451597213745119,
    "backOffset": -1.0507625341415406,
    "score": 4,
    "maxDistance": 834,
    "maxTime": 178.962890625
}{
    "ID": 5525,
    "genomaID": "CV4TD10",
    "color": {
        "x": 0.5584328770637512,
        "y": 0.043412093073129657,
        "z": 0.7817295789718628
    },
    "vertexNumber": 4,
    "colliderVertices": [
        {
            "x": -1.624150276184082,
            "y": -0.2491520345211029
        },
        {
            "x": 1.2525322437286378,
            "y": -0.2682577669620514
        },
        {
            "x": 1.2817683219909669,
            "y": 0.9903863668441773
        },
        {
            "x": -0.3608672618865967,
            "y": 0.5444777607917786
        }
    ],
    "triangles": [
        3,
        2,
        1,
        1,
        0,
        3
    ],
    "carDensity": 4.0,
    "suspension": 0.5211389064788818,
    "motorSpeed": 520,
    "frontDensity": 4.400000095367432,
    "frontRadius": 0.6394244432449341,
    "frontOffset": 0.8948465585708618,
    "backDensity": 2.200000047683716,
    "backRadius": 0.4244235157966614,
    "backOffset": -0.8894535303115845,
    "score": 4,
    "maxDistance": 141,
    "maxTime": 29.564773559570314
}{
    "ID": 5571,
    "genomaID": "CV3TD9",
    "color": {
        "x": 0.8390488624572754,
        "y": 0.10026182234287262,
        "z": 0.2462863028049469
    },
    "vertexNumber": 3,
    "colliderVertices": [
        {
            "x": -1.5272550582885743,
            "y": -0.25646570324897768
        },
        {
            "x": 1.5523452758789063,
            "y": -0.37441596388816836
        },
        {
            "x": -1.660545825958252,
            "y": 0.41367465257644656
        }
    ],
    "triangles": [
        1,
        0,
        2
    ],
    "carDensity": 3.0,
    "suspension": 0.5503476858139038,
    "motorSpeed": 738,
    "frontDensity": 2.0999999046325685,
    "frontRadius": 0.4126855731010437,
    "frontOffset": 0.7284938097000122,
    "backDensity": 4.0,
    "backRadius": 0.6018140912055969,
    "backOffset": -1.4860047101974488,
    "score": -1,
    "maxDistance": -1,
    "maxTime": 1.2924529314041138
}