{
    "ID": 3872,
    "genomaID": "CV4TD10",
    "color": {
        "x": 0.9788639545440674,
        "y": 0.779848575592041,
        "z": 0.9780740737915039
    },
    "vertexNumber": 4,
    "colliderVertices": [
        {
            "x": -1.0412355661392213,
            "y": -0.37553274631500246
        },
        {
            "x": 1.3029906749725342,
            "y": -0.0013881922932341695
        },
        {
            "x": 0.49918341636657717,
            "y": 0.43294650316238406
        },
        {
            "x": -1.782303810119629,
            "y": 0.3686315417289734
        }
    ],
    "triangles": [
        3,
        2,
        1,
        1,
        0,
        3
    ],
    "carDensity": 4.0,
    "suspension": 0.40202224254608157,
    "motorSpeed": 662,
    "frontDensity": 4.400000095367432,
    "frontRadius": 0.6425889134407044,
    "frontOffset": 1.23618745803833,
    "backDensity": 2.200000047683716,
    "backRadius": 0.41569799184799197,
    "backOffset": -1.136987566947937,
    "score": 5,
    "maxDistance": 834,
    "maxTime": 149.98538208007813
}{
    "ID": 3910,
    "genomaID": "CV4TD11",
    "color": {
        "x": 0.5037263035774231,
        "y": 0.3796040415763855,
        "z": 0.1914445459842682
    },
    "vertexNumber": 4,
    "colliderVertices": [
        {
            "x": -1.1380460262298585,
            "y": -0.27788111567497256
        },
        {
            "x": 1.6965080499649048,
            "y": -0.20021960139274598
        },
        {
            "x": -0.4129974842071533,
            "y": 0.3797453045845032
        },
        {
            "x": -1.695833683013916,
            "y": 0.8001415729522705
        }
    ],
    "triangles": [
        0,
        3,
        2,
        2,
        1,
        0
    ],
    "carDensity": 4.0,
    "suspension": 0.7443045377731323,
    "motorSpeed": 520,
    "frontDensity": 3.799999952316284,
    "frontRadius": 0.5844824910163879,
    "frontOffset": 1.1592391729354859,
    "backDensity": 3.0,
    "backRadius": 0.49748384952545168,
    "backOffset": -1.409653902053833,
    "score": 4,
    "maxDistance": 141,
    "maxTime": 31.106653213500978
}{
    "ID": 3988,
    "genomaID": "CV6TD13",
    "color": {
        "x": 0.2679370939731598,
        "y": 0.38469642400741579,
        "z": 0.7274213433265686
    },
    "vertexNumber": 6,
    "colliderVertices": [
        {
            "x": -1.6061856746673585,
            "y": -0.3948209285736084
        },
        {
            "x": 1.486945629119873,
            "y": -0.016385318711400033
        },
        {
            "x": 1.8703441619873047,
            "y": 0.822961688041687
        },
        {
            "x": 1.7754030227661133,
            "y": 0.8037616014480591
        },
        {
            "x": 1.131648063659668,
            "y": 0.8081789016723633
        },
        {
            "x": 0.5553850531578064,
            "y": 0.01315915584564209
        }
    ],
    "triangles": [
        3,
        1,
        5,
        5,
        4,
        3,
        3,
        2,
        1,
        1,
        0,
        5
    ],
    "carDensity": 6.0,
    "suspension": 0.8705927133560181,
    "motorSpeed": 1472,
    "frontDensity": 4.099999904632568,
    "frontRadius": 0.606458306312561,
    "frontOffset": 1.2466678619384766,
    "backDensity": 2.5999999046325685,
    "backRadius": 0.4602506160736084,
    "backOffset": -1.375045657157898,
    "score": 0,
    "maxDistance": 0,
    "maxTime": 0.0
}