{
    "ID": 3212,
    "genomaID": "CV4TD10",
    "color": {
        "x": 0.9453880786895752,
        "y": 0.6123870015144348,
        "z": 0.5073450207710266
    },
    "vertexNumber": 4,
    "colliderVertices": [
        {
            "x": -1.3662292957305909,
            "y": -0.27530279755592348
        },
        {
            "x": 1.2961018085479737,
            "y": -0.12615902721881867
        },
        {
            "x": -0.3087341785430908,
            "y": 0.5672062039375305
        },
        {
            "x": -0.7423379421234131,
            "y": 0.22829174995422364
        }
    ],
    "triangles": [
        3,
        2,
        1,
        1,
        0,
        3
    ],
    "carDensity": 4.0,
    "suspension": 0.8953486680984497,
    "motorSpeed": 614,
    "frontDensity": 3.4000000953674318,
    "frontRadius": 0.5421085953712463,
    "frontOffset": 1.2048344612121583,
    "backDensity": 2.9000000953674318,
    "backRadius": 0.4941842555999756,
    "backOffset": -0.9289165735244751,
    "score": 4,
    "maxDistance": 834,
    "maxTime": 168.26663208007813
}{
    "ID": 3367,
    "genomaID": "CV6TD11",
    "color": {
        "x": 0.023070933297276498,
        "y": 0.2732826769351959,
        "z": 0.8070071935653687
    },
    "vertexNumber": 6,
    "colliderVertices": [
        {
            "x": -1.0790499448776246,
            "y": -0.1253044754266739
        },
        {
            "x": 1.4533746242523194,
            "y": -0.35021957755088808
        },
        {
            "x": 0.18689894676208497,
            "y": 0.14312744140625
        },
        {
            "x": -0.03794074058532715,
            "y": 0.2873076796531677
        },
        {
            "x": -0.629218339920044,
            "y": 0.9408543109893799
        },
        {
            "x": -1.0356559753417969,
            "y": 0.8591592311859131
        }
    ],
    "triangles": [
        5,
        3,
        2,
        2,
        0,
        5,
        5,
        4,
        3,
        2,
        1,
        0
    ],
    "carDensity": 6.0,
    "suspension": 0.6933716535568237,
    "motorSpeed": 584,
    "frontDensity": 2.9000000953674318,
    "frontRadius": 0.48864760994911196,
    "frontOffset": 1.2554562091827393,
    "backDensity": 2.299999952316284,
    "backRadius": 0.43475669622421267,
    "backOffset": -1.0770272016525269,
    "score": 4,
    "maxDistance": 141,
    "maxTime": 31.975021362304689
}{
    "ID": 3251,
    "genomaID": "CV4TD11",
    "color": {
        "x": 0.45744258165359499,
        "y": 0.3451038897037506,
        "z": 0.289602667093277
    },
    "vertexNumber": 4,
    "colliderVertices": [
        {
            "x": -1.5643963813781739,
            "y": -0.44765353202819826
        },
        {
            "x": 1.4945099353790284,
            "y": -0.2488957941532135
        },
        {
            "x": 1.57135009765625,
            "y": 0.2167515754699707
        },
        {
            "x": -0.06363797187805176,
            "y": 0.46706587076187136
        }
    ],
    "triangles": [
        3,
        2,
        1,
        1,
        0,
        3
    ],
    "carDensity": 4.0,
    "suspension": 0.5624873638153076,
    "motorSpeed": 607,
    "frontDensity": 4.599999904632568,
    "frontRadius": 0.6648143529891968,
    "frontOffset": 0.5790477991104126,
    "backDensity": 2.0999999046325685,
    "backRadius": 0.40969976782798769,
    "backOffset": -1.0681837797164918,
    "score": 0,
    "maxDistance": 0,
    "maxTime": 0.0
}