{
    "ID": 11230,
    "genomaID": "CV3TD11",
    "color": {
        "x": 0.9156464338302612,
        "y": 0.8861958980560303,
        "z": 0.2130996286869049
    },
    "vertexNumber": 3,
    "colliderVertices": [
        {
            "x": -1.2694575786590577,
            "y": -0.3101494610309601
        },
        {
            "x": 1.404484748840332,
            "y": -0.05306083709001541
        },
        {
            "x": 0.6558689475059509,
            "y": 0.6196866631507874
        }
    ],
    "triangles": [
        1,
        0,
        2
    ],
    "carDensity": 3.0,
    "suspension": 0.5248141288757324,
    "motorSpeed": 503,
    "frontDensity": 4.599999904632568,
    "frontRadius": 0.6574007272720337,
    "frontOffset": 1.4385313987731934,
    "backDensity": 3.200000047683716,
    "backRadius": 0.5196481943130493,
    "backOffset": -1.0034180879592896,
    "score": 4,
    "maxDistance": 834,
    "maxTime": 171.37559509277345
}{
    "ID": 11387,
    "genomaID": "CV3TD9",
    "color": {
        "x": 0.44618016481399538,
        "y": 0.6435021758079529,
        "z": 0.9098309278488159
    },
    "vertexNumber": 3,
    "colliderVertices": [
        {
            "x": -1.140275001525879,
            "y": -0.2081983983516693
        },
        {
            "x": 1.0530673265457154,
            "y": -0.015809478238224984
        },
        {
            "x": -1.0489330291748047,
            "y": 0.37970179319381716
        }
    ],
    "triangles": [
        1,
        0,
        2
    ],
    "carDensity": 3.0,
    "suspension": 0.49686044454574587,
    "motorSpeed": 510,
    "frontDensity": 3.700000047683716,
    "frontRadius": 0.5743497610092163,
    "frontOffset": 1.402605414390564,
    "backDensity": 2.0,
    "backRadius": 0.4004877209663391,
    "backOffset": -1.1766518354415894,
    "score": 4,
    "maxDistance": 142,
    "maxTime": 32.31761932373047
}{
    "ID": 11278,
    "genomaID": "CV5TD14",
    "color": {
        "x": 0.3757374882698059,
        "y": 0.004994154442101717,
        "z": 0.6250422596931458
    },
    "vertexNumber": 5,
    "colliderVertices": [
        {
            "x": -1.362316370010376,
            "y": -0.026888731867074968
        },
        {
            "x": 1.2153046131134034,
            "y": -0.1084916740655899
        },
        {
            "x": 0.007364988327026367,
            "y": 0.03871476650238037
        },
        {
            "x": -1.257347583770752,
            "y": 0.7406073808670044
        },
        {
            "x": -1.9409856796264649,
            "y": 0.7771074771881104
        }
    ],
    "triangles": [
        2,
        0,
        4,
        4,
        3,
        2,
        2,
        1,
        0
    ],
    "carDensity": 5.0,
    "suspension": 0.5819507837295532,
    "motorSpeed": 989,
    "frontDensity": 3.9000000953674318,
    "frontRadius": 0.5926321148872376,
    "frontOffset": 1.1902084350585938,
    "backDensity": 4.900000095367432,
    "backRadius": 0.6875463128089905,
    "backOffset": -1.314761996269226,
    "score": -1,
    "maxDistance": -1,
    "maxTime": 1.0845955610275269
}