{
    "ID": 10028,
    "genomaID": "CV4TD12",
    "color": {
        "x": 0.303604394197464,
        "y": 0.731943666934967,
        "z": 0.9138158559799194
    },
    "vertexNumber": 4,
    "colliderVertices": [
        {
            "x": -1.3844819068908692,
            "y": -0.07083690911531449
        },
        {
            "x": 1.0915868282318116,
            "y": -0.4658939242362976
        },
        {
            "x": 0.43277859687805178,
            "y": 0.7794383764266968
        },
        {
            "x": 0.048041582107543948,
            "y": 0.49054020643234255
        }
    ],
    "triangles": [
        3,
        2,
        1,
        1,
        0,
        3
    ],
    "carDensity": 4.0,
    "suspension": 0.6399247646331787,
    "motorSpeed": 652,
    "frontDensity": 3.5999999046325685,
    "frontRadius": 0.5599193572998047,
    "frontOffset": 1.4029182195663453,
    "backDensity": 3.5999999046325685,
    "backRadius": 0.555101215839386,
    "backOffset": -1.319071650505066,
    "score": 5,
    "maxDistance": 834,
    "maxTime": 144.9543914794922
}{
    "ID": 10109,
    "genomaID": "CV4TD10",
    "color": {
        "x": 0.8414871692657471,
        "y": 0.19305267930030824,
        "z": 0.15460146963596345
    },
    "vertexNumber": 4,
    "colliderVertices": [
        {
            "x": -1.2944653034210206,
            "y": -0.1341344267129898
        },
        {
            "x": 1.9661413431167603,
            "y": -0.42985689640045168
        },
        {
            "x": 1.2228856086730958,
            "y": 0.38191312551498415
        },
        {
            "x": -0.3502233028411865,
            "y": 0.4780535101890564
        }
    ],
    "triangles": [
        3,
        2,
        1,
        1,
        0,
        3
    ],
    "carDensity": 4.0,
    "suspension": 0.45342716574668887,
    "motorSpeed": 582,
    "frontDensity": 2.799999952316284,
    "frontRadius": 0.4822292625904083,
    "frontOffset": 1.087950348854065,
    "backDensity": 3.0,
    "backRadius": 0.5048502683639526,
    "backOffset": -1.1607500314712525,
    "score": 4,
    "maxDistance": 141,
    "maxTime": 30.168954849243165
}{
    "ID": 10167,
    "genomaID": "CV3TD10",
    "color": {
        "x": 0.023070933297276498,
        "y": 0.2732826769351959,
        "z": 0.8070071935653687
    },
    "vertexNumber": 3,
    "colliderVertices": [
        {
            "x": -1.1881797313690186,
            "y": -0.09218866378068924
        },
        {
            "x": 1.245754599571228,
            "y": -0.3396556079387665
        },
        {
            "x": -0.606957197189331,
            "y": 0.15767192840576173
        }
    ],
    "triangles": [
        1,
        0,
        2
    ],
    "carDensity": 3.0,
    "suspension": 0.8302993178367615,
    "motorSpeed": 1249,
    "frontDensity": 2.200000047683716,
    "frontRadius": 0.42423272132873537,
    "frontOffset": 1.3156373500823975,
    "backDensity": 4.800000190734863,
    "backRadius": 0.6807773113250732,
    "backOffset": -0.8552719354629517,
    "score": -1,
    "maxDistance": -1,
    "maxTime": 1.0017319917678834
}