{
    "ID": 5842,
    "genomaID": "CV3TD8",
    "color": {
        "x": 0.997404932975769,
        "y": 0.42065685987472536,
        "z": 0.8206062316894531
    },
    "vertexNumber": 3,
    "colliderVertices": [
        {
            "x": -1.6155455112457276,
            "y": -0.34474626183509829
        },
        {
            "x": 1.0984355211257935,
            "y": -0.28760048747062685
        },
        {
            "x": 0.4852759838104248,
            "y": 0.27945476770401
        }
    ],
    "triangles": [
        1,
        0,
        2
    ],
    "carDensity": 3.0,
    "suspension": 0.5817922949790955,
    "motorSpeed": 920,
    "frontDensity": 3.0999999046325685,
    "frontRadius": 0.5127456188201904,
    "frontOffset": 1.298001766204834,
    "backDensity": 2.299999952316284,
    "backRadius": 0.4269356429576874,
    "backOffset": -1.4860047101974488,
    "score": 6,
    "maxDistance": 834,
    "maxTime": 125.2853775024414
}{
    "ID": 5939,
    "genomaID": "CV3TD9",
    "color": {
        "x": 0.2691657841205597,
        "y": 0.8965107202529907,
        "z": 0.24423256516456605
    },
    "vertexNumber": 3,
    "colliderVertices": [
        {
            "x": -1.8625671863555909,
            "y": -0.26432767510414126
        },
        {
            "x": 1.0788809061050416,
            "y": -0.10839839279651642
        },
        {
            "x": 1.6356635093688965,
            "y": 0.21643006801605225
        }
    ],
    "triangles": [
        1,
        0,
        2
    ],
    "carDensity": 3.0,
    "suspension": 0.4333600401878357,
    "motorSpeed": 528,
    "frontDensity": 2.5,
    "frontRadius": 0.44666123390197756,
    "frontOffset": 1.18053138256073,
    "backDensity": 3.5,
    "backRadius": 0.5497063398361206,
    "backOffset": -0.7982789874076843,
    "score": 4,
    "maxDistance": 141,
    "maxTime": 31.01348114013672
}{
    "ID": 5977,
    "genomaID": "CV5TD11",
    "color": {
        "x": 0.12862969934940339,
        "y": 0.7532126903533936,
        "z": 0.36871758103370669
    },
    "vertexNumber": 5,
    "colliderVertices": [
        {
            "x": -1.7809593677520753,
            "y": -0.31049397587776186
        },
        {
            "x": 1.9073680639266968,
            "y": -0.05279124528169632
        },
        {
            "x": -0.20343804359436036,
            "y": 0.06820845603942871
        },
        {
            "x": -0.6548216342926025,
            "y": 0.18764078617095948
        },
        {
            "x": -1.0849037170410157,
            "y": 0.5195996165275574
        }
    ],
    "triangles": [
        3,
        2,
        0,
        0,
        4,
        3,
        2,
        1,
        0
    ],
    "carDensity": 5.0,
    "suspension": 0.936923623085022,
    "motorSpeed": 1445,
    "frontDensity": 2.299999952316284,
    "frontRadius": 0.4298170506954193,
    "frontOffset": 1.277681589126587,
    "backDensity": 4.099999904632568,
    "backRadius": 0.6145413517951965,
    "backOffset": -0.5857776403427124,
    "score": -1,
    "maxDistance": -1,
    "maxTime": 1.0765963792800904
}