{
    "ID": 3042,
    "genomaID": "CV3TD9",
    "color": {
        "x": 0.997404932975769,
        "y": 0.42065685987472536,
        "z": 0.8206062316894531
    },
    "vertexNumber": 3,
    "colliderVertices": [
        {
            "x": -1.375023603439331,
            "y": -0.25120648741722109
        },
        {
            "x": 1.4762825965881348,
            "y": -0.009179473854601384
        },
        {
            "x": -1.7428059577941895,
            "y": 0.1354740858078003
        }
    ],
    "triangles": [
        1,
        0,
        2
    ],
    "carDensity": 3.0,
    "suspension": 0.7892802953720093,
    "motorSpeed": 601,
    "frontDensity": 4.400000095367432,
    "frontRadius": 0.6425889134407044,
    "frontOffset": 1.2703664302825928,
    "backDensity": 2.200000047683716,
    "backRadius": 0.41569799184799197,
    "backOffset": -1.136987566947937,
    "score": 5,
    "maxDistance": 834,
    "maxTime": 153.2724609375
}{
    "ID": 3194,
    "genomaID": "CV4TD10",
    "color": {
        "x": 0.6354678273200989,
        "y": 0.8070265054702759,
        "z": 0.01866328902542591
    },
    "vertexNumber": 4,
    "colliderVertices": [
        {
            "x": -1.1921453475952149,
            "y": -0.4561206102371216
        },
        {
            "x": 1.642747163772583,
            "y": -0.4637378454208374
        },
        {
            "x": 1.068521499633789,
            "y": 0.9584119319915772
        },
        {
            "x": -1.975715160369873,
            "y": 0.9847666025161743
        }
    ],
    "triangles": [
        3,
        2,
        1,
        1,
        0,
        3
    ],
    "carDensity": 4.0,
    "suspension": 0.8213069438934326,
    "motorSpeed": 565,
    "frontDensity": 3.700000047683716,
    "frontRadius": 0.5680828094482422,
    "frontOffset": 1.152482271194458,
    "backDensity": 2.200000047683716,
    "backRadius": 0.4173761010169983,
    "backOffset": -1.0451489686965943,
    "score": 4,
    "maxDistance": 117,
    "maxTime": 28.30689811706543
}{
    "ID": 3016,
    "genomaID": "CV3TD10",
    "color": {
        "x": 0.03604567423462868,
        "y": 0.6950471997261047,
        "z": 0.38766175508499148
    },
    "vertexNumber": 3,
    "colliderVertices": [
        {
            "x": -1.7204177379608155,
            "y": -0.008915365673601628
        },
        {
            "x": 1.3608081340789796,
            "y": -0.058459289371967319
        },
        {
            "x": -1.9235544204711915,
            "y": 0.5645759701728821
        }
    ],
    "triangles": [
        1,
        0,
        2
    ],
    "carDensity": 3.0,
    "suspension": 0.711532473564148,
    "motorSpeed": 1104,
    "frontDensity": 2.5,
    "frontRadius": 0.44615882635116579,
    "frontOffset": 0.631127119064331,
    "backDensity": 4.699999809265137,
    "backRadius": 0.6739409565925598,
    "backOffset": -1.4876211881637574,
    "score": 0,
    "maxDistance": -2,
    "maxTime": 0.9886226058006287
}