{
    "ID": 4431,
    "genomaID": "CV3TD9",
    "color": {
        "x": 0.27783194184303286,
        "y": 0.49940580129623415,
        "z": 0.061802156269550326
    },
    "vertexNumber": 3,
    "colliderVertices": [
        {
            "x": -1.5274651050567628,
            "y": -0.01898336596786976
        },
        {
            "x": 1.0407729148864747,
            "y": -0.38332170248031618
        },
        {
            "x": 0.13494086265563966,
            "y": 0.20854711532592774
        }
    ],
    "triangles": [
        1,
        0,
        2
    ],
    "carDensity": 3.0,
    "suspension": 0.8621118068695068,
    "motorSpeed": 631,
    "frontDensity": 3.700000047683716,
    "frontRadius": 0.5739290714263916,
    "frontOffset": 1.052096962928772,
    "backDensity": 2.4000000953674318,
    "backRadius": 0.4351053833961487,
    "backOffset": -1.2194972038269044,
    "score": 5,
    "maxDistance": 834,
    "maxTime": 160.3004608154297
}{
    "ID": 4567,
    "genomaID": "CV4TD11",
    "color": {
        "x": 0.023070933297276498,
        "y": 0.2732826769351959,
        "z": 0.8070071935653687
    },
    "vertexNumber": 4,
    "colliderVertices": [
        {
            "x": -1.943755030632019,
            "y": -0.33773037791252139
        },
        {
            "x": 1.489447832107544,
            "y": -0.2997352182865143
        },
        {
            "x": 1.9586172103881837,
            "y": 0.8914629220962524
        },
        {
            "x": -0.14931559562683106,
            "y": 0.1700749397277832
        }
    ],
    "triangles": [
        3,
        2,
        1,
        1,
        0,
        3
    ],
    "carDensity": 4.0,
    "suspension": 0.8770239353179932,
    "motorSpeed": 545,
    "frontDensity": 4.099999904632568,
    "frontRadius": 0.6079538464546204,
    "frontOffset": 1.1930153369903565,
    "backDensity": 2.9000000953674318,
    "backRadius": 0.4871489703655243,
    "backOffset": -0.8609050512313843,
    "score": 5,
    "maxDistance": 141,
    "maxTime": 27.819164276123048
}{
    "ID": 4556,
    "genomaID": "CV3TD10",
    "color": {
        "x": 0.7371949553489685,
        "y": 0.6417120099067688,
        "z": 0.24809876084327699
    },
    "vertexNumber": 3,
    "colliderVertices": [
        {
            "x": -1.5274651050567628,
            "y": -0.01898336596786976
        },
        {
            "x": 1.0407729148864747,
            "y": -0.38332170248031618
        },
        {
            "x": 0.13494086265563966,
            "y": 0.20854711532592774
        }
    ],
    "triangles": [
        1,
        0,
        2
    ],
    "carDensity": 3.0,
    "suspension": 0.8829507827758789,
    "motorSpeed": 565,
    "frontDensity": 2.200000047683716,
    "frontRadius": 0.41556379199028017,
    "frontOffset": 0.7087444067001343,
    "backDensity": 4.699999809265137,
    "backRadius": 0.6672781109809876,
    "backOffset": -1.497664451599121,
    "score": -1,
    "maxDistance": -1,
    "maxTime": 1.396539568901062
}