{
    "ID": 13021,
    "genomaID": "CV4TD11",
    "color": {
        "x": 0.047351010143756869,
        "y": 0.8496396541595459,
        "z": 0.5737783312797546
    },
    "vertexNumber": 4,
    "colliderVertices": [
        {
            "x": -1.422912359237671,
            "y": -0.3112090528011322
        },
        {
            "x": 1.6148436069488526,
            "y": -0.09591890871524811
        },
        {
            "x": -0.2801783084869385,
            "y": 0.5821276307106018
        },
        {
            "x": -0.9226090908050537,
            "y": 0.048116326332092288
        }
    ],
    "triangles": [
        3,
        2,
        1,
        1,
        0,
        3
    ],
    "carDensity": 4.0,
    "suspension": 0.4355403482913971,
    "motorSpeed": 503,
    "frontDensity": 4.300000190734863,
    "frontRadius": 0.6347470283508301,
    "frontOffset": 0.8660823106765747,
    "backDensity": 2.9000000953674318,
    "backRadius": 0.4917365312576294,
    "backOffset": -1.2195791006088257,
    "score": 4,
    "maxDistance": 834,
    "maxTime": 181.6081085205078
}{
    "ID": 13122,
    "genomaID": "CV4TD9",
    "color": {
        "x": 0.8733711242675781,
        "y": 0.04072153940796852,
        "z": 0.9888643026351929
    },
    "vertexNumber": 4,
    "colliderVertices": [
        {
            "x": -1.229849100112915,
            "y": -0.29050514101982119
        },
        {
            "x": 1.20529305934906,
            "y": -0.3229162395000458
        },
        {
            "x": 1.0906620025634766,
            "y": 0.8228418827056885
        },
        {
            "x": -0.9544503688812256,
            "y": 0.12716889381408692
        }
    ],
    "triangles": [
        3,
        2,
        1,
        1,
        0,
        3
    ],
    "carDensity": 4.0,
    "suspension": 0.576730489730835,
    "motorSpeed": 510,
    "frontDensity": 3.299999952316284,
    "frontRadius": 0.5311515927314758,
    "frontOffset": 1.3252246379852296,
    "backDensity": 2.0999999046325685,
    "backRadius": 0.4050827920436859,
    "backOffset": -0.9749928712844849,
    "score": 4,
    "maxDistance": 141,
    "maxTime": 34.868587493896487
}{
    "ID": 13002,
    "genomaID": "CV3TD9",
    "color": {
        "x": 0.7169752717018127,
        "y": 0.21657374501228333,
        "z": 0.6071217656135559
    },
    "vertexNumber": 3,
    "colliderVertices": [
        {
            "x": -1.140275001525879,
            "y": -0.2081983983516693
        },
        {
            "x": 1.0530673265457154,
            "y": -0.015809478238224984
        },
        {
            "x": -1.0489330291748047,
            "y": 0.37970179319381716
        }
    ],
    "triangles": [
        1,
        0,
        2
    ],
    "carDensity": 3.0,
    "suspension": 0.6962755918502808,
    "motorSpeed": 634,
    "frontDensity": 2.0,
    "frontRadius": 0.40375643968582156,
    "frontOffset": 0.9518836736679077,
    "backDensity": 4.199999809265137,
    "backRadius": 0.621405303478241,
    "backOffset": -0.5473084449768066,
    "score": -1,
    "maxDistance": -1,
    "maxTime": 1.0415586233139039
}