{
    "ID": 2208,
    "genomaID": "CV3TD8",
    "color": {
        "x": 0.6960085034370422,
        "y": 0.17976774275302888,
        "z": 0.22551575303077699
    },
    "vertexNumber": 3,
    "colliderVertices": [
        {
            "x": -1.158095121383667,
            "y": -0.05379123240709305
        },
        {
            "x": 1.1161226034164429,
            "y": -0.29525861144065859
        },
        {
            "x": -1.027360439300537,
            "y": 0.46835511922836306
        }
    ],
    "triangles": [
        1,
        0,
        2
    ],
    "carDensity": 3.0,
    "suspension": 0.77224200963974,
    "motorSpeed": 882,
    "frontDensity": 3.200000047683716,
    "frontRadius": 0.5200409889221191,
    "frontOffset": 1.2988626956939698,
    "backDensity": 2.200000047683716,
    "backRadius": 0.41920334100723269,
    "backOffset": -1.4387929439544678,
    "score": 6,
    "maxDistance": 834,
    "maxTime": 129.91433715820313
}{
    "ID": 2352,
    "genomaID": "CV3TD9",
    "color": {
        "x": 0.9547426700592041,
        "y": 0.7760895490646362,
        "z": 0.07050324231386185
    },
    "vertexNumber": 3,
    "colliderVertices": [
        {
            "x": -1.6522393226623536,
            "y": -0.298631876707077
        },
        {
            "x": 1.7086516618728638,
            "y": -0.4598047733306885
        },
        {
            "x": 1.035794734954834,
            "y": 0.89858078956604
        }
    ],
    "triangles": [
        1,
        0,
        2
    ],
    "carDensity": 3.0,
    "suspension": 0.5722724199295044,
    "motorSpeed": 500,
    "frontDensity": 4.0,
    "frontRadius": 0.6038937568664551,
    "frontOffset": 1.2627496719360352,
    "backDensity": 2.5,
    "backRadius": 0.45392072200775149,
    "backOffset": -1.3497462272644044,
    "score": 4,
    "maxDistance": 141,
    "maxTime": 31.023401260375978
}{
    "ID": 2381,
    "genomaID": "CV5TD11",
    "color": {
        "x": 0.6757349371910095,
        "y": 0.15171970427036286,
        "z": 0.2033492624759674
    },
    "vertexNumber": 5,
    "colliderVertices": [
        {
            "x": -1.3812758922576905,
            "y": -0.14900870621204377
        },
        {
            "x": 1.1515891551971436,
            "y": -0.3197178542613983
        },
        {
            "x": 0.8640803694725037,
            "y": 0.5414668917655945
        },
        {
            "x": -0.6396973133087158,
            "y": 0.7562716007232666
        },
        {
            "x": -0.9822156429290772,
            "y": 0.5220040678977966
        }
    ],
    "triangles": [
        1,
        4,
        3,
        3,
        2,
        1,
        1,
        0,
        4
    ],
    "carDensity": 5.0,
    "suspension": 0.4984733462333679,
    "motorSpeed": 1340,
    "frontDensity": 3.799999952316284,
    "frontRadius": 0.5826542973518372,
    "frontOffset": 0.8244325518608093,
    "backDensity": 2.0999999046325685,
    "backRadius": 0.4106560945510864,
    "backOffset": -1.3856481313705445,
    "score": 0,
    "maxDistance": 0,
    "maxTime": 0.0
}