{
    "ID": 7832,
    "genomaID": "CV5TD11",
    "color": {
        "x": 0.24942484498023988,
        "y": 0.9615341424942017,
        "z": 0.15357042849063874
    },
    "vertexNumber": 5,
    "colliderVertices": [
        {
            "x": -1.8802258968353272,
            "y": -0.07327456027269364
        },
        {
            "x": 1.398768663406372,
            "y": -0.4396589994430542
        },
        {
            "x": -0.8120911121368408,
            "y": 0.5663941502571106
        },
        {
            "x": -1.1604232788085938,
            "y": 0.16009902954101563
        },
        {
            "x": -1.7003393173217774,
            "y": 0.7628529071807861
        }
    ],
    "triangles": [
        3,
        1,
        0,
        0,
        4,
        3,
        3,
        2,
        1
    ],
    "carDensity": 5.0,
    "suspension": 0.5220531821250916,
    "motorSpeed": 507,
    "frontDensity": 4.300000190734863,
    "frontRadius": 0.6262034773826599,
    "frontOffset": 1.4996254444122315,
    "backDensity": 2.200000047683716,
    "backRadius": 0.41928571462631228,
    "backOffset": -1.4349308013916016,
    "score": 4,
    "maxDistance": 834,
    "maxTime": 201.90467834472657
}{
    "ID": 7910,
    "genomaID": "CV5TD12",
    "color": {
        "x": 0.5037263035774231,
        "y": 0.3796040415763855,
        "z": 0.1914445459842682
    },
    "vertexNumber": 5,
    "colliderVertices": [
        {
            "x": -1.1421191692352296,
            "y": -0.42177218198776247
        },
        {
            "x": 1.011927604675293,
            "y": -0.39735108613967898
        },
        {
            "x": 1.7014117240905762,
            "y": 0.30166095495224
        },
        {
            "x": 1.5871095657348633,
            "y": 0.7970376014709473
        },
        {
            "x": 0.5679897665977478,
            "y": 0.5584673285484314
        }
    ],
    "triangles": [
        1,
        4,
        3,
        3,
        2,
        1,
        1,
        0,
        4
    ],
    "carDensity": 5.0,
    "suspension": 0.8768061995506287,
    "motorSpeed": 504,
    "frontDensity": 4.0,
    "frontRadius": 0.6014823317527771,
    "frontOffset": 1.1978695392608643,
    "backDensity": 3.0,
    "backRadius": 0.49529969692230227,
    "backOffset": -1.4567136764526368,
    "score": 4,
    "maxDistance": 141,
    "maxTime": 30.313739776611329
}{
    "ID": 7985,
    "genomaID": "CV3TD11",
    "color": {
        "x": 0.7603273391723633,
        "y": 0.7970514297485352,
        "z": 0.28681352734565737
    },
    "vertexNumber": 3,
    "colliderVertices": [
        {
            "x": -1.029833436012268,
            "y": -0.21489271521568299
        },
        {
            "x": 1.4032278060913087,
            "y": -0.11510463058948517
        },
        {
            "x": -1.6445088386535645,
            "y": 0.31613725423812868
        }
    ],
    "triangles": [
        1,
        0,
        2
    ],
    "carDensity": 3.0,
    "suspension": 0.8647626638412476,
    "motorSpeed": 1435,
    "frontDensity": 3.5,
    "frontRadius": 0.5456508994102478,
    "frontOffset": 1.1178799867630005,
    "backDensity": 4.099999904632568,
    "backRadius": 0.6106389164924622,
    "backOffset": -1.307384967803955,
    "score": 0,
    "maxDistance": -1,
    "maxTime": 0.9860649108886719
}