{
    "generations": 0,
    "genomas": [
        "CV3TD11",
        "CV3TD11",
        "CV5TD14",
        "CV6TD12",
        "CV4TD10",
        "CV3TD9",
        "CV3TD11",
        "CV3TD10",
        "CV6TD12",
        "CV6TD11",
        "CV6TD13",
        "CV6TD16",
        "CV6TD11",
        "CV4TD10",
        "CV5TD10",
        "CV4TD9",
        "CV3TD11",
        "CV4TD8",
        "CV5TD9",
        "CV6TD14",
        "CV3TD9",
        "CV4TD12",
        "CV5TD9",
        "CV6TD13",
        "CV6TD12",
        "CV3TD10",
        "CV6TD12",
        "CV3TD7",
        "CV5TD10",
        "CV6TD10",
        "CV4TD8",
        "CV6TD12",
        "CV6TD14",
        "CV5TD12",
        "CV6TD10",
        "CV6TD11",
        "CV6TD12",
        "CV6TD11",
        "CV5TD10",
        "CV4TD8",
        "CV6TD13",
        "CV5TD12",
        "CV4TD9",
        "CV6TD14",
        "CV5TD13",
        "CV6TD12",
        "CV6TD14",
        "CV3TD8",
        "CV6TD11",
        "CV5TD12",
        "CV3TD10",
        "CV4TD11",
        "CV6TD12",
        "CV6TD13",
        "CV4TD10",
        "CV6TD11",
        "CV3TD9",
        "CV3TD9",
        "CV4TD10",
        "CV5TD12",
        "CV4TD11",
        "CV5TD14",
        "CV6TD11",
        "CV3TD10",
        "CV5TD12",
        "CV5TD12",
        "CV6TD13",
        "CV6TD14",
        "CV6TD13",
        "CV5TD10",
        "CV6TD15",
        "CV5TD11",
        "CV3TD11",
        "CV5TD13",
        "CV3TD13",
        "CV3TD12",
        "CV4TD13",
        "CV5TD12",
        "CV3TD10",
        "CV5TD13",
        "CV5TD12",
        "CV6TD11",
        "CV6TD13",
        "CV3TD9",
        "CV6TD14",
        "CV6TD12",
        "CV6TD13",
        "CV3TD12",
        "CV3TD10",
        "CV4TD13",
        "CV3TD10",
        "CV6TD12",
        "CV6TD11",
        "CV6TD14",
        "CV3TD12",
        "CV5TD13",
        "CV6TD14",
        "CV6TD14",
        "CV6TD11",
        "CV5TD13",
        "CV5TD13",
        "CV6TD14",
        "CV4TD11",
        "CV6TD12",
        "CV5TD12",
        "CV4TD11",
        "CV3TD9",
        "CV6TD13",
        "CV3TD11",
        "CV3TD12",
        "CV3TD10",
        "CV6TD14",
        "CV6TD15",
        "CV4TD11",
        "CV4TD11",
        "CV3TD8",
        "CV5TD12",
        "CV5TD12",
        "CV3TD12",
        "CV3TD9",
        "CV3TD7",
        "CV5TD11",
        "CV5TD13",
        "CV4TD11",
        "CV4TD12",
        "CV5TD14",
        "CV5TD11",
        "CV5TD12",
        "CV6TD13",
        "CV6TD14",
        "CV3TD8",
        "CV4TD14",
        "CV3TD13",
        "CV5TD12",
        "CV4TD9",
        "CV3TD11",
        "CV5TD14",
        "CV3TD10",
        "CV3TD8",
        "CV3TD11",
        "CV4TD8",
        "CV3TD11",
        "CV4TD11",
        "CV3TD13",
        "CV6TD13",
        "CV4TD9",
        "CV6TD15",
        "CV6TD11",
        "CV6TD15",
        "CV3TD8",
        "CV3TD13",
        "CV5TD12",
        "CV4TD8",
        "CV4TD9",
        "CV6TD13",
        "CV5TD11",
        "CV3TD10",
        "CV5TD13",
        "CV3TD11",
        "CV4TD12",
        "CV6TD12",
        "CV3TD8",
        "CV3TD10",
        "CV6TD13",
        "CV5TD12",
        "CV3TD11",
        "CV5TD14",
        "CV5TD13",
        "CV4TD13",
        "CV4TD11",
        "CV3TD10",
        "CV3TD9",
        "CV5TD13",
        "CV6TD16",
        "CV3TD9",
        "CV5TD12",
        "CV3TD10",
        "CV4TD12",
        "CV5TD12",
        "CV5TD12",
        "CV5TD11",
        "CV6TD13",
        "CV5TD15",
        "CV5TD12",
        "CV6TD14",
        "CV4TD12",
        "CV5TD13",
        "CV4TD10",
        "CV4TD10",
        "CV3TD8",
        "CV5TD13",
        "CV6TD15",
        "CV3TD11",
        "CV4TD11",
        "CV6TD14",
        "CV3TD10",
        "CV6TD12",
        "CV4TD10",
        "CV4TD10",
        "CV4TD11"
    ],
    "scores": [
        911,
        884,
        884,
        883,
        233,
        233,
        233,
        231,
        230,
        230,
        223,
        219,
        217,
        213,
        213,
        213,
        211,
        201,
        196,
        194,
        190,
        189,
        189,
        186,
        186,
        183,
        182,
        178,
        177,
        177,
        137,
        111,
        104,
        100,
        98,
        97,
        91,
        67,
        62,
        62,
        52,
        43,
        42,
        32,
        31,
        31,
        31,
        26,
        26,
        21,
        21,
        16,
        16,
        16,
        16,
        16,
        16,
        8,
        8,
        8,
        8,
        8,
        8,
        8,
        8,
        8,
        8,
        8,
        8,
        8,
        8,
        8,
        8,
        8,
        8,
        8,
        8,
        8,
        8,
        8,
        8,
        8,
        8,
        8,
        0,
        0,
        0,
        0,
        0,
        0,
        0,
        0,
        0,
        0,
        0,
        0,
        0,
        0,
        0,
        0,
        0,
        0,
        0,
        0,
        0,
        0,
        0,
        0,
        0,
        0,
        0,
        0,
        0,
        0,
        0,
        0,
        0,
        0,
        0,
        0,
        0,
        0,
        0,
        0,
        0,
        0,
        0,
        0,
        0,
        0,
        0,
        0,
        0,
        0,
        0,
        0,
        0,
        0,
        0,
        0,
        0,
        0,
        0,
        0,
        0,
        0,
        0,
        0,
        0,
        0,
        0,
        0,
        0,
        0,
        0,
        0,
        0,
        0,
        0,
        0,
        0,
        0,
        0,
        0,
        0,
        0,
        0,
        0,
        0,
        0,
        0,
        0,
        0,
        0,
        0,
        0,
        0,
        0,
        0,
        0,
        0,
        0,
        0,
        0,
        0,
        0,
        0,
        0,
        0,
        0,
        0,
        0,
        0,
        0,
        0,
        0,
        0,
        0,
        0,
        0
    ]
}