{
    "ID": 21460,
    "genomaID": "CV3TD11",
    "color": {
        "x": 0.17101825773715974,
        "y": 0.9460158348083496,
        "z": 0.36645153164863589
    },
    "vertexNumber": 3,
    "colliderVertices": [
        {
            "x": -1.4167654514312745,
            "y": -0.05450911074876785
        },
        {
            "x": 1.4079196453094483,
            "y": -0.3937686085700989
        },
        {
            "x": -1.247361660003662,
            "y": 0.22769761085510255
        }
    ],
    "triangles": [
        1,
        0,
        2
    ],
    "carDensity": 3.0,
    "suspension": 0.61744225025177,
    "motorSpeed": 884,
    "frontDensity": 4.599999904632568,
    "frontRadius": 0.659152090549469,
    "frontOffset": 1.0607229471206666,
    "backDensity": 3.200000047683716,
    "backRadius": 0.5237391591072083,
    "backOffset": -1.2400306463241578,
    "score": 914,
    "maxDistance": 834,
    "maxTime": 105.0
}{
    "ID": 21422,
    "genomaID": "CV3TD11",
    "color": {
        "x": 0.8580331802368164,
        "y": 0.2694608271121979,
        "z": 0.38077789545059206
    },
    "vertexNumber": 3,
    "colliderVertices": [
        {
            "x": -1.4167654514312745,
            "y": -0.05450911074876785
        },
        {
            "x": 1.4079196453094483,
            "y": -0.3937686085700989
        },
        {
            "x": -1.247361660003662,
            "y": 0.22769761085510255
        }
    ],
    "triangles": [
        1,
        0,
        2
    ],
    "carDensity": 3.0,
    "suspension": 0.5027813911437988,
    "motorSpeed": 884,
    "frontDensity": 4.599999904632568,
    "frontRadius": 0.6557742357254028,
    "frontOffset": 1.4107458591461182,
    "backDensity": 2.9000000953674318,
    "backRadius": 0.4860033392906189,
    "backOffset": -0.9193452596664429,
    "score": 911,
    "maxDistance": 833,
    "maxTime": 106.0
}{
    "ID": 21487,
    "genomaID": "CV3TD9",
    "color": {
        "x": 0.439253032207489,
        "y": 0.012950779870152474,
        "z": 0.31184056401252749
    },
    "vertexNumber": 3,
    "colliderVertices": [
        {
            "x": -1.4167654514312745,
            "y": -0.05450911074876785
        },
        {
            "x": 1.4079196453094483,
            "y": -0.3937686085700989
        },
        {
            "x": -1.247361660003662,
            "y": 0.22769761085510255
        }
    ],
    "triangles": [
        1,
        0,
        2
    ],
    "carDensity": 3.0,
    "suspension": 0.9889736771583557,
    "motorSpeed": 884,
    "frontDensity": 4.5,
    "frontRadius": 0.6496618986129761,
    "frontOffset": 1.2248823642730713,
    "backDensity": 2.0,
    "backRadius": 0.40237462520599368,
    "backOffset": -0.9199978113174439,
    "score": 910,
    "maxDistance": 833,
    "maxTime": 108.0
}{
    "ID": 21436,
    "genomaID": "CV3TD9",
    "color": {
        "x": 0.8729569911956787,
        "y": 0.9748997688293457,
        "z": 0.6180261969566345
    },
    "vertexNumber": 3,
    "colliderVertices": [
        {
            "x": -1.4167654514312745,
            "y": -0.05450911074876785
        },
        {
            "x": 1.4079196453094483,
            "y": -0.3937686085700989
        },
        {
            "x": -1.247361660003662,
            "y": 0.22769761085510255
        }
    ],
    "triangles": [
        1,
        0,
        2
    ],
    "carDensity": 3.0,
    "suspension": 0.6772002577781677,
    "motorSpeed": 884,
    "frontDensity": 3.4000000953674318,
    "frontRadius": 0.5395628809928894,
    "frontOffset": 1.3684748411178589,
    "backDensity": 2.799999952316284,
    "backRadius": 0.47794705629348757,
    "backOffset": -0.9178956747055054,
    "score": 27,
    "maxDistance": 4,
    "maxTime": 2.0
}{
    "ID": 21595,
    "genomaID": "CV3TD10",
    "color": {
        "x": 0.8922040462493897,
        "y": 0.16881419718265534,
        "z": 0.9950582981109619
    },
    "vertexNumber": 3,
    "colliderVertices": [
        {
            "x": -1.4167654514312745,
            "y": -0.05450911074876785
        },
        {
            "x": 1.4079196453094483,
            "y": -0.3937686085700989
        },
        {
            "x": -1.247361660003662,
            "y": 0.22769761085510255
        }
    ],
    "triangles": [
        1,
        0,
        2
    ],
    "carDensity": 3.0,
    "suspension": 0.854658842086792,
    "motorSpeed": 1330,
    "frontDensity": 4.599999904632568,
    "frontRadius": 0.659152090549469,
    "frontOffset": 1.125280737876892,
    "backDensity": 2.200000047683716,
    "backRadius": 0.415388822555542,
    "backOffset": -1.3949860334396363,
    "score": 0,
    "maxDistance": 0,
    "maxTime": 1.0
}