{
    "ID": 36017,
    "genomaID": "CV3TD12",
    "color": {
        "x": 0.3178934156894684,
        "y": 0.9363491535186768,
        "z": 0.9737069606781006
    },
    "vertexNumber": 3,
    "colliderVertices": [
        {
            "x": -1.3322129249572755,
            "y": -0.3242015540599823
        },
        {
            "x": 1.406930685043335,
            "y": -0.39797013998031618
        },
        {
            "x": -1.7638306617736817,
            "y": 0.37279003858566286
        }
    ],
    "triangles": [
        1,
        0,
        2
    ],
    "carDensity": 3.0,
    "suspension": 0.8706292510032654,
    "motorSpeed": 879,
    "frontDensity": 4.699999809265137,
    "frontRadius": 0.6665397882461548,
    "frontOffset": 0.6510769128799439,
    "backDensity": 3.799999952316284,
    "backRadius": 0.5816638469696045,
    "backOffset": -1.4038128852844239,
    "score": 917,
    "maxDistance": 834,
    "maxTime": 101.0
}{
    "ID": 36107,
    "genomaID": "CV3TD11",
    "color": {
        "x": 0.4525945782661438,
        "y": 0.32109811902046206,
        "z": 0.4646300673484802
    },
    "vertexNumber": 3,
    "colliderVertices": [
        {
            "x": -1.4167654514312745,
            "y": -0.05450911074876785
        },
        {
            "x": 1.4079196453094483,
            "y": -0.3937686085700989
        },
        {
            "x": -1.247361660003662,
            "y": 0.22769761085510255
        }
    ],
    "triangles": [
        1,
        0,
        2
    ],
    "carDensity": 3.0,
    "suspension": 0.8838186860084534,
    "motorSpeed": 866,
    "frontDensity": 4.5,
    "frontRadius": 0.6450788378715515,
    "frontOffset": 0.69681715965271,
    "backDensity": 3.700000047683716,
    "backRadius": 0.5682792663574219,
    "backOffset": -0.9067476987838745,
    "score": 913,
    "maxDistance": 833,
    "maxTime": 104.0
}{
    "ID": 36040,
    "genomaID": "CV3TD10",
    "color": {
        "x": 0.16537119448184968,
        "y": 0.9236080646514893,
        "z": 0.8277966976165772
    },
    "vertexNumber": 3,
    "colliderVertices": [
        {
            "x": -1.6443262100219727,
            "y": -0.3366769254207611
        },
        {
            "x": 1.2304134368896485,
            "y": -0.3359423577785492
        },
        {
            "x": 0.44915270805358889,
            "y": 0.5790041089057922
        }
    ],
    "triangles": [
        1,
        0,
        2
    ],
    "carDensity": 3.0,
    "suspension": 0.9392346739768982,
    "motorSpeed": 894,
    "frontDensity": 4.599999904632568,
    "frontRadius": 0.6642231941223145,
    "frontOffset": 1.4368796348571778,
    "backDensity": 2.0999999046325685,
    "backRadius": 0.4056674838066101,
    "backOffset": -0.9798275232315064,
    "score": 911,
    "maxDistance": 834,
    "maxTime": 108.0
}{
    "ID": 36122,
    "genomaID": "CV4TD12",
    "color": {
        "x": 0.2245418131351471,
        "y": 0.14765430986881257,
        "z": 0.8768653869628906
    },
    "vertexNumber": 4,
    "colliderVertices": [
        {
            "x": -1.0332013368606568,
            "y": -0.2839091122150421
        },
        {
            "x": 1.7880754470825196,
            "y": -0.16711284220218659
        },
        {
            "x": -0.12818694114685059,
            "y": 0.06842684745788574
        },
        {
            "x": -1.9929580688476563,
            "y": 0.6107102036476135
        }
    ],
    "triangles": [
        0,
        3,
        2,
        2,
        1,
        0
    ],
    "carDensity": 4.0,
    "suspension": 0.755256175994873,
    "motorSpeed": 879,
    "frontDensity": 4.699999809265137,
    "frontRadius": 0.6665397882461548,
    "frontOffset": 0.8899146318435669,
    "backDensity": 3.299999952316284,
    "backRadius": 0.5260943174362183,
    "backOffset": -1.229358196258545,
    "score": 20,
    "maxDistance": 3,
    "maxTime": 2.0
}{
    "ID": 36194,
    "genomaID": "CV6TD14",
    "color": {
        "x": 0.7795941829681397,
        "y": 0.2871544659137726,
        "z": 0.42937761545181277
    },
    "vertexNumber": 6,
    "colliderVertices": [
        {
            "x": -1.498072624206543,
            "y": -0.02876097336411476
        },
        {
            "x": 1.622563123703003,
            "y": -0.2531977593898773
        },
        {
            "x": -0.41906046867370608,
            "y": 0.9586642980575562
        },
        {
            "x": -1.0595288276672364,
            "y": 0.9678407907485962
        },
        {
            "x": -1.0765819549560547,
            "y": 0.6024426817893982
        },
        {
            "x": -1.956066608428955,
            "y": 0.6125393509864807
        }
    ],
    "triangles": [
        4,
        3,
        1,
        1,
        5,
        4,
        3,
        2,
        1,
        1,
        0,
        5
    ],
    "carDensity": 6.0,
    "suspension": 0.755256175994873,
    "motorSpeed": 879,
    "frontDensity": 4.699999809265137,
    "frontRadius": 0.6656356453895569,
    "frontOffset": 1.008602261543274,
    "backDensity": 3.299999952316284,
    "backRadius": 0.5260943174362183,
    "backOffset": -1.2378709316253663,
    "score": 0,
    "maxDistance": 0,
    "maxTime": 1.0
}