{
    "ID": 98095,
    "genomaID": "CV3TD11",
    "color": {
        "x": 0.4879758954048157,
        "y": 0.6131840348243713,
        "z": 0.16286469995975495
    },
    "vertexNumber": 3,
    "colliderVertices": [
        {
            "x": -1.448728084564209,
            "y": -0.4206351041793823
        },
        {
            "x": 1.2341947555541993,
            "y": -0.4096236228942871
        },
        {
            "x": -0.7727158069610596,
            "y": 0.05484116077423096
        }
    ],
    "triangles": [
        1,
        0,
        2
    ],
    "carDensity": 3.0,
    "suspension": 0.5667561292648315,
    "motorSpeed": 867,
    "frontDensity": 4.900000095367432,
    "frontRadius": 0.6907195448875427,
    "frontOffset": 1.4427931308746338,
    "backDensity": 3.4000000953674318,
    "backRadius": 0.5440769791603088,
    "backOffset": -0.9939655065536499,
    "score": 916,
    "maxDistance": 834,
    "maxTime": 102.0
}{
    "ID": 98166,
    "genomaID": "CV3TD11",
    "color": {
        "x": 0.5573375821113586,
        "y": 0.547770082950592,
        "z": 0.5145778059959412
    },
    "vertexNumber": 3,
    "colliderVertices": [
        {
            "x": -1.24593186378479,
            "y": -0.17356999218463899
        },
        {
            "x": 1.4254326820373536,
            "y": -0.31066444516181948
        },
        {
            "x": -1.0050806999206544,
            "y": 0.2958831191062927
        }
    ],
    "triangles": [
        1,
        0,
        2
    ],
    "carDensity": 3.0,
    "suspension": 0.6964563131332398,
    "motorSpeed": 850,
    "frontDensity": 4.900000095367432,
    "frontRadius": 0.6903449296951294,
    "frontOffset": 0.7973185181617737,
    "backDensity": 3.200000047683716,
    "backRadius": 0.5172910690307617,
    "backOffset": -0.8483887910842896,
    "score": 913,
    "maxDistance": 833,
    "maxTime": 104.0
}{
    "ID": 98054,
    "genomaID": "CV3TD8",
    "color": {
        "x": 0.22659209370613099,
        "y": 0.3516906797885895,
        "z": 0.38836878538131716
    },
    "vertexNumber": 3,
    "colliderVertices": [
        {
            "x": -1.448728084564209,
            "y": -0.4206351041793823
        },
        {
            "x": 1.2341947555541993,
            "y": -0.4096236228942871
        },
        {
            "x": -0.7727158069610596,
            "y": 0.05484116077423096
        }
    ],
    "triangles": [
        1,
        0,
        2
    ],
    "carDensity": 3.0,
    "suspension": 0.9785542488098145,
    "motorSpeed": 850,
    "frontDensity": 2.9000000953674318,
    "frontRadius": 0.49284881353378298,
    "frontOffset": 1.4290611743927003,
    "backDensity": 2.0999999046325685,
    "backRadius": 0.40909072756767275,
    "backOffset": -1.0800830125808716,
    "score": 893,
    "maxDistance": 833,
    "maxTime": 139.0
}{
    "ID": 98030,
    "genomaID": "CV3TD11",
    "color": {
        "x": 0.08189452439546585,
        "y": 0.3821195960044861,
        "z": 0.08771801739931107
    },
    "vertexNumber": 3,
    "colliderVertices": [
        {
            "x": -1.448728084564209,
            "y": -0.4206351041793823
        },
        {
            "x": 1.2341947555541993,
            "y": -0.4096236228942871
        },
        {
            "x": -0.7727158069610596,
            "y": 0.05484116077423096
        }
    ],
    "triangles": [
        1,
        0,
        2
    ],
    "carDensity": 3.0,
    "suspension": 0.9983174204826355,
    "motorSpeed": 850,
    "frontDensity": 4.699999809265137,
    "frontRadius": 0.6679428815841675,
    "frontOffset": 1.0341745615005494,
    "backDensity": 3.4000000953674318,
    "backRadius": 0.5370846390724182,
    "backOffset": -1.4963210821151734,
    "score": 18,
    "maxDistance": 3,
    "maxTime": 2.0
}{
    "ID": 98064,
    "genomaID": "CV3TD10",
    "color": {
        "x": 0.10817171633243561,
        "y": 0.09526099264621735,
        "z": 0.18957391381263734
    },
    "vertexNumber": 3,
    "colliderVertices": [
        {
            "x": -1.448728084564209,
            "y": -0.4206351041793823
        },
        {
            "x": 1.2341947555541993,
            "y": -0.4096236228942871
        },
        {
            "x": -0.7727158069610596,
            "y": 0.05484116077423096
        }
    ],
    "triangles": [
        1,
        0,
        2
    ],
    "carDensity": 3.0,
    "suspension": 0.8436031937599182,
    "motorSpeed": 850,
    "frontDensity": 2.700000047683716,
    "frontRadius": 0.46860748529434206,
    "frontOffset": 1.3858355283737183,
    "backDensity": 4.099999904632568,
    "backRadius": 0.6149172782897949,
    "backOffset": -1.4605753421783448,
    "score": -11,
    "maxDistance": -1,
    "maxTime": 1.0
}