{
    "ID": 38033,
    "genomaID": "CV3TD12",
    "color": {
        "x": 0.9543694257736206,
        "y": 0.6707087159156799,
        "z": 0.4607693552970886
    },
    "vertexNumber": 3,
    "colliderVertices": [
        {
            "x": -1.3322129249572755,
            "y": -0.3242015540599823
        },
        {
            "x": 1.406930685043335,
            "y": -0.39797013998031618
        },
        {
            "x": -1.7638306617736817,
            "y": 0.37279003858566286
        }
    ],
    "triangles": [
        1,
        0,
        2
    ],
    "carDensity": 3.0,
    "suspension": 0.9917292594909668,
    "motorSpeed": 879,
    "frontDensity": 4.699999809265137,
    "frontRadius": 0.6659244298934937,
    "frontOffset": 1.1111234426498414,
    "backDensity": 3.700000047683716,
    "backRadius": 0.5684146285057068,
    "backOffset": -1.1374651193618775,
    "score": 916,
    "maxDistance": 834,
    "maxTime": 102.0
}{
    "ID": 38174,
    "genomaID": "CV3TD11",
    "color": {
        "x": 0.7046118378639221,
        "y": 0.33948877453804018,
        "z": 0.3959283232688904
    },
    "vertexNumber": 3,
    "colliderVertices": [
        {
            "x": -1.5735952854156495,
            "y": -0.43222683668136599
        },
        {
            "x": 1.0668094158172608,
            "y": -0.18544025719165803
        },
        {
            "x": -0.28403687477111819,
            "y": 0.08073210716247559
        }
    ],
    "triangles": [
        1,
        0,
        2
    ],
    "carDensity": 3.0,
    "suspension": 0.43872717022895815,
    "motorSpeed": 894,
    "frontDensity": 4.599999904632568,
    "frontRadius": 0.6557742357254028,
    "frontOffset": 0.9402812719345093,
    "backDensity": 2.9000000953674318,
    "backRadius": 0.4896731376647949,
    "backOffset": -1.3359545469284058,
    "score": 911,
    "maxDistance": 832,
    "maxTime": 106.0
}{
    "ID": 38124,
    "genomaID": "CV3TD11",
    "color": {
        "x": 0.6774768233299255,
        "y": 0.7049570679664612,
        "z": 0.9311487674713135
    },
    "vertexNumber": 3,
    "colliderVertices": [
        {
            "x": -1.3322129249572755,
            "y": -0.3242015540599823
        },
        {
            "x": 1.406930685043335,
            "y": -0.39797013998031618
        },
        {
            "x": -1.7638306617736817,
            "y": 0.37279003858566286
        }
    ],
    "triangles": [
        1,
        0,
        2
    ],
    "carDensity": 3.0,
    "suspension": 0.7868143320083618,
    "motorSpeed": 879,
    "frontDensity": 4.699999809265137,
    "frontRadius": 0.6656356453895569,
    "frontOffset": 0.921817421913147,
    "backDensity": 3.299999952316284,
    "backRadius": 0.5260943174362183,
    "backOffset": -1.1913633346557618,
    "score": 907,
    "maxDistance": 828,
    "maxTime": 105.0
}{
    "ID": 38150,
    "genomaID": "CV3TD11",
    "color": {
        "x": 0.05255449563264847,
        "y": 0.13397933542728425,
        "z": 0.003996372688561678
    },
    "vertexNumber": 3,
    "colliderVertices": [
        {
            "x": -1.9798105955123902,
            "y": -0.18634362518787385
        },
        {
            "x": 1.9813605546951295,
            "y": -0.4973602890968323
        },
        {
            "x": -1.1870479583740235,
            "y": 0.543827474117279
        }
    ],
    "triangles": [
        1,
        0,
        2
    ],
    "carDensity": 3.0,
    "suspension": 0.5790017247200012,
    "motorSpeed": 879,
    "frontDensity": 4.699999809265137,
    "frontRadius": 0.6656356453895569,
    "frontOffset": 1.0245016813278199,
    "backDensity": 3.299999952316284,
    "backRadius": 0.5260943174362183,
    "backOffset": -1.3723324537277222,
    "score": 20,
    "maxDistance": 3,
    "maxTime": 2.0
}{
    "ID": 38194,
    "genomaID": "CV3TD11",
    "color": {
        "x": 0.7795941829681397,
        "y": 0.2871544659137726,
        "z": 0.42937761545181277
    },
    "vertexNumber": 3,
    "colliderVertices": [
        {
            "x": -1.4167654514312745,
            "y": -0.05450911074876785
        },
        {
            "x": 1.4079196453094483,
            "y": -0.3937686085700989
        },
        {
            "x": -1.247361660003662,
            "y": 0.22769761085510255
        }
    ],
    "triangles": [
        1,
        0,
        2
    ],
    "carDensity": 3.0,
    "suspension": 0.8804370760917664,
    "motorSpeed": 866,
    "frontDensity": 3.5,
    "frontRadius": 0.5521202087402344,
    "frontOffset": 0.9697045087814331,
    "backDensity": 3.5999999046325685,
    "backRadius": 0.5568457245826721,
    "backOffset": -0.715461015701294,
    "score": 0,
    "maxDistance": 0,
    "maxTime": 1.0
}