{
    "ID": 87649,
    "genomaID": "CV3TD12",
    "color": {
        "x": 0.9539196491241455,
        "y": 0.1290532499551773,
        "z": 0.8852263689041138
    },
    "vertexNumber": 3,
    "colliderVertices": [
        {
            "x": -1.24593186378479,
            "y": -0.17356999218463899
        },
        {
            "x": 1.4254326820373536,
            "y": -0.31066444516181948
        },
        {
            "x": -1.0050806999206544,
            "y": 0.2958831191062927
        }
    ],
    "triangles": [
        1,
        0,
        2
    ],
    "carDensity": 3.0,
    "suspension": 0.6638486385345459,
    "motorSpeed": 880,
    "frontDensity": 4.599999904632568,
    "frontRadius": 0.6589146256446838,
    "frontOffset": 1.0537678003311158,
    "backDensity": 3.700000047683716,
    "backRadius": 0.5703579783439636,
    "backOffset": -0.9895614385604858,
    "score": 915,
    "maxDistance": 833,
    "maxTime": 102.0
}{
    "ID": 87671,
    "genomaID": "CV3TD11",
    "color": {
        "x": 0.8632849454879761,
        "y": 0.699835479259491,
        "z": 0.17797733843326569
    },
    "vertexNumber": 3,
    "colliderVertices": [
        {
            "x": -1.24593186378479,
            "y": -0.17356999218463899
        },
        {
            "x": 1.4254326820373536,
            "y": -0.31066444516181948
        },
        {
            "x": -1.0050806999206544,
            "y": 0.2958831191062927
        }
    ],
    "triangles": [
        1,
        0,
        2
    ],
    "carDensity": 3.0,
    "suspension": 0.9047433137893677,
    "motorSpeed": 880,
    "frontDensity": 4.599999904632568,
    "frontRadius": 0.6589146256446838,
    "frontOffset": 0.8518537282943726,
    "backDensity": 2.799999952316284,
    "backRadius": 0.4826343059539795,
    "backOffset": -0.8343521356582642,
    "score": 912,
    "maxDistance": 833,
    "maxTime": 105.0
}{
    "ID": 87778,
    "genomaID": "CV3TD10",
    "color": {
        "x": 0.9666177034378052,
        "y": 0.6240989565849304,
        "z": 0.9224027395248413
    },
    "vertexNumber": 3,
    "colliderVertices": [
        {
            "x": -1.24593186378479,
            "y": -0.17356999218463899
        },
        {
            "x": 1.4254326820373536,
            "y": -0.31066444516181948
        },
        {
            "x": -1.0050806999206544,
            "y": 0.2958831191062927
        }
    ],
    "triangles": [
        1,
        0,
        2
    ],
    "carDensity": 3.0,
    "suspension": 0.8926791548728943,
    "motorSpeed": 880,
    "frontDensity": 4.599999904632568,
    "frontRadius": 0.6589146256446838,
    "frontOffset": 1.4022984504699708,
    "backDensity": 2.299999952316284,
    "backRadius": 0.429451048374176,
    "backOffset": -0.6080988645553589,
    "score": 911,
    "maxDistance": 834,
    "maxTime": 108.0
}{
    "ID": 87731,
    "genomaID": "CV3TD12",
    "color": {
        "x": 0.5674471259117127,
        "y": 0.9338675737380981,
        "z": 0.18931534886360169
    },
    "vertexNumber": 3,
    "colliderVertices": [
        {
            "x": -1.448728084564209,
            "y": -0.4206351041793823
        },
        {
            "x": 1.2341947555541993,
            "y": -0.4096236228942871
        },
        {
            "x": -0.7727158069610596,
            "y": 0.05484116077423096
        }
    ],
    "triangles": [
        1,
        0,
        2
    ],
    "carDensity": 3.0,
    "suspension": 0.4749881327152252,
    "motorSpeed": 1074,
    "frontDensity": 4.900000095367432,
    "frontRadius": 0.6907195448875427,
    "frontOffset": 1.4737274646759034,
    "backDensity": 3.700000047683716,
    "backRadius": 0.5726330280303955,
    "backOffset": -1.3718411922454835,
    "score": 30,
    "maxDistance": 7,
    "maxTime": 3.0
}{
    "ID": 87781,
    "genomaID": "CV3TD13",
    "color": {
        "x": 0.27488282322883608,
        "y": 0.43963927030563357,
        "z": 0.30342355370521548
    },
    "vertexNumber": 3,
    "colliderVertices": [
        {
            "x": -1.4517676830291749,
            "y": -0.3785870671272278
        },
        {
            "x": 1.0073214769363404,
            "y": -0.056303925812244418
        },
        {
            "x": 0.1018216609954834,
            "y": 0.5950250029563904
        }
    ],
    "triangles": [
        1,
        0,
        2
    ],
    "carDensity": 3.0,
    "suspension": 0.47497475147247317,
    "motorSpeed": 850,
    "frontDensity": 4.800000190734863,
    "frontRadius": 0.6833953261375427,
    "frontOffset": 0.5479925870895386,
    "backDensity": 4.800000190734863,
    "backRadius": 0.6767776012420654,
    "backOffset": -0.889968991279602,
    "score": -11,
    "maxDistance": -1,
    "maxTime": 1.0
}