{
    "ID": 90605,
    "genomaID": "CV3TD11",
    "color": {
        "x": 0.3580075800418854,
        "y": 0.6482211947441101,
        "z": 0.6104552149772644
    },
    "vertexNumber": 3,
    "colliderVertices": [
        {
            "x": -1.24593186378479,
            "y": -0.17356999218463899
        },
        {
            "x": 1.4254326820373536,
            "y": -0.31066444516181948
        },
        {
            "x": -1.0050806999206544,
            "y": 0.2958831191062927
        }
    ],
    "triangles": [
        1,
        0,
        2
    ],
    "carDensity": 3.0,
    "suspension": 0.9860516786575317,
    "motorSpeed": 981,
    "frontDensity": 4.599999904632568,
    "frontRadius": 0.6589146256446838,
    "frontOffset": 0.5691707134246826,
    "backDensity": 3.0,
    "backRadius": 0.5026759505271912,
    "backOffset": -1.1393250226974488,
    "score": 918,
    "maxDistance": 833,
    "maxTime": 98.0
}{
    "ID": 90646,
    "genomaID": "CV3TD11",
    "color": {
        "x": 0.8601193428039551,
        "y": 0.32319143414497378,
        "z": 0.0954677015542984
    },
    "vertexNumber": 3,
    "colliderVertices": [
        {
            "x": -1.4517676830291749,
            "y": -0.3785870671272278
        },
        {
            "x": 1.0073214769363404,
            "y": -0.056303925812244418
        },
        {
            "x": 0.1018216609954834,
            "y": 0.5950250029563904
        }
    ],
    "triangles": [
        1,
        0,
        2
    ],
    "carDensity": 3.0,
    "suspension": 0.7685703039169312,
    "motorSpeed": 850,
    "frontDensity": 4.900000095367432,
    "frontRadius": 0.6907195448875427,
    "frontOffset": 0.8592270612716675,
    "backDensity": 2.9000000953674318,
    "backRadius": 0.4902960956096649,
    "backOffset": -0.8229071497917175,
    "score": 912,
    "maxDistance": 833,
    "maxTime": 106.0
}{
    "ID": 90612,
    "genomaID": "CV3TD10",
    "color": {
        "x": 0.03325570002198219,
        "y": 0.9501603841781616,
        "z": 0.32562246918678286
    },
    "vertexNumber": 3,
    "colliderVertices": [
        {
            "x": -1.24593186378479,
            "y": -0.17356999218463899
        },
        {
            "x": 1.4254326820373536,
            "y": -0.31066444516181948
        },
        {
            "x": -1.0050806999206544,
            "y": 0.2958831191062927
        }
    ],
    "triangles": [
        1,
        0,
        2
    ],
    "carDensity": 3.0,
    "suspension": 0.752045214176178,
    "motorSpeed": 850,
    "frontDensity": 4.800000190734863,
    "frontRadius": 0.6797356009483337,
    "frontOffset": 1.4406144618988038,
    "backDensity": 2.4000000953674318,
    "backRadius": 0.4350585341453552,
    "backOffset": -1.2843021154403687,
    "score": 910,
    "maxDistance": 833,
    "maxTime": 108.0
}{
    "ID": 90796,
    "genomaID": "CV3TD11",
    "color": {
        "x": 0.04487193003296852,
        "y": 0.9218603372573853,
        "z": 0.05435562878847122
    },
    "vertexNumber": 3,
    "colliderVertices": [
        {
            "x": -1.24593186378479,
            "y": -0.17356999218463899
        },
        {
            "x": 1.4254326820373536,
            "y": -0.31066444516181948
        },
        {
            "x": -1.0050806999206544,
            "y": 0.2958831191062927
        }
    ],
    "triangles": [
        1,
        0,
        2
    ],
    "carDensity": 3.0,
    "suspension": 0.5877877473831177,
    "motorSpeed": 850,
    "frontDensity": 3.700000047683716,
    "frontRadius": 0.5733985304832459,
    "frontOffset": 1.1098049879074097,
    "backDensity": 3.5,
    "backRadius": 0.5467919111251831,
    "backOffset": -0.7453582286834717,
    "score": 24,
    "maxDistance": 4,
    "maxTime": 2.0
}{
    "ID": 90776,
    "genomaID": "CV3TD9",
    "color": {
        "x": 0.6246430277824402,
        "y": 0.6293639540672302,
        "z": 0.03411531820893288
    },
    "vertexNumber": 3,
    "colliderVertices": [
        {
            "x": -1.156866431236267,
            "y": -0.20696303248405457
        },
        {
            "x": 1.4022114276885987,
            "y": -0.04865223914384842
        },
        {
            "x": -0.855212926864624,
            "y": 0.37564557790756228
        }
    ],
    "triangles": [
        1,
        0,
        2
    ],
    "carDensity": 3.0,
    "suspension": 0.4749881327152252,
    "motorSpeed": 803,
    "frontDensity": 2.0,
    "frontRadius": 0.4046945869922638,
    "frontOffset": 0.9280139207839966,
    "backDensity": 4.300000190734863,
    "backRadius": 0.6299383640289307,
    "backOffset": -0.8032214045524597,
    "score": -11,
    "maxDistance": -1,
    "maxTime": 1.0
}