{
    "ID": 104631,
    "genomaID": "CV3TD11",
    "color": {
        "x": 0.1651449352502823,
        "y": 0.1517629772424698,
        "z": 0.7083653807640076
    },
    "vertexNumber": 3,
    "colliderVertices": [
        {
            "x": -1.448728084564209,
            "y": -0.4206351041793823
        },
        {
            "x": 1.2341947555541993,
            "y": -0.4096236228942871
        },
        {
            "x": -0.7727158069610596,
            "y": 0.05484116077423096
        }
    ],
    "triangles": [
        1,
        0,
        2
    ],
    "carDensity": 3.0,
    "suspension": 0.7001361846923828,
    "motorSpeed": 1123,
    "frontDensity": 4.699999809265137,
    "frontRadius": 0.6661383509635925,
    "frontOffset": 1.0876442193984986,
    "backDensity": 2.5999999046325685,
    "backRadius": 0.4617137014865875,
    "backOffset": -1.2401955127716065,
    "score": 921,
    "maxDistance": 830,
    "maxTime": 91.0
}{
    "ID": 104662,
    "genomaID": "CV3TD11",
    "color": {
        "x": 0.439258873462677,
        "y": 0.6396306157112122,
        "z": 0.051986582577228549
    },
    "vertexNumber": 3,
    "colliderVertices": [
        {
            "x": -1.448728084564209,
            "y": -0.4206351041793823
        },
        {
            "x": 1.2341947555541993,
            "y": -0.4096236228942871
        },
        {
            "x": -0.7727158069610596,
            "y": 0.05484116077423096
        }
    ],
    "triangles": [
        1,
        0,
        2
    ],
    "carDensity": 3.0,
    "suspension": 0.402424156665802,
    "motorSpeed": 850,
    "frontDensity": 4.900000095367432,
    "frontRadius": 0.6907195448875427,
    "frontOffset": 0.7100406885147095,
    "backDensity": 2.799999952316284,
    "backRadius": 0.4815172553062439,
    "backOffset": -1.3603627681732178,
    "score": 911,
    "maxDistance": 832,
    "maxTime": 106.0
}{
    "ID": 104758,
    "genomaID": "CV4TD12",
    "color": {
        "x": 0.28277984261512759,
        "y": 0.37338748574256899,
        "z": 0.43425315618515017
    },
    "vertexNumber": 4,
    "colliderVertices": [
        {
            "x": -1.3713293075561524,
            "y": -0.48311030864715578
        },
        {
            "x": 1.3793971538543702,
            "y": -0.2881121337413788
        },
        {
            "x": 0.14323878288269044,
            "y": 0.5178688168525696
        },
        {
            "x": -0.5841882228851318,
            "y": 0.14356613159179688
        }
    ],
    "triangles": [
        3,
        2,
        1,
        1,
        0,
        3
    ],
    "carDensity": 4.0,
    "suspension": 0.7783125042915344,
    "motorSpeed": 850,
    "frontDensity": 5.0,
    "frontRadius": 0.6980684399604797,
    "frontOffset": 1.396906852722168,
    "backDensity": 2.9000000953674318,
    "backRadius": 0.487143337726593,
    "backOffset": -1.405885934829712,
    "score": 909,
    "maxDistance": 831,
    "maxTime": 106.0
}{
    "ID": 104746,
    "genomaID": "CV3TD12",
    "color": {
        "x": 0.3568008244037628,
        "y": 0.6081945300102234,
        "z": 0.7886466979980469
    },
    "vertexNumber": 3,
    "colliderVertices": [
        {
            "x": -1.448728084564209,
            "y": -0.4206351041793823
        },
        {
            "x": 1.2341947555541993,
            "y": -0.4096236228942871
        },
        {
            "x": -0.7727158069610596,
            "y": 0.05484116077423096
        }
    ],
    "triangles": [
        1,
        0,
        2
    ],
    "carDensity": 3.0,
    "suspension": 0.6800799369812012,
    "motorSpeed": 609,
    "frontDensity": 4.900000095367432,
    "frontRadius": 0.6907195448875427,
    "frontOffset": 1.0143107175827027,
    "backDensity": 3.799999952316284,
    "backRadius": 0.5807894468307495,
    "backOffset": -1.2899054288864136,
    "score": 39,
    "maxDistance": 9,
    "maxTime": 3.0
}{
    "ID": 104800,
    "genomaID": "CV3TD9",
    "color": {
        "x": 0.7681076526641846,
        "y": 0.2796610891819,
        "z": 0.3934035897254944
    },
    "vertexNumber": 3,
    "colliderVertices": [
        {
            "x": -1.448728084564209,
            "y": -0.4206351041793823
        },
        {
            "x": 1.2341947555541993,
            "y": -0.4096236228942871
        },
        {
            "x": -0.7727158069610596,
            "y": 0.05484116077423096
        }
    ],
    "triangles": [
        1,
        0,
        2
    ],
    "carDensity": 3.0,
    "suspension": 0.6714038252830505,
    "motorSpeed": 850,
    "frontDensity": 2.0,
    "frontRadius": 0.4011869430541992,
    "frontOffset": 0.5849130153656006,
    "backDensity": 3.5999999046325685,
    "backRadius": 0.5607529282569885,
    "backOffset": -1.2692713737487794,
    "score": -11,
    "maxDistance": -1,
    "maxTime": 1.0
}