{
    "ID": 108060,
    "genomaID": "CV3TD12",
    "color": {
        "x": 0.17101825773715974,
        "y": 0.9460158348083496,
        "z": 0.36645153164863589
    },
    "vertexNumber": 3,
    "colliderVertices": [
        {
            "x": -1.448728084564209,
            "y": -0.4206351041793823
        },
        {
            "x": 1.2341947555541993,
            "y": -0.4096236228942871
        },
        {
            "x": -0.7727158069610596,
            "y": 0.05484116077423096
        }
    ],
    "triangles": [
        1,
        0,
        2
    ],
    "carDensity": 3.0,
    "suspension": 0.7682226896286011,
    "motorSpeed": 1118,
    "frontDensity": 4.900000095367432,
    "frontRadius": 0.6907195448875427,
    "frontOffset": 0.9572106599807739,
    "backDensity": 4.199999809265137,
    "backRadius": 0.6220511794090271,
    "backOffset": -1.4598281383514405,
    "score": 927,
    "maxDistance": 831,
    "maxTime": 87.0
}{
    "ID": 108067,
    "genomaID": "CV3TD12",
    "color": {
        "x": 0.22674980759620667,
        "y": 0.8923680782318115,
        "z": 0.5692136883735657
    },
    "vertexNumber": 3,
    "colliderVertices": [
        {
            "x": -1.448728084564209,
            "y": -0.4206351041793823
        },
        {
            "x": 1.2341947555541993,
            "y": -0.4096236228942871
        },
        {
            "x": -0.7727158069610596,
            "y": 0.05484116077423096
        }
    ],
    "triangles": [
        1,
        0,
        2
    ],
    "carDensity": 3.0,
    "suspension": 0.8355655074119568,
    "motorSpeed": 850,
    "frontDensity": 4.900000095367432,
    "frontRadius": 0.6881802082061768,
    "frontOffset": 0.870071291923523,
    "backDensity": 3.5999999046325685,
    "backRadius": 0.5642228722572327,
    "backOffset": -1.2433675527572632,
    "score": 913,
    "maxDistance": 833,
    "maxTime": 104.0
}{
    "ID": 108098,
    "genomaID": "CV3TD11",
    "color": {
        "x": 0.2689395248889923,
        "y": 0.36797836422920229,
        "z": 0.9883663654327393
    },
    "vertexNumber": 3,
    "colliderVertices": [
        {
            "x": -1.448728084564209,
            "y": -0.4206351041793823
        },
        {
            "x": 1.2341947555541993,
            "y": -0.4096236228942871
        },
        {
            "x": -0.7727158069610596,
            "y": 0.05484116077423096
        }
    ],
    "triangles": [
        1,
        0,
        2
    ],
    "carDensity": 3.0,
    "suspension": 0.9293226599693298,
    "motorSpeed": 850,
    "frontDensity": 4.900000095367432,
    "frontRadius": 0.687800943851471,
    "frontOffset": 0.6318384408950806,
    "backDensity": 2.799999952316284,
    "backRadius": 0.47771579027175906,
    "backOffset": -1.0162640810012818,
    "score": 911,
    "maxDistance": 833,
    "maxTime": 106.0
}{
    "ID": 108095,
    "genomaID": "CV5TD14",
    "color": {
        "x": 0.4879758954048157,
        "y": 0.6131840348243713,
        "z": 0.16286469995975495
    },
    "vertexNumber": 5,
    "colliderVertices": [
        {
            "x": -1.7859115600585938,
            "y": -0.2795630395412445
        },
        {
            "x": 1.9523979425430298,
            "y": -0.2011364996433258
        },
        {
            "x": 1.7410922050476075,
            "y": 0.2064347267150879
        },
        {
            "x": 1.5554852485656739,
            "y": 0.2545587420463562
        },
        {
            "x": -1.1808786392211915,
            "y": 0.5249393582344055
        }
    ],
    "triangles": [
        1,
        4,
        3,
        3,
        2,
        1,
        1,
        0,
        4
    ],
    "carDensity": 5.0,
    "suspension": 0.7795165181159973,
    "motorSpeed": 850,
    "frontDensity": 4.800000190734863,
    "frontRadius": 0.6840409636497498,
    "frontOffset": 1.3905751705169678,
    "backDensity": 3.5999999046325685,
    "backRadius": 0.5622387528419495,
    "backOffset": -0.826389729976654,
    "score": 24,
    "maxDistance": 4,
    "maxTime": 2.0
}{
    "ID": 108199,
    "genomaID": "CV3TD10",
    "color": {
        "x": 0.6575701832771301,
        "y": 0.868037223815918,
        "z": 0.03163004294037819
    },
    "vertexNumber": 3,
    "colliderVertices": [
        {
            "x": -1.448728084564209,
            "y": -0.4206351041793823
        },
        {
            "x": 1.2341947555541993,
            "y": -0.4096236228942871
        },
        {
            "x": -0.7727158069610596,
            "y": 0.05484116077423096
        }
    ],
    "triangles": [
        1,
        0,
        2
    ],
    "carDensity": 3.0,
    "suspension": 0.6421095132827759,
    "motorSpeed": 1326,
    "frontDensity": 4.900000095367432,
    "frontRadius": 0.6907195448875427,
    "frontOffset": 1.2974011898040772,
    "backDensity": 2.5,
    "backRadius": 0.44697827100753786,
    "backOffset": -1.4240050315856934,
    "score": 0,
    "maxDistance": 0,
    "maxTime": 1.0
}