{
    "ID": 90875,
    "genomaID": "CV3TD10",
    "color": {
        "x": 0.4754706025123596,
        "y": 0.2664465010166168,
        "z": 0.8748672008514404
    },
    "vertexNumber": 3,
    "colliderVertices": [
        {
            "x": -1.448728084564209,
            "y": -0.4206351041793823
        },
        {
            "x": 1.2341947555541993,
            "y": -0.4096236228942871
        },
        {
            "x": -0.7727158069610596,
            "y": 0.05484116077423096
        }
    ],
    "triangles": [
        1,
        0,
        2
    ],
    "carDensity": 3.0,
    "suspension": 0.9535589218139648,
    "motorSpeed": 1095,
    "frontDensity": 4.900000095367432,
    "frontRadius": 0.6907195448875427,
    "frontOffset": 0.8759552240371704,
    "backDensity": 2.5,
    "backRadius": 0.4513075351715088,
    "backOffset": -1.1133054494857789,
    "score": 923,
    "maxDistance": 833,
    "maxTime": 93.0
}{
    "ID": 90906,
    "genomaID": "CV3TD11",
    "color": {
        "x": 0.5197533965110779,
        "y": 0.9451771974563599,
        "z": 0.4369392991065979
    },
    "vertexNumber": 3,
    "colliderVertices": [
        {
            "x": -1.448728084564209,
            "y": -0.4206351041793823
        },
        {
            "x": 1.2341947555541993,
            "y": -0.4096236228942871
        },
        {
            "x": -0.7727158069610596,
            "y": 0.05484116077423096
        }
    ],
    "triangles": [
        1,
        0,
        2
    ],
    "carDensity": 3.0,
    "suspension": 0.734188437461853,
    "motorSpeed": 850,
    "frontDensity": 4.900000095367432,
    "frontRadius": 0.6907195448875427,
    "frontOffset": 0.63376784324646,
    "backDensity": 2.700000047683716,
    "backRadius": 0.4730428457260132,
    "backOffset": -1.4314610958099366,
    "score": 912,
    "maxDistance": 833,
    "maxTime": 106.0
}{
    "ID": 90819,
    "genomaID": "CV3TD10",
    "color": {
        "x": 0.44939547777175906,
        "y": 0.6869245171546936,
        "z": 0.8737590312957764
    },
    "vertexNumber": 3,
    "colliderVertices": [
        {
            "x": -1.24593186378479,
            "y": -0.17356999218463899
        },
        {
            "x": 1.4254326820373536,
            "y": -0.31066444516181948
        },
        {
            "x": -1.0050806999206544,
            "y": 0.2958831191062927
        }
    ],
    "triangles": [
        1,
        0,
        2
    ],
    "carDensity": 3.0,
    "suspension": 0.6282761096954346,
    "motorSpeed": 880,
    "frontDensity": 4.400000095367432,
    "frontRadius": 0.6424332857131958,
    "frontOffset": 1.3650758266448975,
    "backDensity": 2.799999952316284,
    "backRadius": 0.48144102096557619,
    "backOffset": -0.7384113073348999,
    "score": 910,
    "maxDistance": 833,
    "maxTime": 109.0
}{
    "ID": 90981,
    "genomaID": "CV3TD12",
    "color": {
        "x": 0.27488282322883608,
        "y": 0.43963927030563357,
        "z": 0.30342355370521548
    },
    "vertexNumber": 3,
    "colliderVertices": [
        {
            "x": -1.24593186378479,
            "y": -0.17356999218463899
        },
        {
            "x": 1.4254326820373536,
            "y": -0.31066444516181948
        },
        {
            "x": -1.0050806999206544,
            "y": 0.2958831191062927
        }
    ],
    "triangles": [
        1,
        0,
        2
    ],
    "carDensity": 3.0,
    "suspension": 0.9253244400024414,
    "motorSpeed": 880,
    "frontDensity": 4.599999904632568,
    "frontRadius": 0.6589146256446838,
    "frontOffset": 0.5786067247390747,
    "backDensity": 3.700000047683716,
    "backRadius": 0.5744448900222778,
    "backOffset": -0.8580352067947388,
    "score": 46,
    "maxDistance": 13,
    "maxTime": 4.0
}{
    "ID": 90998,
    "genomaID": "CV6TD14",
    "color": {
        "x": 0.7236726880073547,
        "y": 0.13623930513858796,
        "z": 0.8786298036575317
    },
    "vertexNumber": 6,
    "colliderVertices": [
        {
            "x": -1.8060566186904908,
            "y": -0.41595447063446047
        },
        {
            "x": 1.7500511407852173,
            "y": -0.13517571985721589
        },
        {
            "x": 0.7856730818748474,
            "y": 0.5238897204399109
        },
        {
            "x": 0.40969347953796389,
            "y": 0.7465957403182983
        },
        {
            "x": -0.857839822769165,
            "y": 0.2845385670661926
        },
        {
            "x": -1.549015998840332,
            "y": 0.18621909618377686
        }
    ],
    "triangles": [
        4,
        3,
        1,
        1,
        5,
        4,
        3,
        2,
        1,
        1,
        0,
        5
    ],
    "carDensity": 6.0,
    "suspension": 0.878499448299408,
    "motorSpeed": 880,
    "frontDensity": 4.599999904632568,
    "frontRadius": 0.6589146256446838,
    "frontOffset": 0.7222961187362671,
    "backDensity": 3.0,
    "backRadius": 0.5026759505271912,
    "backOffset": -1.1393250226974488,
    "score": 0,
    "maxDistance": 0,
    "maxTime": 1.0
}