{
    "ID": 41636,
    "genomaID": "CV5TD14",
    "color": {
        "x": 0.8729569911956787,
        "y": 0.9748997688293457,
        "z": 0.6180261969566345
    },
    "vertexNumber": 5,
    "colliderVertices": [
        {
            "x": -1.1603676080703736,
            "y": -0.36285147070884707
        },
        {
            "x": 1.735103964805603,
            "y": -0.20202770829200746
        },
        {
            "x": 0.9240555167198181,
            "y": 0.3404892086982727
        },
        {
            "x": -0.4551079273223877,
            "y": 0.04688525199890137
        },
        {
            "x": -0.5867860317230225,
            "y": 0.6487576961517334
        }
    ],
    "triangles": [
        3,
        2,
        0,
        0,
        4,
        3,
        2,
        1,
        0
    ],
    "carDensity": 5.0,
    "suspension": 0.6873148679733276,
    "motorSpeed": 879,
    "frontDensity": 5.0,
    "frontRadius": 0.6981920599937439,
    "frontOffset": 1.0372191667556763,
    "backDensity": 3.700000047683716,
    "backRadius": 0.5699996948242188,
    "backOffset": -1.2045953273773194,
    "score": 917,
    "maxDistance": 833,
    "maxTime": 100.0
}{
    "ID": 41659,
    "genomaID": "CV3TD10",
    "color": {
        "x": 0.46289175748825076,
        "y": 0.31804123520851138,
        "z": 0.7582323551177979
    },
    "vertexNumber": 3,
    "colliderVertices": [
        {
            "x": -1.3958065509796143,
            "y": -0.0010095239849761129
        },
        {
            "x": 1.3190457820892335,
            "y": -0.3597407042980194
        },
        {
            "x": -0.1879727840423584,
            "y": 0.3743547797203064
        }
    ],
    "triangles": [
        1,
        0,
        2
    ],
    "carDensity": 3.0,
    "suspension": 0.6037181615829468,
    "motorSpeed": 879,
    "frontDensity": 4.400000095367432,
    "frontRadius": 0.6406036615371704,
    "frontOffset": 0.7477215528488159,
    "backDensity": 3.4000000953674318,
    "backRadius": 0.5448746085166931,
    "backOffset": -1.4652187824249268,
    "score": 913,
    "maxDistance": 834,
    "maxTime": 106.0
}{
    "ID": 41635,
    "genomaID": "CV4TD12",
    "color": {
        "x": 0.6749839186668396,
        "y": 0.59889155626297,
        "z": 0.6400969624519348
    },
    "vertexNumber": 4,
    "colliderVertices": [
        {
            "x": -1.728973388671875,
            "y": -0.1336478739976883
        },
        {
            "x": 1.162179946899414,
            "y": -0.26350101828575137
        },
        {
            "x": 0.9880699515342712,
            "y": 0.5850202441215515
        },
        {
            "x": 0.03247237205505371,
            "y": 0.2521025538444519
        }
    ],
    "triangles": [
        3,
        2,
        1,
        1,
        0,
        3
    ],
    "carDensity": 4.0,
    "suspension": 0.5790017247200012,
    "motorSpeed": 616,
    "frontDensity": 4.699999809265137,
    "frontRadius": 0.6654146909713745,
    "frontOffset": 1.273937702178955,
    "backDensity": 3.299999952316284,
    "backRadius": 0.5260943174362183,
    "backOffset": -1.0475400686264039,
    "score": 892,
    "maxDistance": 833,
    "maxTime": 142.0
}{
    "ID": 41778,
    "genomaID": "CV3TD10",
    "color": {
        "x": 0.9666177034378052,
        "y": 0.6240989565849304,
        "z": 0.9224027395248413
    },
    "vertexNumber": 3,
    "colliderVertices": [
        {
            "x": -1.4167654514312745,
            "y": -0.05450911074876785
        },
        {
            "x": 1.4079196453094483,
            "y": -0.3937686085700989
        },
        {
            "x": -1.247361660003662,
            "y": 0.22769761085510255
        }
    ],
    "triangles": [
        1,
        0,
        2
    ],
    "carDensity": 3.0,
    "suspension": 0.7073614001274109,
    "motorSpeed": 894,
    "frontDensity": 3.9000000953674318,
    "frontRadius": 0.5907385349273682,
    "frontOffset": 1.4127027988433838,
    "backDensity": 2.9000000953674318,
    "backRadius": 0.4909312129020691,
    "backOffset": -1.2100815773010255,
    "score": 36,
    "maxDistance": 6,
    "maxTime": 2.0
}{
    "ID": 41799,
    "genomaID": "CV6TD12",
    "color": {
        "x": 0.6575701832771301,
        "y": 0.868037223815918,
        "z": 0.03163004294037819
    },
    "vertexNumber": 6,
    "colliderVertices": [
        {
            "x": -1.3619048595428467,
            "y": -0.010063470341265202
        },
        {
            "x": 1.9077301025390626,
            "y": -0.06439543515443802
        },
        {
            "x": 0.3286592960357666,
            "y": 0.64760422706604
        },
        {
            "x": -0.03982996940612793,
            "y": 0.7177603244781494
        },
        {
            "x": -0.1137230396270752,
            "y": 0.26465505361557009
        },
        {
            "x": -1.474440097808838,
            "y": 0.5277474522590637
        }
    ],
    "triangles": [
        1,
        0,
        4,
        4,
        3,
        1,
        0,
        5,
        4,
        3,
        2,
        1
    ],
    "carDensity": 6.0,
    "suspension": 0.9599924087524414,
    "motorSpeed": 879,
    "frontDensity": 2.299999952316284,
    "frontRadius": 0.433380663394928,
    "frontOffset": 1.4675016403198243,
    "backDensity": 4.099999904632568,
    "backRadius": 0.6135181784629822,
    "backOffset": -0.5657831430435181,
    "score": 0,
    "maxDistance": 0,
    "maxTime": 1.0
}