{
    "ID": 35201,
    "genomaID": "CV3TD10",
    "color": {
        "x": 0.38835567235946658,
        "y": 0.05267573148012161,
        "z": 0.386147677898407
    },
    "vertexNumber": 3,
    "colliderVertices": [
        {
            "x": -1.1758276224136353,
            "y": -0.4536004662513733
        },
        {
            "x": 1.3425486087799073,
            "y": -0.3765106201171875
        },
        {
            "x": 0.2889711856842041,
            "y": 0.2023240327835083
        }
    ],
    "triangles": [
        1,
        0,
        2
    ],
    "carDensity": 3.0,
    "suspension": 0.6443878412246704,
    "motorSpeed": 894,
    "frontDensity": 4.5,
    "frontRadius": 0.6469995379447937,
    "frontOffset": 0.859416127204895,
    "backDensity": 3.299999952316284,
    "backRadius": 0.5326175689697266,
    "backOffset": -1.166522741317749,
    "score": 915,
    "maxDistance": 834,
    "maxTime": 103.0
}{
    "ID": 35286,
    "genomaID": "CV3TD11",
    "color": {
        "x": 0.3033737242221832,
        "y": 0.7917381525039673,
        "z": 0.8435794115066528
    },
    "vertexNumber": 3,
    "colliderVertices": [
        {
            "x": -1.4167654514312745,
            "y": -0.05450911074876785
        },
        {
            "x": 1.4079196453094483,
            "y": -0.3937686085700989
        },
        {
            "x": -1.247361660003662,
            "y": 0.22769761085510255
        }
    ],
    "triangles": [
        1,
        0,
        2
    ],
    "carDensity": 3.0,
    "suspension": 0.919802725315094,
    "motorSpeed": 894,
    "frontDensity": 4.599999904632568,
    "frontRadius": 0.6557742357254028,
    "frontOffset": 1.3050239086151124,
    "backDensity": 3.299999952316284,
    "backRadius": 0.5272327661514282,
    "backOffset": -0.5524044036865234,
    "score": 913,
    "maxDistance": 833,
    "maxTime": 104.0
}{
    "ID": 35395,
    "genomaID": "CV3TD11",
    "color": {
        "x": 0.8922040462493897,
        "y": 0.16881419718265534,
        "z": 0.9950582981109619
    },
    "vertexNumber": 3,
    "colliderVertices": [
        {
            "x": -1.4167654514312745,
            "y": -0.05450911074876785
        },
        {
            "x": 1.4079196453094483,
            "y": -0.3937686085700989
        },
        {
            "x": -1.247361660003662,
            "y": 0.22769761085510255
        }
    ],
    "triangles": [
        1,
        0,
        2
    ],
    "carDensity": 3.0,
    "suspension": 0.5001570582389832,
    "motorSpeed": 894,
    "frontDensity": 4.599999904632568,
    "frontRadius": 0.6557742357254028,
    "frontOffset": 1.0916730165481568,
    "backDensity": 3.0,
    "backRadius": 0.49757829308509829,
    "backOffset": -1.2041223049163819,
    "score": 912,
    "maxDistance": 833,
    "maxTime": 105.0
}{
    "ID": 35344,
    "genomaID": "CV5TD12",
    "color": {
        "x": 0.17678166925907136,
        "y": 0.9297158718109131,
        "z": 0.4959257245063782
    },
    "vertexNumber": 5,
    "colliderVertices": [
        {
            "x": -1.1003472805023194,
            "y": -0.15678562223911286
        },
        {
            "x": 1.8953542709350587,
            "y": -0.40070271492004397
        },
        {
            "x": 1.4559698104858399,
            "y": 0.15374374389648438
        },
        {
            "x": -0.004525899887084961,
            "y": 0.41855567693710329
        },
        {
            "x": -0.49982142448425295,
            "y": 0.5215290188789368
        }
    ],
    "triangles": [
        1,
        4,
        3,
        3,
        2,
        1,
        1,
        0,
        4
    ],
    "carDensity": 5.0,
    "suspension": 0.7473198771476746,
    "motorSpeed": 894,
    "frontDensity": 4.5,
    "frontRadius": 0.6469995379447937,
    "frontOffset": 0.859416127204895,
    "backDensity": 3.299999952316284,
    "backRadius": 0.5326175689697266,
    "backOffset": -1.166522741317749,
    "score": 7,
    "maxDistance": 1,
    "maxTime": 2.0
}{
    "ID": 35393,
    "genomaID": "CV3TD11",
    "color": {
        "x": 0.6076138615608215,
        "y": 0.2100631296634674,
        "z": 0.02442515268921852
    },
    "vertexNumber": 3,
    "colliderVertices": [
        {
            "x": -1.4167654514312745,
            "y": -0.05450911074876785
        },
        {
            "x": 1.4079196453094483,
            "y": -0.3937686085700989
        },
        {
            "x": -1.247361660003662,
            "y": 0.22769761085510255
        }
    ],
    "triangles": [
        1,
        0,
        2
    ],
    "carDensity": 3.0,
    "suspension": 0.8414841890335083,
    "motorSpeed": 1167,
    "frontDensity": 4.599999904632568,
    "frontRadius": 0.6557742357254028,
    "frontOffset": 0.5637667179107666,
    "backDensity": 2.799999952316284,
    "backRadius": 0.4840424060821533,
    "backOffset": -1.1091464757919312,
    "score": 0,
    "maxDistance": 0,
    "maxTime": 1.0
}