{
    "ID": 1793,
    "genomaID": "CV3TD9",
    "color": {
        "x": 0.6076138615608215,
        "y": 0.2100631296634674,
        "z": 0.02442515268921852
    },
    "vertexNumber": 3,
    "colliderVertices": [
        {
            "x": -1.5852241516113282,
            "y": -0.34184184670448305
        },
        {
            "x": 1.2589409351348878,
            "y": -0.3602299988269806
        },
        {
            "x": -0.8985116481781006,
            "y": 0.2413233518600464
        }
    ],
    "triangles": [
        1,
        0,
        2
    ],
    "carDensity": 3.0,
    "suspension": 0.7818313837051392,
    "motorSpeed": 935,
    "frontDensity": 4.5,
    "frontRadius": 0.6500565409660339,
    "frontOffset": 0.6178960800170898,
    "backDensity": 2.299999952316284,
    "backRadius": 0.43097031116485598,
    "backOffset": -1.4653308391571046,
    "score": 914,
    "maxDistance": 834,
    "maxTime": 105.0
}{
    "ID": 1683,
    "genomaID": "CV4TD12",
    "color": {
        "x": 0.9098223447799683,
        "y": 0.4113134741783142,
        "z": 0.5985069870948792
    },
    "vertexNumber": 4,
    "colliderVertices": [
        {
            "x": -1.7450768947601319,
            "y": -0.4706868529319763
        },
        {
            "x": 1.5041000843048096,
            "y": -0.2598153054714203
        },
        {
            "x": 1.902998924255371,
            "y": 0.4408184885978699
        },
        {
            "x": 0.6491979956626892,
            "y": 0.4030558466911316
        }
    ],
    "triangles": [
        3,
        2,
        1,
        1,
        0,
        3
    ],
    "carDensity": 4.0,
    "suspension": 0.6186249256134033,
    "motorSpeed": 1201,
    "frontDensity": 3.5,
    "frontRadius": 0.5460723638534546,
    "frontOffset": 1.4220318794250489,
    "backDensity": 3.9000000953674318,
    "backRadius": 0.5867034792900086,
    "backOffset": -1.3584593534469605,
    "score": 327,
    "maxDistance": 231,
    "maxTime": 24.0
}{
    "ID": 1677,
    "genomaID": "CV3TD10",
    "color": {
        "x": 0.8047963380813599,
        "y": 0.944003701210022,
        "z": 0.9836212396621704
    },
    "vertexNumber": 3,
    "colliderVertices": [
        {
            "x": -1.5829863548278809,
            "y": -0.039146844297647479
        },
        {
            "x": 1.7785292863845826,
            "y": -0.03110969439148903
        },
        {
            "x": -1.4605779647827149,
            "y": 0.14276373386383058
        }
    ],
    "triangles": [
        1,
        0,
        2
    ],
    "carDensity": 3.0,
    "suspension": 0.4762568473815918,
    "motorSpeed": 1215,
    "frontDensity": 3.700000047683716,
    "frontRadius": 0.5704979300498962,
    "frontOffset": 0.6930289268493652,
    "backDensity": 2.700000047683716,
    "backRadius": 0.4735147953033447,
    "backOffset": -0.9532417058944702,
    "score": 223,
    "maxDistance": 136,
    "maxTime": 16.0
}{
    "ID": 1773,
    "genomaID": "CV5TD11",
    "color": {
        "x": 0.21457186341285706,
        "y": 0.6707939505577087,
        "z": 0.9695079326629639
    },
    "vertexNumber": 5,
    "colliderVertices": [
        {
            "x": -1.9315444231033326,
            "y": -0.4763333797454834
        },
        {
            "x": 1.8214861154556275,
            "y": -0.35262593626976015
        },
        {
            "x": 1.5722994804382325,
            "y": 0.12492120265960694
        },
        {
            "x": 1.4250073432922364,
            "y": 0.9057427644729614
        },
        {
            "x": 0.5718240141868591,
            "y": 0.2743348479270935
        }
    ],
    "triangles": [
        2,
        1,
        4,
        4,
        3,
        2,
        1,
        0,
        4
    ],
    "carDensity": 5.0,
    "suspension": 0.9861849546432495,
    "motorSpeed": 1026,
    "frontDensity": 4.199999809265137,
    "frontRadius": 0.6235319375991821,
    "frontOffset": 1.4491276741027833,
    "backDensity": 2.299999952316284,
    "backRadius": 0.4347952604293823,
    "backOffset": -1.223281741142273,
    "score": 33,
    "maxDistance": 5,
    "maxTime": 2.0
}{
    "ID": 1794,
    "genomaID": "CV3TD10",
    "color": {
        "x": 0.7795941829681397,
        "y": 0.2871544659137726,
        "z": 0.42937761545181277
    },
    "vertexNumber": 3,
    "colliderVertices": [
        {
            "x": -1.6073329448699952,
            "y": -0.30460885167121889
        },
        {
            "x": 1.3100435733795167,
            "y": -0.22941485047340394
        },
        {
            "x": 1.0612292289733887,
            "y": 0.17006957530975343
        }
    ],
    "triangles": [
        1,
        0,
        2
    ],
    "carDensity": 3.0,
    "suspension": 0.4762568473815918,
    "motorSpeed": 1215,
    "frontDensity": 3.700000047683716,
    "frontRadius": 0.5710952281951904,
    "frontOffset": 0.6324892044067383,
    "backDensity": 2.700000047683716,
    "backRadius": 0.4735147953033447,
    "backOffset": -0.993921160697937,
    "score": 0,
    "maxDistance": 0,
    "maxTime": 1.0
}