{
    "ID": 104254,
    "genomaID": "CV3TD11",
    "color": {
        "x": 0.22659209370613099,
        "y": 0.3516906797885895,
        "z": 0.38836878538131716
    },
    "vertexNumber": 3,
    "colliderVertices": [
        {
            "x": -1.448728084564209,
            "y": -0.4206351041793823
        },
        {
            "x": 1.2341947555541993,
            "y": -0.4096236228942871
        },
        {
            "x": -0.7727158069610596,
            "y": 0.05484116077423096
        }
    ],
    "triangles": [
        1,
        0,
        2
    ],
    "carDensity": 3.0,
    "suspension": 0.5247280597686768,
    "motorSpeed": 956,
    "frontDensity": 4.800000190734863,
    "frontRadius": 0.6838968992233276,
    "frontOffset": 1.1811473369598389,
    "backDensity": 2.799999952316284,
    "backRadius": 0.47771579027175906,
    "backOffset": -1.2692713737487794,
    "score": 915,
    "maxDistance": 834,
    "maxTime": 103.0
}{
    "ID": 104374,
    "genomaID": "CV3TD10",
    "color": {
        "x": 0.7046118378639221,
        "y": 0.33948877453804018,
        "z": 0.3959283232688904
    },
    "vertexNumber": 3,
    "colliderVertices": [
        {
            "x": -1.448728084564209,
            "y": -0.4206351041793823
        },
        {
            "x": 1.2341947555541993,
            "y": -0.4096236228942871
        },
        {
            "x": -0.7727158069610596,
            "y": 0.05484116077423096
        }
    ],
    "triangles": [
        1,
        0,
        2
    ],
    "carDensity": 3.0,
    "suspension": 0.7102932929992676,
    "motorSpeed": 864,
    "frontDensity": 4.900000095367432,
    "frontRadius": 0.6881802082061768,
    "frontOffset": 0.5849130153656006,
    "backDensity": 2.0999999046325685,
    "backRadius": 0.40958279371261599,
    "backOffset": -0.782069742679596,
    "score": 912,
    "maxDistance": 833,
    "maxTime": 106.0
}{
    "ID": 104330,
    "genomaID": "CV3TD11",
    "color": {
        "x": 0.08575690537691117,
        "y": 0.9913949966430664,
        "z": 0.17458464205265046
    },
    "vertexNumber": 3,
    "colliderVertices": [
        {
            "x": -1.448728084564209,
            "y": -0.4206351041793823
        },
        {
            "x": 1.2341947555541993,
            "y": -0.4096236228942871
        },
        {
            "x": -0.7727158069610596,
            "y": 0.05484116077423096
        }
    ],
    "triangles": [
        1,
        0,
        2
    ],
    "carDensity": 3.0,
    "suspension": 0.7001361846923828,
    "motorSpeed": 866,
    "frontDensity": 4.699999809265137,
    "frontRadius": 0.6661383509635925,
    "frontOffset": 1.0876442193984986,
    "backDensity": 2.5999999046325685,
    "backRadius": 0.4617137014865875,
    "backOffset": -1.2401955127716065,
    "score": 910,
    "maxDistance": 833,
    "maxTime": 108.0
}{
    "ID": 104353,
    "genomaID": "CV3TD10",
    "color": {
        "x": 0.22645524144172669,
        "y": 0.08218289166688919,
        "z": 0.5214018225669861
    },
    "vertexNumber": 3,
    "colliderVertices": [
        {
            "x": -1.7475886344909669,
            "y": -0.3331572711467743
        },
        {
            "x": 1.205899953842163,
            "y": -0.29428091645240786
        },
        {
            "x": -1.2002816200256348,
            "y": 0.24655115604400636
        }
    ],
    "triangles": [
        1,
        0,
        2
    ],
    "carDensity": 3.0,
    "suspension": 0.6192411184310913,
    "motorSpeed": 1172,
    "frontDensity": 3.4000000953674318,
    "frontRadius": 0.5411653518676758,
    "frontOffset": 1.2416977882385255,
    "backDensity": 3.799999952316284,
    "backRadius": 0.5846924781799316,
    "backOffset": -1.1292563676834107,
    "score": 30,
    "maxDistance": 7,
    "maxTime": 3.0
}{
    "ID": 104398,
    "genomaID": "CV5TD12",
    "color": {
        "x": 0.7236726880073547,
        "y": 0.13623930513858796,
        "z": 0.8786298036575317
    },
    "vertexNumber": 5,
    "colliderVertices": [
        {
            "x": -1.312635898590088,
            "y": -0.1975402534008026
        },
        {
            "x": 1.3888523578643799,
            "y": -0.00309491204097867
        },
        {
            "x": 1.7137236595153809,
            "y": 0.6593512296676636
        },
        {
            "x": 0.8976311087608337,
            "y": 0.8311547040939331
        },
        {
            "x": -1.8759651184082032,
            "y": 0.11540329456329346
        }
    ],
    "triangles": [
        1,
        4,
        3,
        3,
        2,
        1,
        1,
        0,
        4
    ],
    "carDensity": 5.0,
    "suspension": 0.4359721541404724,
    "motorSpeed": 850,
    "frontDensity": 3.0,
    "frontRadius": 0.498533695936203,
    "frontOffset": 1.0446561574935914,
    "backDensity": 3.5999999046325685,
    "backRadius": 0.5571348667144775,
    "backOffset": -0.7557069659233093,
    "score": 0,
    "maxDistance": 0,
    "maxTime": 1.0
}