{
    "ID": 11470,
    "genomaID": "CV3TD10",
    "color": {
        "x": 0.29777243733406069,
        "y": 0.7550115585327148,
        "z": 0.47786659002304079
    },
    "vertexNumber": 3,
    "colliderVertices": [
        {
            "x": -1.4167654514312745,
            "y": -0.05450911074876785
        },
        {
            "x": 1.4079196453094483,
            "y": -0.3937686085700989
        },
        {
            "x": -1.247361660003662,
            "y": 0.22769761085510255
        }
    ],
    "triangles": [
        1,
        0,
        2
    ],
    "carDensity": 3.0,
    "suspension": 0.41287583112716677,
    "motorSpeed": 884,
    "frontDensity": 4.599999904632568,
    "frontRadius": 0.6598103046417236,
    "frontOffset": 1.2035837173461915,
    "backDensity": 2.200000047683716,
    "backRadius": 0.415388822555542,
    "backOffset": -1.3403594493865967,
    "score": 911,
    "maxDistance": 833,
    "maxTime": 107.0
}{
    "ID": 11453,
    "genomaID": "CV3TD10",
    "color": {
        "x": 0.7018647789955139,
        "y": 0.7490060925483704,
        "z": 0.8822269439697266
    },
    "vertexNumber": 3,
    "colliderVertices": [
        {
            "x": -1.5829863548278809,
            "y": -0.039146844297647479
        },
        {
            "x": 1.7785292863845826,
            "y": -0.03110969439148903
        },
        {
            "x": -1.4605779647827149,
            "y": 0.14276373386383058
        }
    ],
    "triangles": [
        1,
        0,
        2
    ],
    "carDensity": 3.0,
    "suspension": 0.5074481964111328,
    "motorSpeed": 751,
    "frontDensity": 3.5,
    "frontRadius": 0.5501224398612976,
    "frontOffset": 1.298551082611084,
    "backDensity": 2.799999952316284,
    "backRadius": 0.4820799231529236,
    "backOffset": -1.4322285652160645,
    "score": 894,
    "maxDistance": 833,
    "maxTime": 136.0
}{
    "ID": 11438,
    "genomaID": "CV3TD9",
    "color": {
        "x": 0.8690057992935181,
        "y": 0.8295984268188477,
        "z": 0.17063750326633454
    },
    "vertexNumber": 3,
    "colliderVertices": [
        {
            "x": -1.0214519500732422,
            "y": -0.08835221081972122
        },
        {
            "x": 1.4465343952178956,
            "y": -0.17492087185382844
        },
        {
            "x": -1.9412798881530762,
            "y": 0.012621879577636719
        }
    ],
    "triangles": [
        1,
        0,
        2
    ],
    "carDensity": 3.0,
    "suspension": 0.7092081308364868,
    "motorSpeed": 702,
    "frontDensity": 3.5999999046325685,
    "frontRadius": 0.5577613115310669,
    "frontOffset": 0.9809647798538208,
    "backDensity": 2.4000000953674318,
    "backRadius": 0.4363735318183899,
    "backOffset": -1.353271245956421,
    "score": 891,
    "maxDistance": 833,
    "maxTime": 144.0
}{
    "ID": 11484,
    "genomaID": "CV3TD11",
    "color": {
        "x": 0.6245480179786682,
        "y": 0.6591420769691467,
        "z": 0.2456893026828766
    },
    "vertexNumber": 3,
    "colliderVertices": [
        {
            "x": -1.4167654514312745,
            "y": -0.05450911074876785
        },
        {
            "x": 1.4079196453094483,
            "y": -0.3937686085700989
        },
        {
            "x": -1.247361660003662,
            "y": 0.22769761085510255
        }
    ],
    "triangles": [
        1,
        0,
        2
    ],
    "carDensity": 3.0,
    "suspension": 0.8480783104896545,
    "motorSpeed": 884,
    "frontDensity": 4.300000190734863,
    "frontRadius": 0.6296887397766113,
    "frontOffset": 1.0013896226882935,
    "backDensity": 3.5,
    "backRadius": 0.5505800247192383,
    "backOffset": -1.169804334640503,
    "score": 30,
    "maxDistance": 5,
    "maxTime": 2.0
}{
    "ID": 11440,
    "genomaID": "CV3TD11",
    "color": {
        "x": 0.16537119448184968,
        "y": 0.9236080646514893,
        "z": 0.8277966976165772
    },
    "vertexNumber": 3,
    "colliderVertices": [
        {
            "x": -1.5829863548278809,
            "y": -0.039146844297647479
        },
        {
            "x": 1.7785292863845826,
            "y": -0.03110969439148903
        },
        {
            "x": -1.4605779647827149,
            "y": 0.14276373386383058
        }
    ],
    "triangles": [
        1,
        0,
        2
    ],
    "carDensity": 3.0,
    "suspension": 0.5074481964111328,
    "motorSpeed": 751,
    "frontDensity": 3.5,
    "frontRadius": 0.5501224398612976,
    "frontOffset": 1.1567662954330445,
    "backDensity": 4.199999809265137,
    "backRadius": 0.6195753216743469,
    "backOffset": -1.4322285652160645,
    "score": -11,
    "maxDistance": -1,
    "maxTime": 1.0
}