{
    "ID": 12137,
    "genomaID": "CV3TD10",
    "color": {
        "x": 0.5304045081138611,
        "y": 0.8377341032028198,
        "z": 0.746658980846405
    },
    "vertexNumber": 3,
    "colliderVertices": [
        {
            "x": -1.4167654514312745,
            "y": -0.05450911074876785
        },
        {
            "x": 1.4079196453094483,
            "y": -0.3937686085700989
        },
        {
            "x": -1.247361660003662,
            "y": 0.22769761085510255
        }
    ],
    "triangles": [
        1,
        0,
        2
    ],
    "carDensity": 3.0,
    "suspension": 0.6878498792648315,
    "motorSpeed": 884,
    "frontDensity": 4.599999904632568,
    "frontRadius": 0.6598103046417236,
    "frontOffset": 1.1869995594024659,
    "backDensity": 2.200000047683716,
    "backRadius": 0.415388822555542,
    "backOffset": -1.4493434429168702,
    "score": 912,
    "maxDistance": 834,
    "maxTime": 107.0
}{
    "ID": 12040,
    "genomaID": "CV3TD9",
    "color": {
        "x": 0.16537119448184968,
        "y": 0.9236080646514893,
        "z": 0.8277966976165772
    },
    "vertexNumber": 3,
    "colliderVertices": [
        {
            "x": -1.3835363388061524,
            "y": -0.23250189423561097
        },
        {
            "x": 1.4954769611358643,
            "y": -0.3852549195289612
        },
        {
            "x": 0.9055003523826599,
            "y": 0.00006151199340820313
        }
    ],
    "triangles": [
        1,
        0,
        2
    ],
    "carDensity": 3.0,
    "suspension": 0.6288577318191528,
    "motorSpeed": 740,
    "frontDensity": 3.700000047683716,
    "frontRadius": 0.5709809064865112,
    "frontOffset": 1.1602970361709595,
    "backDensity": 2.200000047683716,
    "backRadius": 0.42324399948120119,
    "backOffset": -1.3277921676635743,
    "score": 894,
    "maxDistance": 833,
    "maxTime": 136.0
}{
    "ID": 12016,
    "genomaID": "CV4TD10",
    "color": {
        "x": 0.23132100701332093,
        "y": 0.0023838283959776165,
        "z": 0.7214786410331726
    },
    "vertexNumber": 4,
    "colliderVertices": [
        {
            "x": -1.0559978485107422,
            "y": -0.22247502207756043
        },
        {
            "x": 1.1275415420532227,
            "y": -0.4310457706451416
        },
        {
            "x": 0.24234557151794434,
            "y": 0.05738818645477295
        },
        {
            "x": 0.16613173484802247,
            "y": 0.9895199537277222
        }
    ],
    "triangles": [
        0,
        3,
        2,
        2,
        1,
        0
    ],
    "carDensity": 4.0,
    "suspension": 0.4769420623779297,
    "motorSpeed": 740,
    "frontDensity": 3.700000047683716,
    "frontRadius": 0.5709809064865112,
    "frontOffset": 1.095657229423523,
    "backDensity": 2.4000000953674318,
    "backRadius": 0.44016075134277346,
    "backOffset": -1.206844687461853,
    "score": 892,
    "maxDistance": 833,
    "maxTime": 142.0
}{
    "ID": 12059,
    "genomaID": "CV3TD11",
    "color": {
        "x": 0.46289175748825076,
        "y": 0.31804123520851138,
        "z": 0.7582323551177979
    },
    "vertexNumber": 3,
    "colliderVertices": [
        {
            "x": -1.9676975011825562,
            "y": -0.44442665576934817
        },
        {
            "x": 1.9009766578674317,
            "y": -0.12445588409900665
        },
        {
            "x": 0.23088288307189942,
            "y": 0.09363925457000733
        }
    ],
    "triangles": [
        1,
        0,
        2
    ],
    "carDensity": 3.0,
    "suspension": 0.4769420623779297,
    "motorSpeed": 740,
    "frontDensity": 4.300000190734863,
    "frontRadius": 0.6307531595230103,
    "frontOffset": 1.2008311748504639,
    "backDensity": 4.099999904632568,
    "backRadius": 0.605394184589386,
    "backOffset": -1.1566156148910523,
    "score": 30,
    "maxDistance": 5,
    "maxTime": 2.0
}{
    "ID": 12067,
    "genomaID": "CV3TD11",
    "color": {
        "x": 0.22674980759620667,
        "y": 0.8923680782318115,
        "z": 0.5692136883735657
    },
    "vertexNumber": 3,
    "colliderVertices": [
        {
            "x": -1.5829863548278809,
            "y": -0.039146844297647479
        },
        {
            "x": 1.7785292863845826,
            "y": -0.03110969439148903
        },
        {
            "x": -1.4605779647827149,
            "y": 0.14276373386383058
        }
    ],
    "triangles": [
        1,
        0,
        2
    ],
    "carDensity": 3.0,
    "suspension": 0.5074481964111328,
    "motorSpeed": 1289,
    "frontDensity": 3.5,
    "frontRadius": 0.5501224398612976,
    "frontOffset": 1.1567662954330445,
    "backDensity": 4.300000190734863,
    "backRadius": 0.6288910508155823,
    "backOffset": -1.4322285652160645,
    "score": -11,
    "maxDistance": -1,
    "maxTime": 1.0
}