{
    "ID": 46944,
    "genomaID": "CV3TD12",
    "color": {
        "x": 0.17678166925907136,
        "y": 0.9297158718109131,
        "z": 0.4959257245063782
    },
    "vertexNumber": 3,
    "colliderVertices": [
        {
            "x": -1.3322129249572755,
            "y": -0.3242015540599823
        },
        {
            "x": 1.406930685043335,
            "y": -0.39797013998031618
        },
        {
            "x": -1.7638306617736817,
            "y": 0.37279003858566286
        }
    ],
    "triangles": [
        1,
        0,
        2
    ],
    "carDensity": 3.0,
    "suspension": 0.47649309039115908,
    "motorSpeed": 879,
    "frontDensity": 4.800000190734863,
    "frontRadius": 0.6772812604904175,
    "frontOffset": 0.7661052346229553,
    "backDensity": 3.799999952316284,
    "backRadius": 0.5819939374923706,
    "backOffset": -0.715811014175415,
    "score": 918,
    "maxDistance": 834,
    "maxTime": 99.0
}{
    "ID": 46946,
    "genomaID": "CV3TD11",
    "color": {
        "x": 0.3568008244037628,
        "y": 0.6081945300102234,
        "z": 0.7886466979980469
    },
    "vertexNumber": 3,
    "colliderVertices": [
        {
            "x": -1.3322129249572755,
            "y": -0.3242015540599823
        },
        {
            "x": 1.406930685043335,
            "y": -0.39797013998031618
        },
        {
            "x": -1.7638306617736817,
            "y": 0.37279003858566286
        }
    ],
    "triangles": [
        1,
        0,
        2
    ],
    "carDensity": 3.0,
    "suspension": 0.7520349025726318,
    "motorSpeed": 879,
    "frontDensity": 5.0,
    "frontRadius": 0.6981920599937439,
    "frontOffset": 1.1599290370941163,
    "backDensity": 3.0,
    "backRadius": 0.5032231211662293,
    "backOffset": -1.0797017812728882,
    "score": 914,
    "maxDistance": 834,
    "maxTime": 104.0
}{
    "ID": 46992,
    "genomaID": "CV3TD11",
    "color": {
        "x": 0.09872342646121979,
        "y": 0.4539591670036316,
        "z": 0.37379875779151919
    },
    "vertexNumber": 3,
    "colliderVertices": [
        {
            "x": -1.4167654514312745,
            "y": -0.05450911074876785
        },
        {
            "x": 1.4079196453094483,
            "y": -0.3937686085700989
        },
        {
            "x": -1.247361660003662,
            "y": 0.22769761085510255
        }
    ],
    "triangles": [
        1,
        0,
        2
    ],
    "carDensity": 3.0,
    "suspension": 0.4172641336917877,
    "motorSpeed": 908,
    "frontDensity": 4.599999904632568,
    "frontRadius": 0.6557742357254028,
    "frontOffset": 1.472059726715088,
    "backDensity": 2.700000047683716,
    "backRadius": 0.4728356599807739,
    "backOffset": -0.6809936761856079,
    "score": 910,
    "maxDistance": 833,
    "maxTime": 108.0
}{
    "ID": 46981,
    "genomaID": "CV3TD9",
    "color": {
        "x": 0.27488282322883608,
        "y": 0.43963927030563357,
        "z": 0.30342355370521548
    },
    "vertexNumber": 3,
    "colliderVertices": [
        {
            "x": -1.222611904144287,
            "y": -0.05172998458147049
        },
        {
            "x": 1.5217704772949219,
            "y": -0.23622170090675355
        },
        {
            "x": 0.02937150001525879,
            "y": 0.32639700174331667
        }
    ],
    "triangles": [
        1,
        0,
        2
    ],
    "carDensity": 3.0,
    "suspension": 0.7206543684005737,
    "motorSpeed": 879,
    "frontDensity": 3.0999999046325685,
    "frontRadius": 0.5107094049453735,
    "frontOffset": 0.7354233264923096,
    "backDensity": 3.299999952316284,
    "backRadius": 0.5323618650436401,
    "backOffset": -0.7591740489006043,
    "score": 20,
    "maxDistance": 3,
    "maxTime": 2.0
}{
    "ID": 46999,
    "genomaID": "CV3TD12",
    "color": {
        "x": 0.6575701832771301,
        "y": 0.868037223815918,
        "z": 0.03163004294037819
    },
    "vertexNumber": 3,
    "colliderVertices": [
        {
            "x": -1.3322129249572755,
            "y": -0.3242015540599823
        },
        {
            "x": 1.406930685043335,
            "y": -0.39797013998031618
        },
        {
            "x": -1.7638306617736817,
            "y": 0.37279003858566286
        }
    ],
    "triangles": [
        1,
        0,
        2
    ],
    "carDensity": 3.0,
    "suspension": 0.8804600834846497,
    "motorSpeed": 966,
    "frontDensity": 4.900000095367432,
    "frontRadius": 0.6862618923187256,
    "frontOffset": 1.202646255493164,
    "backDensity": 3.5,
    "backRadius": 0.5499622225761414,
    "backOffset": -1.049704909324646,
    "score": 0,
    "maxDistance": 0,
    "maxTime": 1.0
}