{
    "ID": 45211,
    "genomaID": "CV3TD11",
    "color": {
        "x": 0.13525451719760896,
        "y": 0.5760844349861145,
        "z": 0.020704152062535287
    },
    "vertexNumber": 3,
    "colliderVertices": [
        {
            "x": -1.3322129249572755,
            "y": -0.3242015540599823
        },
        {
            "x": 1.406930685043335,
            "y": -0.39797013998031618
        },
        {
            "x": -1.7638306617736817,
            "y": 0.37279003858566286
        }
    ],
    "triangles": [
        1,
        0,
        2
    ],
    "carDensity": 3.0,
    "suspension": 0.41822099685668948,
    "motorSpeed": 879,
    "frontDensity": 5.0,
    "frontRadius": 0.6981920599937439,
    "frontOffset": 1.1251132488250733,
    "backDensity": 3.299999952316284,
    "backRadius": 0.5348296165466309,
    "backOffset": -0.7958003878593445,
    "score": 916,
    "maxDistance": 834,
    "maxTime": 102.0
}{
    "ID": 45382,
    "genomaID": "CV3TD11",
    "color": {
        "x": 0.18018175661563874,
        "y": 0.28061285614967348,
        "z": 0.16327108442783357
    },
    "vertexNumber": 3,
    "colliderVertices": [
        {
            "x": -1.3322129249572755,
            "y": -0.3242015540599823
        },
        {
            "x": 1.406930685043335,
            "y": -0.39797013998031618
        },
        {
            "x": -1.7638306617736817,
            "y": 0.37279003858566286
        }
    ],
    "triangles": [
        1,
        0,
        2
    ],
    "carDensity": 3.0,
    "suspension": 0.9868149757385254,
    "motorSpeed": 879,
    "frontDensity": 5.0,
    "frontRadius": 0.6979865431785584,
    "frontOffset": 1.0938383340835572,
    "backDensity": 3.299999952316284,
    "backRadius": 0.5305919051170349,
    "backOffset": -1.1373419761657715,
    "score": 914,
    "maxDistance": 833,
    "maxTime": 103.0
}{
    "ID": 45203,
    "genomaID": "CV4TD12",
    "color": {
        "x": 0.7694025039672852,
        "y": 0.6303190588951111,
        "z": 0.31513217091560366
    },
    "vertexNumber": 4,
    "colliderVertices": [
        {
            "x": -1.4349889755249024,
            "y": -0.10840745270252228
        },
        {
            "x": 1.5124866962432862,
            "y": -0.41327518224716189
        },
        {
            "x": 0.33908629417419436,
            "y": 0.9503030776977539
        },
        {
            "x": 0.06088566780090332,
            "y": 0.07111907005310059
        }
    ],
    "triangles": [
        3,
        2,
        1,
        1,
        0,
        3
    ],
    "carDensity": 4.0,
    "suspension": 0.5006003379821777,
    "motorSpeed": 879,
    "frontDensity": 4.800000190734863,
    "frontRadius": 0.6772812604904175,
    "frontOffset": 1.077407717704773,
    "backDensity": 3.299999952316284,
    "backRadius": 0.529460072517395,
    "backOffset": -1.1014140844345093,
    "score": 241,
    "maxDistance": 163,
    "maxTime": 21.0
}{
    "ID": 45209,
    "genomaID": "CV3TD12",
    "color": {
        "x": 0.6103983521461487,
        "y": 0.8030028343200684,
        "z": 0.1648343950510025
    },
    "vertexNumber": 3,
    "colliderVertices": [
        {
            "x": -1.3322129249572755,
            "y": -0.3242015540599823
        },
        {
            "x": 1.406930685043335,
            "y": -0.39797013998031618
        },
        {
            "x": -1.7638306617736817,
            "y": 0.37279003858566286
        }
    ],
    "triangles": [
        1,
        0,
        2
    ],
    "carDensity": 3.0,
    "suspension": 0.41922107338905337,
    "motorSpeed": 879,
    "frontDensity": 3.5,
    "frontRadius": 0.553982675075531,
    "frontOffset": 0.6620863676071167,
    "backDensity": 4.699999809265137,
    "backRadius": 0.6712855100631714,
    "backOffset": -1.0686198472976685,
    "score": 0,
    "maxDistance": 0,
    "maxTime": 1.0
}{
    "ID": 45400,
    "genomaID": "CV6TD14",
    "color": {
        "x": 0.7681076526641846,
        "y": 0.2796610891819,
        "z": 0.3934035897254944
    },
    "vertexNumber": 6,
    "colliderVertices": [
        {
            "x": -1.494344711303711,
            "y": -0.10868646204471588
        },
        {
            "x": 1.6850426197052003,
            "y": -0.06717772036790848
        },
        {
            "x": 1.749826431274414,
            "y": 0.973872184753418
        },
        {
            "x": 1.149998664855957,
            "y": 0.047736406326293948
        },
        {
            "x": 0.10657668113708496,
            "y": 0.7901352643966675
        },
        {
            "x": -0.38115811347961428,
            "y": 0.15413200855255128
        }
    ],
    "triangles": [
        3,
        1,
        5,
        5,
        4,
        3,
        3,
        2,
        1,
        1,
        0,
        5
    ],
    "carDensity": 6.0,
    "suspension": 0.9331372380256653,
    "motorSpeed": 879,
    "frontDensity": 4.699999809265137,
    "frontRadius": 0.6654146909713745,
    "frontOffset": 0.6290092468261719,
    "backDensity": 3.200000047683716,
    "backRadius": 0.5186578631401062,
    "backOffset": -1.115803599357605,
    "score": 0,
    "maxDistance": 0,
    "maxTime": 1.0
}