{
    "ID": 45018,
    "genomaID": "CV3TD11",
    "color": {
        "x": 0.7942795753479004,
        "y": 0.32352355122566225,
        "z": 0.00027966502238996327
    },
    "vertexNumber": 3,
    "colliderVertices": [
        {
            "x": -1.3322129249572755,
            "y": -0.3242015540599823
        },
        {
            "x": 1.406930685043335,
            "y": -0.39797013998031618
        },
        {
            "x": -1.7638306617736817,
            "y": 0.37279003858566286
        }
    ],
    "triangles": [
        1,
        0,
        2
    ],
    "carDensity": 3.0,
    "suspension": 0.41822099685668948,
    "motorSpeed": 879,
    "frontDensity": 5.0,
    "frontRadius": 0.6981920599937439,
    "frontOffset": 1.1251132488250733,
    "backDensity": 3.299999952316284,
    "backRadius": 0.5348296165466309,
    "backOffset": -0.7958003878593445,
    "score": 916,
    "maxDistance": 834,
    "maxTime": 102.0
}{
    "ID": 45151,
    "genomaID": "CV4TD12",
    "color": {
        "x": 0.2878674566745758,
        "y": 0.8805838823318481,
        "z": 0.012320639565587044
    },
    "vertexNumber": 4,
    "colliderVertices": [
        {
            "x": -1.0020352602005005,
            "y": -0.11292095482349396
        },
        {
            "x": 1.1676745414733887,
            "y": -0.2529011070728302
        },
        {
            "x": 0.798585832118988,
            "y": 0.07508575916290283
        },
        {
            "x": 0.01784348487854004,
            "y": 0.40028291940689089
        }
    ],
    "triangles": [
        3,
        2,
        1,
        1,
        0,
        3
    ],
    "carDensity": 4.0,
    "suspension": 0.9657384753227234,
    "motorSpeed": 876,
    "frontDensity": 4.699999809265137,
    "frontRadius": 0.6654146909713745,
    "frontOffset": 0.7407346963882446,
    "backDensity": 3.299999952316284,
    "backRadius": 0.5331999063491821,
    "backOffset": -1.244649887084961,
    "score": 914,
    "maxDistance": 834,
    "maxTime": 105.0
}{
    "ID": 45181,
    "genomaID": "CV3TD11",
    "color": {
        "x": 0.27488282322883608,
        "y": 0.43963927030563357,
        "z": 0.30342355370521548
    },
    "vertexNumber": 3,
    "colliderVertices": [
        {
            "x": -1.2256789207458497,
            "y": -0.4277743697166443
        },
        {
            "x": 1.147666573524475,
            "y": -0.4013100862503052
        },
        {
            "x": -1.553666591644287,
            "y": 0.1390894651412964
        }
    ],
    "triangles": [
        1,
        0,
        2
    ],
    "carDensity": 3.0,
    "suspension": 0.6396239995956421,
    "motorSpeed": 895,
    "frontDensity": 4.599999904632568,
    "frontRadius": 0.6557742357254028,
    "frontOffset": 1.0691686868667603,
    "backDensity": 3.0,
    "backRadius": 0.49757829308509829,
    "backOffset": -1.1710894107818604,
    "score": 912,
    "maxDistance": 833,
    "maxTime": 105.0
}{
    "ID": 45076,
    "genomaID": "CV3TD11",
    "color": {
        "x": 0.25192561745643618,
        "y": 0.10850919783115387,
        "z": 0.5089201331138611
    },
    "vertexNumber": 3,
    "colliderVertices": [
        {
            "x": -1.3322129249572755,
            "y": -0.3242015540599823
        },
        {
            "x": 1.406930685043335,
            "y": -0.39797013998031618
        },
        {
            "x": -1.7638306617736817,
            "y": 0.37279003858566286
        }
    ],
    "triangles": [
        1,
        0,
        2
    ],
    "carDensity": 3.0,
    "suspension": 0.9868149757385254,
    "motorSpeed": 759,
    "frontDensity": 5.0,
    "frontRadius": 0.6979865431785584,
    "frontOffset": 1.4704878330230713,
    "backDensity": 3.299999952316284,
    "backRadius": 0.5305919051170349,
    "backOffset": -1.1373419761657715,
    "score": 20,
    "maxDistance": 3,
    "maxTime": 2.0
}{
    "ID": 45193,
    "genomaID": "CV3TD12",
    "color": {
        "x": 0.6076138615608215,
        "y": 0.2100631296634674,
        "z": 0.02442515268921852
    },
    "vertexNumber": 3,
    "colliderVertices": [
        {
            "x": -1.3322129249572755,
            "y": -0.3242015540599823
        },
        {
            "x": 1.406930685043335,
            "y": -0.39797013998031618
        },
        {
            "x": -1.7638306617736817,
            "y": 0.37279003858566286
        }
    ],
    "triangles": [
        1,
        0,
        2
    ],
    "carDensity": 3.0,
    "suspension": 0.5714495182037354,
    "motorSpeed": 879,
    "frontDensity": 5.0,
    "frontRadius": 0.6981920599937439,
    "frontOffset": 1.0060383081436158,
    "backDensity": 4.5,
    "backRadius": 0.6533475518226624,
    "backOffset": -0.7958003878593445,
    "score": 0,
    "maxDistance": 0,
    "maxTime": 1.0
}