{
    "ID": 95899,
    "genomaID": "CV3TD12",
    "color": {
        "x": 0.8460570573806763,
        "y": 0.8269734382629395,
        "z": 0.043143633753061298
    },
    "vertexNumber": 3,
    "colliderVertices": [
        {
            "x": -1.448728084564209,
            "y": -0.4206351041793823
        },
        {
            "x": 1.2341947555541993,
            "y": -0.4096236228942871
        },
        {
            "x": -0.7727158069610596,
            "y": 0.05484116077423096
        }
    ],
    "triangles": [
        1,
        0,
        2
    ],
    "carDensity": 3.0,
    "suspension": 0.7891204357147217,
    "motorSpeed": 850,
    "frontDensity": 4.800000190734863,
    "frontRadius": 0.6779786944389343,
    "frontOffset": 0.7898954749107361,
    "backDensity": 3.799999952316284,
    "backRadius": 0.5821859836578369,
    "backOffset": -1.4803638458251954,
    "score": 915,
    "maxDistance": 834,
    "maxTime": 103.0
}{
    "ID": 95972,
    "genomaID": "CV3TD11",
    "color": {
        "x": 0.2748730480670929,
        "y": 0.19846823811531068,
        "z": 0.7138980031013489
    },
    "vertexNumber": 3,
    "colliderVertices": [
        {
            "x": -1.448728084564209,
            "y": -0.4206351041793823
        },
        {
            "x": 1.2341947555541993,
            "y": -0.4096236228942871
        },
        {
            "x": -0.7727158069610596,
            "y": 0.05484116077423096
        }
    ],
    "triangles": [
        1,
        0,
        2
    ],
    "carDensity": 3.0,
    "suspension": 0.8443250060081482,
    "motorSpeed": 850,
    "frontDensity": 4.900000095367432,
    "frontRadius": 0.6907195448875427,
    "frontOffset": 1.0339771509170533,
    "backDensity": 3.200000047683716,
    "backRadius": 0.5243582725524902,
    "backOffset": -0.8071191906929016,
    "score": 913,
    "maxDistance": 833,
    "maxTime": 105.0
}{
    "ID": 95919,
    "genomaID": "CV3TD13",
    "color": {
        "x": 0.24064531922340394,
        "y": 0.7900550365447998,
        "z": 0.11062611639499664
    },
    "vertexNumber": 3,
    "colliderVertices": [
        {
            "x": -1.448728084564209,
            "y": -0.4206351041793823
        },
        {
            "x": 1.2341947555541993,
            "y": -0.4096236228942871
        },
        {
            "x": -0.7727158069610596,
            "y": 0.05484116077423096
        }
    ],
    "triangles": [
        1,
        0,
        2
    ],
    "carDensity": 3.0,
    "suspension": 0.5874851942062378,
    "motorSpeed": 850,
    "frontDensity": 4.900000095367432,
    "frontRadius": 0.6907195448875427,
    "frontOffset": 0.5428646802902222,
    "backDensity": 5.0,
    "backRadius": 0.6982581615447998,
    "backOffset": -1.1355700492858887,
    "score": 910,
    "maxDistance": 829,
    "maxTime": 102.0
}{
    "ID": 95835,
    "genomaID": "CV3TD12",
    "color": {
        "x": 0.6749839186668396,
        "y": 0.59889155626297,
        "z": 0.6400969624519348
    },
    "vertexNumber": 3,
    "colliderVertices": [
        {
            "x": -1.8167517185211182,
            "y": -0.3329566419124603
        },
        {
            "x": 1.3728675842285157,
            "y": -0.10999782383441925
        },
        {
            "x": -0.14345574378967286,
            "y": 0.5375850796699524
        }
    ],
    "triangles": [
        1,
        0,
        2
    ],
    "carDensity": 3.0,
    "suspension": 0.5311591625213623,
    "motorSpeed": 850,
    "frontDensity": 4.800000190734863,
    "frontRadius": 0.6797356009483337,
    "frontOffset": 0.5985465049743652,
    "backDensity": 3.799999952316284,
    "backRadius": 0.5833654999732971,
    "backOffset": -1.327942132949829,
    "score": 0,
    "maxDistance": 0,
    "maxTime": 1.0
}{
    "ID": 95971,
    "genomaID": "CV3TD13",
    "color": {
        "x": 0.4488270878791809,
        "y": 0.05411756783723831,
        "z": 0.6737887263298035
    },
    "vertexNumber": 3,
    "colliderVertices": [
        {
            "x": -1.24593186378479,
            "y": -0.17356999218463899
        },
        {
            "x": 1.4254326820373536,
            "y": -0.31066444516181948
        },
        {
            "x": -1.0050806999206544,
            "y": 0.2958831191062927
        }
    ],
    "triangles": [
        1,
        0,
        2
    ],
    "carDensity": 3.0,
    "suspension": 0.4930620789527893,
    "motorSpeed": 850,
    "frontDensity": 4.900000095367432,
    "frontRadius": 0.6903449296951294,
    "frontOffset": 0.8103631138801575,
    "backDensity": 4.900000095367432,
    "backRadius": 0.6940662860870361,
    "backOffset": -1.0609163045883179,
    "score": -11,
    "maxDistance": -1,
    "maxTime": 1.0
}