{
    "ID": 86229,
    "genomaID": "CV3TD11",
    "color": {
        "x": 0.9516907930374146,
        "y": 0.5676619410514832,
        "z": 0.12728632986545564
    },
    "vertexNumber": 3,
    "colliderVertices": [
        {
            "x": -1.4517676830291749,
            "y": -0.3785870671272278
        },
        {
            "x": 1.0073214769363404,
            "y": -0.056303925812244418
        },
        {
            "x": 0.1018216609954834,
            "y": 0.5950250029563904
        }
    ],
    "triangles": [
        1,
        0,
        2
    ],
    "carDensity": 3.0,
    "suspension": 0.9500600695610046,
    "motorSpeed": 908,
    "frontDensity": 4.900000095367432,
    "frontRadius": 0.6907195448875427,
    "frontOffset": 1.4972975254058838,
    "backDensity": 3.4000000953674318,
    "backRadius": 0.5377213358879089,
    "backOffset": -0.9006620645523071,
    "score": 917,
    "maxDistance": 833,
    "maxTime": 100.0
}{
    "ID": 86252,
    "genomaID": "CV3TD11",
    "color": {
        "x": 0.1909351646900177,
        "y": 0.7012000679969788,
        "z": 0.7795767784118652
    },
    "vertexNumber": 3,
    "colliderVertices": [
        {
            "x": -1.4517676830291749,
            "y": -0.3785870671272278
        },
        {
            "x": 1.0073214769363404,
            "y": -0.056303925812244418
        },
        {
            "x": 0.1018216609954834,
            "y": 0.5950250029563904
        }
    ],
    "triangles": [
        1,
        0,
        2
    ],
    "carDensity": 3.0,
    "suspension": 0.648453414440155,
    "motorSpeed": 850,
    "frontDensity": 4.900000095367432,
    "frontRadius": 0.6907195448875427,
    "frontOffset": 1.1059070825576783,
    "backDensity": 3.0999999046325685,
    "backRadius": 0.51302170753479,
    "backOffset": -1.2484958171844483,
    "score": 912,
    "maxDistance": 833,
    "maxTime": 106.0
}{
    "ID": 86365,
    "genomaID": "CV3TD8",
    "color": {
        "x": 0.8413053750991821,
        "y": 0.84112548828125,
        "z": 0.5858533978462219
    },
    "vertexNumber": 3,
    "colliderVertices": [
        {
            "x": -1.2637834548950196,
            "y": -0.1831858903169632
        },
        {
            "x": 1.2495805025100709,
            "y": -0.06322819739580155
        },
        {
            "x": 1.0747146606445313,
            "y": 0.27053123712539675
        }
    ],
    "triangles": [
        1,
        0,
        2
    ],
    "carDensity": 3.0,
    "suspension": 0.9687883853912354,
    "motorSpeed": 850,
    "frontDensity": 2.700000047683716,
    "frontRadius": 0.47064220905303957,
    "frontOffset": 0.9808946847915649,
    "backDensity": 2.4000000953674318,
    "backRadius": 0.43679946660995486,
    "backOffset": -0.94084632396698,
    "score": 893,
    "maxDistance": 833,
    "maxTime": 138.0
}{
    "ID": 86377,
    "genomaID": "CV3TD10",
    "color": {
        "x": 0.36806872487068179,
        "y": 0.05324602872133255,
        "z": 0.9842822551727295
    },
    "vertexNumber": 3,
    "colliderVertices": [
        {
            "x": -1.448728084564209,
            "y": -0.4206351041793823
        },
        {
            "x": 1.2341947555541993,
            "y": -0.4096236228942871
        },
        {
            "x": -0.7727158069610596,
            "y": 0.05484116077423096
        }
    ],
    "triangles": [
        1,
        0,
        2
    ],
    "carDensity": 3.0,
    "suspension": 0.9535589218139648,
    "motorSpeed": 850,
    "frontDensity": 4.900000095367432,
    "frontRadius": 0.6907195448875427,
    "frontOffset": 1.1619101762771607,
    "backDensity": 2.4000000953674318,
    "backRadius": 0.43679946660995486,
    "backOffset": -0.6567487716674805,
    "score": 28,
    "maxDistance": 8,
    "maxTime": 4.0
}{
    "ID": 86396,
    "genomaID": "CV6TD13",
    "color": {
        "x": 0.04487193003296852,
        "y": 0.9218603372573853,
        "z": 0.05435562878847122
    },
    "vertexNumber": 6,
    "colliderVertices": [
        {
            "x": -1.1450108289718629,
            "y": -0.30620691180229189
        },
        {
            "x": 1.925767421722412,
            "y": -0.04143458977341652
        },
        {
            "x": 1.5513439178466797,
            "y": 0.2658694386482239
        },
        {
            "x": 1.1142034530639649,
            "y": 0.27177149057388308
        },
        {
            "x": 0.5482944846153259,
            "y": 0.28471332788467409
        },
        {
            "x": -0.6570069789886475,
            "y": 0.07474374771118164
        }
    ],
    "triangles": [
        3,
        1,
        5,
        5,
        4,
        3,
        3,
        2,
        1,
        1,
        0,
        5
    ],
    "carDensity": 6.0,
    "suspension": 0.49699053168296816,
    "motorSpeed": 850,
    "frontDensity": 4.800000190734863,
    "frontRadius": 0.6759343147277832,
    "frontOffset": 0.9808946847915649,
    "backDensity": 2.4000000953674318,
    "backRadius": 0.43679946660995486,
    "backOffset": -0.7042124271392822,
    "score": 0,
    "maxDistance": 0,
    "maxTime": 1.0
}