{
    "ID": 101216,
    "genomaID": "CV3TD11",
    "color": {
        "x": 0.23132100701332093,
        "y": 0.0023838283959776165,
        "z": 0.7214786410331726
    },
    "vertexNumber": 3,
    "colliderVertices": [
        {
            "x": -1.448728084564209,
            "y": -0.4206351041793823
        },
        {
            "x": 1.2341947555541993,
            "y": -0.4096236228942871
        },
        {
            "x": -0.7727158069610596,
            "y": 0.05484116077423096
        }
    ],
    "triangles": [
        1,
        0,
        2
    ],
    "carDensity": 3.0,
    "suspension": 0.42444080114364626,
    "motorSpeed": 1032,
    "frontDensity": 4.900000095367432,
    "frontRadius": 0.6907195448875427,
    "frontOffset": 1.4163472652435303,
    "backDensity": 3.0,
    "backRadius": 0.5014341473579407,
    "backOffset": -1.0713411569595338,
    "score": 918,
    "maxDistance": 833,
    "maxTime": 98.0
}{
    "ID": 101355,
    "genomaID": "CV3TD11",
    "color": {
        "x": 0.6901889443397522,
        "y": 0.18011166155338288,
        "z": 0.05117417126893997
    },
    "vertexNumber": 3,
    "colliderVertices": [
        {
            "x": -1.448728084564209,
            "y": -0.4206351041793823
        },
        {
            "x": 1.2341947555541993,
            "y": -0.4096236228942871
        },
        {
            "x": -0.7727158069610596,
            "y": 0.05484116077423096
        }
    ],
    "triangles": [
        1,
        0,
        2
    ],
    "carDensity": 3.0,
    "suspension": 0.4115818440914154,
    "motorSpeed": 850,
    "frontDensity": 4.900000095367432,
    "frontRadius": 0.6891676187515259,
    "frontOffset": 0.7138315439224243,
    "backDensity": 3.0999999046325685,
    "backRadius": 0.5119727849960327,
    "backOffset": -1.2692713737487794,
    "score": 912,
    "maxDistance": 833,
    "maxTime": 105.0
}{
    "ID": 101212,
    "genomaID": "CV3TD11",
    "color": {
        "x": 0.03325570002198219,
        "y": 0.9501603841781616,
        "z": 0.32562246918678286
    },
    "vertexNumber": 3,
    "colliderVertices": [
        {
            "x": -1.448728084564209,
            "y": -0.4206351041793823
        },
        {
            "x": 1.2341947555541993,
            "y": -0.4096236228942871
        },
        {
            "x": -0.7727158069610596,
            "y": 0.05484116077423096
        }
    ],
    "triangles": [
        1,
        0,
        2
    ],
    "carDensity": 3.0,
    "suspension": 0.9658855199813843,
    "motorSpeed": 850,
    "frontDensity": 4.900000095367432,
    "frontRadius": 0.6907195448875427,
    "frontOffset": 1.4163472652435303,
    "backDensity": 3.200000047683716,
    "backRadius": 0.5239019989967346,
    "backOffset": -0.792811930179596,
    "score": 908,
    "maxDistance": 828,
    "maxTime": 104.0
}{
    "ID": 101337,
    "genomaID": "CV3TD9",
    "color": {
        "x": 0.5304045081138611,
        "y": 0.8377341032028198,
        "z": 0.746658980846405
    },
    "vertexNumber": 3,
    "colliderVertices": [
        {
            "x": -1.448728084564209,
            "y": -0.4206351041793823
        },
        {
            "x": 1.2341947555541993,
            "y": -0.4096236228942871
        },
        {
            "x": -0.7727158069610596,
            "y": 0.05484116077423096
        }
    ],
    "triangles": [
        1,
        0,
        2
    ],
    "carDensity": 3.0,
    "suspension": 0.8208973407745361,
    "motorSpeed": 850,
    "frontDensity": 4.300000190734863,
    "frontRadius": 0.6289334297180176,
    "frontOffset": 1.0855923891067505,
    "backDensity": 2.5,
    "backRadius": 0.45298194885253909,
    "backOffset": -1.2692713737487794,
    "score": 18,
    "maxDistance": 3,
    "maxTime": 2.0
}{
    "ID": 101394,
    "genomaID": "CV3TD13",
    "color": {
        "x": 0.7795941829681397,
        "y": 0.2871544659137726,
        "z": 0.42937761545181277
    },
    "vertexNumber": 3,
    "colliderVertices": [
        {
            "x": -1.24593186378479,
            "y": -0.17356999218463899
        },
        {
            "x": 1.4254326820373536,
            "y": -0.31066444516181948
        },
        {
            "x": -1.0050806999206544,
            "y": 0.2958831191062927
        }
    ],
    "triangles": [
        1,
        0,
        2
    ],
    "carDensity": 3.0,
    "suspension": 0.4660598039627075,
    "motorSpeed": 881,
    "frontDensity": 4.599999904632568,
    "frontRadius": 0.6589146256446838,
    "frontOffset": 0.7849108576774597,
    "backDensity": 4.900000095367432,
    "backRadius": 0.6881781220436096,
    "backOffset": -1.3740208148956299,
    "score": -11,
    "maxDistance": -1,
    "maxTime": 1.0
}