{
    "ID": 57813,
    "genomaID": "CV3TD12",
    "color": {
        "x": 0.5851426720619202,
        "y": 0.73201984167099,
        "z": 0.16867198050022126
    },
    "vertexNumber": 3,
    "colliderVertices": [
        {
            "x": -1.3322129249572755,
            "y": -0.3242015540599823
        },
        {
            "x": 1.406930685043335,
            "y": -0.39797013998031618
        },
        {
            "x": -1.7638306617736817,
            "y": 0.37279003858566286
        }
    ],
    "triangles": [
        1,
        0,
        2
    ],
    "carDensity": 3.0,
    "suspension": 0.6380908489227295,
    "motorSpeed": 874,
    "frontDensity": 5.0,
    "frontRadius": 0.6973872184753418,
    "frontOffset": 1.4197194576263428,
    "backDensity": 3.5,
    "backRadius": 0.5492756366729736,
    "backOffset": -1.1372923851013184,
    "score": 916,
    "maxDistance": 834,
    "maxTime": 101.0
}{
    "ID": 57916,
    "genomaID": "CV3TD11",
    "color": {
        "x": 0.11273755133152008,
        "y": 0.07746756821870804,
        "z": 0.8756077289581299
    },
    "vertexNumber": 3,
    "colliderVertices": [
        {
            "x": -1.3322129249572755,
            "y": -0.3242015540599823
        },
        {
            "x": 1.406930685043335,
            "y": -0.39797013998031618
        },
        {
            "x": -1.7638306617736817,
            "y": 0.37279003858566286
        }
    ],
    "triangles": [
        1,
        0,
        2
    ],
    "carDensity": 3.0,
    "suspension": 0.7664982080459595,
    "motorSpeed": 879,
    "frontDensity": 4.800000190734863,
    "frontRadius": 0.6832131743431091,
    "frontOffset": 1.4061893224716187,
    "backDensity": 3.299999952316284,
    "backRadius": 0.529460072517395,
    "backOffset": -0.6796305179595947,
    "score": 914,
    "maxDistance": 833,
    "maxTime": 103.0
}{
    "ID": 57997,
    "genomaID": "CV3TD11",
    "color": {
        "x": 0.225060373544693,
        "y": 0.9318109750747681,
        "z": 0.6402801871299744
    },
    "vertexNumber": 3,
    "colliderVertices": [
        {
            "x": -1.3322129249572755,
            "y": -0.3242015540599823
        },
        {
            "x": 1.406930685043335,
            "y": -0.39797013998031618
        },
        {
            "x": -1.7638306617736817,
            "y": 0.37279003858566286
        }
    ],
    "triangles": [
        1,
        0,
        2
    ],
    "carDensity": 3.0,
    "suspension": 0.5359864234924316,
    "motorSpeed": 879,
    "frontDensity": 4.800000190734863,
    "frontRadius": 0.6832131743431091,
    "frontOffset": 1.1224302053451539,
    "backDensity": 3.200000047683716,
    "backRadius": 0.5220075845718384,
    "backOffset": -1.1453458070755005,
    "score": 913,
    "maxDistance": 833,
    "maxTime": 104.0
}{
    "ID": 57974,
    "genomaID": "CV6TD15",
    "color": {
        "x": 0.7046118378639221,
        "y": 0.33948877453804018,
        "z": 0.3959283232688904
    },
    "vertexNumber": 6,
    "colliderVertices": [
        {
            "x": -1.6493816375732422,
            "y": -0.10632528364658356
        },
        {
            "x": 1.7035282850265504,
            "y": -0.4561787247657776
        },
        {
            "x": 1.0466885566711426,
            "y": 0.6957571506500244
        },
        {
            "x": 0.6100830435752869,
            "y": 0.5516394972801209
        },
        {
            "x": -0.05267643928527832,
            "y": 0.6405123472213745
        },
        {
            "x": -1.8406572341918946,
            "y": 0.6242639422416687
        }
    ],
    "triangles": [
        3,
        1,
        5,
        5,
        4,
        3,
        3,
        2,
        1,
        1,
        0,
        5
    ],
    "carDensity": 6.0,
    "suspension": 0.9579460620880127,
    "motorSpeed": 874,
    "frontDensity": 4.599999904632568,
    "frontRadius": 0.6596411466598511,
    "frontOffset": 0.7367465496063232,
    "backDensity": 3.5,
    "backRadius": 0.5492756366729736,
    "backOffset": -1.4126272201538087,
    "score": 13,
    "maxDistance": 2,
    "maxTime": 2.0
}{
    "ID": 58000,
    "genomaID": "CV3TD10",
    "color": {
        "x": 0.7681076526641846,
        "y": 0.2796610891819,
        "z": 0.3934035897254944
    },
    "vertexNumber": 3,
    "colliderVertices": [
        {
            "x": -1.3322129249572755,
            "y": -0.3242015540599823
        },
        {
            "x": 1.406930685043335,
            "y": -0.39797013998031618
        },
        {
            "x": -1.7638306617736817,
            "y": 0.37279003858566286
        }
    ],
    "triangles": [
        1,
        0,
        2
    ],
    "carDensity": 3.0,
    "suspension": 0.962152361869812,
    "motorSpeed": 879,
    "frontDensity": 4.0,
    "frontRadius": 0.5993205308914185,
    "frontOffset": 1.4061893224716187,
    "backDensity": 3.299999952316284,
    "backRadius": 0.529460072517395,
    "backOffset": -1.4643237590789796,
    "score": 0,
    "maxDistance": 0,
    "maxTime": 1.0
}