{
    "ID": 600,
    "genomaID": "CV5TD13",
    "color": {
        "x": 0.7681076526641846,
        "y": 0.2796610891819,
        "z": 0.3934035897254944
    },
    "vertexNumber": 5,
    "colliderVertices": [
        {
            "x": -1.8890199661254883,
            "y": -0.122055783867836
        },
        {
            "x": 1.0705702304840088,
            "y": -0.3688006103038788
        },
        {
            "x": -0.7120373249053955,
            "y": 0.03354382514953613
        },
        {
            "x": -0.7574503421783447,
            "y": 0.8193988800048828
        },
        {
            "x": -1.3697819709777833,
            "y": 0.23350954055786134
        }
    ],
    "triangles": [
        2,
        0,
        4,
        4,
        3,
        2,
        2,
        1,
        0
    ],
    "carDensity": 5.0,
    "suspension": 0.7090462446212769,
    "motorSpeed": 867,
    "frontDensity": 4.900000095367432,
    "frontRadius": 0.6925738453865051,
    "frontOffset": 1.3443574905395508,
    "backDensity": 3.0999999046325685,
    "backRadius": 0.5077724456787109,
    "backOffset": -1.1828863620758057,
    "score": 912,
    "maxDistance": 834,
    "maxTime": 107.0
}{
    "ID": 439,
    "genomaID": "CV5TD13",
    "color": {
        "x": 0.27025511860847475,
        "y": 0.08126045018434525,
        "z": 0.4123501181602478
    },
    "vertexNumber": 5,
    "colliderVertices": [
        {
            "x": -1.0812636613845826,
            "y": -0.1378866583108902
        },
        {
            "x": 1.0975264310836793,
            "y": -0.44744259119033816
        },
        {
            "x": 0.6225122809410095,
            "y": 0.3252522349357605
        },
        {
            "x": -0.6684839725494385,
            "y": 0.09700405597686768
        },
        {
            "x": -1.0641541481018067,
            "y": 0.5902534127235413
        }
    ],
    "triangles": [
        3,
        2,
        0,
        0,
        4,
        3,
        2,
        1,
        0
    ],
    "carDensity": 5.0,
    "suspension": 0.885382354259491,
    "motorSpeed": 1045,
    "frontDensity": 3.799999952316284,
    "frontRadius": 0.5842763185501099,
    "frontOffset": 1.396305799484253,
    "backDensity": 4.199999809265137,
    "backRadius": 0.6196978688240051,
    "backOffset": -1.3154910802841187,
    "score": 214,
    "maxDistance": 141,
    "maxTime": 19.0
}{
    "ID": 593,
    "genomaID": "CV5TD12",
    "color": {
        "x": 0.6076138615608215,
        "y": 0.2100631296634674,
        "z": 0.02442515268921852
    },
    "vertexNumber": 5,
    "colliderVertices": [
        {
            "x": -1.586646318435669,
            "y": -0.1391586810350418
        },
        {
            "x": 1.8912328481674195,
            "y": -0.18683947622776032
        },
        {
            "x": 1.3666558265686036,
            "y": 0.8606399297714233
        },
        {
            "x": 0.32033371925354006,
            "y": 0.9974948167800903
        },
        {
            "x": -0.011896848678588868,
            "y": 0.054147958755493167
        }
    ],
    "triangles": [
        1,
        4,
        3,
        3,
        2,
        1,
        1,
        0,
        4
    ],
    "carDensity": 5.0,
    "suspension": 0.4762568473815918,
    "motorSpeed": 688,
    "frontDensity": 3.700000047683716,
    "frontRadius": 0.5710952281951904,
    "frontOffset": 1.3365323543548585,
    "backDensity": 2.700000047683716,
    "backRadius": 0.4735147953033447,
    "backOffset": -0.993921160697937,
    "score": 103,
    "maxDistance": 45,
    "maxTime": 8.0
}{
    "ID": 553,
    "genomaID": "CV5TD10",
    "color": {
        "x": 0.22645524144172669,
        "y": 0.08218289166688919,
        "z": 0.5214018225669861
    },
    "vertexNumber": 5,
    "colliderVertices": [
        {
            "x": -1.753450870513916,
            "y": -0.36496201157569888
        },
        {
            "x": 1.7284433841705323,
            "y": -0.3059960901737213
        },
        {
            "x": 0.73458331823349,
            "y": 0.5122950673103333
        },
        {
            "x": -0.1501471996307373,
            "y": 0.0963742733001709
        },
        {
            "x": -0.32000136375427248,
            "y": 0.9292949438095093
        }
    ],
    "triangles": [
        3,
        1,
        0,
        0,
        4,
        3,
        3,
        2,
        1
    ],
    "carDensity": 5.0,
    "suspension": 0.7125102877616882,
    "motorSpeed": 948,
    "frontDensity": 3.4000000953674318,
    "frontRadius": 0.5405924916267395,
    "frontOffset": 0.9704097509384155,
    "backDensity": 2.5,
    "backRadius": 0.4532777667045593,
    "backOffset": -1.1823095083236695,
    "score": 27,
    "maxDistance": 4,
    "maxTime": 2.0
}{
    "ID": 594,
    "genomaID": "CV5TD13",
    "color": {
        "x": 0.7795941829681397,
        "y": 0.2871544659137726,
        "z": 0.42937761545181277
    },
    "vertexNumber": 5,
    "colliderVertices": [
        {
            "x": -1.4370510578155518,
            "y": -0.3551696240901947
        },
        {
            "x": 1.6610846519470215,
            "y": -0.30113276839256289
        },
        {
            "x": 1.4039788246154786,
            "y": 0.5189452767372131
        },
        {
            "x": 0.7155632376670837,
            "y": 0.2466602325439453
        },
        {
            "x": -1.207019329071045,
            "y": 0.08821523189544678
        }
    ],
    "triangles": [
        1,
        4,
        3,
        3,
        2,
        1,
        1,
        0,
        4
    ],
    "carDensity": 5.0,
    "suspension": 0.8890005350112915,
    "motorSpeed": 666,
    "frontDensity": 4.699999809265137,
    "frontRadius": 0.6658709049224854,
    "frontOffset": 0.5134692192077637,
    "backDensity": 3.200000047683716,
    "backRadius": 0.5195956230163574,
    "backOffset": -0.9362410306930542,
    "score": 0,
    "maxDistance": 0,
    "maxTime": 2.0
}