{
    "ID": 62988,
    "genomaID": "CV3TD12",
    "color": {
        "x": 0.7009046673774719,
        "y": 0.348634272813797,
        "z": 0.8699125051498413
    },
    "vertexNumber": 3,
    "colliderVertices": [
        {
            "x": -1.3322129249572755,
            "y": -0.3242015540599823
        },
        {
            "x": 1.406930685043335,
            "y": -0.39797013998031618
        },
        {
            "x": -1.7638306617736817,
            "y": 0.37279003858566286
        }
    ],
    "triangles": [
        1,
        0,
        2
    ],
    "carDensity": 3.0,
    "suspension": 0.9026823043823242,
    "motorSpeed": 877,
    "frontDensity": 5.0,
    "frontRadius": 0.6998321413993836,
    "frontOffset": 1.4057252407073975,
    "backDensity": 3.5999999046325685,
    "backRadius": 0.5553990602493286,
    "backOffset": -1.4774327278137208,
    "score": 917,
    "maxDistance": 834,
    "maxTime": 101.0
}{
    "ID": 62975,
    "genomaID": "CV3TD12",
    "color": {
        "x": 0.3764975666999817,
        "y": 0.889763593673706,
        "z": 0.5628216862678528
    },
    "vertexNumber": 3,
    "colliderVertices": [
        {
            "x": -1.3322129249572755,
            "y": -0.3242015540599823
        },
        {
            "x": 1.406930685043335,
            "y": -0.39797013998031618
        },
        {
            "x": -1.7638306617736817,
            "y": 0.37279003858566286
        }
    ],
    "triangles": [
        1,
        0,
        2
    ],
    "carDensity": 3.0,
    "suspension": 0.47762343287467959,
    "motorSpeed": 874,
    "frontDensity": 4.900000095367432,
    "frontRadius": 0.6907195448875427,
    "frontOffset": 1.3613731861114503,
    "backDensity": 3.5,
    "backRadius": 0.5492756366729736,
    "backOffset": -1.147299885749817,
    "score": 915,
    "maxDistance": 834,
    "maxTime": 103.0
}{
    "ID": 62913,
    "genomaID": "CV3TD12",
    "color": {
        "x": 0.956782341003418,
        "y": 0.08324600011110306,
        "z": 0.7790353298187256
    },
    "vertexNumber": 3,
    "colliderVertices": [
        {
            "x": -1.3322129249572755,
            "y": -0.3242015540599823
        },
        {
            "x": 1.406930685043335,
            "y": -0.39797013998031618
        },
        {
            "x": -1.7638306617736817,
            "y": 0.37279003858566286
        }
    ],
    "triangles": [
        1,
        0,
        2
    ],
    "carDensity": 3.0,
    "suspension": 0.7352713346481323,
    "motorSpeed": 874,
    "frontDensity": 4.599999904632568,
    "frontRadius": 0.6611923575401306,
    "frontOffset": 0.9018663167953491,
    "backDensity": 3.5,
    "backRadius": 0.5492756366729736,
    "backOffset": -0.5420491695404053,
    "score": 913,
    "maxDistance": 833,
    "maxTime": 105.0
}{
    "ID": 62834,
    "genomaID": "CV3TD8",
    "color": {
        "x": 0.41188591718673708,
        "y": 0.1231936365365982,
        "z": 0.2154926359653473
    },
    "vertexNumber": 3,
    "colliderVertices": [
        {
            "x": -1.3322129249572755,
            "y": -0.3242015540599823
        },
        {
            "x": 1.406930685043335,
            "y": -0.39797013998031618
        },
        {
            "x": -1.7638306617736817,
            "y": 0.37279003858566286
        }
    ],
    "triangles": [
        1,
        0,
        2
    ],
    "carDensity": 3.0,
    "suspension": 0.9825772047042847,
    "motorSpeed": 1280,
    "frontDensity": 2.200000047683716,
    "frontRadius": 0.42035824060440066,
    "frontOffset": 1.2364389896392823,
    "backDensity": 3.4000000953674318,
    "backRadius": 0.540276825428009,
    "backOffset": -0.7392739057540894,
    "score": 0,
    "maxDistance": -1,
    "maxTime": 1.0
}{
    "ID": 62994,
    "genomaID": "CV3TD11",
    "color": {
        "x": 0.7795941829681397,
        "y": 0.2871544659137726,
        "z": 0.42937761545181277
    },
    "vertexNumber": 3,
    "colliderVertices": [
        {
            "x": -1.3322129249572755,
            "y": -0.3242015540599823
        },
        {
            "x": 1.406930685043335,
            "y": -0.39797013998031618
        },
        {
            "x": -1.7638306617736817,
            "y": 0.37279003858566286
        }
    ],
    "triangles": [
        1,
        0,
        2
    ],
    "carDensity": 3.0,
    "suspension": 0.7244403958320618,
    "motorSpeed": 879,
    "frontDensity": 4.599999904632568,
    "frontRadius": 0.6645531058311462,
    "frontOffset": 0.7678360342979431,
    "backDensity": 3.200000047683716,
    "backRadius": 0.5188968181610107,
    "backOffset": -0.7081708908081055,
    "score": 0,
    "maxDistance": 0,
    "maxTime": 1.0
}