{
    "ID": 78875,
    "genomaID": "CV3TD12",
    "color": {
        "x": 0.4754706025123596,
        "y": 0.2664465010166168,
        "z": 0.8748672008514404
    },
    "vertexNumber": 3,
    "colliderVertices": [
        {
            "x": -1.3322129249572755,
            "y": -0.3242015540599823
        },
        {
            "x": 1.406930685043335,
            "y": -0.39797013998031618
        },
        {
            "x": -1.7638306617736817,
            "y": 0.37279003858566286
        }
    ],
    "triangles": [
        1,
        0,
        2
    ],
    "carDensity": 3.0,
    "suspension": 0.8627287149429321,
    "motorSpeed": 877,
    "frontDensity": 4.800000190734863,
    "frontRadius": 0.6846373081207275,
    "frontOffset": 1.3248361349105836,
    "backDensity": 3.700000047683716,
    "backRadius": 0.5697405934333801,
    "backOffset": -0.6988409757614136,
    "score": 917,
    "maxDistance": 834,
    "maxTime": 101.0
}{
    "ID": 78909,
    "genomaID": "CV3TD11",
    "color": {
        "x": 0.3208238184452057,
        "y": 0.5311277508735657,
        "z": 0.3739834129810333
    },
    "vertexNumber": 3,
    "colliderVertices": [
        {
            "x": -1.4517676830291749,
            "y": -0.3785870671272278
        },
        {
            "x": 1.0073214769363404,
            "y": -0.056303925812244418
        },
        {
            "x": 0.1018216609954834,
            "y": 0.5950250029563904
        }
    ],
    "triangles": [
        1,
        0,
        2
    ],
    "carDensity": 3.0,
    "suspension": 0.562419056892395,
    "motorSpeed": 850,
    "frontDensity": 4.900000095367432,
    "frontRadius": 0.6907195448875427,
    "frontOffset": 1.249983787536621,
    "backDensity": 3.299999952316284,
    "backRadius": 0.5308176279067993,
    "backOffset": -0.9143518209457398,
    "score": 913,
    "maxDistance": 834,
    "maxTime": 105.0
}{
    "ID": 78889,
    "genomaID": "CV3TD11",
    "color": {
        "x": 0.43622130155563357,
        "y": 0.40297406911849978,
        "z": 0.13085652887821198
    },
    "vertexNumber": 3,
    "colliderVertices": [
        {
            "x": -1.3322129249572755,
            "y": -0.3242015540599823
        },
        {
            "x": 1.406930685043335,
            "y": -0.39797013998031618
        },
        {
            "x": -1.7638306617736817,
            "y": 0.37279003858566286
        }
    ],
    "triangles": [
        1,
        0,
        2
    ],
    "carDensity": 3.0,
    "suspension": 0.41311120986938479,
    "motorSpeed": 856,
    "frontDensity": 4.699999809265137,
    "frontRadius": 0.6675209999084473,
    "frontOffset": 0.8544946908950806,
    "backDensity": 3.0999999046325685,
    "backRadius": 0.5083016157150269,
    "backOffset": -1.4535220861434937,
    "score": 910,
    "maxDistance": 833,
    "maxTime": 109.0
}{
    "ID": 78841,
    "genomaID": "CV3TD12",
    "color": {
        "x": 0.7170844674110413,
        "y": 0.5298733115196228,
        "z": 0.2514771521091461
    },
    "vertexNumber": 3,
    "colliderVertices": [
        {
            "x": -1.6214687824249268,
            "y": -0.08317125588655472
        },
        {
            "x": 1.2661044597625733,
            "y": -0.3657998740673065
        },
        {
            "x": -0.8836376667022705,
            "y": 0.7232869863510132
        }
    ],
    "triangles": [
        1,
        0,
        2
    ],
    "carDensity": 3.0,
    "suspension": 0.607215404510498,
    "motorSpeed": 874,
    "frontDensity": 4.900000095367432,
    "frontRadius": 0.69178706407547,
    "frontOffset": 0.7552306056022644,
    "backDensity": 3.700000047683716,
    "backRadius": 0.5695193409919739,
    "backOffset": -0.6616588830947876,
    "score": 0,
    "maxDistance": 0,
    "maxTime": 1.0
}{
    "ID": 78883,
    "genomaID": "CV3TD13",
    "color": {
        "x": 0.9098223447799683,
        "y": 0.4113134741783142,
        "z": 0.5985069870948792
    },
    "vertexNumber": 3,
    "colliderVertices": [
        {
            "x": -1.3322129249572755,
            "y": -0.3242015540599823
        },
        {
            "x": 1.406930685043335,
            "y": -0.39797013998031618
        },
        {
            "x": -1.7638306617736817,
            "y": 0.37279003858566286
        }
    ],
    "triangles": [
        1,
        0,
        2
    ],
    "carDensity": 3.0,
    "suspension": 0.9790624380111694,
    "motorSpeed": 877,
    "frontDensity": 4.900000095367432,
    "frontRadius": 0.6935657858848572,
    "frontOffset": 0.7048317193984985,
    "backDensity": 4.800000190734863,
    "backRadius": 0.6796324253082275,
    "backOffset": -0.994904637336731,
    "score": -11,
    "maxDistance": -1,
    "maxTime": 1.0
}