{
    "ID": 94037,
    "genomaID": "CV3TD12",
    "color": {
        "x": 0.1478743702173233,
        "y": 0.8366987705230713,
        "z": 0.7533611059188843
    },
    "vertexNumber": 3,
    "colliderVertices": [
        {
            "x": -1.9816960096359254,
            "y": -0.11146523058414459
        },
        {
            "x": 1.4943830966949463,
            "y": -0.2624768912792206
        },
        {
            "x": -1.6097688674926758,
            "y": 0.650647759437561
        }
    ],
    "triangles": [
        1,
        0,
        2
    ],
    "carDensity": 3.0,
    "suspension": 0.7880734801292419,
    "motorSpeed": 850,
    "frontDensity": 4.900000095367432,
    "frontRadius": 0.6907195448875427,
    "frontOffset": 0.7630736231803894,
    "backDensity": 3.700000047683716,
    "backRadius": 0.5730765461921692,
    "backOffset": -1.4803638458251954,
    "score": 915,
    "maxDistance": 834,
    "maxTime": 103.0
}{
    "ID": 94066,
    "genomaID": "CV3TD11",
    "color": {
        "x": 0.8610556125640869,
        "y": 0.17619766294956208,
        "z": 0.9127825498580933
    },
    "vertexNumber": 3,
    "colliderVertices": [
        {
            "x": -1.448728084564209,
            "y": -0.4206351041793823
        },
        {
            "x": 1.2341947555541993,
            "y": -0.4096236228942871
        },
        {
            "x": -0.7727158069610596,
            "y": 0.05484116077423096
        }
    ],
    "triangles": [
        1,
        0,
        2
    ],
    "carDensity": 3.0,
    "suspension": 0.6266824007034302,
    "motorSpeed": 850,
    "frontDensity": 4.900000095367432,
    "frontRadius": 0.6907195448875427,
    "frontOffset": 1.3633992671966553,
    "backDensity": 2.700000047683716,
    "backRadius": 0.4730428457260132,
    "backOffset": -1.3532958030700684,
    "score": 912,
    "maxDistance": 833,
    "maxTime": 106.0
}{
    "ID": 94170,
    "genomaID": "CV3TD10",
    "color": {
        "x": 0.8832259178161621,
        "y": 0.7785098552703857,
        "z": 0.18183256685733796
    },
    "vertexNumber": 3,
    "colliderVertices": [
        {
            "x": -1.448728084564209,
            "y": -0.4206351041793823
        },
        {
            "x": 1.2341947555541993,
            "y": -0.4096236228942871
        },
        {
            "x": -0.7727158069610596,
            "y": 0.05484116077423096
        }
    ],
    "triangles": [
        1,
        0,
        2
    ],
    "carDensity": 3.0,
    "suspension": 0.6266824007034302,
    "motorSpeed": 850,
    "frontDensity": 4.900000095367432,
    "frontRadius": 0.6907195448875427,
    "frontOffset": 1.3633992671966553,
    "backDensity": 2.4000000953674318,
    "backRadius": 0.44424968957901,
    "backOffset": -1.3347070217132569,
    "score": 911,
    "maxDistance": 833,
    "maxTime": 107.0
}{
    "ID": 94106,
    "genomaID": "CV3TD11",
    "color": {
        "x": 0.5197533965110779,
        "y": 0.9451771974563599,
        "z": 0.4369392991065979
    },
    "vertexNumber": 3,
    "colliderVertices": [
        {
            "x": -1.448728084564209,
            "y": -0.4206351041793823
        },
        {
            "x": 1.2341947555541993,
            "y": -0.4096236228942871
        },
        {
            "x": -0.7727158069610596,
            "y": 0.05484116077423096
        }
    ],
    "triangles": [
        1,
        0,
        2
    ],
    "carDensity": 3.0,
    "suspension": 0.9458505511283875,
    "motorSpeed": 850,
    "frontDensity": 4.900000095367432,
    "frontRadius": 0.6907195448875427,
    "frontOffset": 0.597010612487793,
    "backDensity": 2.799999952316284,
    "backRadius": 0.4793315827846527,
    "backOffset": -0.963013768196106,
    "score": 24,
    "maxDistance": 4,
    "maxTime": 2.0
}{
    "ID": 94040,
    "genomaID": "CV3TD13",
    "color": {
        "x": 0.16537119448184968,
        "y": 0.9236080646514893,
        "z": 0.8277966976165772
    },
    "vertexNumber": 3,
    "colliderVertices": [
        {
            "x": -1.24593186378479,
            "y": -0.17356999218463899
        },
        {
            "x": 1.4254326820373536,
            "y": -0.31066444516181948
        },
        {
            "x": -1.0050806999206544,
            "y": 0.2958831191062927
        }
    ],
    "triangles": [
        1,
        0,
        2
    ],
    "carDensity": 3.0,
    "suspension": 0.6869803667068481,
    "motorSpeed": 880,
    "frontDensity": 4.599999904632568,
    "frontRadius": 0.6589146256446838,
    "frontOffset": 0.6751389503479004,
    "backDensity": 4.900000095367432,
    "backRadius": 0.6946191191673279,
    "backOffset": -1.3218324184417725,
    "score": -11,
    "maxDistance": -1,
    "maxTime": 1.0
}