{
    "ID": 61678,
    "genomaID": "CV3TD12",
    "color": {
        "x": 0.838929295539856,
        "y": 0.9777239561080933,
        "z": 0.5785967707633972
    },
    "vertexNumber": 3,
    "colliderVertices": [
        {
            "x": -1.3322129249572755,
            "y": -0.3242015540599823
        },
        {
            "x": 1.406930685043335,
            "y": -0.39797013998031618
        },
        {
            "x": -1.7638306617736817,
            "y": 0.37279003858566286
        }
    ],
    "triangles": [
        1,
        0,
        2
    ],
    "carDensity": 3.0,
    "suspension": 0.7244403958320618,
    "motorSpeed": 879,
    "frontDensity": 4.599999904632568,
    "frontRadius": 0.6645531058311462,
    "frontOffset": 0.7678360342979431,
    "backDensity": 3.9000000953674318,
    "backRadius": 0.594505786895752,
    "backOffset": -0.7614291310310364,
    "score": 918,
    "maxDistance": 833,
    "maxTime": 98.0
}{
    "ID": 61695,
    "genomaID": "CV3TD11",
    "color": {
        "x": 0.4879758954048157,
        "y": 0.6131840348243713,
        "z": 0.16286469995975495
    },
    "vertexNumber": 3,
    "colliderVertices": [
        {
            "x": -1.3322129249572755,
            "y": -0.3242015540599823
        },
        {
            "x": 1.406930685043335,
            "y": -0.39797013998031618
        },
        {
            "x": -1.7638306617736817,
            "y": 0.37279003858566286
        }
    ],
    "triangles": [
        1,
        0,
        2
    ],
    "carDensity": 3.0,
    "suspension": 0.6430756449699402,
    "motorSpeed": 895,
    "frontDensity": 4.800000190734863,
    "frontRadius": 0.6832131743431091,
    "frontOffset": 1.3647311925888062,
    "backDensity": 3.0999999046325685,
    "backRadius": 0.509495735168457,
    "backOffset": -0.9328454732894898,
    "score": 915,
    "maxDistance": 834,
    "maxTime": 103.0
}{
    "ID": 61779,
    "genomaID": "CV3TD11",
    "color": {
        "x": 0.5119163393974304,
        "y": 0.012689949944615364,
        "z": 0.7192041277885437
    },
    "vertexNumber": 3,
    "colliderVertices": [
        {
            "x": -1.3322129249572755,
            "y": -0.3242015540599823
        },
        {
            "x": 1.406930685043335,
            "y": -0.39797013998031618
        },
        {
            "x": -1.7638306617736817,
            "y": 0.37279003858566286
        }
    ],
    "triangles": [
        1,
        0,
        2
    ],
    "carDensity": 3.0,
    "suspension": 0.646091878414154,
    "motorSpeed": 879,
    "frontDensity": 4.800000190734863,
    "frontRadius": 0.6832131743431091,
    "frontOffset": 1.0187565088272095,
    "backDensity": 3.200000047683716,
    "backRadius": 0.5204463005065918,
    "backOffset": -0.6869202852249146,
    "score": 914,
    "maxDistance": 834,
    "maxTime": 104.0
}{
    "ID": 61603,
    "genomaID": "CV5TD11",
    "color": {
        "x": 0.7694025039672852,
        "y": 0.6303190588951111,
        "z": 0.31513217091560366
    },
    "vertexNumber": 5,
    "colliderVertices": [
        {
            "x": -1.909196376800537,
            "y": -0.43171876668930056
        },
        {
            "x": 1.038658857345581,
            "y": -0.000747859594412148
        },
        {
            "x": 1.7647347450256348,
            "y": 0.06113409996032715
        },
        {
            "x": 0.7919802069664002,
            "y": 0.10785067081451416
        },
        {
            "x": -0.38958001136779787,
            "y": 0.6260602474212647
        }
    ],
    "triangles": [
        1,
        4,
        3,
        3,
        2,
        1,
        1,
        0,
        4
    ],
    "carDensity": 5.0,
    "suspension": 0.9110151529312134,
    "motorSpeed": 874,
    "frontDensity": 2.299999952316284,
    "frontRadius": 0.4254027009010315,
    "frontOffset": 0.6506603956222534,
    "backDensity": 3.5,
    "backRadius": 0.5492756366729736,
    "backOffset": -1.24042546749115,
    "score": 0,
    "maxDistance": 0,
    "maxTime": 1.0
}{
    "ID": 61795,
    "genomaID": "CV3TD11",
    "color": {
        "x": 0.8922040462493897,
        "y": 0.16881419718265534,
        "z": 0.9950582981109619
    },
    "vertexNumber": 3,
    "colliderVertices": [
        {
            "x": -1.3322129249572755,
            "y": -0.3242015540599823
        },
        {
            "x": 1.406930685043335,
            "y": -0.39797013998031618
        },
        {
            "x": -1.7638306617736817,
            "y": 0.37279003858566286
        }
    ],
    "triangles": [
        1,
        0,
        2
    ],
    "carDensity": 3.0,
    "suspension": 0.631812334060669,
    "motorSpeed": 877,
    "frontDensity": 4.300000190734863,
    "frontRadius": 0.6310534477233887,
    "frontOffset": 0.6277205944061279,
    "backDensity": 3.5999999046325685,
    "backRadius": 0.5640707612037659,
    "backOffset": -0.6573983430862427,
    "score": 0,
    "maxDistance": 0,
    "maxTime": 1.0
}