{
    "ID": 121664,
    "genomaID": "CV3TD12",
    "color": {
        "x": 0.10817171633243561,
        "y": 0.09526099264621735,
        "z": 0.18957391381263734
    },
    "vertexNumber": 3,
    "colliderVertices": [
        {
            "x": -1.448728084564209,
            "y": -0.4206351041793823
        },
        {
            "x": 1.2341947555541993,
            "y": -0.4096236228942871
        },
        {
            "x": -0.7727158069610596,
            "y": 0.05484116077423096
        }
    ],
    "triangles": [
        1,
        0,
        2
    ],
    "carDensity": 3.0,
    "suspension": 0.7907305955886841,
    "motorSpeed": 860,
    "frontDensity": 4.900000095367432,
    "frontRadius": 0.6902143955230713,
    "frontOffset": 0.8889225721359253,
    "backDensity": 3.700000047683716,
    "backRadius": 0.5706156492233276,
    "backOffset": -1.49070143699646,
    "score": 916,
    "maxDistance": 834,
    "maxTime": 102.0
}{
    "ID": 121623,
    "genomaID": "CV3TD11",
    "color": {
        "x": 0.1624685674905777,
        "y": 0.05516207963228226,
        "z": 0.06042958050966263
    },
    "vertexNumber": 3,
    "colliderVertices": [
        {
            "x": -1.448728084564209,
            "y": -0.4206351041793823
        },
        {
            "x": 1.2341947555541993,
            "y": -0.4096236228942871
        },
        {
            "x": -0.7727158069610596,
            "y": 0.05484116077423096
        }
    ],
    "triangles": [
        1,
        0,
        2
    ],
    "carDensity": 3.0,
    "suspension": 0.6143001317977905,
    "motorSpeed": 859,
    "frontDensity": 4.900000095367432,
    "frontRadius": 0.6881802082061768,
    "frontOffset": 1.372954249382019,
    "backDensity": 3.200000047683716,
    "backRadius": 0.516883909702301,
    "backOffset": -1.1247409582138062,
    "score": 913,
    "maxDistance": 833,
    "maxTime": 105.0
}{
    "ID": 121785,
    "genomaID": "CV3TD11",
    "color": {
        "x": 0.5977551341056824,
        "y": 0.5461369156837463,
        "z": 0.35354605317115786
    },
    "vertexNumber": 3,
    "colliderVertices": [
        {
            "x": -1.448728084564209,
            "y": -0.4206351041793823
        },
        {
            "x": 1.2341947555541993,
            "y": -0.4096236228942871
        },
        {
            "x": -0.7727158069610596,
            "y": 0.05484116077423096
        }
    ],
    "triangles": [
        1,
        0,
        2
    ],
    "carDensity": 3.0,
    "suspension": 0.42615777254104617,
    "motorSpeed": 799,
    "frontDensity": 4.900000095367432,
    "frontRadius": 0.6881802082061768,
    "frontOffset": 1.372954249382019,
    "backDensity": 3.0999999046325685,
    "backRadius": 0.5118331909179688,
    "backOffset": -0.9796591997146606,
    "score": 908,
    "maxDistance": 833,
    "maxTime": 111.0
}{
    "ID": 121691,
    "genomaID": "CV6TD14",
    "color": {
        "x": 0.4594835638999939,
        "y": 0.552699863910675,
        "z": 0.8818554878234863
    },
    "vertexNumber": 6,
    "colliderVertices": [
        {
            "x": -1.6419227123260499,
            "y": -0.25573650002479555
        },
        {
            "x": 1.7235249280929566,
            "y": -0.3071189224720001
        },
        {
            "x": 1.4976811408996583,
            "y": 0.22715628147125245
        },
        {
            "x": 0.5305723547935486,
            "y": 0.9451221227645874
        },
        {
            "x": -0.3945038318634033,
            "y": 0.4897751212120056
        },
        {
            "x": -1.427414894104004,
            "y": 0.8662936687469482
        }
    ],
    "triangles": [
        4,
        3,
        1,
        1,
        5,
        4,
        3,
        2,
        1,
        1,
        0,
        5
    ],
    "carDensity": 6.0,
    "suspension": 0.6293485760688782,
    "motorSpeed": 859,
    "frontDensity": 4.900000095367432,
    "frontRadius": 0.6881802082061768,
    "frontOffset": 1.1292109489440919,
    "backDensity": 3.4000000953674318,
    "backRadius": 0.5383416414260864,
    "backOffset": -1.1582324504852296,
    "score": 25,
    "maxDistance": 4,
    "maxTime": 2.0
}{
    "ID": 121784,
    "genomaID": "CV4TD12",
    "color": {
        "x": 0.16989709436893464,
        "y": 0.05799604207277298,
        "z": 0.8000109195709229
    },
    "vertexNumber": 4,
    "colliderVertices": [
        {
            "x": -1.27691650390625,
            "y": -0.04192871227860451
        },
        {
            "x": 1.3833277225494385,
            "y": -0.01787334866821766
        },
        {
            "x": -1.9616527557373047,
            "y": 0.5264663100242615
        },
        {
            "x": -1.9914278984069825,
            "y": 0.0395970344543457
        }
    ],
    "triangles": [
        3,
        2,
        1,
        1,
        0,
        3
    ],
    "carDensity": 4.0,
    "suspension": 0.4884795844554901,
    "motorSpeed": 842,
    "frontDensity": 4.900000095367432,
    "frontRadius": 0.6938210725784302,
    "frontOffset": 0.5256956815719605,
    "backDensity": 3.200000047683716,
    "backRadius": 0.516883909702301,
    "backOffset": -0.7484683990478516,
    "score": 0,
    "maxDistance": 0,
    "maxTime": 1.0
}