{
    "ID": 77233,
    "genomaID": "CV3TD12",
    "color": {
        "x": 0.9543694257736206,
        "y": 0.6707087159156799,
        "z": 0.4607693552970886
    },
    "vertexNumber": 3,
    "colliderVertices": [
        {
            "x": -1.6214687824249268,
            "y": -0.08317125588655472
        },
        {
            "x": 1.2661044597625733,
            "y": -0.3657998740673065
        },
        {
            "x": -0.8836376667022705,
            "y": 0.7232869863510132
        }
    ],
    "triangles": [
        1,
        0,
        2
    ],
    "carDensity": 3.0,
    "suspension": 0.8438976407051086,
    "motorSpeed": 873,
    "frontDensity": 5.0,
    "frontRadius": 0.6987470984458923,
    "frontOffset": 1.4377186298370362,
    "backDensity": 3.5,
    "backRadius": 0.5492756366729736,
    "backOffset": -1.3102142810821534,
    "score": 916,
    "maxDistance": 834,
    "maxTime": 102.0
}{
    "ID": 77280,
    "genomaID": "CV3TD11",
    "color": {
        "x": 0.05988384038209915,
        "y": 0.09346187859773636,
        "z": 0.5875927805900574
    },
    "vertexNumber": 3,
    "colliderVertices": [
        {
            "x": -1.3322129249572755,
            "y": -0.3242015540599823
        },
        {
            "x": 1.406930685043335,
            "y": -0.39797013998031618
        },
        {
            "x": -1.7638306617736817,
            "y": 0.37279003858566286
        }
    ],
    "triangles": [
        1,
        0,
        2
    ],
    "carDensity": 3.0,
    "suspension": 0.8573161959648132,
    "motorSpeed": 877,
    "frontDensity": 4.599999904632568,
    "frontRadius": 0.6621392965316773,
    "frontOffset": 1.028903603553772,
    "backDensity": 3.200000047683716,
    "backRadius": 0.5198066234588623,
    "backOffset": -0.9891422986984253,
    "score": 912,
    "maxDistance": 833,
    "maxTime": 106.0
}{
    "ID": 77354,
    "genomaID": "CV3TD10",
    "color": {
        "x": 0.9341213703155518,
        "y": 0.36200371384620669,
        "z": 0.9399467706680298
    },
    "vertexNumber": 3,
    "colliderVertices": [
        {
            "x": -1.6214687824249268,
            "y": -0.08317125588655472
        },
        {
            "x": 1.2661044597625733,
            "y": -0.3657998740673065
        },
        {
            "x": -0.8836376667022705,
            "y": 0.7232869863510132
        }
    ],
    "triangles": [
        1,
        0,
        2
    ],
    "carDensity": 3.0,
    "suspension": 0.607215404510498,
    "motorSpeed": 874,
    "frontDensity": 4.900000095367432,
    "frontRadius": 0.69178706407547,
    "frontOffset": 1.3506214618682862,
    "backDensity": 2.0,
    "backRadius": 0.4034339487552643,
    "backOffset": -1.2922857999801636,
    "score": 910,
    "maxDistance": 833,
    "maxTime": 109.0
}{
    "ID": 77328,
    "genomaID": "CV6TD13",
    "color": {
        "x": 0.3861667513847351,
        "y": 0.2903912365436554,
        "z": 0.5744612812995911
    },
    "vertexNumber": 6,
    "colliderVertices": [
        {
            "x": -1.5434458255767823,
            "y": -0.18465037643909455
        },
        {
            "x": 1.9747313261032105,
            "y": -0.45762544870376589
        },
        {
            "x": 1.622663974761963,
            "y": 0.43645089864730837
        },
        {
            "x": 1.4030241966247559,
            "y": 0.7696422338485718
        },
        {
            "x": -0.3876783847808838,
            "y": 0.6201816201210022
        },
        {
            "x": -1.9859342575073243,
            "y": 0.17378270626068116
        }
    ],
    "triangles": [
        3,
        1,
        5,
        5,
        4,
        3,
        3,
        2,
        1,
        1,
        0,
        5
    ],
    "carDensity": 6.0,
    "suspension": 0.4843713641166687,
    "motorSpeed": 890,
    "frontDensity": 4.800000190734863,
    "frontRadius": 0.676396369934082,
    "frontOffset": 0.816507875919342,
    "backDensity": 2.5,
    "backRadius": 0.44821423292160036,
    "backOffset": -0.9576665163040161,
    "score": 6,
    "maxDistance": 1,
    "maxTime": 2.0
}{
    "ID": 77298,
    "genomaID": "CV3TD8",
    "color": {
        "x": 0.2689395248889923,
        "y": 0.36797836422920229,
        "z": 0.9883663654327393
    },
    "vertexNumber": 3,
    "colliderVertices": [
        {
            "x": -1.3322129249572755,
            "y": -0.3242015540599823
        },
        {
            "x": 1.406930685043335,
            "y": -0.39797013998031618
        },
        {
            "x": -1.7638306617736817,
            "y": 0.37279003858566286
        }
    ],
    "triangles": [
        1,
        0,
        2
    ],
    "carDensity": 3.0,
    "suspension": 0.7087083458900452,
    "motorSpeed": 856,
    "frontDensity": 2.299999952316284,
    "frontRadius": 0.43233823776245119,
    "frontOffset": 1.0237284898757935,
    "backDensity": 3.299999952316284,
    "backRadius": 0.5290386080741882,
    "backOffset": -0.7837062478065491,
    "score": -11,
    "maxDistance": -1,
    "maxTime": 1.0
}