{
    "ID": 84411,
    "genomaID": "CV3TD12",
    "color": {
        "x": 0.13525451719760896,
        "y": 0.5760844349861145,
        "z": 0.020704152062535287
    },
    "vertexNumber": 3,
    "colliderVertices": [
        {
            "x": -1.4517676830291749,
            "y": -0.3785870671272278
        },
        {
            "x": 1.0073214769363404,
            "y": -0.056303925812244418
        },
        {
            "x": 0.1018216609954834,
            "y": 0.5950250029563904
        }
    ],
    "triangles": [
        1,
        0,
        2
    ],
    "carDensity": 3.0,
    "suspension": 0.8057399392127991,
    "motorSpeed": 850,
    "frontDensity": 4.900000095367432,
    "frontRadius": 0.6907195448875427,
    "frontOffset": 1.4111368656158448,
    "backDensity": 3.9000000953674318,
    "backRadius": 0.5935341119766235,
    "backOffset": -0.6904363632202148,
    "score": 916,
    "maxDistance": 834,
    "maxTime": 102.0
}{
    "ID": 84551,
    "genomaID": "CV3TD10",
    "color": {
        "x": 0.2878674566745758,
        "y": 0.8805838823318481,
        "z": 0.012320639565587044
    },
    "vertexNumber": 3,
    "colliderVertices": [
        {
            "x": -1.448728084564209,
            "y": -0.4206351041793823
        },
        {
            "x": 1.2341947555541993,
            "y": -0.4096236228942871
        },
        {
            "x": -0.7727158069610596,
            "y": 0.05484116077423096
        }
    ],
    "triangles": [
        1,
        0,
        2
    ],
    "carDensity": 3.0,
    "suspension": 0.9535589218139648,
    "motorSpeed": 850,
    "frontDensity": 4.900000095367432,
    "frontRadius": 0.6907195448875427,
    "frontOffset": 1.4301793575286866,
    "backDensity": 2.200000047683716,
    "backRadius": 0.4181719422340393,
    "backOffset": -1.2350168228149415,
    "score": 912,
    "maxDistance": 833,
    "maxTime": 106.0
}{
    "ID": 84499,
    "genomaID": "CV3TD8",
    "color": {
        "x": 0.8460570573806763,
        "y": 0.8269734382629395,
        "z": 0.043143633753061298
    },
    "vertexNumber": 3,
    "colliderVertices": [
        {
            "x": -1.4517676830291749,
            "y": -0.3785870671272278
        },
        {
            "x": 1.0073214769363404,
            "y": -0.056303925812244418
        },
        {
            "x": 0.1018216609954834,
            "y": 0.5950250029563904
        }
    ],
    "triangles": [
        1,
        0,
        2
    ],
    "carDensity": 3.0,
    "suspension": 0.8446282148361206,
    "motorSpeed": 850,
    "frontDensity": 2.799999952316284,
    "frontRadius": 0.4825891852378845,
    "frontOffset": 1.4638913869857789,
    "backDensity": 2.299999952316284,
    "backRadius": 0.42932164669036868,
    "backOffset": -1.4447457790374756,
    "score": 895,
    "maxDistance": 834,
    "maxTime": 138.0
}{
    "ID": 84407,
    "genomaID": "CV3TD9",
    "color": {
        "x": 0.8121681213378906,
        "y": 0.8124029636383057,
        "z": 0.5575398802757263
    },
    "vertexNumber": 3,
    "colliderVertices": [
        {
            "x": -1.0256907939910889,
            "y": -0.12069286406040192
        },
        {
            "x": 1.3871371746063233,
            "y": -0.421758234500885
        },
        {
            "x": -1.6018881797790528,
            "y": 0.5131745934486389
        }
    ],
    "triangles": [
        1,
        0,
        2
    ],
    "carDensity": 3.0,
    "suspension": 0.9735661745071411,
    "motorSpeed": 850,
    "frontDensity": 2.5999999046325685,
    "frontRadius": 0.45535922050476076,
    "frontOffset": 1.2384910583496094,
    "backDensity": 3.4000000953674318,
    "backRadius": 0.5357258319854736,
    "backOffset": -1.4447457790374756,
    "score": 0,
    "maxDistance": 0,
    "maxTime": 1.0
}{
    "ID": 84464,
    "genomaID": "CV3TD9",
    "color": {
        "x": 0.10817171633243561,
        "y": 0.09526099264621735,
        "z": 0.18957391381263734
    },
    "vertexNumber": 3,
    "colliderVertices": [
        {
            "x": -1.4517676830291749,
            "y": -0.3785870671272278
        },
        {
            "x": 1.0073214769363404,
            "y": -0.056303925812244418
        },
        {
            "x": 0.1018216609954834,
            "y": 0.5950250029563904
        }
    ],
    "triangles": [
        1,
        0,
        2
    ],
    "carDensity": 3.0,
    "suspension": 0.4125024676322937,
    "motorSpeed": 850,
    "frontDensity": 2.200000047683716,
    "frontRadius": 0.41830161213874819,
    "frontOffset": 1.0527032613754273,
    "backDensity": 4.300000190734863,
    "backRadius": 0.6266109943389893,
    "backOffset": -1.327984094619751,
    "score": -11,
    "maxDistance": -1,
    "maxTime": 1.0
}