{
    "ID": 31612,
    "genomaID": "CV3TD10",
    "color": {
        "x": 0.03325570002198219,
        "y": 0.9501603841781616,
        "z": 0.32562246918678286
    },
    "vertexNumber": 3,
    "colliderVertices": [
        {
            "x": -1.4167654514312745,
            "y": -0.05450911074876785
        },
        {
            "x": 1.4079196453094483,
            "y": -0.3937686085700989
        },
        {
            "x": -1.247361660003662,
            "y": 0.22769761085510255
        }
    ],
    "triangles": [
        1,
        0,
        2
    ],
    "carDensity": 3.0,
    "suspension": 0.8736334443092346,
    "motorSpeed": 1071,
    "frontDensity": 4.5,
    "frontRadius": 0.6539081931114197,
    "frontOffset": 1.2672914266586304,
    "backDensity": 2.799999952316284,
    "backRadius": 0.47961896657943728,
    "backOffset": -1.1423017978668213,
    "score": 919,
    "maxDistance": 833,
    "maxTime": 96.0
}{
    "ID": 31753,
    "genomaID": "CV3TD11",
    "color": {
        "x": 0.22645524144172669,
        "y": 0.08218289166688919,
        "z": 0.5214018225669861
    },
    "vertexNumber": 3,
    "colliderVertices": [
        {
            "x": -1.4167654514312745,
            "y": -0.05450911074876785
        },
        {
            "x": 1.4079196453094483,
            "y": -0.3937686085700989
        },
        {
            "x": -1.247361660003662,
            "y": 0.22769761085510255
        }
    ],
    "triangles": [
        1,
        0,
        2
    ],
    "carDensity": 3.0,
    "suspension": 0.67818284034729,
    "motorSpeed": 879,
    "frontDensity": 4.699999809265137,
    "frontRadius": 0.6665397882461548,
    "frontOffset": 0.8316453099250794,
    "backDensity": 3.299999952316284,
    "backRadius": 0.5260943174362183,
    "backOffset": -0.5199974775314331,
    "score": 913,
    "maxDistance": 833,
    "maxTime": 104.0
}{
    "ID": 31800,
    "genomaID": "CV3TD10",
    "color": {
        "x": 0.7681076526641846,
        "y": 0.2796610891819,
        "z": 0.3934035897254944
    },
    "vertexNumber": 3,
    "colliderVertices": [
        {
            "x": -1.1296817064285279,
            "y": -0.1063121110200882
        },
        {
            "x": 1.297642707824707,
            "y": -0.28699466586112978
        },
        {
            "x": 0.22045397758483888,
            "y": 0.10272884368896485
        }
    ],
    "triangles": [
        1,
        0,
        2
    ],
    "carDensity": 3.0,
    "suspension": 0.6957840919494629,
    "motorSpeed": 884,
    "frontDensity": 4.5,
    "frontRadius": 0.6487516760826111,
    "frontOffset": 0.5442520380020142,
    "backDensity": 3.299999952316284,
    "backRadius": 0.5281961560249329,
    "backOffset": -0.848190426826477,
    "score": 912,
    "maxDistance": 833,
    "maxTime": 105.0
}{
    "ID": 31626,
    "genomaID": "CV6TD12",
    "color": {
        "x": 0.992851972579956,
        "y": 0.7299163937568665,
        "z": 0.8744080066680908
    },
    "vertexNumber": 6,
    "colliderVertices": [
        {
            "x": -1.8394865989685059,
            "y": -0.14507444202899934
        },
        {
            "x": 1.2951054573059083,
            "y": -0.04270327463746071
        },
        {
            "x": -0.37571167945861819,
            "y": 0.7165154218673706
        },
        {
            "x": -0.3774244785308838,
            "y": 0.5681028962135315
        },
        {
            "x": -0.7644665241241455,
            "y": 0.7897379398345947
        },
        {
            "x": -1.8167939186096192,
            "y": 0.4901624321937561
        }
    ],
    "triangles": [
        3,
        1,
        5,
        5,
        4,
        3,
        3,
        2,
        1,
        1,
        0,
        5
    ],
    "carDensity": 6.0,
    "suspension": 0.9907895922660828,
    "motorSpeed": 894,
    "frontDensity": 2.5999999046325685,
    "frontRadius": 0.4598381519317627,
    "frontOffset": 1.0973247289657593,
    "backDensity": 3.0,
    "backRadius": 0.49757829308509829,
    "backOffset": -1.382598876953125,
    "score": 20,
    "maxDistance": 3,
    "maxTime": 2.0
}{
    "ID": 31796,
    "genomaID": "CV3TD11",
    "color": {
        "x": 0.04487193003296852,
        "y": 0.9218603372573853,
        "z": 0.05435562878847122
    },
    "vertexNumber": 3,
    "colliderVertices": [
        {
            "x": -1.4167654514312745,
            "y": -0.05450911074876785
        },
        {
            "x": 1.4079196453094483,
            "y": -0.3937686085700989
        },
        {
            "x": -1.247361660003662,
            "y": 0.22769761085510255
        }
    ],
    "triangles": [
        1,
        0,
        2
    ],
    "carDensity": 3.0,
    "suspension": 0.9923844337463379,
    "motorSpeed": 884,
    "frontDensity": 4.699999809265137,
    "frontRadius": 0.6733191609382629,
    "frontOffset": 0.5326942205429077,
    "backDensity": 3.299999952316284,
    "backRadius": 0.5331979990005493,
    "backOffset": -0.9186066389083862,
    "score": 0,
    "maxDistance": 0,
    "maxTime": 1.0
}