{
    "ID": 79442,
    "genomaID": "CV3TD11",
    "color": {
        "x": 0.6371554732322693,
        "y": 0.23892191052436829,
        "z": 0.6570999026298523
    },
    "vertexNumber": 3,
    "colliderVertices": [
        {
            "x": -1.6214687824249268,
            "y": -0.08317125588655472
        },
        {
            "x": 1.2661044597625733,
            "y": -0.3657998740673065
        },
        {
            "x": -0.8836376667022705,
            "y": 0.7232869863510132
        }
    ],
    "triangles": [
        1,
        0,
        2
    ],
    "carDensity": 3.0,
    "suspension": 0.607215404510498,
    "motorSpeed": 919,
    "frontDensity": 4.900000095367432,
    "frontRadius": 0.69178706407547,
    "frontOffset": 1.0233629941940308,
    "backDensity": 3.4000000953674318,
    "backRadius": 0.5371114611625671,
    "backOffset": -1.1947875022888184,
    "score": 917,
    "maxDistance": 833,
    "maxTime": 99.0
}{
    "ID": 79428,
    "genomaID": "CV3TD11",
    "color": {
        "x": 0.8483202457427979,
        "y": 0.38473469018936159,
        "z": 0.795621395111084
    },
    "vertexNumber": 3,
    "colliderVertices": [
        {
            "x": -1.4517676830291749,
            "y": -0.3785870671272278
        },
        {
            "x": 1.0073214769363404,
            "y": -0.056303925812244418
        },
        {
            "x": 0.1018216609954834,
            "y": 0.5950250029563904
        }
    ],
    "triangles": [
        1,
        0,
        2
    ],
    "carDensity": 3.0,
    "suspension": 0.4316291809082031,
    "motorSpeed": 850,
    "frontDensity": 4.900000095367432,
    "frontRadius": 0.6907195448875427,
    "frontOffset": 0.8118366599082947,
    "backDensity": 3.299999952316284,
    "backRadius": 0.5308176279067993,
    "backOffset": -1.3868005275726319,
    "score": 913,
    "maxDistance": 834,
    "maxTime": 106.0
}{
    "ID": 79433,
    "genomaID": "CV3TD11",
    "color": {
        "x": 0.9543694257736206,
        "y": 0.6707087159156799,
        "z": 0.4607693552970886
    },
    "vertexNumber": 3,
    "colliderVertices": [
        {
            "x": -1.3322129249572755,
            "y": -0.3242015540599823
        },
        {
            "x": 1.406930685043335,
            "y": -0.39797013998031618
        },
        {
            "x": -1.7638306617736817,
            "y": 0.37279003858566286
        }
    ],
    "triangles": [
        1,
        0,
        2
    ],
    "carDensity": 3.0,
    "suspension": 0.41311120986938479,
    "motorSpeed": 856,
    "frontDensity": 4.699999809265137,
    "frontRadius": 0.6675209999084473,
    "frontOffset": 0.8544946908950806,
    "backDensity": 3.0999999046325685,
    "backRadius": 0.5083016157150269,
    "backOffset": -1.1670453548431397,
    "score": 911,
    "maxDistance": 834,
    "maxTime": 109.0
}{
    "ID": 79441,
    "genomaID": "CV3TD12",
    "color": {
        "x": 0.7170844674110413,
        "y": 0.5298733115196228,
        "z": 0.2514771521091461
    },
    "vertexNumber": 3,
    "colliderVertices": [
        {
            "x": -1.804709792137146,
            "y": -0.1362607628107071
        },
        {
            "x": 1.7165732383728028,
            "y": -0.3883777856826782
        },
        {
            "x": -0.04157233238220215,
            "y": 0.3639475703239441
        }
    ],
    "triangles": [
        1,
        0,
        2
    ],
    "carDensity": 3.0,
    "suspension": 0.8429984450340271,
    "motorSpeed": 1436,
    "frontDensity": 4.900000095367432,
    "frontRadius": 0.69178706407547,
    "frontOffset": 1.302952527999878,
    "backDensity": 3.5,
    "backRadius": 0.5492756366729736,
    "backOffset": -0.9457343816757202,
    "score": 0,
    "maxDistance": 0,
    "maxTime": 0.0
}{
    "ID": 79590,
    "genomaID": "CV3TD12",
    "color": {
        "x": 0.7507197856903076,
        "y": 0.8040612936019898,
        "z": 0.3491741716861725
    },
    "vertexNumber": 3,
    "colliderVertices": [
        {
            "x": -1.3322129249572755,
            "y": -0.3242015540599823
        },
        {
            "x": 1.406930685043335,
            "y": -0.39797013998031618
        },
        {
            "x": -1.7638306617736817,
            "y": 0.37279003858566286
        }
    ],
    "triangles": [
        1,
        0,
        2
    ],
    "carDensity": 3.0,
    "suspension": 0.9158835411071777,
    "motorSpeed": 877,
    "frontDensity": 3.799999952316284,
    "frontRadius": 0.5834425091743469,
    "frontOffset": 1.0018609762191773,
    "backDensity": 4.599999904632568,
    "backRadius": 0.6639525294303894,
    "backOffset": -0.994904637336731,
    "score": -11,
    "maxDistance": -1,
    "maxTime": 1.0
}