{
    "ID": 21197,
    "genomaID": "CV3TD11",
    "color": {
        "x": 0.225060373544693,
        "y": 0.9318109750747681,
        "z": 0.6402801871299744
    },
    "vertexNumber": 3,
    "colliderVertices": [
        {
            "x": -1.4167654514312745,
            "y": -0.05450911074876785
        },
        {
            "x": 1.4079196453094483,
            "y": -0.3937686085700989
        },
        {
            "x": -1.247361660003662,
            "y": 0.22769761085510255
        }
    ],
    "triangles": [
        1,
        0,
        2
    ],
    "carDensity": 3.0,
    "suspension": 0.61744225025177,
    "motorSpeed": 884,
    "frontDensity": 4.599999904632568,
    "frontRadius": 0.659152090549469,
    "frontOffset": 1.0607229471206666,
    "backDensity": 3.4000000953674318,
    "backRadius": 0.5422408580780029,
    "backOffset": -0.5416070222854614,
    "score": 915,
    "maxDistance": 834,
    "maxTime": 103.0
}{
    "ID": 21036,
    "genomaID": "CV3TD10",
    "color": {
        "x": 0.8729569911956787,
        "y": 0.9748997688293457,
        "z": 0.6180261969566345
    },
    "vertexNumber": 3,
    "colliderVertices": [
        {
            "x": -1.0194876194000245,
            "y": -0.465162992477417
        },
        {
            "x": 1.4024229049682618,
            "y": -0.30206623673439028
        },
        {
            "x": 0.6779922842979431,
            "y": 0.8841913938522339
        }
    ],
    "triangles": [
        1,
        0,
        2
    ],
    "carDensity": 3.0,
    "suspension": 0.4058363437652588,
    "motorSpeed": 884,
    "frontDensity": 4.5,
    "frontRadius": 0.6487516760826111,
    "frontOffset": 1.2124576568603516,
    "backDensity": 2.799999952316284,
    "backRadius": 0.47794705629348757,
    "backOffset": -1.236720323562622,
    "score": 911,
    "maxDistance": 833,
    "maxTime": 107.0
}{
    "ID": 21184,
    "genomaID": "CV3TD9",
    "color": {
        "x": 0.16989709436893464,
        "y": 0.05799604207277298,
        "z": 0.8000109195709229
    },
    "vertexNumber": 3,
    "colliderVertices": [
        {
            "x": -1.4167654514312745,
            "y": -0.05450911074876785
        },
        {
            "x": 1.4079196453094483,
            "y": -0.3937686085700989
        },
        {
            "x": -1.247361660003662,
            "y": 0.22769761085510255
        }
    ],
    "triangles": [
        1,
        0,
        2
    ],
    "carDensity": 3.0,
    "suspension": 0.9889736771583557,
    "motorSpeed": 884,
    "frontDensity": 4.5,
    "frontRadius": 0.6496618986129761,
    "frontOffset": 1.2248823642730713,
    "backDensity": 2.0,
    "backRadius": 0.40237462520599368,
    "backOffset": -0.9199978113174439,
    "score": 910,
    "maxDistance": 833,
    "maxTime": 108.0
}{
    "ID": 21138,
    "genomaID": "CV3TD9",
    "color": {
        "x": 0.7824622392654419,
        "y": 0.6684330105781555,
        "z": 0.5481817126274109
    },
    "vertexNumber": 3,
    "colliderVertices": [
        {
            "x": -1.6272385120391846,
            "y": -0.008878112770617009
        },
        {
            "x": 1.3754918575286866,
            "y": -0.43228214979171755
        },
        {
            "x": -1.738893985748291,
            "y": 0.200178861618042
        }
    ],
    "triangles": [
        1,
        0,
        2
    ],
    "carDensity": 3.0,
    "suspension": 0.8762702345848084,
    "motorSpeed": 884,
    "frontDensity": 2.9000000953674318,
    "frontRadius": 0.4861522912979126,
    "frontOffset": 0.8670591115951538,
    "backDensity": 2.9000000953674318,
    "backRadius": 0.48824724555015566,
    "backOffset": -1.037497639656067,
    "score": 20,
    "maxDistance": 3,
    "maxTime": 2.0
}{
    "ID": 21195,
    "genomaID": "CV3TD10",
    "color": {
        "x": 0.8922040462493897,
        "y": 0.16881419718265534,
        "z": 0.9950582981109619
    },
    "vertexNumber": 3,
    "colliderVertices": [
        {
            "x": -1.4167654514312745,
            "y": -0.05450911074876785
        },
        {
            "x": 1.4079196453094483,
            "y": -0.3937686085700989
        },
        {
            "x": -1.247361660003662,
            "y": 0.22769761085510255
        }
    ],
    "triangles": [
        1,
        0,
        2
    ],
    "carDensity": 3.0,
    "suspension": 0.9889736771583557,
    "motorSpeed": 884,
    "frontDensity": 4.599999904632568,
    "frontRadius": 0.655458927154541,
    "frontOffset": 1.2248823642730713,
    "backDensity": 2.0,
    "backRadius": 0.40237462520599368,
    "backOffset": -0.7694465517997742,
    "score": 0,
    "maxDistance": 0,
    "maxTime": 1.0
}