{
    "ID": 17911,
    "genomaID": "CV3TD10",
    "color": {
        "x": 0.9264074563980103,
        "y": 0.3243921101093292,
        "z": 0.0674147680401802
    },
    "vertexNumber": 3,
    "colliderVertices": [
        {
            "x": -1.4167654514312745,
            "y": -0.05450911074876785
        },
        {
            "x": 1.4079196453094483,
            "y": -0.3937686085700989
        },
        {
            "x": -1.247361660003662,
            "y": 0.22769761085510255
        }
    ],
    "triangles": [
        1,
        0,
        2
    ],
    "carDensity": 3.0,
    "suspension": 0.9566490054130554,
    "motorSpeed": 884,
    "frontDensity": 4.599999904632568,
    "frontRadius": 0.659152090549469,
    "frontOffset": 1.2288744449615479,
    "backDensity": 2.200000047683716,
    "backRadius": 0.415388822555542,
    "backOffset": -0.8382197618484497,
    "score": 912,
    "maxDistance": 834,
    "maxTime": 107.0
}{
    "ID": 17846,
    "genomaID": "CV3TD9",
    "color": {
        "x": 0.8601193428039551,
        "y": 0.32319143414497378,
        "z": 0.0954677015542984
    },
    "vertexNumber": 3,
    "colliderVertices": [
        {
            "x": -1.6257870197296143,
            "y": -0.008286000229418278
        },
        {
            "x": 1.5057270526885987,
            "y": -0.021743299439549447
        },
        {
            "x": -1.0265865325927735,
            "y": 0.1485193967819214
        }
    ],
    "triangles": [
        1,
        0,
        2
    ],
    "carDensity": 3.0,
    "suspension": 0.4052864611148834,
    "motorSpeed": 884,
    "frontDensity": 4.199999809265137,
    "frontRadius": 0.6244065761566162,
    "frontOffset": 0.9251261949539185,
    "backDensity": 2.200000047683716,
    "backRadius": 0.4156038165092468,
    "backOffset": -1.2713572978973389,
    "score": 908,
    "maxDistance": 833,
    "maxTime": 111.0
}{
    "ID": 17936,
    "genomaID": "CV4TD9",
    "color": {
        "x": 0.7753911018371582,
        "y": 0.8345261812210083,
        "z": 0.608868420124054
    },
    "vertexNumber": 4,
    "colliderVertices": [
        {
            "x": -1.0269999504089356,
            "y": -0.19976666569709779
        },
        {
            "x": 1.0990934371948243,
            "y": -0.3635680377483368
        },
        {
            "x": 0.8710212111473084,
            "y": 0.25816255807876589
        },
        {
            "x": 0.5027679800987244,
            "y": 0.8756972551345825
        }
    ],
    "triangles": [
        3,
        2,
        1,
        1,
        0,
        3
    ],
    "carDensity": 4.0,
    "suspension": 0.6685962677001953,
    "motorSpeed": 884,
    "frontDensity": 2.9000000953674318,
    "frontRadius": 0.4940260052680969,
    "frontOffset": 1.443983793258667,
    "backDensity": 2.200000047683716,
    "backRadius": 0.4225462079048157,
    "backOffset": -1.1007007360458375,
    "score": 896,
    "maxDistance": 833,
    "maxTime": 131.0
}{
    "ID": 17837,
    "genomaID": "CV3TD8",
    "color": {
        "x": 0.1478743702173233,
        "y": 0.8366987705230713,
        "z": 0.7533611059188843
    },
    "vertexNumber": 3,
    "colliderVertices": [
        {
            "x": -1.6257870197296143,
            "y": -0.008286000229418278
        },
        {
            "x": 1.5057270526885987,
            "y": -0.021743299439549447
        },
        {
            "x": -1.0265865325927735,
            "y": 0.1485193967819214
        }
    ],
    "triangles": [
        1,
        0,
        2
    ],
    "carDensity": 3.0,
    "suspension": 0.9160407781600952,
    "motorSpeed": 1008,
    "frontDensity": 2.9000000953674318,
    "frontRadius": 0.49293357133865359,
    "frontOffset": 1.443983793258667,
    "backDensity": 2.200000047683716,
    "backRadius": 0.4225462079048157,
    "backOffset": -1.050449252128601,
    "score": 46,
    "maxDistance": 7,
    "maxTime": 2.0
}{
    "ID": 17988,
    "genomaID": "CV3TD10",
    "color": {
        "x": 0.7009046673774719,
        "y": 0.348634272813797,
        "z": 0.8699125051498413
    },
    "vertexNumber": 3,
    "colliderVertices": [
        {
            "x": -1.6257870197296143,
            "y": -0.008286000229418278
        },
        {
            "x": 1.5057270526885987,
            "y": -0.021743299439549447
        },
        {
            "x": -1.0265865325927735,
            "y": 0.1485193967819214
        }
    ],
    "triangles": [
        1,
        0,
        2
    ],
    "carDensity": 3.0,
    "suspension": 0.4382581114768982,
    "motorSpeed": 1416,
    "frontDensity": 4.400000095367432,
    "frontRadius": 0.6378442049026489,
    "frontOffset": 0.9082661867141724,
    "backDensity": 2.9000000953674318,
    "backRadius": 0.4932936429977417,
    "backOffset": -1.2049901485443116,
    "score": 0,
    "maxDistance": 0,
    "maxTime": 1.0
}