{
    "ID": 12211,
    "genomaID": "CV3TD10",
    "color": {
        "x": 0.13525451719760896,
        "y": 0.5760844349861145,
        "z": 0.020704152062535287
    },
    "vertexNumber": 3,
    "colliderVertices": [
        {
            "x": -1.4167654514312745,
            "y": -0.05450911074876785
        },
        {
            "x": 1.4079196453094483,
            "y": -0.3937686085700989
        },
        {
            "x": -1.247361660003662,
            "y": 0.22769761085510255
        }
    ],
    "triangles": [
        1,
        0,
        2
    ],
    "carDensity": 3.0,
    "suspension": 0.6878498792648315,
    "motorSpeed": 884,
    "frontDensity": 4.599999904632568,
    "frontRadius": 0.6598103046417236,
    "frontOffset": 1.1869995594024659,
    "backDensity": 2.200000047683716,
    "backRadius": 0.415388822555542,
    "backOffset": -1.4493434429168702,
    "score": 911,
    "maxDistance": 833,
    "maxTime": 106.0
}{
    "ID": 12342,
    "genomaID": "CV3TD9",
    "color": {
        "x": 0.8685866594314575,
        "y": 0.7226890921592712,
        "z": 0.7905361652374268
    },
    "vertexNumber": 3,
    "colliderVertices": [
        {
            "x": -1.589296817779541,
            "y": -0.2554645240306854
        },
        {
            "x": 1.4065015316009522,
            "y": -0.028183165937662126
        },
        {
            "x": -0.30598902702331545,
            "y": 0.4320104718208313
        }
    ],
    "triangles": [
        1,
        0,
        2
    ],
    "carDensity": 3.0,
    "suspension": 0.7693440914154053,
    "motorSpeed": 740,
    "frontDensity": 3.9000000953674318,
    "frontRadius": 0.5913468599319458,
    "frontOffset": 1.3420631885528565,
    "backDensity": 2.5,
    "backRadius": 0.44996124505996706,
    "backOffset": -1.2619640827178956,
    "score": 895,
    "maxDistance": 834,
    "maxTime": 136.0
}{
    "ID": 12311,
    "genomaID": "CV3TD9",
    "color": {
        "x": 0.9264074563980103,
        "y": 0.3243921101093292,
        "z": 0.0674147680401802
    },
    "vertexNumber": 3,
    "colliderVertices": [
        {
            "x": -1.5829863548278809,
            "y": -0.039146844297647479
        },
        {
            "x": 1.7785292863845826,
            "y": -0.03110969439148903
        },
        {
            "x": -1.4605779647827149,
            "y": 0.14276373386383058
        }
    ],
    "triangles": [
        1,
        0,
        2
    ],
    "carDensity": 3.0,
    "suspension": 0.4692229628562927,
    "motorSpeed": 751,
    "frontDensity": 3.299999952316284,
    "frontRadius": 0.5349107980728149,
    "frontOffset": 0.6880429983139038,
    "backDensity": 2.799999952316284,
    "backRadius": 0.4760122299194336,
    "backOffset": -0.5399396419525147,
    "score": 893,
    "maxDistance": 833,
    "maxTime": 138.0
}{
    "ID": 12213,
    "genomaID": "CV4TD11",
    "color": {
        "x": 0.5851426720619202,
        "y": 0.73201984167099,
        "z": 0.16867198050022126
    },
    "vertexNumber": 4,
    "colliderVertices": [
        {
            "x": -1.32346510887146,
            "y": -0.010438145138323307
        },
        {
            "x": 1.7166050672531129,
            "y": -0.15674610435962678
        },
        {
            "x": 0.48542046546936037,
            "y": 0.4141003489494324
        },
        {
            "x": 0.08810973167419434,
            "y": 0.19988572597503663
        }
    ],
    "triangles": [
        3,
        2,
        1,
        1,
        0,
        3
    ],
    "carDensity": 4.0,
    "suspension": 0.5074481964111328,
    "motorSpeed": 751,
    "frontDensity": 3.5,
    "frontRadius": 0.5501224398612976,
    "frontOffset": 0.7823298573493958,
    "backDensity": 3.0,
    "backRadius": 0.4966309070587158,
    "backOffset": -1.1119929552078248,
    "score": 26,
    "maxDistance": 4,
    "maxTime": 2.0
}{
    "ID": 12391,
    "genomaID": "CV3TD9",
    "color": {
        "x": 0.43907028436660769,
        "y": 0.31042757630348208,
        "z": 0.19297173619270326
    },
    "vertexNumber": 3,
    "colliderVertices": [
        {
            "x": -1.9676975011825562,
            "y": -0.44442665576934817
        },
        {
            "x": 1.9009766578674317,
            "y": -0.12445588409900665
        },
        {
            "x": 0.23088288307189942,
            "y": 0.09363925457000733
        }
    ],
    "triangles": [
        1,
        0,
        2
    ],
    "carDensity": 3.0,
    "suspension": 0.8090593814849854,
    "motorSpeed": 740,
    "frontDensity": 3.700000047683716,
    "frontRadius": 0.5709809064865112,
    "frontOffset": 0.9290858507156372,
    "backDensity": 2.5,
    "backRadius": 0.4524852931499481,
    "backOffset": -1.4486277103424073,
    "score": 0,
    "maxDistance": 0,
    "maxTime": 1.0
}