{
    "ID": 62103,
    "genomaID": "CV3TD12",
    "color": {
        "x": 0.33203521370887759,
        "y": 0.6631348729133606,
        "z": 0.6886522173881531
    },
    "vertexNumber": 3,
    "colliderVertices": [
        {
            "x": -1.3322129249572755,
            "y": -0.3242015540599823
        },
        {
            "x": 1.406930685043335,
            "y": -0.39797013998031618
        },
        {
            "x": -1.7638306617736817,
            "y": 0.37279003858566286
        }
    ],
    "triangles": [
        1,
        0,
        2
    ],
    "carDensity": 3.0,
    "suspension": 0.7244403958320618,
    "motorSpeed": 879,
    "frontDensity": 4.599999904632568,
    "frontRadius": 0.6645531058311462,
    "frontOffset": 0.7678360342979431,
    "backDensity": 3.9000000953674318,
    "backRadius": 0.594505786895752,
    "backOffset": -0.7614291310310364,
    "score": 918,
    "maxDistance": 833,
    "maxTime": 98.0
}{
    "ID": 62091,
    "genomaID": "CV3TD12",
    "color": {
        "x": 0.4594835638999939,
        "y": 0.552699863910675,
        "z": 0.8818554878234863
    },
    "vertexNumber": 3,
    "colliderVertices": [
        {
            "x": -1.3322129249572755,
            "y": -0.3242015540599823
        },
        {
            "x": 1.406930685043335,
            "y": -0.39797013998031618
        },
        {
            "x": -1.7638306617736817,
            "y": 0.37279003858566286
        }
    ],
    "triangles": [
        1,
        0,
        2
    ],
    "carDensity": 3.0,
    "suspension": 0.7623437643051148,
    "motorSpeed": 874,
    "frontDensity": 4.900000095367432,
    "frontRadius": 0.6907195448875427,
    "frontOffset": 1.2956340312957764,
    "backDensity": 3.5,
    "backRadius": 0.5492756366729736,
    "backOffset": -1.3896231651306153,
    "score": 915,
    "maxDistance": 834,
    "maxTime": 102.0
}{
    "ID": 62153,
    "genomaID": "CV3TD11",
    "color": {
        "x": 0.22645524144172669,
        "y": 0.08218289166688919,
        "z": 0.5214018225669861
    },
    "vertexNumber": 3,
    "colliderVertices": [
        {
            "x": -1.3322129249572755,
            "y": -0.3242015540599823
        },
        {
            "x": 1.406930685043335,
            "y": -0.39797013998031618
        },
        {
            "x": -1.7638306617736817,
            "y": 0.37279003858566286
        }
    ],
    "triangles": [
        1,
        0,
        2
    ],
    "carDensity": 3.0,
    "suspension": 0.8906967639923096,
    "motorSpeed": 879,
    "frontDensity": 4.599999904632568,
    "frontRadius": 0.6645531058311462,
    "frontOffset": 0.5697696208953857,
    "backDensity": 3.4000000953674318,
    "backRadius": 0.5423464775085449,
    "backOffset": -1.4185408353805543,
    "score": 914,
    "maxDistance": 834,
    "maxTime": 105.0
}{
    "ID": 62039,
    "genomaID": "CV3TD9",
    "color": {
        "x": 0.27025511860847475,
        "y": 0.08126045018434525,
        "z": 0.4123501181602478
    },
    "vertexNumber": 3,
    "colliderVertices": [
        {
            "x": -1.3322129249572755,
            "y": -0.3242015540599823
        },
        {
            "x": 1.406930685043335,
            "y": -0.39797013998031618
        },
        {
            "x": -1.7638306617736817,
            "y": 0.37279003858566286
        }
    ],
    "triangles": [
        1,
        0,
        2
    ],
    "carDensity": 3.0,
    "suspension": 0.9889678955078125,
    "motorSpeed": 1053,
    "frontDensity": 3.299999952316284,
    "frontRadius": 0.5325567722320557,
    "frontOffset": 1.4672107696533204,
    "backDensity": 3.200000047683716,
    "backRadius": 0.5220075845718384,
    "backOffset": -1.4741466045379639,
    "score": 8,
    "maxDistance": 1,
    "maxTime": 1.0
}{
    "ID": 62200,
    "genomaID": "CV3TD11",
    "color": {
        "x": 0.7681076526641846,
        "y": 0.2796610891819,
        "z": 0.3934035897254944
    },
    "vertexNumber": 3,
    "colliderVertices": [
        {
            "x": -1.276961088180542,
            "y": -0.20922300219535829
        },
        {
            "x": 1.4051179885864258,
            "y": -0.044353190809488299
        },
        {
            "x": 1.3838787078857422,
            "y": 0.6532552242279053
        }
    ],
    "triangles": [
        1,
        0,
        2
    ],
    "carDensity": 3.0,
    "suspension": 0.5512653589248657,
    "motorSpeed": 879,
    "frontDensity": 4.800000190734863,
    "frontRadius": 0.6832131743431091,
    "frontOffset": 1.1681898832321168,
    "backDensity": 3.200000047683716,
    "backRadius": 0.5220075845718384,
    "backOffset": -0.6444584131240845,
    "score": 0,
    "maxDistance": 0,
    "maxTime": 1.0
}