{
    "ID": 4307,
    "genomaID": "CV3TD10",
    "color": {
        "x": 0.4525945782661438,
        "y": 0.32109811902046206,
        "z": 0.4646300673484802
    },
    "vertexNumber": 3,
    "colliderVertices": [
        {
            "x": -1.7958272695541382,
            "y": -0.0013286472531035543
        },
        {
            "x": 1.4582598209381104,
            "y": -0.015307964757084847
        },
        {
            "x": 0.0010077953338623047,
            "y": 0.4214089512825012
        }
    ],
    "triangles": [
        1,
        0,
        2
    ],
    "carDensity": 3.0,
    "suspension": 0.6319156289100647,
    "motorSpeed": 755,
    "frontDensity": 3.799999952316284,
    "frontRadius": 0.5778767466545105,
    "frontOffset": 1.2354791164398194,
    "backDensity": 2.9000000953674318,
    "backRadius": 0.4888356328010559,
    "backOffset": -0.9536811113357544,
    "score": 897,
    "maxDistance": 834,
    "maxTime": 132.0
}{
    "ID": 4351,
    "genomaID": "CV4TD9",
    "color": {
        "x": 0.2878674566745758,
        "y": 0.8805838823318481,
        "z": 0.012320639565587044
    },
    "vertexNumber": 4,
    "colliderVertices": [
        {
            "x": -1.113943338394165,
            "y": -0.012207390740513802
        },
        {
            "x": 1.7495017051696778,
            "y": -0.4614831209182739
        },
        {
            "x": -1.627697467803955,
            "y": 0.35149186849594118
        },
        {
            "x": -1.8129267692565919,
            "y": 0.5604787468910217
        }
    ],
    "triangles": [
        3,
        0,
        1
    ],
    "carDensity": 4.0,
    "suspension": 0.8286224603652954,
    "motorSpeed": 755,
    "frontDensity": 3.0,
    "frontRadius": 0.5039056539535523,
    "frontOffset": 1.2354791164398194,
    "backDensity": 2.5,
    "backRadius": 0.4458952844142914,
    "backOffset": -1.442556619644165,
    "score": 890,
    "maxDistance": 833,
    "maxTime": 147.0
}{
    "ID": 4344,
    "genomaID": "CV3TD10",
    "color": {
        "x": 0.17678166925907136,
        "y": 0.9297158718109131,
        "z": 0.4959257245063782
    },
    "vertexNumber": 3,
    "colliderVertices": [
        {
            "x": -1.4167654514312745,
            "y": -0.05450911074876785
        },
        {
            "x": 1.4079196453094483,
            "y": -0.3937686085700989
        },
        {
            "x": -1.247361660003662,
            "y": 0.22769761085510255
        }
    ],
    "triangles": [
        1,
        0,
        2
    ],
    "carDensity": 3.0,
    "suspension": 0.9905532002449036,
    "motorSpeed": 595,
    "frontDensity": 3.200000047683716,
    "frontRadius": 0.522019624710083,
    "frontOffset": 1.4220318794250489,
    "backDensity": 3.9000000953674318,
    "backRadius": 0.5867034792900086,
    "backOffset": -0.997062087059021,
    "score": 887,
    "maxDistance": 833,
    "maxTime": 155.0
}{
    "ID": 4299,
    "genomaID": "CV5TD11",
    "color": {
        "x": 0.8460570573806763,
        "y": 0.8269734382629395,
        "z": 0.043143633753061298
    },
    "vertexNumber": 5,
    "colliderVertices": [
        {
            "x": -1.3800666332244874,
            "y": -0.37071654200553896
        },
        {
            "x": 1.6134655475616456,
            "y": -0.45224273204803469
        },
        {
            "x": 1.880506992340088,
            "y": 0.32503563165664675
        },
        {
            "x": 1.3472490310668946,
            "y": 0.9123876094818115
        },
        {
            "x": 0.41400647163391116,
            "y": 0.026189684867858888
        }
    ],
    "triangles": [
        1,
        4,
        3,
        3,
        2,
        1,
        1,
        0,
        4
    ],
    "carDensity": 5.0,
    "suspension": 0.5219401121139526,
    "motorSpeed": 695,
    "frontDensity": 3.5999999046325685,
    "frontRadius": 0.5610605478286743,
    "frontOffset": 1.2819645404815674,
    "backDensity": 2.200000047683716,
    "backRadius": 0.42074716091156008,
    "backOffset": -0.8408917188644409,
    "score": 103,
    "maxDistance": 45,
    "maxTime": 8.0
}{
    "ID": 4400,
    "genomaID": "CV5TD12",
    "color": {
        "x": 0.7681076526641846,
        "y": 0.2796610891819,
        "z": 0.3934035897254944
    },
    "vertexNumber": 5,
    "colliderVertices": [
        {
            "x": -1.0742172002792359,
            "y": -0.42154473066329958
        },
        {
            "x": 1.451709508895874,
            "y": -0.1636391431093216
        },
        {
            "x": 1.7822799682617188,
            "y": 0.644622802734375
        },
        {
            "x": 0.9563130736351013,
            "y": 0.09720468521118164
        },
        {
            "x": 0.4447619915008545,
            "y": 0.4808242917060852
        }
    ],
    "triangles": [
        3,
        1,
        0,
        0,
        4,
        3,
        3,
        2,
        1
    ],
    "carDensity": 5.0,
    "suspension": 0.8747963309288025,
    "motorSpeed": 1293,
    "frontDensity": 3.700000047683716,
    "frontRadius": 0.5724977254867554,
    "frontOffset": 0.7343355417251587,
    "backDensity": 2.700000047683716,
    "backRadius": 0.4735147953033447,
    "backOffset": -1.291201114654541,
    "score": 0,
    "maxDistance": 0,
    "maxTime": 1.0
}