{
    "ID": 107438,
    "genomaID": "CV3TD11",
    "color": {
        "x": 0.8690057992935181,
        "y": 0.8295984268188477,
        "z": 0.17063750326633454
    },
    "vertexNumber": 3,
    "colliderVertices": [
        {
            "x": -1.448728084564209,
            "y": -0.4206351041793823
        },
        {
            "x": 1.2341947555541993,
            "y": -0.4096236228942871
        },
        {
            "x": -0.7727158069610596,
            "y": 0.05484116077423096
        }
    ],
    "triangles": [
        1,
        0,
        2
    ],
    "carDensity": 3.0,
    "suspension": 0.7125044465065002,
    "motorSpeed": 1230,
    "frontDensity": 4.900000095367432,
    "frontRadius": 0.687800943851471,
    "frontOffset": 0.6318384408950806,
    "backDensity": 2.799999952316284,
    "backRadius": 0.47771579027175906,
    "backOffset": -1.0162640810012818,
    "score": 929,
    "maxDistance": 833,
    "maxTime": 87.0
}{
    "ID": 107569,
    "genomaID": "CV3TD12",
    "color": {
        "x": 0.5852729678153992,
        "y": 0.9621760845184326,
        "z": 0.016023756936192514
    },
    "vertexNumber": 3,
    "colliderVertices": [
        {
            "x": -1.144219160079956,
            "y": -0.34459778666496279
        },
        {
            "x": 1.1720192432403565,
            "y": -0.25926777720451357
        },
        {
            "x": -1.223421573638916,
            "y": 0.5928296446800232
        }
    ],
    "triangles": [
        1,
        0,
        2
    ],
    "carDensity": 3.0,
    "suspension": 0.7015836834907532,
    "motorSpeed": 850,
    "frontDensity": 4.900000095367432,
    "frontRadius": 0.6907195448875427,
    "frontOffset": 1.2684844732284547,
    "backDensity": 3.5999999046325685,
    "backRadius": 0.5622387528419495,
    "backOffset": -0.8787118196487427,
    "score": 913,
    "maxDistance": 833,
    "maxTime": 104.0
}{
    "ID": 107533,
    "genomaID": "CV3TD11",
    "color": {
        "x": 0.87385094165802,
        "y": 0.2363967001438141,
        "z": 0.37498119473457339
    },
    "vertexNumber": 3,
    "colliderVertices": [
        {
            "x": -1.448728084564209,
            "y": -0.4206351041793823
        },
        {
            "x": 1.2341947555541993,
            "y": -0.4096236228942871
        },
        {
            "x": -0.7727158069610596,
            "y": 0.05484116077423096
        }
    ],
    "triangles": [
        1,
        0,
        2
    ],
    "carDensity": 3.0,
    "suspension": 0.8355655074119568,
    "motorSpeed": 850,
    "frontDensity": 4.900000095367432,
    "frontRadius": 0.6881802082061768,
    "frontOffset": 1.3332135677337647,
    "backDensity": 3.299999952316284,
    "backRadius": 0.5282671451568604,
    "backOffset": -1.2433675527572632,
    "score": 911,
    "maxDistance": 832,
    "maxTime": 105.0
}{
    "ID": 107546,
    "genomaID": "CV3TD11",
    "color": {
        "x": 0.3568008244037628,
        "y": 0.6081945300102234,
        "z": 0.7886466979980469
    },
    "vertexNumber": 3,
    "colliderVertices": [
        {
            "x": -1.448728084564209,
            "y": -0.4206351041793823
        },
        {
            "x": 1.2341947555541993,
            "y": -0.4096236228942871
        },
        {
            "x": -0.7727158069610596,
            "y": 0.05484116077423096
        }
    ],
    "triangles": [
        1,
        0,
        2
    ],
    "carDensity": 3.0,
    "suspension": 0.9602065086364746,
    "motorSpeed": 690,
    "frontDensity": 4.900000095367432,
    "frontRadius": 0.6881802082061768,
    "frontOffset": 1.3332135677337647,
    "backDensity": 3.0,
    "backRadius": 0.49846768379211428,
    "backOffset": -1.1254314184188843,
    "score": 24,
    "maxDistance": 4,
    "maxTime": 2.0
}{
    "ID": 107577,
    "genomaID": "CV3TD10",
    "color": {
        "x": 0.36806872487068179,
        "y": 0.05324602872133255,
        "z": 0.9842822551727295
    },
    "vertexNumber": 3,
    "colliderVertices": [
        {
            "x": -1.448728084564209,
            "y": -0.4206351041793823
        },
        {
            "x": 1.2341947555541993,
            "y": -0.4096236228942871
        },
        {
            "x": -0.7727158069610596,
            "y": 0.05484116077423096
        }
    ],
    "triangles": [
        1,
        0,
        2
    ],
    "carDensity": 3.0,
    "suspension": 0.49845582246780398,
    "motorSpeed": 850,
    "frontDensity": 2.799999952316284,
    "frontRadius": 0.476993203163147,
    "frontOffset": 0.6077016592025757,
    "backDensity": 3.5999999046325685,
    "backRadius": 0.5622387528419495,
    "backOffset": -1.3984644412994385,
    "score": -11,
    "maxDistance": -1,
    "maxTime": 1.0
}