{
    "ID": 23047,
    "genomaID": "CV3TD12",
    "color": {
        "x": 0.30198433995246889,
        "y": 0.934977650642395,
        "z": 0.3096877634525299
    },
    "vertexNumber": 3,
    "colliderVertices": [
        {
            "x": -1.8713977336883546,
            "y": -0.1088906079530716
        },
        {
            "x": 1.0684576034545899,
            "y": -0.3078339993953705
        },
        {
            "x": 0.4887425899505615,
            "y": 0.38557344675064089
        }
    ],
    "triangles": [
        1,
        0,
        2
    ],
    "carDensity": 3.0,
    "suspension": 0.6772002577781677,
    "motorSpeed": 884,
    "frontDensity": 4.599999904632568,
    "frontRadius": 0.6590642929077148,
    "frontOffset": 1.3684748411178589,
    "backDensity": 3.5999999046325685,
    "backRadius": 0.5591131448745728,
    "backOffset": -0.7576496005058289,
    "score": 916,
    "maxDistance": 834,
    "maxTime": 102.0
}{
    "ID": 23033,
    "genomaID": "CV3TD10",
    "color": {
        "x": 0.9543694257736206,
        "y": 0.6707087159156799,
        "z": 0.4607693552970886
    },
    "vertexNumber": 3,
    "colliderVertices": [
        {
            "x": -1.4167654514312745,
            "y": -0.05450911074876785
        },
        {
            "x": 1.4079196453094483,
            "y": -0.3937686085700989
        },
        {
            "x": -1.247361660003662,
            "y": 0.22769761085510255
        }
    ],
    "triangles": [
        1,
        0,
        2
    ],
    "carDensity": 3.0,
    "suspension": 0.5318405628204346,
    "motorSpeed": 884,
    "frontDensity": 4.5,
    "frontRadius": 0.6487516760826111,
    "frontOffset": 1.2166340351104737,
    "backDensity": 2.9000000953674318,
    "backRadius": 0.49076682329177859,
    "backOffset": -0.6360828876495361,
    "score": 911,
    "maxDistance": 833,
    "maxTime": 107.0
}{
    "ID": 23145,
    "genomaID": "CV3TD9",
    "color": {
        "x": 0.3469218313694,
        "y": 0.999477744102478,
        "z": 0.32627180218696597
    },
    "vertexNumber": 3,
    "colliderVertices": [
        {
            "x": -1.6613945960998536,
            "y": -0.28859129548072817
        },
        {
            "x": 1.2612743377685547,
            "y": -0.37575942277908327
        },
        {
            "x": 0.5101146101951599,
            "y": 0.6449377536773682
        }
    ],
    "triangles": [
        1,
        0,
        2
    ],
    "carDensity": 3.0,
    "suspension": 0.9187164902687073,
    "motorSpeed": 884,
    "frontDensity": 4.5,
    "frontRadius": 0.6487516760826111,
    "frontOffset": 1.152484655380249,
    "backDensity": 2.0999999046325685,
    "backRadius": 0.40621232986450198,
    "backOffset": -0.8062469363212586,
    "score": 908,
    "maxDistance": 833,
    "maxTime": 110.0
}{
    "ID": 23090,
    "genomaID": "CV3TD10",
    "color": {
        "x": 0.3084550201892853,
        "y": 0.9394848346710205,
        "z": 0.9043233394622803
    },
    "vertexNumber": 3,
    "colliderVertices": [
        {
            "x": -1.4167654514312745,
            "y": -0.05450911074876785
        },
        {
            "x": 1.4079196453094483,
            "y": -0.3937686085700989
        },
        {
            "x": -1.247361660003662,
            "y": 0.22769761085510255
        }
    ],
    "triangles": [
        1,
        0,
        2
    ],
    "carDensity": 3.0,
    "suspension": 0.7017514109611511,
    "motorSpeed": 884,
    "frontDensity": 3.5,
    "frontRadius": 0.5462163090705872,
    "frontOffset": 0.7871953845024109,
    "backDensity": 2.9000000953674318,
    "backRadius": 0.4860033392906189,
    "backOffset": -0.7562893033027649,
    "score": 20,
    "maxDistance": 3,
    "maxTime": 2.0
}{
    "ID": 23194,
    "genomaID": "CV6TD13",
    "color": {
        "x": 0.7795941829681397,
        "y": 0.2871544659137726,
        "z": 0.42937761545181277
    },
    "vertexNumber": 6,
    "colliderVertices": [
        {
            "x": -1.7841142416000367,
            "y": -0.30643710494041445
        },
        {
            "x": 1.3215863704681397,
            "y": -0.14685173332691194
        },
        {
            "x": 1.6637358665466309,
            "y": 0.7053147554397583
        },
        {
            "x": 0.9310073256492615,
            "y": 0.26898056268692019
        },
        {
            "x": 0.7388953566551209,
            "y": 0.8157304525375366
        },
        {
            "x": -1.8461384773254395,
            "y": 0.10973012447357178
        }
    ],
    "triangles": [
        3,
        1,
        5,
        5,
        4,
        3,
        3,
        2,
        1,
        1,
        0,
        5
    ],
    "carDensity": 6.0,
    "suspension": 0.47062262892723086,
    "motorSpeed": 884,
    "frontDensity": 4.5,
    "frontRadius": 0.6487516760826111,
    "frontOffset": 0.7822595238685608,
    "backDensity": 2.799999952316284,
    "backRadius": 0.47794705629348757,
    "backOffset": -0.5169346332550049,
    "score": 0,
    "maxDistance": 0,
    "maxTime": 2.0
}