{
    "ID": 92403,
    "genomaID": "CV3TD11",
    "color": {
        "x": 0.7694025039672852,
        "y": 0.6303190588951111,
        "z": 0.31513217091560366
    },
    "vertexNumber": 3,
    "colliderVertices": [
        {
            "x": -1.24593186378479,
            "y": -0.17356999218463899
        },
        {
            "x": 1.4254326820373536,
            "y": -0.31066444516181948
        },
        {
            "x": -1.0050806999206544,
            "y": 0.2958831191062927
        }
    ],
    "triangles": [
        1,
        0,
        2
    ],
    "carDensity": 3.0,
    "suspension": 0.6049215793609619,
    "motorSpeed": 927,
    "frontDensity": 4.599999904632568,
    "frontRadius": 0.6589146256446838,
    "frontOffset": 1.0673052072525025,
    "backDensity": 3.0999999046325685,
    "backRadius": 0.5056025981903076,
    "backOffset": -1.353297472000122,
    "score": 916,
    "maxDistance": 834,
    "maxTime": 101.0
}{
    "ID": 92445,
    "genomaID": "CV3TD11",
    "color": {
        "x": 0.8397320508956909,
        "y": 0.21620431542396546,
        "z": 0.005464315880089998
    },
    "vertexNumber": 3,
    "colliderVertices": [
        {
            "x": -1.24593186378479,
            "y": -0.17356999218463899
        },
        {
            "x": 1.4254326820373536,
            "y": -0.31066444516181948
        },
        {
            "x": -1.0050806999206544,
            "y": 0.2958831191062927
        }
    ],
    "triangles": [
        1,
        0,
        2
    ],
    "carDensity": 3.0,
    "suspension": 0.4301515519618988,
    "motorSpeed": 850,
    "frontDensity": 4.900000095367432,
    "frontRadius": 0.6943543553352356,
    "frontOffset": 0.808815062046051,
    "backDensity": 3.0999999046325685,
    "backRadius": 0.5093936920166016,
    "backOffset": -1.3083957433700562,
    "score": 912,
    "maxDistance": 833,
    "maxTime": 105.0
}{
    "ID": 92531,
    "genomaID": "CV3TD11",
    "color": {
        "x": 0.5674471259117127,
        "y": 0.9338675737380981,
        "z": 0.18931534886360169
    },
    "vertexNumber": 3,
    "colliderVertices": [
        {
            "x": -1.448728084564209,
            "y": -0.4206351041793823
        },
        {
            "x": 1.2341947555541993,
            "y": -0.4096236228942871
        },
        {
            "x": -0.7727158069610596,
            "y": 0.05484116077423096
        }
    ],
    "triangles": [
        1,
        0,
        2
    ],
    "carDensity": 3.0,
    "suspension": 0.6266824007034302,
    "motorSpeed": 850,
    "frontDensity": 4.900000095367432,
    "frontRadius": 0.6907195448875427,
    "frontOffset": 1.3633992671966553,
    "backDensity": 2.700000047683716,
    "backRadius": 0.4730428457260132,
    "backOffset": -1.2692713737487794,
    "score": 911,
    "maxDistance": 833,
    "maxTime": 106.0
}{
    "ID": 92465,
    "genomaID": "CV3TD10",
    "color": {
        "x": 0.2190650999546051,
        "y": 0.819962739944458,
        "z": 0.1384425312280655
    },
    "vertexNumber": 3,
    "colliderVertices": [
        {
            "x": -1.24593186378479,
            "y": -0.17356999218463899
        },
        {
            "x": 1.4254326820373536,
            "y": -0.31066444516181948
        },
        {
            "x": -1.0050806999206544,
            "y": 0.2958831191062927
        }
    ],
    "triangles": [
        1,
        0,
        2
    ],
    "carDensity": 3.0,
    "suspension": 0.6257780194282532,
    "motorSpeed": 899,
    "frontDensity": 3.700000047683716,
    "frontRadius": 0.5662796497344971,
    "frontOffset": 0.9510821104049683,
    "backDensity": 3.299999952316284,
    "backRadius": 0.5286519527435303,
    "backOffset": -1.49778413772583,
    "score": 25,
    "maxDistance": 4,
    "maxTime": 2.0
}{
    "ID": 92596,
    "genomaID": "CV3TD10",
    "color": {
        "x": 0.04487193003296852,
        "y": 0.9218603372573853,
        "z": 0.05435562878847122
    },
    "vertexNumber": 3,
    "colliderVertices": [
        {
            "x": -1.24593186378479,
            "y": -0.17356999218463899
        },
        {
            "x": 1.4254326820373536,
            "y": -0.31066444516181948
        },
        {
            "x": -1.0050806999206544,
            "y": 0.2958831191062927
        }
    ],
    "triangles": [
        1,
        0,
        2
    ],
    "carDensity": 3.0,
    "suspension": 0.9253244400024414,
    "motorSpeed": 926,
    "frontDensity": 4.400000095367432,
    "frontRadius": 0.6384191513061523,
    "frontOffset": 0.7366093397140503,
    "backDensity": 3.0999999046325685,
    "backRadius": 0.5096920728683472,
    "backOffset": -1.082116961479187,
    "score": 0,
    "maxDistance": 0,
    "maxTime": 1.0
}