{
    "ID": 74203,
    "genomaID": "CV3TD12",
    "color": {
        "x": 0.7694025039672852,
        "y": 0.6303190588951111,
        "z": 0.31513217091560366
    },
    "vertexNumber": 3,
    "colliderVertices": [
        {
            "x": -1.6214687824249268,
            "y": -0.08317125588655472
        },
        {
            "x": 1.2661044597625733,
            "y": -0.3657998740673065
        },
        {
            "x": -0.8836376667022705,
            "y": 0.7232869863510132
        }
    ],
    "triangles": [
        1,
        0,
        2
    ],
    "carDensity": 3.0,
    "suspension": 0.6328363418579102,
    "motorSpeed": 884,
    "frontDensity": 4.900000095367432,
    "frontRadius": 0.69178706407547,
    "frontOffset": 0.6180622577667236,
    "backDensity": 3.5999999046325685,
    "backRadius": 0.564211905002594,
    "backOffset": -0.5648581981658936,
    "score": 917,
    "maxDistance": 834,
    "maxTime": 100.0
}{
    "ID": 74391,
    "genomaID": "CV3TD11",
    "color": {
        "x": 0.43907028436660769,
        "y": 0.31042757630348208,
        "z": 0.19297173619270326
    },
    "vertexNumber": 3,
    "colliderVertices": [
        {
            "x": -1.3322129249572755,
            "y": -0.3242015540599823
        },
        {
            "x": 1.406930685043335,
            "y": -0.39797013998031618
        },
        {
            "x": -1.7638306617736817,
            "y": 0.37279003858566286
        }
    ],
    "triangles": [
        1,
        0,
        2
    ],
    "carDensity": 3.0,
    "suspension": 0.6863203048706055,
    "motorSpeed": 856,
    "frontDensity": 4.900000095367432,
    "frontRadius": 0.6907195448875427,
    "frontOffset": 1.4865626096725464,
    "backDensity": 3.299999952316284,
    "backRadius": 0.5253103375434876,
    "backOffset": -0.8185033202171326,
    "score": 913,
    "maxDistance": 834,
    "maxTime": 106.0
}{
    "ID": 74372,
    "genomaID": "CV3TD10",
    "color": {
        "x": 0.2748730480670929,
        "y": 0.19846823811531068,
        "z": 0.7138980031013489
    },
    "vertexNumber": 3,
    "colliderVertices": [
        {
            "x": -1.5227980613708497,
            "y": -0.06814170628786087
        },
        {
            "x": 1.1257789134979249,
            "y": -0.05913037806749344
        },
        {
            "x": -0.657304048538208,
            "y": 0.8237413167953491
        }
    ],
    "triangles": [
        1,
        0,
        2
    ],
    "carDensity": 3.0,
    "suspension": 0.5671048164367676,
    "motorSpeed": 865,
    "frontDensity": 4.900000095367432,
    "frontRadius": 0.690664529800415,
    "frontOffset": 0.9813600778579712,
    "backDensity": 2.200000047683716,
    "backRadius": 0.4164583086967468,
    "backOffset": -0.7639763951301575,
    "score": 910,
    "maxDistance": 834,
    "maxTime": 110.0
}{
    "ID": 74243,
    "genomaID": "CV4TD12",
    "color": {
        "x": 0.8050636053085327,
        "y": 0.35933247208595278,
        "z": 0.1674269586801529
    },
    "vertexNumber": 4,
    "colliderVertices": [
        {
            "x": -1.8775657415390015,
            "y": -0.18851616978645326
        },
        {
            "x": 1.6771976947784424,
            "y": -0.09059638530015946
        },
        {
            "x": -1.5365562438964844,
            "y": 0.8904644250869751
        },
        {
            "x": -1.603816032409668,
            "y": 0.7427138090133667
        }
    ],
    "triangles": [
        3,
        2,
        1,
        1,
        0,
        3
    ],
    "carDensity": 4.0,
    "suspension": 0.7620567679405212,
    "motorSpeed": 1245,
    "frontDensity": 4.900000095367432,
    "frontRadius": 0.6895051598548889,
    "frontOffset": 0.7684434056282044,
    "backDensity": 3.200000047683716,
    "backRadius": 0.5198066234588623,
    "backOffset": -0.5426129102706909,
    "score": 0,
    "maxDistance": 0,
    "maxTime": 0.0
}{
    "ID": 74374,
    "genomaID": "CV3TD8",
    "color": {
        "x": 0.7046118378639221,
        "y": 0.33948877453804018,
        "z": 0.3959283232688904
    },
    "vertexNumber": 3,
    "colliderVertices": [
        {
            "x": -1.3322129249572755,
            "y": -0.3242015540599823
        },
        {
            "x": 1.406930685043335,
            "y": -0.39797013998031618
        },
        {
            "x": -1.7638306617736817,
            "y": 0.37279003858566286
        }
    ],
    "triangles": [
        1,
        0,
        2
    ],
    "carDensity": 3.0,
    "suspension": 0.8778999447822571,
    "motorSpeed": 877,
    "frontDensity": 2.5,
    "frontRadius": 0.45459306240081789,
    "frontOffset": 0.8256761431694031,
    "backDensity": 3.200000047683716,
    "backRadius": 0.5198066234588623,
    "backOffset": -0.9058302640914917,
    "score": -11,
    "maxDistance": -1,
    "maxTime": 1.0
}