{
    "ID": 24205,
    "genomaID": "CV3TD11",
    "color": {
        "x": 0.3580075800418854,
        "y": 0.6482211947441101,
        "z": 0.6104552149772644
    },
    "vertexNumber": 3,
    "colliderVertices": [
        {
            "x": -1.4167654514312745,
            "y": -0.05450911074876785
        },
        {
            "x": 1.4079196453094483,
            "y": -0.3937686085700989
        },
        {
            "x": -1.247361660003662,
            "y": 0.22769761085510255
        }
    ],
    "triangles": [
        1,
        0,
        2
    ],
    "carDensity": 3.0,
    "suspension": 0.8153245449066162,
    "motorSpeed": 897,
    "frontDensity": 4.699999809265137,
    "frontRadius": 0.6665397882461548,
    "frontOffset": 1.2248823642730713,
    "backDensity": 3.299999952316284,
    "backRadius": 0.5276777744293213,
    "backOffset": -1.2653487920761109,
    "score": 914,
    "maxDistance": 833,
    "maxTime": 103.0
}{
    "ID": 24370,
    "genomaID": "CV3TD11",
    "color": {
        "x": 0.8832259178161621,
        "y": 0.7785098552703857,
        "z": 0.18183256685733796
    },
    "vertexNumber": 3,
    "colliderVertices": [
        {
            "x": -1.4167654514312745,
            "y": -0.05450911074876785
        },
        {
            "x": 1.4079196453094483,
            "y": -0.3937686085700989
        },
        {
            "x": -1.247361660003662,
            "y": 0.22769761085510255
        }
    ],
    "triangles": [
        1,
        0,
        2
    ],
    "carDensity": 3.0,
    "suspension": 0.5709214806556702,
    "motorSpeed": 884,
    "frontDensity": 4.599999904632568,
    "frontRadius": 0.6557742357254028,
    "frontOffset": 0.9846915006637573,
    "backDensity": 2.9000000953674318,
    "backRadius": 0.4860033392906189,
    "backOffset": -1.4194543361663819,
    "score": 912,
    "maxDistance": 834,
    "maxTime": 107.0
}{
    "ID": 24310,
    "genomaID": "CV5TD10",
    "color": {
        "x": 0.2773931324481964,
        "y": 0.4475160241127014,
        "z": 0.5171505808830261
    },
    "vertexNumber": 5,
    "colliderVertices": [
        {
            "x": -1.0090340375900269,
            "y": -0.1341664344072342
        },
        {
            "x": 1.2543580532073975,
            "y": -0.40560805797576907
        },
        {
            "x": 0.32585597038269045,
            "y": 0.29389435052871706
        },
        {
            "x": 0.2866957187652588,
            "y": 0.09654545783996582
        },
        {
            "x": -0.9438703060150147,
            "y": 0.10324585437774658
        }
    ],
    "triangles": [
        1,
        4,
        3,
        3,
        2,
        1,
        1,
        0,
        4
    ],
    "carDensity": 5.0,
    "suspension": 0.4515758752822876,
    "motorSpeed": 884,
    "frontDensity": 2.700000047683716,
    "frontRadius": 0.47293365001678469,
    "frontOffset": 1.3155626058578492,
    "backDensity": 2.299999952316284,
    "backRadius": 0.4312065839767456,
    "backOffset": -1.0649524927139283,
    "score": 895,
    "maxDistance": 833,
    "maxTime": 135.0
}{
    "ID": 24254,
    "genomaID": "CV5TD13",
    "color": {
        "x": 0.22659209370613099,
        "y": 0.3516906797885895,
        "z": 0.38836878538131716
    },
    "vertexNumber": 5,
    "colliderVertices": [
        {
            "x": -1.9984173774719239,
            "y": -0.20870885252952577
        },
        {
            "x": 1.012247920036316,
            "y": -0.4704311490058899
        },
        {
            "x": -0.09201550483703613,
            "y": 0.11592793464660645
        },
        {
            "x": -0.4754951000213623,
            "y": 0.6588523387908936
        },
        {
            "x": -0.6622335910797119,
            "y": 0.17536413669586183
        }
    ],
    "triangles": [
        2,
        1,
        4,
        4,
        3,
        2,
        1,
        0,
        4
    ],
    "carDensity": 5.0,
    "suspension": 0.5649625062942505,
    "motorSpeed": 884,
    "frontDensity": 4.599999904632568,
    "frontRadius": 0.6557742357254028,
    "frontOffset": 1.1076380014419556,
    "backDensity": 2.9000000953674318,
    "backRadius": 0.4860033392906189,
    "backOffset": -0.8968621492385864,
    "score": 13,
    "maxDistance": 2,
    "maxTime": 2.0
}{
    "ID": 24391,
    "genomaID": "CV3TD13",
    "color": {
        "x": 0.43907028436660769,
        "y": 0.31042757630348208,
        "z": 0.19297173619270326
    },
    "vertexNumber": 3,
    "colliderVertices": [
        {
            "x": -1.4167654514312745,
            "y": -0.05450911074876785
        },
        {
            "x": 1.4079196453094483,
            "y": -0.3937686085700989
        },
        {
            "x": -1.247361660003662,
            "y": 0.22769761085510255
        }
    ],
    "triangles": [
        1,
        0,
        2
    ],
    "carDensity": 3.0,
    "suspension": 0.8683582544326782,
    "motorSpeed": 884,
    "frontDensity": 4.599999904632568,
    "frontRadius": 0.6557742357254028,
    "frontOffset": 1.0982435941696168,
    "backDensity": 4.599999904632568,
    "backRadius": 0.6599787473678589,
    "backOffset": -0.8162313103675842,
    "score": 0,
    "maxDistance": 0,
    "maxTime": 1.0
}