{
    "ID": 42221,
    "genomaID": "CV4TD12",
    "color": {
        "x": 0.32852211594581606,
        "y": 0.3939763903617859,
        "z": 0.050939805805683139
    },
    "vertexNumber": 4,
    "colliderVertices": [
        {
            "x": -1.0020352602005005,
            "y": -0.11292095482349396
        },
        {
            "x": 1.1676745414733887,
            "y": -0.2529011070728302
        },
        {
            "x": 0.798585832118988,
            "y": 0.07508575916290283
        },
        {
            "x": 0.01784348487854004,
            "y": 0.40028291940689089
        }
    ],
    "triangles": [
        3,
        2,
        1,
        1,
        0,
        3
    ],
    "carDensity": 4.0,
    "suspension": 0.6850243210792542,
    "motorSpeed": 879,
    "frontDensity": 5.0,
    "frontRadius": 0.6969074010848999,
    "frontOffset": 0.975887656211853,
    "backDensity": 3.299999952316284,
    "backRadius": 0.5260943174362183,
    "backOffset": -1.3768391609191895,
    "score": 915,
    "maxDistance": 833,
    "maxTime": 102.0
}{
    "ID": 42329,
    "genomaID": "CV3TD11",
    "color": {
        "x": 0.03369355574250221,
        "y": 0.5496731400489807,
        "z": 0.9435156583786011
    },
    "vertexNumber": 3,
    "colliderVertices": [
        {
            "x": -1.4167654514312745,
            "y": -0.05450911074876785
        },
        {
            "x": 1.4079196453094483,
            "y": -0.3937686085700989
        },
        {
            "x": -1.247361660003662,
            "y": 0.22769761085510255
        }
    ],
    "triangles": [
        1,
        0,
        2
    ],
    "carDensity": 3.0,
    "suspension": 0.7909287810325623,
    "motorSpeed": 901,
    "frontDensity": 4.599999904632568,
    "frontRadius": 0.6557742357254028,
    "frontOffset": 1.163409948348999,
    "backDensity": 3.0,
    "backRadius": 0.49757829308509829,
    "backOffset": -0.5189484357833862,
    "score": 913,
    "maxDistance": 833,
    "maxTime": 104.0
}{
    "ID": 42392,
    "genomaID": "CV3TD11",
    "color": {
        "x": 0.09872342646121979,
        "y": 0.4539591670036316,
        "z": 0.37379875779151919
    },
    "vertexNumber": 3,
    "colliderVertices": [
        {
            "x": -1.3322129249572755,
            "y": -0.3242015540599823
        },
        {
            "x": 1.406930685043335,
            "y": -0.39797013998031618
        },
        {
            "x": -1.7638306617736817,
            "y": 0.37279003858566286
        }
    ],
    "triangles": [
        1,
        0,
        2
    ],
    "carDensity": 3.0,
    "suspension": 0.5751150846481323,
    "motorSpeed": 879,
    "frontDensity": 4.800000190734863,
    "frontRadius": 0.6772812604904175,
    "frontOffset": 1.05189049243927,
    "backDensity": 3.0999999046325685,
    "backRadius": 0.5087038278579712,
    "backOffset": -0.9495903253555298,
    "score": 912,
    "maxDistance": 833,
    "maxTime": 105.0
}{
    "ID": 42283,
    "genomaID": "CV3TD10",
    "color": {
        "x": 0.9098223447799683,
        "y": 0.4113134741783142,
        "z": 0.5985069870948792
    },
    "vertexNumber": 3,
    "colliderVertices": [
        {
            "x": -1.4167654514312745,
            "y": -0.05450911074876785
        },
        {
            "x": 1.4079196453094483,
            "y": -0.3937686085700989
        },
        {
            "x": -1.247361660003662,
            "y": 0.22769761085510255
        }
    ],
    "triangles": [
        1,
        0,
        2
    ],
    "carDensity": 3.0,
    "suspension": 0.5258617401123047,
    "motorSpeed": 894,
    "frontDensity": 3.5,
    "frontRadius": 0.5530828237533569,
    "frontOffset": 1.2901310920715333,
    "backDensity": 2.799999952316284,
    "backRadius": 0.47967472672462466,
    "backOffset": -0.8214085698127747,
    "score": 26,
    "maxDistance": 4,
    "maxTime": 2.0
}{
    "ID": 42400,
    "genomaID": "CV4TD13",
    "color": {
        "x": 0.7681076526641846,
        "y": 0.2796610891819,
        "z": 0.3934035897254944
    },
    "vertexNumber": 4,
    "colliderVertices": [
        {
            "x": -1.0020352602005005,
            "y": -0.11292095482349396
        },
        {
            "x": 1.1676745414733887,
            "y": -0.2529011070728302
        },
        {
            "x": 0.798585832118988,
            "y": 0.07508575916290283
        },
        {
            "x": 0.01784348487854004,
            "y": 0.40028291940689089
        }
    ],
    "triangles": [
        3,
        2,
        1,
        1,
        0,
        3
    ],
    "carDensity": 4.0,
    "suspension": 0.9687461853027344,
    "motorSpeed": 879,
    "frontDensity": 4.900000095367432,
    "frontRadius": 0.6919537782669067,
    "frontOffset": 1.053995966911316,
    "backDensity": 4.300000190734863,
    "backRadius": 0.6301524043083191,
    "backOffset": -0.5074833631515503,
    "score": 0,
    "maxDistance": 0,
    "maxTime": 1.0
}