{
    "ID": 40818,
    "genomaID": "CV3TD11",
    "color": {
        "x": 0.7942795753479004,
        "y": 0.32352355122566225,
        "z": 0.00027966502238996327
    },
    "vertexNumber": 3,
    "colliderVertices": [
        {
            "x": -1.3322129249572755,
            "y": -0.3242015540599823
        },
        {
            "x": 1.406930685043335,
            "y": -0.39797013998031618
        },
        {
            "x": -1.7638306617736817,
            "y": 0.37279003858566286
        }
    ],
    "triangles": [
        1,
        0,
        2
    ],
    "carDensity": 3.0,
    "suspension": 0.5382275581359863,
    "motorSpeed": 879,
    "frontDensity": 5.0,
    "frontRadius": 0.6981920599937439,
    "frontOffset": 1.1164036989212037,
    "backDensity": 3.4000000953674318,
    "backRadius": 0.536758542060852,
    "backOffset": -1.1471484899520875,
    "score": 916,
    "maxDistance": 834,
    "maxTime": 102.0
}{
    "ID": 40854,
    "genomaID": "CV4TD12",
    "color": {
        "x": 0.22659209370613099,
        "y": 0.3516906797885895,
        "z": 0.38836878538131716
    },
    "vertexNumber": 4,
    "colliderVertices": [
        {
            "x": -1.0020352602005005,
            "y": -0.11292095482349396
        },
        {
            "x": 1.1676745414733887,
            "y": -0.2529011070728302
        },
        {
            "x": 0.798585832118988,
            "y": 0.07508575916290283
        },
        {
            "x": 0.01784348487854004,
            "y": 0.40028291940689089
        }
    ],
    "triangles": [
        3,
        2,
        1,
        1,
        0,
        3
    ],
    "carDensity": 4.0,
    "suspension": 0.5790017247200012,
    "motorSpeed": 879,
    "frontDensity": 4.699999809265137,
    "frontRadius": 0.6654146909713745,
    "frontOffset": 1.008602261543274,
    "backDensity": 3.299999952316284,
    "backRadius": 0.5260943174362183,
    "backOffset": -1.06662118434906,
    "score": 913,
    "maxDistance": 833,
    "maxTime": 105.0
}{
    "ID": 40943,
    "genomaID": "CV4TD12",
    "color": {
        "x": 0.033374909311532977,
        "y": 0.6836089491844177,
        "z": 0.6072254776954651
    },
    "vertexNumber": 4,
    "colliderVertices": [
        {
            "x": -1.0020352602005005,
            "y": -0.11292095482349396
        },
        {
            "x": 1.1676745414733887,
            "y": -0.2529011070728302
        },
        {
            "x": 0.798585832118988,
            "y": 0.07508575916290283
        },
        {
            "x": 0.01784348487854004,
            "y": 0.40028291940689089
        }
    ],
    "triangles": [
        3,
        2,
        1,
        1,
        0,
        3
    ],
    "carDensity": 4.0,
    "suspension": 0.5808703899383545,
    "motorSpeed": 879,
    "frontDensity": 4.699999809265137,
    "frontRadius": 0.6654146909713745,
    "frontOffset": 1.3017065525054932,
    "backDensity": 3.299999952316284,
    "backRadius": 0.5260943174362183,
    "backOffset": -1.06662118434906,
    "score": 912,
    "maxDistance": 833,
    "maxTime": 105.0
}{
    "ID": 40803,
    "genomaID": "CV3TD7",
    "color": {
        "x": 0.7694025039672852,
        "y": 0.6303190588951111,
        "z": 0.31513217091560366
    },
    "vertexNumber": 3,
    "colliderVertices": [
        {
            "x": -1.3322129249572755,
            "y": -0.3242015540599823
        },
        {
            "x": 1.406930685043335,
            "y": -0.39797013998031618
        },
        {
            "x": -1.7638306617736817,
            "y": 0.37279003858566286
        }
    ],
    "triangles": [
        1,
        0,
        2
    ],
    "carDensity": 3.0,
    "suspension": 0.4855518937110901,
    "motorSpeed": 879,
    "frontDensity": 2.4000000953674318,
    "frontRadius": 0.4406384229660034,
    "frontOffset": 0.6595017910003662,
    "backDensity": 2.299999952316284,
    "backRadius": 0.42765748500823977,
    "backOffset": -0.9430133104324341,
    "score": 0,
    "maxDistance": 0,
    "maxTime": 1.0
}{
    "ID": 40977,
    "genomaID": "CV3TD10",
    "color": {
        "x": 0.36806872487068179,
        "y": 0.05324602872133255,
        "z": 0.9842822551727295
    },
    "vertexNumber": 3,
    "colliderVertices": [
        {
            "x": -1.3322129249572755,
            "y": -0.3242015540599823
        },
        {
            "x": 1.406930685043335,
            "y": -0.39797013998031618
        },
        {
            "x": -1.7638306617736817,
            "y": 0.37279003858566286
        }
    ],
    "triangles": [
        1,
        0,
        2
    ],
    "carDensity": 3.0,
    "suspension": 0.9779634475708008,
    "motorSpeed": 879,
    "frontDensity": 2.299999952316284,
    "frontRadius": 0.42962348461151125,
    "frontOffset": 1.1164036989212037,
    "backDensity": 4.699999809265137,
    "backRadius": 0.6663180589675903,
    "backOffset": -1.2378709316253663,
    "score": -11,
    "maxDistance": -1,
    "maxTime": 1.0
}