{
    "ID": 46107,
    "genomaID": "CV3TD12",
    "color": {
        "x": 0.4525945782661438,
        "y": 0.32109811902046206,
        "z": 0.4646300673484802
    },
    "vertexNumber": 3,
    "colliderVertices": [
        {
            "x": -1.3322129249572755,
            "y": -0.3242015540599823
        },
        {
            "x": 1.406930685043335,
            "y": -0.39797013998031618
        },
        {
            "x": -1.7638306617736817,
            "y": 0.37279003858566286
        }
    ],
    "triangles": [
        1,
        0,
        2
    ],
    "carDensity": 3.0,
    "suspension": 0.9817790985107422,
    "motorSpeed": 879,
    "frontDensity": 5.0,
    "frontRadius": 0.6981920599937439,
    "frontOffset": 0.6784417629241943,
    "backDensity": 3.5,
    "backRadius": 0.5500476360321045,
    "backOffset": -1.2265852689743043,
    "score": 917,
    "maxDistance": 834,
    "maxTime": 101.0
}{
    "ID": 46122,
    "genomaID": "CV3TD11",
    "color": {
        "x": 0.2245418131351471,
        "y": 0.14765430986881257,
        "z": 0.8768653869628906
    },
    "vertexNumber": 3,
    "colliderVertices": [
        {
            "x": -1.3322129249572755,
            "y": -0.3242015540599823
        },
        {
            "x": 1.406930685043335,
            "y": -0.39797013998031618
        },
        {
            "x": -1.7638306617736817,
            "y": 0.37279003858566286
        }
    ],
    "triangles": [
        1,
        0,
        2
    ],
    "carDensity": 3.0,
    "suspension": 0.7815151214599609,
    "motorSpeed": 879,
    "frontDensity": 5.0,
    "frontRadius": 0.6979865431785584,
    "frontOffset": 1.0938383340835572,
    "backDensity": 3.299999952316284,
    "backRadius": 0.5305919051170349,
    "backOffset": -1.2187387943267823,
    "score": 914,
    "maxDistance": 833,
    "maxTime": 103.0
}{
    "ID": 46029,
    "genomaID": "CV3TD10",
    "color": {
        "x": 0.9516907930374146,
        "y": 0.5676619410514832,
        "z": 0.12728632986545564
    },
    "vertexNumber": 3,
    "colliderVertices": [
        {
            "x": -1.3322129249572755,
            "y": -0.3242015540599823
        },
        {
            "x": 1.406930685043335,
            "y": -0.39797013998031618
        },
        {
            "x": -1.7638306617736817,
            "y": 0.37279003858566286
        }
    ],
    "triangles": [
        1,
        0,
        2
    ],
    "carDensity": 3.0,
    "suspension": 0.5914943814277649,
    "motorSpeed": 879,
    "frontDensity": 4.800000190734863,
    "frontRadius": 0.6772812604904175,
    "frontOffset": 1.0905293226242066,
    "backDensity": 2.0999999046325685,
    "backRadius": 0.41105979681015017,
    "backOffset": -0.9902726411819458,
    "score": 911,
    "maxDistance": 834,
    "maxTime": 109.0
}{
    "ID": 46068,
    "genomaID": "CV5TD12",
    "color": {
        "x": 0.15364433825016023,
        "y": 0.7010276913642883,
        "z": 0.2859936058521271
    },
    "vertexNumber": 5,
    "colliderVertices": [
        {
            "x": -1.631803274154663,
            "y": -0.03139698877930641
        },
        {
            "x": 1.2223941087722779,
            "y": -0.1577996164560318
        },
        {
            "x": 0.8543781638145447,
            "y": 0.8965587615966797
        },
        {
            "x": 0.3770482540130615,
            "y": 0.5590929388999939
        },
        {
            "x": -1.0909428596496583,
            "y": 0.6233568787574768
        }
    ],
    "triangles": [
        1,
        4,
        3,
        3,
        2,
        1,
        1,
        0,
        4
    ],
    "carDensity": 5.0,
    "suspension": 0.4276631772518158,
    "motorSpeed": 895,
    "frontDensity": 4.300000190734863,
    "frontRadius": 0.6310133337974548,
    "frontOffset": 1.0041650533676148,
    "backDensity": 3.0999999046325685,
    "backRadius": 0.5066255331039429,
    "backOffset": -0.5467180013656616,
    "score": 7,
    "maxDistance": 1,
    "maxTime": 2.0
}{
    "ID": 46195,
    "genomaID": "CV3TD11",
    "color": {
        "x": 0.8922040462493897,
        "y": 0.16881419718265534,
        "z": 0.9950582981109619
    },
    "vertexNumber": 3,
    "colliderVertices": [
        {
            "x": -1.3322129249572755,
            "y": -0.3242015540599823
        },
        {
            "x": 1.406930685043335,
            "y": -0.39797013998031618
        },
        {
            "x": -1.7638306617736817,
            "y": 0.37279003858566286
        }
    ],
    "triangles": [
        1,
        0,
        2
    ],
    "carDensity": 3.0,
    "suspension": 0.968830943107605,
    "motorSpeed": 1309,
    "frontDensity": 4.900000095367432,
    "frontRadius": 0.6862618923187256,
    "frontOffset": 1.470952033996582,
    "backDensity": 3.200000047683716,
    "backRadius": 0.5157408714294434,
    "backOffset": -1.0397871732711793,
    "score": 0,
    "maxDistance": 0,
    "maxTime": 1.0
}