{
    "ID": 80648,
    "genomaID": "CV3TD12",
    "color": {
        "x": 0.5797355771064758,
        "y": 0.4698863625526428,
        "z": 0.5692866444587708
    },
    "vertexNumber": 3,
    "colliderVertices": [
        {
            "x": -1.4517676830291749,
            "y": -0.3785870671272278
        },
        {
            "x": 1.0073214769363404,
            "y": -0.056303925812244418
        },
        {
            "x": 0.1018216609954834,
            "y": 0.5950250029563904
        }
    ],
    "triangles": [
        1,
        0,
        2
    ],
    "carDensity": 3.0,
    "suspension": 0.5087792873382568,
    "motorSpeed": 963,
    "frontDensity": 4.900000095367432,
    "frontRadius": 0.6907195448875427,
    "frontOffset": 1.440321683883667,
    "backDensity": 3.700000047683716,
    "backRadius": 0.5668555498123169,
    "backOffset": -0.8718487024307251,
    "score": 918,
    "maxDistance": 833,
    "maxTime": 98.0
}{
    "ID": 80641,
    "genomaID": "CV3TD11",
    "color": {
        "x": 0.7170844674110413,
        "y": 0.5298733115196228,
        "z": 0.2514771521091461
    },
    "vertexNumber": 3,
    "colliderVertices": [
        {
            "x": -1.4517676830291749,
            "y": -0.3785870671272278
        },
        {
            "x": 1.0073214769363404,
            "y": -0.056303925812244418
        },
        {
            "x": 0.1018216609954834,
            "y": 0.5950250029563904
        }
    ],
    "triangles": [
        1,
        0,
        2
    ],
    "carDensity": 3.0,
    "suspension": 0.8028405904769898,
    "motorSpeed": 850,
    "frontDensity": 4.900000095367432,
    "frontRadius": 0.6907195448875427,
    "frontOffset": 1.262704610824585,
    "backDensity": 3.4000000953674318,
    "backRadius": 0.5350617170333862,
    "backOffset": -1.37706458568573,
    "score": 913,
    "maxDistance": 834,
    "maxTime": 105.0
}{
    "ID": 80800,
    "genomaID": "CV3TD11",
    "color": {
        "x": 0.7681076526641846,
        "y": 0.2796610891819,
        "z": 0.3934035897254944
    },
    "vertexNumber": 3,
    "colliderVertices": [
        {
            "x": -1.24593186378479,
            "y": -0.17356999218463899
        },
        {
            "x": 1.4254326820373536,
            "y": -0.31066444516181948
        },
        {
            "x": -1.0050806999206544,
            "y": 0.2958831191062927
        }
    ],
    "triangles": [
        1,
        0,
        2
    ],
    "carDensity": 3.0,
    "suspension": 0.48022350668907168,
    "motorSpeed": 850,
    "frontDensity": 4.900000095367432,
    "frontRadius": 0.6907195448875427,
    "frontOffset": 1.129094123840332,
    "backDensity": 3.0,
    "backRadius": 0.5026759505271912,
    "backOffset": -1.1632243394851685,
    "score": 912,
    "maxDistance": 833,
    "maxTime": 106.0
}{
    "ID": 80752,
    "genomaID": "CV3TD11",
    "color": {
        "x": 0.6614616513252258,
        "y": 0.7677072286605835,
        "z": 0.02715790644288063
    },
    "vertexNumber": 3,
    "colliderVertices": [
        {
            "x": -1.24593186378479,
            "y": -0.17356999218463899
        },
        {
            "x": 1.4254326820373536,
            "y": -0.31066444516181948
        },
        {
            "x": -1.0050806999206544,
            "y": 0.2958831191062927
        }
    ],
    "triangles": [
        1,
        0,
        2
    ],
    "carDensity": 3.0,
    "suspension": 0.48022350668907168,
    "motorSpeed": 648,
    "frontDensity": 4.900000095367432,
    "frontRadius": 0.6907195448875427,
    "frontOffset": 1.151338815689087,
    "backDensity": 3.0,
    "backRadius": 0.5026759505271912,
    "backOffset": -0.8764976263046265,
    "score": 24,
    "maxDistance": 4,
    "maxTime": 2.0
}{
    "ID": 80799,
    "genomaID": "CV3TD10",
    "color": {
        "x": 0.6575701832771301,
        "y": 0.868037223815918,
        "z": 0.03163004294037819
    },
    "vertexNumber": 3,
    "colliderVertices": [
        {
            "x": -1.4517676830291749,
            "y": -0.3785870671272278
        },
        {
            "x": 1.0073214769363404,
            "y": -0.056303925812244418
        },
        {
            "x": 0.1018216609954834,
            "y": 0.5950250029563904
        }
    ],
    "triangles": [
        1,
        0,
        2
    ],
    "carDensity": 3.0,
    "suspension": 0.8927677869796753,
    "motorSpeed": 923,
    "frontDensity": 4.300000190734863,
    "frontRadius": 0.6277836561203003,
    "frontOffset": 0.6155723333358765,
    "backDensity": 2.5999999046325685,
    "backRadius": 0.4609432816505432,
    "backOffset": -1.073266625404358,
    "score": 0,
    "maxDistance": 0,
    "maxTime": 1.0
}