{
    "ID": 65452,
    "genomaID": "CV3TD11",
    "color": {
        "x": 0.1909351646900177,
        "y": 0.7012000679969788,
        "z": 0.7795767784118652
    },
    "vertexNumber": 3,
    "colliderVertices": [
        {
            "x": -1.3322129249572755,
            "y": -0.3242015540599823
        },
        {
            "x": 1.406930685043335,
            "y": -0.39797013998031618
        },
        {
            "x": -1.7638306617736817,
            "y": 0.37279003858566286
        }
    ],
    "triangles": [
        1,
        0,
        2
    ],
    "carDensity": 3.0,
    "suspension": 0.4342634677886963,
    "motorSpeed": 895,
    "frontDensity": 4.900000095367432,
    "frontRadius": 0.6913748979568481,
    "frontOffset": 1.2541134357452393,
    "backDensity": 3.4000000953674318,
    "backRadius": 0.5394541621208191,
    "backOffset": -1.1944255828857422,
    "score": 917,
    "maxDistance": 834,
    "maxTime": 101.0
}{
    "ID": 65541,
    "genomaID": "CV3TD11",
    "color": {
        "x": 0.41271525621414187,
        "y": 0.9456959962844849,
        "z": 0.2896381914615631
    },
    "vertexNumber": 3,
    "colliderVertices": [
        {
            "x": -1.3322129249572755,
            "y": -0.3242015540599823
        },
        {
            "x": 1.406930685043335,
            "y": -0.39797013998031618
        },
        {
            "x": -1.7638306617736817,
            "y": 0.37279003858566286
        }
    ],
    "triangles": [
        1,
        0,
        2
    ],
    "carDensity": 3.0,
    "suspension": 0.456739604473114,
    "motorSpeed": 879,
    "frontDensity": 4.599999904632568,
    "frontRadius": 0.6645531058311462,
    "frontOffset": 0.7338913679122925,
    "backDensity": 3.4000000953674318,
    "backRadius": 0.5423464775085449,
    "backOffset": -1.4915997982025147,
    "score": 914,
    "maxDistance": 834,
    "maxTime": 104.0
}{
    "ID": 65522,
    "genomaID": "CV3TD11",
    "color": {
        "x": 0.2245418131351471,
        "y": 0.14765430986881257,
        "z": 0.8768653869628906
    },
    "vertexNumber": 3,
    "colliderVertices": [
        {
            "x": -1.3322129249572755,
            "y": -0.3242015540599823
        },
        {
            "x": 1.406930685043335,
            "y": -0.39797013998031618
        },
        {
            "x": -1.7638306617736817,
            "y": 0.37279003858566286
        }
    ],
    "triangles": [
        1,
        0,
        2
    ],
    "carDensity": 3.0,
    "suspension": 0.972595751285553,
    "motorSpeed": 874,
    "frontDensity": 4.900000095367432,
    "frontRadius": 0.6907195448875427,
    "frontOffset": 1.247709035873413,
    "backDensity": 3.4000000953674318,
    "backRadius": 0.5350179076194763,
    "backOffset": -1.1624431610107422,
    "score": 911,
    "maxDistance": 830,
    "maxTime": 102.0
}{
    "ID": 65463,
    "genomaID": "CV6TD15",
    "color": {
        "x": 0.5761896967887878,
        "y": 0.618244469165802,
        "z": 0.6294416785240173
    },
    "vertexNumber": 6,
    "colliderVertices": [
        {
            "x": -1.941014051437378,
            "y": -0.016695978119969369
        },
        {
            "x": 1.9975390434265137,
            "y": -0.18034209311008454
        },
        {
            "x": 0.1085808277130127,
            "y": 0.11408483982086182
        },
        {
            "x": -0.3316314220428467,
            "y": 0.8375624418258667
        },
        {
            "x": -0.44045138359069826,
            "y": 0.5042931437492371
        },
        {
            "x": -1.9613556861877442,
            "y": 0.7834134101867676
        }
    ],
    "triangles": [
        4,
        2,
        0,
        0,
        5,
        4,
        4,
        3,
        2,
        2,
        1,
        0
    ],
    "carDensity": 6.0,
    "suspension": 0.7651186585426331,
    "motorSpeed": 879,
    "frontDensity": 4.900000095367432,
    "frontRadius": 0.6913748979568481,
    "frontOffset": 1.0997165441513062,
    "backDensity": 3.5999999046325685,
    "backRadius": 0.5633043646812439,
    "backOffset": -1.2949919700622559,
    "score": 0,
    "maxDistance": 0,
    "maxTime": 1.0
}{
    "ID": 65597,
    "genomaID": "CV3TD10",
    "color": {
        "x": 0.225060373544693,
        "y": 0.9318109750747681,
        "z": 0.6402801871299744
    },
    "vertexNumber": 3,
    "colliderVertices": [
        {
            "x": -1.3322129249572755,
            "y": -0.3242015540599823
        },
        {
            "x": 1.406930685043335,
            "y": -0.39797013998031618
        },
        {
            "x": -1.7638306617736817,
            "y": 0.37279003858566286
        }
    ],
    "triangles": [
        1,
        0,
        2
    ],
    "carDensity": 3.0,
    "suspension": 0.5420342683792114,
    "motorSpeed": 879,
    "frontDensity": 4.0,
    "frontRadius": 0.5992864966392517,
    "frontOffset": 0.6101915836334229,
    "backDensity": 3.4000000953674318,
    "backRadius": 0.5423464775085449,
    "backOffset": -1.4185408353805543,
    "score": 0,
    "maxDistance": -1,
    "maxTime": 1.0
}