{
    "ID": 38653,
    "genomaID": "CV3TD11",
    "color": {
        "x": 0.7018647789955139,
        "y": 0.7490060925483704,
        "z": 0.8822269439697266
    },
    "vertexNumber": 3,
    "colliderVertices": [
        {
            "x": -1.5672030448913575,
            "y": -0.3129241168498993
        },
        {
            "x": 1.1141678094863892,
            "y": -0.31338557600975039
        },
        {
            "x": 0.9849423766136169,
            "y": 0.0766364336013794
        }
    ],
    "triangles": [
        1,
        0,
        2
    ],
    "carDensity": 3.0,
    "suspension": 0.6553047895431519,
    "motorSpeed": 931,
    "frontDensity": 4.699999809265137,
    "frontRadius": 0.6654146909713745,
    "frontOffset": 1.008602261543274,
    "backDensity": 3.299999952316284,
    "backRadius": 0.5260943174362183,
    "backOffset": -1.3723324537277222,
    "score": 915,
    "maxDistance": 831,
    "maxTime": 99.0
}{
    "ID": 38661,
    "genomaID": "CV3TD11",
    "color": {
        "x": 0.6438841223716736,
        "y": 0.48220139741897585,
        "z": 0.8416275978088379
    },
    "vertexNumber": 3,
    "colliderVertices": [
        {
            "x": -1.4167654514312745,
            "y": -0.05450911074876785
        },
        {
            "x": 1.4079196453094483,
            "y": -0.3937686085700989
        },
        {
            "x": -1.247361660003662,
            "y": 0.22769761085510255
        }
    ],
    "triangles": [
        1,
        0,
        2
    ],
    "carDensity": 3.0,
    "suspension": 0.7531867027282715,
    "motorSpeed": 894,
    "frontDensity": 4.599999904632568,
    "frontRadius": 0.6557742357254028,
    "frontOffset": 0.9515489339828491,
    "backDensity": 3.0,
    "backRadius": 0.49757829308509829,
    "backOffset": -1.3520762920379639,
    "score": 912,
    "maxDistance": 833,
    "maxTime": 106.0
}{
    "ID": 38791,
    "genomaID": "CV3TD11",
    "color": {
        "x": 0.43907028436660769,
        "y": 0.31042757630348208,
        "z": 0.19297173619270326
    },
    "vertexNumber": 3,
    "colliderVertices": [
        {
            "x": -1.4167654514312745,
            "y": -0.05450911074876785
        },
        {
            "x": 1.4079196453094483,
            "y": -0.3937686085700989
        },
        {
            "x": -1.247361660003662,
            "y": 0.22769761085510255
        }
    ],
    "triangles": [
        1,
        0,
        2
    ],
    "carDensity": 3.0,
    "suspension": 0.6696872115135193,
    "motorSpeed": 894,
    "frontDensity": 4.599999904632568,
    "frontRadius": 0.6557742357254028,
    "frontOffset": 1.2683136463165284,
    "backDensity": 3.0,
    "backRadius": 0.49757829308509829,
    "backOffset": -1.3520762920379639,
    "score": 911,
    "maxDistance": 831,
    "maxTime": 104.0
}{
    "ID": 38756,
    "genomaID": "CV6TD14",
    "color": {
        "x": 0.31485822796821597,
        "y": 0.8940056562423706,
        "z": 0.03377378359436989
    },
    "vertexNumber": 6,
    "colliderVertices": [
        {
            "x": -1.9887051582336426,
            "y": -0.16400529444217683
        },
        {
            "x": 1.0611995458602906,
            "y": -0.4929049611091614
        },
        {
            "x": 1.2680144309997559,
            "y": 0.41883033514022829
        },
        {
            "x": 1.1257224082946778,
            "y": 0.1024167537689209
        },
        {
            "x": 0.7111524939537048,
            "y": 0.007199645042419434
        },
        {
            "x": 0.2537963390350342,
            "y": 0.237726092338562
        }
    ],
    "triangles": [
        4,
        3,
        1,
        1,
        5,
        4,
        3,
        2,
        1,
        1,
        0,
        5
    ],
    "carDensity": 6.0,
    "suspension": 0.6663992404937744,
    "motorSpeed": 791,
    "frontDensity": 4.699999809265137,
    "frontRadius": 0.6656356453895569,
    "frontOffset": 1.440375566482544,
    "backDensity": 3.299999952316284,
    "backRadius": 0.5260943174362183,
    "backOffset": -1.0856865644454957,
    "score": 20,
    "maxDistance": 3,
    "maxTime": 2.0
}{
    "ID": 38798,
    "genomaID": "CV3TD10",
    "color": {
        "x": 0.7236726880073547,
        "y": 0.13623930513858796,
        "z": 0.8786298036575317
    },
    "vertexNumber": 3,
    "colliderVertices": [
        {
            "x": -1.3322129249572755,
            "y": -0.3242015540599823
        },
        {
            "x": 1.406930685043335,
            "y": -0.39797013998031618
        },
        {
            "x": -1.7638306617736817,
            "y": 0.37279003858566286
        }
    ],
    "triangles": [
        1,
        0,
        2
    ],
    "carDensity": 3.0,
    "suspension": 0.8070095777511597,
    "motorSpeed": 879,
    "frontDensity": 3.700000047683716,
    "frontRadius": 0.5673078298568726,
    "frontOffset": 1.2602618932724,
    "backDensity": 3.4000000953674318,
    "backRadius": 0.5375778079032898,
    "backOffset": -1.3361904621124268,
    "score": 0,
    "maxDistance": 0,
    "maxTime": 1.0
}