{
    "ID": 39045,
    "genomaID": "CV3TD11",
    "color": {
        "x": 0.8397320508956909,
        "y": 0.21620431542396546,
        "z": 0.005464315880089998
    },
    "vertexNumber": 3,
    "colliderVertices": [
        {
            "x": -1.3322129249572755,
            "y": -0.3242015540599823
        },
        {
            "x": 1.406930685043335,
            "y": -0.39797013998031618
        },
        {
            "x": -1.7638306617736817,
            "y": 0.37279003858566286
        }
    ],
    "triangles": [
        1,
        0,
        2
    ],
    "carDensity": 3.0,
    "suspension": 0.7870393395423889,
    "motorSpeed": 953,
    "frontDensity": 4.699999809265137,
    "frontRadius": 0.6654146909713745,
    "frontOffset": 0.79372638463974,
    "backDensity": 3.299999952316284,
    "backRadius": 0.5260943174362183,
    "backOffset": -1.471198320388794,
    "score": 918,
    "maxDistance": 833,
    "maxTime": 98.0
}{
    "ID": 39134,
    "genomaID": "CV3TD11",
    "color": {
        "x": 0.3087574541568756,
        "y": 0.3270076811313629,
        "z": 0.430522620677948
    },
    "vertexNumber": 3,
    "colliderVertices": [
        {
            "x": -1.3322129249572755,
            "y": -0.3242015540599823
        },
        {
            "x": 1.406930685043335,
            "y": -0.39797013998031618
        },
        {
            "x": -1.7638306617736817,
            "y": 0.37279003858566286
        }
    ],
    "triangles": [
        1,
        0,
        2
    ],
    "carDensity": 3.0,
    "suspension": 0.7870393395423889,
    "motorSpeed": 879,
    "frontDensity": 4.800000190734863,
    "frontRadius": 0.6772812604904175,
    "frontOffset": 1.008602261543274,
    "backDensity": 3.299999952316284,
    "backRadius": 0.5260943174362183,
    "backOffset": -1.471198320388794,
    "score": 913,
    "maxDistance": 834,
    "maxTime": 105.0
}{
    "ID": 39091,
    "genomaID": "CV3TD10",
    "color": {
        "x": 0.4594835638999939,
        "y": 0.552699863910675,
        "z": 0.8818554878234863
    },
    "vertexNumber": 3,
    "colliderVertices": [
        {
            "x": -1.3322129249572755,
            "y": -0.3242015540599823
        },
        {
            "x": 1.406930685043335,
            "y": -0.39797013998031618
        },
        {
            "x": -1.7638306617736817,
            "y": 0.37279003858566286
        }
    ],
    "triangles": [
        1,
        0,
        2
    ],
    "carDensity": 3.0,
    "suspension": 0.48628804087638857,
    "motorSpeed": 879,
    "frontDensity": 4.699999809265137,
    "frontRadius": 0.6654146909713745,
    "frontOffset": 0.7692957520484924,
    "backDensity": 2.5,
    "backRadius": 0.4501499831676483,
    "backOffset": -1.1307379007339478,
    "score": 911,
    "maxDistance": 834,
    "maxTime": 109.0
}{
    "ID": 39172,
    "genomaID": "CV4TD11",
    "color": {
        "x": 0.2748730480670929,
        "y": 0.19846823811531068,
        "z": 0.7138980031013489
    },
    "vertexNumber": 4,
    "colliderVertices": [
        {
            "x": -1.7842239141464234,
            "y": -0.2058127224445343
        },
        {
            "x": 1.971451997756958,
            "y": -0.33739349246025088
        },
        {
            "x": 0.7702750563621521,
            "y": 0.23063266277313233
        },
        {
            "x": -1.6829466819763184,
            "y": 0.9024114608764648
        }
    ],
    "triangles": [
        3,
        2,
        1,
        1,
        0,
        3
    ],
    "carDensity": 4.0,
    "suspension": 0.6116177439689636,
    "motorSpeed": 879,
    "frontDensity": 4.699999809265137,
    "frontRadius": 0.6654146909713745,
    "frontOffset": 1.3848066329956055,
    "backDensity": 2.5,
    "backRadius": 0.4501499831676483,
    "backOffset": -0.8385218381881714,
    "score": 20,
    "maxDistance": 3,
    "maxTime": 2.0
}{
    "ID": 39198,
    "genomaID": "CV6TD15",
    "color": {
        "x": 0.7236726880073547,
        "y": 0.13623930513858796,
        "z": 0.8786298036575317
    },
    "vertexNumber": 6,
    "colliderVertices": [
        {
            "x": -1.1546505689620972,
            "y": -0.21901580691337586
        },
        {
            "x": 1.782267689704895,
            "y": -0.11474741995334625
        },
        {
            "x": 0.7923969626426697,
            "y": 0.2700827717781067
        },
        {
            "x": -0.08951640129089356,
            "y": 0.6468244791030884
        },
        {
            "x": -0.488999605178833,
            "y": 0.34338337182998659
        },
        {
            "x": -1.9541869163513184,
            "y": 0.2703024744987488
        }
    ],
    "triangles": [
        4,
        2,
        1,
        1,
        5,
        4,
        4,
        3,
        2,
        1,
        0,
        5
    ],
    "carDensity": 6.0,
    "suspension": 0.7709620594978333,
    "motorSpeed": 879,
    "frontDensity": 4.699999809265137,
    "frontRadius": 0.6665397882461548,
    "frontOffset": 1.1472028493881226,
    "backDensity": 4.5,
    "backRadius": 0.6454063057899475,
    "backOffset": -0.9434994459152222,
    "score": 0,
    "maxDistance": 0,
    "maxTime": 1.0
}