{
    "ID": 15422,
    "genomaID": "CV5TD13",
    "color": {
        "x": 0.8580331802368164,
        "y": 0.2694608271121979,
        "z": 0.38077789545059206
    },
    "vertexNumber": 5,
    "colliderVertices": [
        {
            "x": -1.844667673110962,
            "y": -0.3444806635379791
        },
        {
            "x": 1.1936445236206055,
            "y": -0.1146974116563797
        },
        {
            "x": 0.2893640995025635,
            "y": 0.31072789430618288
        },
        {
            "x": 0.13173890113830567,
            "y": 0.7628859281539917
        },
        {
            "x": 0.060922861099243167,
            "y": 0.2830553650856018
        }
    ],
    "triangles": [
        2,
        1,
        4,
        4,
        3,
        2,
        1,
        0,
        4
    ],
    "carDensity": 5.0,
    "suspension": 0.7842504978179932,
    "motorSpeed": 884,
    "frontDensity": 5.0,
    "frontRadius": 0.6983523964881897,
    "frontOffset": 1.3684606552124024,
    "backDensity": 3.299999952316284,
    "backRadius": 0.5308466553688049,
    "backOffset": -0.9932490587234497,
    "score": 915,
    "maxDistance": 833,
    "maxTime": 102.0
}{
    "ID": 15448,
    "genomaID": "CV4TD9",
    "color": {
        "x": 0.5797355771064758,
        "y": 0.4698863625526428,
        "z": 0.5692866444587708
    },
    "vertexNumber": 4,
    "colliderVertices": [
        {
            "x": -1.161450743675232,
            "y": -0.2355819046497345
        },
        {
            "x": 1.5357372760772706,
            "y": -0.19841215014457704
        },
        {
            "x": 1.0191593170166016,
            "y": 0.6115598082542419
        },
        {
            "x": -0.12963318824768067,
            "y": 0.3430923819541931
        }
    ],
    "triangles": [
        3,
        2,
        1,
        1,
        0,
        3
    ],
    "carDensity": 4.0,
    "suspension": 0.9865716695785523,
    "motorSpeed": 862,
    "frontDensity": 3.200000047683716,
    "frontRadius": 0.5234051942825317,
    "frontOffset": 1.4726580381393433,
    "backDensity": 2.200000047683716,
    "backRadius": 0.415388822555542,
    "backOffset": -1.1514619588851929,
    "score": 897,
    "maxDistance": 833,
    "maxTime": 131.0
}{
    "ID": 15537,
    "genomaID": "CV3TD9",
    "color": {
        "x": 0.5304045081138611,
        "y": 0.8377341032028198,
        "z": 0.746658980846405
    },
    "vertexNumber": 3,
    "colliderVertices": [
        {
            "x": -1.0864309072494507,
            "y": -0.19293192028999329
        },
        {
            "x": 1.164738655090332,
            "y": -0.33091410994529726
        },
        {
            "x": -0.49770379066467287,
            "y": 0.008912205696105957
        }
    ],
    "triangles": [
        1,
        0,
        2
    ],
    "carDensity": 3.0,
    "suspension": 0.7472037076950073,
    "motorSpeed": 1056,
    "frontDensity": 3.4000000953674318,
    "frontRadius": 0.540835440158844,
    "frontOffset": 1.1623919010162354,
    "backDensity": 2.700000047683716,
    "backRadius": 0.465137243270874,
    "backOffset": -0.5391006469726563,
    "score": 551,
    "maxDistance": 471,
    "maxTime": 59.0
}{
    "ID": 15546,
    "genomaID": "CV3TD10",
    "color": {
        "x": 0.3568008244037628,
        "y": 0.6081945300102234,
        "z": 0.7886466979980469
    },
    "vertexNumber": 3,
    "colliderVertices": [
        {
            "x": -1.8298677206039429,
            "y": -0.20475074648857118
        },
        {
            "x": 1.6115577220916749,
            "y": -0.1280403882265091
        },
        {
            "x": -1.158252239227295,
            "y": 0.14590787887573243
        }
    ],
    "triangles": [
        1,
        0,
        2
    ],
    "carDensity": 3.0,
    "suspension": 0.40208375453948977,
    "motorSpeed": 740,
    "frontDensity": 3.700000047683716,
    "frontRadius": 0.5709809064865112,
    "frontOffset": 1.4625896215438843,
    "backDensity": 3.0,
    "backRadius": 0.5048726797103882,
    "backOffset": -0.8205961585044861,
    "score": 26,
    "maxDistance": 4,
    "maxTime": 2.0
}{
    "ID": 15596,
    "genomaID": "CV3TD9",
    "color": {
        "x": 0.04487193003296852,
        "y": 0.9218603372573853,
        "z": 0.05435562878847122
    },
    "vertexNumber": 3,
    "colliderVertices": [
        {
            "x": -1.6257870197296143,
            "y": -0.008286000229418278
        },
        {
            "x": 1.5057270526885987,
            "y": -0.021743299439549447
        },
        {
            "x": -1.0265865325927735,
            "y": 0.1485193967819214
        }
    ],
    "triangles": [
        1,
        0,
        2
    ],
    "carDensity": 3.0,
    "suspension": 0.722257137298584,
    "motorSpeed": 884,
    "frontDensity": 4.300000190734863,
    "frontRadius": 0.62636399269104,
    "frontOffset": 0.7247562408447266,
    "backDensity": 2.299999952316284,
    "backRadius": 0.4305607080459595,
    "backOffset": -0.7302596569061279,
    "score": 0,
    "maxDistance": 0,
    "maxTime": 1.0
}