{
    "ID": 23965,
    "genomaID": "CV3TD12",
    "color": {
        "x": 0.8413053750991821,
        "y": 0.84112548828125,
        "z": 0.5858533978462219
    },
    "vertexNumber": 3,
    "colliderVertices": [
        {
            "x": -1.4167654514312745,
            "y": -0.05450911074876785
        },
        {
            "x": 1.4079196453094483,
            "y": -0.3937686085700989
        },
        {
            "x": -1.247361660003662,
            "y": 0.22769761085510255
        }
    ],
    "triangles": [
        1,
        0,
        2
    ],
    "carDensity": 3.0,
    "suspension": 0.7656099796295166,
    "motorSpeed": 897,
    "frontDensity": 4.599999904632568,
    "frontRadius": 0.659152090549469,
    "frontOffset": 0.7988467812538147,
    "backDensity": 3.5,
    "backRadius": 0.5485872626304627,
    "backOffset": -1.168893575668335,
    "score": 915,
    "maxDistance": 833,
    "maxTime": 102.0
}{
    "ID": 24000,
    "genomaID": "CV3TD10",
    "color": {
        "x": 0.7681076526641846,
        "y": 0.2796610891819,
        "z": 0.3934035897254944
    },
    "vertexNumber": 3,
    "colliderVertices": [
        {
            "x": -1.4167654514312745,
            "y": -0.05450911074876785
        },
        {
            "x": 1.4079196453094483,
            "y": -0.3937686085700989
        },
        {
            "x": -1.247361660003662,
            "y": 0.22769761085510255
        }
    ],
    "triangles": [
        1,
        0,
        2
    ],
    "carDensity": 3.0,
    "suspension": 0.43452927470207217,
    "motorSpeed": 883,
    "frontDensity": 4.5,
    "frontRadius": 0.6487516760826111,
    "frontOffset": 1.3786687850952149,
    "backDensity": 2.799999952316284,
    "backRadius": 0.47794705629348757,
    "backOffset": -1.211548089981079,
    "score": 912,
    "maxDistance": 834,
    "maxTime": 107.0
}{
    "ID": 23983,
    "genomaID": "CV3TD9",
    "color": {
        "x": 0.2559671700000763,
        "y": 0.6770469546318054,
        "z": 0.8205124139785767
    },
    "vertexNumber": 3,
    "colliderVertices": [
        {
            "x": -1.4167654514312745,
            "y": -0.05450911074876785
        },
        {
            "x": 1.4079196453094483,
            "y": -0.3937686085700989
        },
        {
            "x": -1.247361660003662,
            "y": 0.22769761085510255
        }
    ],
    "triangles": [
        1,
        0,
        2
    ],
    "carDensity": 3.0,
    "suspension": 0.8148757815361023,
    "motorSpeed": 883,
    "frontDensity": 4.5,
    "frontRadius": 0.6487516760826111,
    "frontOffset": 1.1046165227890015,
    "backDensity": 2.299999952316284,
    "backRadius": 0.43476876616477969,
    "backOffset": -0.6750025749206543,
    "score": 911,
    "maxDistance": 834,
    "maxTime": 108.0
}{
    "ID": 23941,
    "genomaID": "CV3TD11",
    "color": {
        "x": 0.41271525621414187,
        "y": 0.9456959962844849,
        "z": 0.2896381914615631
    },
    "vertexNumber": 3,
    "colliderVertices": [
        {
            "x": -1.4167654514312745,
            "y": -0.05450911074876785
        },
        {
            "x": 1.4079196453094483,
            "y": -0.3937686085700989
        },
        {
            "x": -1.247361660003662,
            "y": 0.22769761085510255
        }
    ],
    "triangles": [
        1,
        0,
        2
    ],
    "carDensity": 3.0,
    "suspension": 0.7656099796295166,
    "motorSpeed": 793,
    "frontDensity": 4.599999904632568,
    "frontRadius": 0.659152090549469,
    "frontOffset": 1.2248823642730713,
    "backDensity": 3.299999952316284,
    "backRadius": 0.5276777744293213,
    "backOffset": -1.2646516561508179,
    "score": 20,
    "maxDistance": 3,
    "maxTime": 2.0
}{
    "ID": 23995,
    "genomaID": "CV3TD10",
    "color": {
        "x": 0.8922040462493897,
        "y": 0.16881419718265534,
        "z": 0.9950582981109619
    },
    "vertexNumber": 3,
    "colliderVertices": [
        {
            "x": -1.4167654514312745,
            "y": -0.05450911074876785
        },
        {
            "x": 1.4079196453094483,
            "y": -0.3937686085700989
        },
        {
            "x": -1.247361660003662,
            "y": 0.22769761085510255
        }
    ],
    "triangles": [
        1,
        0,
        2
    ],
    "carDensity": 3.0,
    "suspension": 0.5027813911437988,
    "motorSpeed": 884,
    "frontDensity": 5.0,
    "frontRadius": 0.6962813138961792,
    "frontOffset": 0.7201104164123535,
    "backDensity": 2.0,
    "backRadius": 0.40377742052078249,
    "backOffset": -1.0649524927139283,
    "score": 0,
    "maxDistance": 0,
    "maxTime": 1.0
}