{
    "ID": 18616,
    "genomaID": "CV3TD8",
    "color": {
        "x": 0.23132100701332093,
        "y": 0.0023838283959776165,
        "z": 0.7214786410331726
    },
    "vertexNumber": 3,
    "colliderVertices": [
        {
            "x": -1.0000606775283814,
            "y": -0.29020044207572939
        },
        {
            "x": 1.1575063467025757,
            "y": -0.3449561297893524
        },
        {
            "x": -1.5382256507873536,
            "y": 0.08296060562133789
        }
    ],
    "triangles": [
        1,
        0,
        2
    ],
    "carDensity": 3.0,
    "suspension": 0.5228865146636963,
    "motorSpeed": 1219,
    "frontDensity": 3.200000047683716,
    "frontRadius": 0.5209293961524963,
    "frontOffset": 1.2317173480987549,
    "backDensity": 2.200000047683716,
    "backRadius": 0.4156038165092468,
    "backOffset": -1.2713572978973389,
    "score": 917,
    "maxDistance": 832,
    "maxTime": 98.0
}{
    "ID": 18696,
    "genomaID": "CV3TD9",
    "color": {
        "x": 0.20144513249397279,
        "y": 0.27811673283576968,
        "z": 0.5601909756660461
    },
    "vertexNumber": 3,
    "colliderVertices": [
        {
            "x": -1.6257870197296143,
            "y": -0.008286000229418278
        },
        {
            "x": 1.5057270526885987,
            "y": -0.021743299439549447
        },
        {
            "x": -1.0265865325927735,
            "y": 0.1485193967819214
        }
    ],
    "triangles": [
        1,
        0,
        2
    ],
    "carDensity": 3.0,
    "suspension": 0.6036885976791382,
    "motorSpeed": 884,
    "frontDensity": 4.199999809265137,
    "frontRadius": 0.6244065761566162,
    "frontOffset": 1.1906431913375855,
    "backDensity": 2.200000047683716,
    "backRadius": 0.4156038165092468,
    "backOffset": -1.2713572978973389,
    "score": 909,
    "maxDistance": 833,
    "maxTime": 110.0
}{
    "ID": 18692,
    "genomaID": "CV3TD8",
    "color": {
        "x": 0.2748042643070221,
        "y": 0.5898453593254089,
        "z": 0.35423484444618227
    },
    "vertexNumber": 3,
    "colliderVertices": [
        {
            "x": -1.3862545490264893,
            "y": -0.25594791769981387
        },
        {
            "x": 1.5173399448394776,
            "y": -0.30767402052879336
        },
        {
            "x": -0.38539958000183108,
            "y": 0.1574467420578003
        }
    ],
    "triangles": [
        1,
        0,
        2
    ],
    "carDensity": 3.0,
    "suspension": 0.8011902570724487,
    "motorSpeed": 827,
    "frontDensity": 3.4000000953674318,
    "frontRadius": 0.5448383688926697,
    "frontOffset": 1.1404502391815186,
    "backDensity": 2.0999999046325685,
    "backRadius": 0.40659022331237795,
    "backOffset": -1.4947638511657715,
    "score": 897,
    "maxDistance": 833,
    "maxTime": 131.0
}{
    "ID": 18671,
    "genomaID": "CV3TD11",
    "color": {
        "x": 0.8632849454879761,
        "y": 0.699835479259491,
        "z": 0.17797733843326569
    },
    "vertexNumber": 3,
    "colliderVertices": [
        {
            "x": -1.6272385120391846,
            "y": -0.008878112770617009
        },
        {
            "x": 1.3754918575286866,
            "y": -0.43228214979171755
        },
        {
            "x": -1.738893985748291,
            "y": 0.200178861618042
        }
    ],
    "triangles": [
        1,
        0,
        2
    ],
    "carDensity": 3.0,
    "suspension": 0.5753571391105652,
    "motorSpeed": 884,
    "frontDensity": 4.400000095367432,
    "frontRadius": 0.6374998688697815,
    "frontOffset": 1.489229679107666,
    "backDensity": 3.799999952316284,
    "backRadius": 0.5788791179656982,
    "backOffset": -1.3785117864608765,
    "score": 27,
    "maxDistance": 4,
    "maxTime": 2.0
}{
    "ID": 18797,
    "genomaID": "CV4TD13",
    "color": {
        "x": 0.225060373544693,
        "y": 0.9318109750747681,
        "z": 0.6402801871299744
    },
    "vertexNumber": 4,
    "colliderVertices": [
        {
            "x": -1.8558260202407838,
            "y": -0.00531429098919034
        },
        {
            "x": 1.2724804878234864,
            "y": -0.19793865084648133
        },
        {
            "x": 1.3785481452941895,
            "y": 0.9041402339935303
        },
        {
            "x": 1.3363561630249024,
            "y": 0.04973554611206055
        }
    ],
    "triangles": [
        3,
        0,
        1
    ],
    "carDensity": 4.0,
    "suspension": 0.5824097394943237,
    "motorSpeed": 884,
    "frontDensity": 3.5999999046325685,
    "frontRadius": 0.55682772397995,
    "frontOffset": 1.305295467376709,
    "backDensity": 4.900000095367432,
    "backRadius": 0.6947161555290222,
    "backOffset": -1.1084617376327515,
    "score": 0,
    "maxDistance": 0,
    "maxTime": 1.0
}