{
    "ID": 19717,
    "genomaID": "CV3TD11",
    "color": {
        "x": 0.5640771985054016,
        "y": 0.2259691059589386,
        "z": 0.8355618715286255
    },
    "vertexNumber": 3,
    "colliderVertices": [
        {
            "x": -1.4167654514312745,
            "y": -0.05450911074876785
        },
        {
            "x": 1.4079196453094483,
            "y": -0.3937686085700989
        },
        {
            "x": -1.247361660003662,
            "y": 0.22769761085510255
        }
    ],
    "triangles": [
        1,
        0,
        2
    ],
    "carDensity": 3.0,
    "suspension": 0.6658554077148438,
    "motorSpeed": 884,
    "frontDensity": 4.599999904632568,
    "frontRadius": 0.6613221764564514,
    "frontOffset": 1.077867865562439,
    "backDensity": 3.4000000953674318,
    "backRadius": 0.537341833114624,
    "backOffset": -0.710301399230957,
    "score": 914,
    "maxDistance": 834,
    "maxTime": 104.0
}{
    "ID": 19752,
    "genomaID": "CV3TD10",
    "color": {
        "x": 0.6614616513252258,
        "y": 0.7677072286605835,
        "z": 0.02715790644288063
    },
    "vertexNumber": 3,
    "colliderVertices": [
        {
            "x": -1.4167654514312745,
            "y": -0.05450911074876785
        },
        {
            "x": 1.4079196453094483,
            "y": -0.3937686085700989
        },
        {
            "x": -1.247361660003662,
            "y": 0.22769761085510255
        }
    ],
    "triangles": [
        1,
        0,
        2
    ],
    "carDensity": 3.0,
    "suspension": 0.4378528296947479,
    "motorSpeed": 884,
    "frontDensity": 4.599999904632568,
    "frontRadius": 0.659152090549469,
    "frontOffset": 1.0063468217849732,
    "backDensity": 2.200000047683716,
    "backRadius": 0.415388822555542,
    "backOffset": -0.9469634294509888,
    "score": 911,
    "maxDistance": 833,
    "maxTime": 107.0
}{
    "ID": 19707,
    "genomaID": "CV3TD11",
    "color": {
        "x": 0.4525945782661438,
        "y": 0.32109811902046206,
        "z": 0.4646300673484802
    },
    "vertexNumber": 3,
    "colliderVertices": [
        {
            "x": -1.2892374992370606,
            "y": -0.20347020030021668
        },
        {
            "x": 1.4473798274993897,
            "y": -0.08599967509508133
        },
        {
            "x": 0.07959342002868653,
            "y": 0.76161789894104
        }
    ],
    "triangles": [
        1,
        0,
        2
    ],
    "carDensity": 3.0,
    "suspension": 0.9566490054130554,
    "motorSpeed": 884,
    "frontDensity": 4.599999904632568,
    "frontRadius": 0.659152090549469,
    "frontOffset": 1.009670615196228,
    "backDensity": 2.799999952316284,
    "backRadius": 0.4790582060813904,
    "backOffset": -1.2665188312530518,
    "score": 909,
    "maxDistance": 831,
    "maxTime": 106.0
}{
    "ID": 19745,
    "genomaID": "CV3TD10",
    "color": {
        "x": 0.3469218313694,
        "y": 0.999477744102478,
        "z": 0.32627180218696597
    },
    "vertexNumber": 3,
    "colliderVertices": [
        {
            "x": -1.4167654514312745,
            "y": -0.05450911074876785
        },
        {
            "x": 1.4079196453094483,
            "y": -0.3937686085700989
        },
        {
            "x": -1.247361660003662,
            "y": 0.22769761085510255
        }
    ],
    "triangles": [
        1,
        0,
        2
    ],
    "carDensity": 3.0,
    "suspension": 0.41106873750686648,
    "motorSpeed": 816,
    "frontDensity": 4.5,
    "frontRadius": 0.6486910581588745,
    "frontOffset": 1.0172022581100464,
    "backDensity": 3.200000047683716,
    "backRadius": 0.5232869982719421,
    "backOffset": -0.9037684202194214,
    "score": 96,
    "maxDistance": 35,
    "maxTime": 6.0
}{
    "ID": 19795,
    "genomaID": "CV3TD11",
    "color": {
        "x": 0.8922040462493897,
        "y": 0.16881419718265534,
        "z": 0.9950582981109619
    },
    "vertexNumber": 3,
    "colliderVertices": [
        {
            "x": -1.2892374992370606,
            "y": -0.20347020030021668
        },
        {
            "x": 1.4473798274993897,
            "y": -0.08599967509508133
        },
        {
            "x": 0.07959342002868653,
            "y": 0.76161789894104
        }
    ],
    "triangles": [
        1,
        0,
        2
    ],
    "carDensity": 3.0,
    "suspension": 0.9566490054130554,
    "motorSpeed": 1338,
    "frontDensity": 4.599999904632568,
    "frontRadius": 0.659152090549469,
    "frontOffset": 0.7027254104614258,
    "backDensity": 2.799999952316284,
    "backRadius": 0.4790582060813904,
    "backOffset": -1.2665188312530518,
    "score": 0,
    "maxDistance": 0,
    "maxTime": 1.0
}