{
    "ID": 109232,
    "genomaID": "CV3TD11",
    "color": {
        "x": 0.8832547664642334,
        "y": 0.6129466891288757,
        "z": 0.4796467423439026
    },
    "vertexNumber": 3,
    "colliderVertices": [
        {
            "x": -1.448728084564209,
            "y": -0.4206351041793823
        },
        {
            "x": 1.2341947555541993,
            "y": -0.4096236228942871
        },
        {
            "x": -0.7727158069610596,
            "y": 0.05484116077423096
        }
    ],
    "triangles": [
        1,
        0,
        2
    ],
    "carDensity": 3.0,
    "suspension": 0.8680764436721802,
    "motorSpeed": 1053,
    "frontDensity": 4.900000095367432,
    "frontRadius": 0.6881802082061768,
    "frontOffset": 1.1690348386764527,
    "backDensity": 2.799999952316284,
    "backRadius": 0.47771579027175906,
    "backOffset": -1.3405593633651734,
    "score": 920,
    "maxDistance": 832,
    "maxTime": 95.0
}{
    "ID": 109240,
    "genomaID": "CV3TD11",
    "color": {
        "x": 0.16537119448184968,
        "y": 0.9236080646514893,
        "z": 0.8277966976165772
    },
    "vertexNumber": 3,
    "colliderVertices": [
        {
            "x": -1.448728084564209,
            "y": -0.4206351041793823
        },
        {
            "x": 1.2341947555541993,
            "y": -0.4096236228942871
        },
        {
            "x": -0.7727158069610596,
            "y": 0.05484116077423096
        }
    ],
    "triangles": [
        1,
        0,
        2
    ],
    "carDensity": 3.0,
    "suspension": 0.5666329860687256,
    "motorSpeed": 851,
    "frontDensity": 4.900000095367432,
    "frontRadius": 0.6881802082061768,
    "frontOffset": 0.8524047136306763,
    "backDensity": 3.299999952316284,
    "backRadius": 0.5344315767288208,
    "backOffset": -0.5064746141433716,
    "score": 913,
    "maxDistance": 833,
    "maxTime": 105.0
}{
    "ID": 109248,
    "genomaID": "CV3TD11",
    "color": {
        "x": 0.5797355771064758,
        "y": 0.4698863625526428,
        "z": 0.5692866444587708
    },
    "vertexNumber": 3,
    "colliderVertices": [
        {
            "x": -1.448728084564209,
            "y": -0.4206351041793823
        },
        {
            "x": 1.2341947555541993,
            "y": -0.4096236228942871
        },
        {
            "x": -0.7727158069610596,
            "y": 0.05484116077423096
        }
    ],
    "triangles": [
        1,
        0,
        2
    ],
    "carDensity": 3.0,
    "suspension": 0.8680764436721802,
    "motorSpeed": 850,
    "frontDensity": 4.900000095367432,
    "frontRadius": 0.6881802082061768,
    "frontOffset": 0.9760576486587524,
    "backDensity": 2.799999952316284,
    "backRadius": 0.47771579027175906,
    "backOffset": -0.768455445766449,
    "score": 911,
    "maxDistance": 833,
    "maxTime": 106.0
}{
    "ID": 109357,
    "genomaID": "CV3TD12",
    "color": {
        "x": 0.8603782653808594,
        "y": 0.8492532968521118,
        "z": 0.5456826090812683
    },
    "vertexNumber": 3,
    "colliderVertices": [
        {
            "x": -1.448728084564209,
            "y": -0.4206351041793823
        },
        {
            "x": 1.2341947555541993,
            "y": -0.4096236228942871
        },
        {
            "x": -0.7727158069610596,
            "y": 0.05484116077423096
        }
    ],
    "triangles": [
        1,
        0,
        2
    ],
    "carDensity": 3.0,
    "suspension": 0.8355396389961243,
    "motorSpeed": 896,
    "frontDensity": 4.599999904632568,
    "frontRadius": 0.6590124368667603,
    "frontOffset": 0.8311519026756287,
    "backDensity": 3.5999999046325685,
    "backRadius": 0.5561515092849731,
    "backOffset": -0.7482508420944214,
    "score": 36,
    "maxDistance": 6,
    "maxTime": 2.0
}{
    "ID": 109386,
    "genomaID": "CV3TD11",
    "color": {
        "x": 0.41092628240585329,
        "y": 0.05733812600374222,
        "z": 0.8896547555923462
    },
    "vertexNumber": 3,
    "colliderVertices": [
        {
            "x": -1.0794535875320435,
            "y": -0.3069888651371002
        },
        {
            "x": 1.94728684425354,
            "y": -0.22332367300987245
        },
        {
            "x": -0.42223381996154787,
            "y": 0.07114052772521973
        }
    ],
    "triangles": [
        1,
        0,
        2
    ],
    "carDensity": 3.0,
    "suspension": 0.567888081073761,
    "motorSpeed": 851,
    "frontDensity": 4.900000095367432,
    "frontRadius": 0.6881802082061768,
    "frontOffset": 0.9306296110153198,
    "backDensity": 3.299999952316284,
    "backRadius": 0.5340240597724915,
    "backOffset": -1.0304852724075318,
    "score": 0,
    "maxDistance": 0,
    "maxTime": 1.0
}