{
    "ID": 3826,
    "genomaID": "CV4TD11",
    "color": {
        "x": 0.992851972579956,
        "y": 0.7299163937568665,
        "z": 0.8744080066680908
    },
    "vertexNumber": 4,
    "colliderVertices": [
        {
            "x": -1.7967290878295899,
            "y": -0.10952658951282501
        },
        {
            "x": 1.035496473312378,
            "y": -0.31547293066978457
        },
        {
            "x": 1.5391411781311036,
            "y": 0.011615157127380371
        },
        {
            "x": -0.5440514087677002,
            "y": 0.9472357034683228
        }
    ],
    "triangles": [
        3,
        2,
        1,
        1,
        0,
        3
    ],
    "carDensity": 4.0,
    "suspension": 0.8720027208328247,
    "motorSpeed": 795,
    "frontDensity": 4.599999904632568,
    "frontRadius": 0.6636142134666443,
    "frontOffset": 1.2612252235412598,
    "backDensity": 2.299999952316284,
    "backRadius": 0.431122750043869,
    "backOffset": -1.2094659805297852,
    "score": 900,
    "maxDistance": 833,
    "maxTime": 124.0
}{
    "ID": 3823,
    "genomaID": "CV3TD8",
    "color": {
        "x": 0.1624685674905777,
        "y": 0.05516207963228226,
        "z": 0.06042958050966263
    },
    "vertexNumber": 3,
    "colliderVertices": [
        {
            "x": -1.5829863548278809,
            "y": -0.039146844297647479
        },
        {
            "x": 1.7785292863845826,
            "y": -0.03110969439148903
        },
        {
            "x": -1.4605779647827149,
            "y": 0.14276373386383058
        }
    ],
    "triangles": [
        1,
        0,
        2
    ],
    "carDensity": 3.0,
    "suspension": 0.4762568473815918,
    "motorSpeed": 751,
    "frontDensity": 3.200000047683716,
    "frontRadius": 0.5158027410507202,
    "frontOffset": 0.626003623008728,
    "backDensity": 2.200000047683716,
    "backRadius": 0.42074716091156008,
    "backOffset": -0.8408917188644409,
    "score": 889,
    "maxDistance": 833,
    "maxTime": 148.0
}{
    "ID": 3971,
    "genomaID": "CV3TD8",
    "color": {
        "x": 0.4488270878791809,
        "y": 0.05411756783723831,
        "z": 0.6737887263298035
    },
    "vertexNumber": 3,
    "colliderVertices": [
        {
            "x": -1.56427001953125,
            "y": -0.22876545786857606
        },
        {
            "x": 1.7098314762115479,
            "y": -0.26145967841148379
        },
        {
            "x": -1.3536033630371094,
            "y": 0.5816901326179504
        }
    ],
    "triangles": [
        1,
        0,
        2
    ],
    "carDensity": 3.0,
    "suspension": 0.8286224603652954,
    "motorSpeed": 755,
    "frontDensity": 3.0999999046325685,
    "frontRadius": 0.508507251739502,
    "frontOffset": 0.8802765607833862,
    "backDensity": 2.200000047683716,
    "backRadius": 0.41796261072158816,
    "backOffset": -0.9493061304092407,
    "score": 887,
    "maxDistance": 833,
    "maxTime": 154.0
}{
    "ID": 3832,
    "genomaID": "CV3TD11",
    "color": {
        "x": 0.8832547664642334,
        "y": 0.6129466891288757,
        "z": 0.4796467423439026
    },
    "vertexNumber": 3,
    "colliderVertices": [
        {
            "x": -1.3892014026641846,
            "y": -0.010811508633196354
        },
        {
            "x": 1.8002052307128907,
            "y": -0.15905238687992097
        },
        {
            "x": 1.0304689407348633,
            "y": 0.10820353031158447
        }
    ],
    "triangles": [
        1,
        0,
        2
    ],
    "carDensity": 3.0,
    "suspension": 0.9894853830337524,
    "motorSpeed": 1258,
    "frontDensity": 4.099999904632568,
    "frontRadius": 0.6086620092391968,
    "frontOffset": 1.4728586673736573,
    "backDensity": 3.799999952316284,
    "backRadius": 0.5849008560180664,
    "backOffset": -1.1892569065093995,
    "score": 99,
    "maxDistance": 36,
    "maxTime": 6.0
}{
    "ID": 3991,
    "genomaID": "CV4TD10",
    "color": {
        "x": 0.43907028436660769,
        "y": 0.31042757630348208,
        "z": 0.19297173619270326
    },
    "vertexNumber": 4,
    "colliderVertices": [
        {
            "x": -1.7883261442184449,
            "y": -0.05249745398759842
        },
        {
            "x": 1.8236663341522217,
            "y": -0.29199346899986269
        },
        {
            "x": -0.16811347007751466,
            "y": 0.5208613276481628
        },
        {
            "x": -0.9376628398895264,
            "y": 0.4437618851661682
        }
    ],
    "triangles": [
        3,
        2,
        1,
        1,
        0,
        3
    ],
    "carDensity": 4.0,
    "suspension": 0.673203706741333,
    "motorSpeed": 1328,
    "frontDensity": 3.799999952316284,
    "frontRadius": 0.5778767466545105,
    "frontOffset": 0.818991482257843,
    "backDensity": 2.200000047683716,
    "backRadius": 0.42257410287857058,
    "backOffset": -1.1602859497070313,
    "score": 0,
    "maxDistance": 0,
    "maxTime": 2.0
}