{
    "ID": 106238,
    "genomaID": "CV3TD11",
    "color": {
        "x": 0.8690057992935181,
        "y": 0.8295984268188477,
        "z": 0.17063750326633454
    },
    "vertexNumber": 3,
    "colliderVertices": [
        {
            "x": -1.448728084564209,
            "y": -0.4206351041793823
        },
        {
            "x": 1.2341947555541993,
            "y": -0.4096236228942871
        },
        {
            "x": -0.7727158069610596,
            "y": 0.05484116077423096
        }
    ],
    "triangles": [
        1,
        0,
        2
    ],
    "carDensity": 3.0,
    "suspension": 0.40632858872413638,
    "motorSpeed": 1079,
    "frontDensity": 4.900000095367432,
    "frontRadius": 0.6907195448875427,
    "frontOffset": 1.4863059520721436,
    "backDensity": 2.799999952316284,
    "backRadius": 0.48153263330459597,
    "backOffset": -0.9404088258743286,
    "score": 923,
    "maxDistance": 833,
    "maxTime": 93.0
}{
    "ID": 106270,
    "genomaID": "CV3TD11",
    "color": {
        "x": 0.29777243733406069,
        "y": 0.7550115585327148,
        "z": 0.47786659002304079
    },
    "vertexNumber": 3,
    "colliderVertices": [
        {
            "x": -1.448728084564209,
            "y": -0.4206351041793823
        },
        {
            "x": 1.2341947555541993,
            "y": -0.4096236228942871
        },
        {
            "x": -0.7727158069610596,
            "y": 0.05484116077423096
        }
    ],
    "triangles": [
        1,
        0,
        2
    ],
    "carDensity": 3.0,
    "suspension": 0.6494491100311279,
    "motorSpeed": 850,
    "frontDensity": 4.900000095367432,
    "frontRadius": 0.687800943851471,
    "frontOffset": 0.6318384408950806,
    "backDensity": 2.799999952316284,
    "backRadius": 0.47771579027175906,
    "backOffset": -1.0162640810012818,
    "score": 912,
    "maxDistance": 834,
    "maxTime": 106.0
}{
    "ID": 106272,
    "genomaID": "CV3TD11",
    "color": {
        "x": 0.4611632227897644,
        "y": 0.6206987500190735,
        "z": 0.4823681712150574
    },
    "vertexNumber": 3,
    "colliderVertices": [
        {
            "x": -1.1254734992980958,
            "y": -0.11257947981357575
        },
        {
            "x": 1.3106951713562012,
            "y": -0.4255669116973877
        },
        {
            "x": 0.7137197852134705,
            "y": 0.11396205425262451
        }
    ],
    "triangles": [
        1,
        0,
        2
    ],
    "carDensity": 3.0,
    "suspension": 0.7032966017723084,
    "motorSpeed": 850,
    "frontDensity": 4.900000095367432,
    "frontRadius": 0.6881802082061768,
    "frontOffset": 1.3332135677337647,
    "backDensity": 3.4000000953674318,
    "backRadius": 0.5358059406280518,
    "backOffset": -1.1968587636947632,
    "score": 910,
    "maxDistance": 830,
    "maxTime": 104.0
}{
    "ID": 106207,
    "genomaID": "CV3TD12",
    "color": {
        "x": 0.8121681213378906,
        "y": 0.8124029636383057,
        "z": 0.5575398802757263
    },
    "vertexNumber": 3,
    "colliderVertices": [
        {
            "x": -1.448728084564209,
            "y": -0.4206351041793823
        },
        {
            "x": 1.2341947555541993,
            "y": -0.4096236228942871
        },
        {
            "x": -0.7727158069610596,
            "y": 0.05484116077423096
        }
    ],
    "triangles": [
        1,
        0,
        2
    ],
    "carDensity": 3.0,
    "suspension": 0.5329830646514893,
    "motorSpeed": 850,
    "frontDensity": 4.900000095367432,
    "frontRadius": 0.6907195448875427,
    "frontOffset": 0.5962182283401489,
    "backDensity": 4.300000190734863,
    "backRadius": 0.6336162090301514,
    "backOffset": -1.064780831336975,
    "score": 24,
    "maxDistance": 4,
    "maxTime": 2.0
}{
    "ID": 106367,
    "genomaID": "CV3TD9",
    "color": {
        "x": 0.5547659993171692,
        "y": 0.021510722115635873,
        "z": 0.2571893036365509
    },
    "vertexNumber": 3,
    "colliderVertices": [
        {
            "x": -1.448728084564209,
            "y": -0.4206351041793823
        },
        {
            "x": 1.2341947555541993,
            "y": -0.4096236228942871
        },
        {
            "x": -0.7727158069610596,
            "y": 0.05484116077423096
        }
    ],
    "triangles": [
        1,
        0,
        2
    ],
    "carDensity": 3.0,
    "suspension": 0.859686017036438,
    "motorSpeed": 850,
    "frontDensity": 2.0999999046325685,
    "frontRadius": 0.4074689745903015,
    "frontOffset": 1.2625911235809327,
    "backDensity": 3.5999999046325685,
    "backRadius": 0.5622387528419495,
    "backOffset": -0.6311353445053101,
    "score": -11,
    "maxDistance": -1,
    "maxTime": 1.0
}