{
    "ID": 65630,
    "genomaID": "CV5TD14",
    "color": {
        "x": 0.08189452439546585,
        "y": 0.3821195960044861,
        "z": 0.08771801739931107
    },
    "vertexNumber": 5,
    "colliderVertices": [
        {
            "x": -1.098609209060669,
            "y": -0.30857136845588686
        },
        {
            "x": 1.509228229522705,
            "y": -0.40887224674224856
        },
        {
            "x": -1.0772719383239747,
            "y": 0.2598887085914612
        },
        {
            "x": -1.626328468322754,
            "y": 0.37082749605178835
        },
        {
            "x": -1.8474955558776856,
            "y": 0.35651832818984988
        }
    ],
    "triangles": [
        1,
        4,
        3,
        3,
        2,
        1,
        1,
        0,
        4
    ],
    "carDensity": 5.0,
    "suspension": 0.9276306629180908,
    "motorSpeed": 874,
    "frontDensity": 4.900000095367432,
    "frontRadius": 0.6907195448875427,
    "frontOffset": 1.199278712272644,
    "backDensity": 3.799999952316284,
    "backRadius": 0.5831100940704346,
    "backOffset": -0.7758358120918274,
    "score": 918,
    "maxDistance": 834,
    "maxTime": 100.0
}{
    "ID": 65661,
    "genomaID": "CV3TD11",
    "color": {
        "x": 0.6438841223716736,
        "y": 0.48220139741897585,
        "z": 0.8416275978088379
    },
    "vertexNumber": 3,
    "colliderVertices": [
        {
            "x": -1.3322129249572755,
            "y": -0.3242015540599823
        },
        {
            "x": 1.406930685043335,
            "y": -0.39797013998031618
        },
        {
            "x": -1.7638306617736817,
            "y": 0.37279003858566286
        }
    ],
    "triangles": [
        1,
        0,
        2
    ],
    "carDensity": 3.0,
    "suspension": 0.7106801867485046,
    "motorSpeed": 874,
    "frontDensity": 4.900000095367432,
    "frontRadius": 0.6907195448875427,
    "frontOffset": 0.5459463596343994,
    "backDensity": 3.4000000953674318,
    "backRadius": 0.5350179076194763,
    "backOffset": -1.4140679836273194,
    "score": 913,
    "maxDistance": 832,
    "maxTime": 103.0
}{
    "ID": 65732,
    "genomaID": "CV3TD12",
    "color": {
        "x": 0.9758309125900269,
        "y": 0.38954585790634158,
        "z": 0.8788208961486816
    },
    "vertexNumber": 3,
    "colliderVertices": [
        {
            "x": -1.3322129249572755,
            "y": -0.3242015540599823
        },
        {
            "x": 1.406930685043335,
            "y": -0.39797013998031618
        },
        {
            "x": -1.7638306617736817,
            "y": 0.37279003858566286
        }
    ],
    "triangles": [
        1,
        0,
        2
    ],
    "carDensity": 3.0,
    "suspension": 0.8575283885002136,
    "motorSpeed": 874,
    "frontDensity": 4.900000095367432,
    "frontRadius": 0.6907195448875427,
    "frontOffset": 0.8216115832328796,
    "backDensity": 3.5,
    "backRadius": 0.5492756366729736,
    "backOffset": -0.7758358120918274,
    "score": 911,
    "maxDistance": 829,
    "maxTime": 102.0
}{
    "ID": 65613,
    "genomaID": "CV6TD14",
    "color": {
        "x": 0.5851426720619202,
        "y": 0.73201984167099,
        "z": 0.16867198050022126
    },
    "vertexNumber": 6,
    "colliderVertices": [
        {
            "x": -1.7411670684814454,
            "y": -0.1775013953447342
        },
        {
            "x": 1.0576655864715577,
            "y": -0.4783763289451599
        },
        {
            "x": 1.6249241828918458,
            "y": 0.35468703508377077
        },
        {
            "x": 1.5955629348754883,
            "y": 0.5577626824378967
        },
        {
            "x": 0.7553748488426209,
            "y": 0.6518034934997559
        },
        {
            "x": -1.9590339660644532,
            "y": 0.5258906483650208
        }
    ],
    "triangles": [
        3,
        1,
        5,
        5,
        4,
        3,
        3,
        2,
        1,
        1,
        0,
        5
    ],
    "carDensity": 6.0,
    "suspension": 0.6282853484153748,
    "motorSpeed": 873,
    "frontDensity": 4.900000095367432,
    "frontRadius": 0.6943348050117493,
    "frontOffset": 0.5632156133651733,
    "backDensity": 3.200000047683716,
    "backRadius": 0.5169047117233276,
    "backOffset": -1.466649055480957,
    "score": 0,
    "maxDistance": 0,
    "maxTime": 1.0
}{
    "ID": 65800,
    "genomaID": "CV3TD11",
    "color": {
        "x": 0.7681076526641846,
        "y": 0.2796610891819,
        "z": 0.3934035897254944
    },
    "vertexNumber": 3,
    "colliderVertices": [
        {
            "x": -1.3322129249572755,
            "y": -0.3242015540599823
        },
        {
            "x": 1.406930685043335,
            "y": -0.39797013998031618
        },
        {
            "x": -1.7638306617736817,
            "y": 0.37279003858566286
        }
    ],
    "triangles": [
        1,
        0,
        2
    ],
    "carDensity": 3.0,
    "suspension": 0.972595751285553,
    "motorSpeed": 1149,
    "frontDensity": 4.900000095367432,
    "frontRadius": 0.6907195448875427,
    "frontOffset": 1.247709035873413,
    "backDensity": 3.4000000953674318,
    "backRadius": 0.5350179076194763,
    "backOffset": -1.1624431610107422,
    "score": 0,
    "maxDistance": 0,
    "maxTime": 0.0
}