{
    "ID": 93645,
    "genomaID": "CV3TD12",
    "color": {
        "x": 0.8397320508956909,
        "y": 0.21620431542396546,
        "z": 0.005464315880089998
    },
    "vertexNumber": 3,
    "colliderVertices": [
        {
            "x": -1.448728084564209,
            "y": -0.4206351041793823
        },
        {
            "x": 1.2341947555541993,
            "y": -0.4096236228942871
        },
        {
            "x": -0.7727158069610596,
            "y": 0.05484116077423096
        }
    ],
    "triangles": [
        1,
        0,
        2
    ],
    "carDensity": 3.0,
    "suspension": 0.9458505511283875,
    "motorSpeed": 1068,
    "frontDensity": 4.900000095367432,
    "frontRadius": 0.6907195448875427,
    "frontOffset": 0.597010612487793,
    "backDensity": 3.799999952316284,
    "backRadius": 0.5821859836578369,
    "backOffset": -1.4803638458251954,
    "score": 929,
    "maxDistance": 833,
    "maxTime": 87.0
}{
    "ID": 93652,
    "genomaID": "CV3TD10",
    "color": {
        "x": 0.1909351646900177,
        "y": 0.7012000679969788,
        "z": 0.7795767784118652
    },
    "vertexNumber": 3,
    "colliderVertices": [
        {
            "x": -1.24593186378479,
            "y": -0.17356999218463899
        },
        {
            "x": 1.4254326820373536,
            "y": -0.31066444516181948
        },
        {
            "x": -1.0050806999206544,
            "y": 0.2958831191062927
        }
    ],
    "triangles": [
        1,
        0,
        2
    ],
    "carDensity": 3.0,
    "suspension": 0.7945161461830139,
    "motorSpeed": 850,
    "frontDensity": 4.900000095367432,
    "frontRadius": 0.6943543553352356,
    "frontOffset": 0.808815062046051,
    "backDensity": 2.4000000953674318,
    "backRadius": 0.43846064805984499,
    "backOffset": -1.3083957433700562,
    "score": 912,
    "maxDistance": 833,
    "maxTime": 106.0
}{
    "ID": 93748,
    "genomaID": "CV3TD11",
    "color": {
        "x": 0.6954454779624939,
        "y": 0.2025717794895172,
        "z": 0.3632669746875763
    },
    "vertexNumber": 3,
    "colliderVertices": [
        {
            "x": -1.448728084564209,
            "y": -0.4206351041793823
        },
        {
            "x": 1.2341947555541993,
            "y": -0.4096236228942871
        },
        {
            "x": -0.7727158069610596,
            "y": 0.05484116077423096
        }
    ],
    "triangles": [
        1,
        0,
        2
    ],
    "carDensity": 3.0,
    "suspension": 0.6266824007034302,
    "motorSpeed": 850,
    "frontDensity": 4.900000095367432,
    "frontRadius": 0.6907195448875427,
    "frontOffset": 1.0317693948745728,
    "backDensity": 2.700000047683716,
    "backRadius": 0.4730428457260132,
    "backOffset": -1.2692713737487794,
    "score": 911,
    "maxDistance": 833,
    "maxTime": 106.0
}{
    "ID": 93758,
    "genomaID": "CV5TD14",
    "color": {
        "x": 0.28277984261512759,
        "y": 0.37338748574256899,
        "z": 0.43425315618515017
    },
    "vertexNumber": 5,
    "colliderVertices": [
        {
            "x": -1.695460319519043,
            "y": -0.4888865351676941
        },
        {
            "x": 1.5010242462158204,
            "y": -0.4945768713951111
        },
        {
            "x": 1.5545415878295899,
            "y": 0.9611246585845947
        },
        {
            "x": -0.2526204586029053,
            "y": 0.3699449896812439
        },
        {
            "x": -0.9049670696258545,
            "y": 0.9828528165817261
        }
    ],
    "triangles": [
        3,
        2,
        0,
        0,
        4,
        3,
        2,
        1,
        0
    ],
    "carDensity": 5.0,
    "suspension": 0.5732651948928833,
    "motorSpeed": 850,
    "frontDensity": 4.599999904632568,
    "frontRadius": 0.6558356285095215,
    "frontOffset": 0.599597692489624,
    "backDensity": 3.5,
    "backRadius": 0.5461224913597107,
    "backOffset": -1.30434250831604,
    "score": 12,
    "maxDistance": 2,
    "maxTime": 2.0
}{
    "ID": 93785,
    "genomaID": "CV3TD11",
    "color": {
        "x": 0.5977551341056824,
        "y": 0.5461369156837463,
        "z": 0.35354605317115786
    },
    "vertexNumber": 3,
    "colliderVertices": [
        {
            "x": -1.24593186378479,
            "y": -0.17356999218463899
        },
        {
            "x": 1.4254326820373536,
            "y": -0.31066444516181948
        },
        {
            "x": -1.0050806999206544,
            "y": 0.2958831191062927
        }
    ],
    "triangles": [
        1,
        0,
        2
    ],
    "carDensity": 3.0,
    "suspension": 0.8668060898780823,
    "motorSpeed": 880,
    "frontDensity": 3.0999999046325685,
    "frontRadius": 0.5054739117622376,
    "frontOffset": 1.4268548488616944,
    "backDensity": 4.599999904632568,
    "backRadius": 0.660592257976532,
    "backOffset": -1.1487932205200196,
    "score": -11,
    "maxDistance": -1,
    "maxTime": 1.0
}