{
    "ID": 111382,
    "genomaID": "CV3TD11",
    "color": {
        "x": 0.18018175661563874,
        "y": 0.28061285614967348,
        "z": 0.16327108442783357
    },
    "vertexNumber": 3,
    "colliderVertices": [
        {
            "x": -1.448728084564209,
            "y": -0.4206351041793823
        },
        {
            "x": 1.2341947555541993,
            "y": -0.4096236228942871
        },
        {
            "x": -0.7727158069610596,
            "y": 0.05484116077423096
        }
    ],
    "triangles": [
        1,
        0,
        2
    ],
    "carDensity": 3.0,
    "suspension": 0.5446422100067139,
    "motorSpeed": 1186,
    "frontDensity": 4.900000095367432,
    "frontRadius": 0.687800943851471,
    "frontOffset": 1.4886821508407593,
    "backDensity": 3.4000000953674318,
    "backRadius": 0.5400869250297546,
    "backOffset": -1.3184936046600342,
    "score": 931,
    "maxDistance": 833,
    "maxTime": 85.0
}{
    "ID": 111251,
    "genomaID": "CV3TD11",
    "color": {
        "x": 0.32096853852272036,
        "y": 0.557489812374115,
        "z": 0.332051545381546
    },
    "vertexNumber": 3,
    "colliderVertices": [
        {
            "x": -1.448728084564209,
            "y": -0.4206351041793823
        },
        {
            "x": 1.2341947555541993,
            "y": -0.4096236228942871
        },
        {
            "x": -0.7727158069610596,
            "y": 0.05484116077423096
        }
    ],
    "triangles": [
        1,
        0,
        2
    ],
    "carDensity": 3.0,
    "suspension": 0.5446422100067139,
    "motorSpeed": 850,
    "frontDensity": 4.900000095367432,
    "frontRadius": 0.687800943851471,
    "frontOffset": 0.7027888298034668,
    "backDensity": 3.4000000953674318,
    "backRadius": 0.5400869250297546,
    "backOffset": -1.3184936046600342,
    "score": 913,
    "maxDistance": 833,
    "maxTime": 104.0
}{
    "ID": 111360,
    "genomaID": "CV3TD11",
    "color": {
        "x": 0.8434851169586182,
        "y": 0.3895016312599182,
        "z": 0.015743853524327279
    },
    "vertexNumber": 3,
    "colliderVertices": [
        {
            "x": -1.156853199005127,
            "y": -0.4611356258392334
        },
        {
            "x": 1.646263599395752,
            "y": -0.44403278827667239
        },
        {
            "x": 1.1705970764160157,
            "y": 0.08701074123382569
        }
    ],
    "triangles": [
        1,
        0,
        2
    ],
    "carDensity": 3.0,
    "suspension": 0.6846564412117004,
    "motorSpeed": 850,
    "frontDensity": 4.800000190734863,
    "frontRadius": 0.6805405616760254,
    "frontOffset": 1.4609516859054566,
    "backDensity": 2.700000047683716,
    "backRadius": 0.46915096044540408,
    "backOffset": -0.7919819951057434,
    "score": 911,
    "maxDistance": 833,
    "maxTime": 106.0
}{
    "ID": 111311,
    "genomaID": "CV3TD12",
    "color": {
        "x": 0.9264074563980103,
        "y": 0.3243921101093292,
        "z": 0.0674147680401802
    },
    "vertexNumber": 3,
    "colliderVertices": [
        {
            "x": -1.448728084564209,
            "y": -0.4206351041793823
        },
        {
            "x": 1.2341947555541993,
            "y": -0.4096236228942871
        },
        {
            "x": -0.7727158069610596,
            "y": 0.05484116077423096
        }
    ],
    "triangles": [
        1,
        0,
        2
    ],
    "carDensity": 3.0,
    "suspension": 0.4327439069747925,
    "motorSpeed": 850,
    "frontDensity": 4.900000095367432,
    "frontRadius": 0.6907195448875427,
    "frontOffset": 1.1046868562698365,
    "backDensity": 3.799999952316284,
    "backRadius": 0.5824647545814514,
    "backOffset": -0.6984292268753052,
    "score": 32,
    "maxDistance": 9,
    "maxTime": 4.0
}{
    "ID": 111393,
    "genomaID": "CV6TD14",
    "color": {
        "x": 0.6076138615608215,
        "y": 0.2100631296634674,
        "z": 0.02442515268921852
    },
    "vertexNumber": 6,
    "colliderVertices": [
        {
            "x": -1.2010643482208253,
            "y": -0.2871367037296295
        },
        {
            "x": 1.063240647315979,
            "y": -0.020332874730229379
        },
        {
            "x": 1.5824456214904786,
            "y": 0.039020538330078128
        },
        {
            "x": 1.074754238128662,
            "y": 0.2335423231124878
        },
        {
            "x": 0.03939080238342285,
            "y": 0.6622101068496704
        },
        {
            "x": -1.1574835777282715,
            "y": 0.7542856931686401
        }
    ],
    "triangles": [
        3,
        1,
        5,
        5,
        4,
        3,
        3,
        2,
        1,
        1,
        0,
        5
    ],
    "carDensity": 6.0,
    "suspension": 0.7376861572265625,
    "motorSpeed": 850,
    "frontDensity": 4.900000095367432,
    "frontRadius": 0.6907195448875427,
    "frontOffset": 0.9572106599807739,
    "backDensity": 3.0999999046325685,
    "backRadius": 0.5107254981994629,
    "backOffset": -0.7724445462226868,
    "score": 0,
    "maxDistance": 0,
    "maxTime": 1.0
}