{
    "ID": 95100,
    "genomaID": "CV3TD12",
    "color": {
        "x": 0.8870282173156738,
        "y": 0.7666325569152832,
        "z": 0.8037217855453491
    },
    "vertexNumber": 3,
    "colliderVertices": [
        {
            "x": -1.448728084564209,
            "y": -0.4206351041793823
        },
        {
            "x": 1.2341947555541993,
            "y": -0.4096236228942871
        },
        {
            "x": -0.7727158069610596,
            "y": 0.05484116077423096
        }
    ],
    "triangles": [
        1,
        0,
        2
    ],
    "carDensity": 3.0,
    "suspension": 0.4066852033138275,
    "motorSpeed": 850,
    "frontDensity": 4.900000095367432,
    "frontRadius": 0.6907195448875427,
    "frontOffset": 0.597010612487793,
    "backDensity": 3.5999999046325685,
    "backRadius": 0.5567789077758789,
    "backOffset": -1.4803638458251954,
    "score": 915,
    "maxDistance": 834,
    "maxTime": 103.0
}{
    "ID": 95131,
    "genomaID": "CV3TD11",
    "color": {
        "x": 0.5674471259117127,
        "y": 0.9338675737380981,
        "z": 0.18931534886360169
    },
    "vertexNumber": 3,
    "colliderVertices": [
        {
            "x": -1.24593186378479,
            "y": -0.17356999218463899
        },
        {
            "x": 1.4254326820373536,
            "y": -0.31066444516181948
        },
        {
            "x": -1.0050806999206544,
            "y": 0.2958831191062927
        }
    ],
    "triangles": [
        1,
        0,
        2
    ],
    "carDensity": 3.0,
    "suspension": 0.7921504974365234,
    "motorSpeed": 880,
    "frontDensity": 4.599999904632568,
    "frontRadius": 0.6589146256446838,
    "frontOffset": 1.2321736812591553,
    "backDensity": 2.700000047683716,
    "backRadius": 0.4706142544746399,
    "backOffset": -1.0143600702285767,
    "score": 912,
    "maxDistance": 834,
    "maxTime": 108.0
}{
    "ID": 95102,
    "genomaID": "CV3TD12",
    "color": {
        "x": 0.5671970248222351,
        "y": 0.8228640556335449,
        "z": 0.031154993921518327
    },
    "vertexNumber": 3,
    "colliderVertices": [
        {
            "x": -1.448728084564209,
            "y": -0.4206351041793823
        },
        {
            "x": 1.2341947555541993,
            "y": -0.4096236228942871
        },
        {
            "x": -0.7727158069610596,
            "y": 0.05484116077423096
        }
    ],
    "triangles": [
        1,
        0,
        2
    ],
    "carDensity": 3.0,
    "suspension": 0.41930124163627627,
    "motorSpeed": 850,
    "frontDensity": 4.800000190734863,
    "frontRadius": 0.6779786944389343,
    "frontOffset": 0.7426102161407471,
    "backDensity": 3.799999952316284,
    "backRadius": 0.5821859836578369,
    "backOffset": -1.4803638458251954,
    "score": 910,
    "maxDistance": 829,
    "maxTime": 102.0
}{
    "ID": 95036,
    "genomaID": "CV3TD10",
    "color": {
        "x": 0.8729569911956787,
        "y": 0.9748997688293457,
        "z": 0.6180261969566345
    },
    "vertexNumber": 3,
    "colliderVertices": [
        {
            "x": -1.24593186378479,
            "y": -0.17356999218463899
        },
        {
            "x": 1.4254326820373536,
            "y": -0.31066444516181948
        },
        {
            "x": -1.0050806999206544,
            "y": 0.2958831191062927
        }
    ],
    "triangles": [
        1,
        0,
        2
    ],
    "carDensity": 3.0,
    "suspension": 0.4396326243877411,
    "motorSpeed": 582,
    "frontDensity": 4.5,
    "frontRadius": 0.646500289440155,
    "frontOffset": 1.1019150018692017,
    "backDensity": 3.0999999046325685,
    "backRadius": 0.5132172703742981,
    "backOffset": -0.7412910461425781,
    "score": 24,
    "maxDistance": 4,
    "maxTime": 2.0
}{
    "ID": 95076,
    "genomaID": "CV3TD9",
    "color": {
        "x": 0.25192561745643618,
        "y": 0.10850919783115387,
        "z": 0.5089201331138611
    },
    "vertexNumber": 3,
    "colliderVertices": [
        {
            "x": -1.24593186378479,
            "y": -0.17356999218463899
        },
        {
            "x": 1.4254326820373536,
            "y": -0.31066444516181948
        },
        {
            "x": -1.0050806999206544,
            "y": 0.2958831191062927
        }
    ],
    "triangles": [
        1,
        0,
        2
    ],
    "carDensity": 3.0,
    "suspension": 0.793225109577179,
    "motorSpeed": 850,
    "frontDensity": 2.299999952316284,
    "frontRadius": 0.42572081089019778,
    "frontOffset": 0.599597692489624,
    "backDensity": 4.199999809265137,
    "backRadius": 0.6234129071235657,
    "backOffset": -0.7190752029418945,
    "score": -11,
    "maxDistance": -1,
    "maxTime": 1.0
}