{
    "ID": 90154,
    "genomaID": "CV3TD12",
    "color": {
        "x": 0.9341213703155518,
        "y": 0.36200371384620669,
        "z": 0.9399467706680298
    },
    "vertexNumber": 3,
    "colliderVertices": [
        {
            "x": -1.448728084564209,
            "y": -0.4206351041793823
        },
        {
            "x": 1.2341947555541993,
            "y": -0.4096236228942871
        },
        {
            "x": -0.7727158069610596,
            "y": 0.05484116077423096
        }
    ],
    "triangles": [
        1,
        0,
        2
    ],
    "carDensity": 3.0,
    "suspension": 0.7211733460426331,
    "motorSpeed": 980,
    "frontDensity": 4.900000095367432,
    "frontRadius": 0.6907195448875427,
    "frontOffset": 1.3309717178344727,
    "backDensity": 4.0,
    "backRadius": 0.5967223644256592,
    "backOffset": -1.4971814155578614,
    "score": 920,
    "maxDistance": 833,
    "maxTime": 95.0
}{
    "ID": 90197,
    "genomaID": "CV3TD11",
    "color": {
        "x": 0.225060373544693,
        "y": 0.9318109750747681,
        "z": 0.6402801871299744
    },
    "vertexNumber": 3,
    "colliderVertices": [
        {
            "x": -1.24593186378479,
            "y": -0.17356999218463899
        },
        {
            "x": 1.4254326820373536,
            "y": -0.31066444516181948
        },
        {
            "x": -1.0050806999206544,
            "y": 0.2958831191062927
        }
    ],
    "triangles": [
        1,
        0,
        2
    ],
    "carDensity": 3.0,
    "suspension": 0.9011678695678711,
    "motorSpeed": 850,
    "frontDensity": 4.900000095367432,
    "frontRadius": 0.6899316906929016,
    "frontOffset": 1.013278603553772,
    "backDensity": 3.0,
    "backRadius": 0.49700358510017397,
    "backOffset": -1.406489610671997,
    "score": 912,
    "maxDistance": 833,
    "maxTime": 105.0
}{
    "ID": 90138,
    "genomaID": "CV3TD11",
    "color": {
        "x": 0.7824622392654419,
        "y": 0.6684330105781555,
        "z": 0.5481817126274109
    },
    "vertexNumber": 3,
    "colliderVertices": [
        {
            "x": -1.24593186378479,
            "y": -0.17356999218463899
        },
        {
            "x": 1.4254326820373536,
            "y": -0.31066444516181948
        },
        {
            "x": -1.0050806999206544,
            "y": 0.2958831191062927
        }
    ],
    "triangles": [
        1,
        0,
        2
    ],
    "carDensity": 3.0,
    "suspension": 0.5981389284133911,
    "motorSpeed": 880,
    "frontDensity": 4.699999809265137,
    "frontRadius": 0.6699202656745911,
    "frontOffset": 1.0156499147415162,
    "backDensity": 3.0999999046325685,
    "backRadius": 0.5132172703742981,
    "backOffset": -1.4474691152572632,
    "score": 910,
    "maxDistance": 831,
    "maxTime": 105.0
}{
    "ID": 90086,
    "genomaID": "CV3TD12",
    "color": {
        "x": 0.3033737242221832,
        "y": 0.7917381525039673,
        "z": 0.8435794115066528
    },
    "vertexNumber": 3,
    "colliderVertices": [
        {
            "x": -1.448728084564209,
            "y": -0.4206351041793823
        },
        {
            "x": 1.2341947555541993,
            "y": -0.4096236228942871
        },
        {
            "x": -0.7727158069610596,
            "y": 0.05484116077423096
        }
    ],
    "triangles": [
        1,
        0,
        2
    ],
    "carDensity": 3.0,
    "suspension": 0.7211733460426331,
    "motorSpeed": 850,
    "frontDensity": 4.900000095367432,
    "frontRadius": 0.6907195448875427,
    "frontOffset": 0.8779584169387817,
    "backDensity": 4.0,
    "backRadius": 0.5967223644256592,
    "backOffset": -0.5818496942520142,
    "score": 30,
    "maxDistance": 5,
    "maxTime": 2.0
}{
    "ID": 90190,
    "genomaID": "CV4TD12",
    "color": {
        "x": 0.7507197856903076,
        "y": 0.8040612936019898,
        "z": 0.3491741716861725
    },
    "vertexNumber": 4,
    "colliderVertices": [
        {
            "x": -1.1390142440795899,
            "y": -0.38114696741104128
        },
        {
            "x": 1.1984091997146607,
            "y": -0.10468550026416779
        },
        {
            "x": 0.29513001441955569,
            "y": 0.28349214792251589
        },
        {
            "x": -1.5215611457824708,
            "y": 0.31425076723098757
        }
    ],
    "triangles": [
        3,
        2,
        1,
        1,
        0,
        3
    ],
    "carDensity": 4.0,
    "suspension": 0.5198736190795898,
    "motorSpeed": 603,
    "frontDensity": 4.900000095367432,
    "frontRadius": 0.6943543553352356,
    "frontOffset": 0.599597692489624,
    "backDensity": 2.799999952316284,
    "backRadius": 0.4785684049129486,
    "backOffset": -1.096577525138855,
    "score": 0,
    "maxDistance": 0,
    "maxTime": 1.0
}