{
    "ID": 65268,
    "genomaID": "CV3TD12",
    "color": {
        "x": 0.15364433825016023,
        "y": 0.7010276913642883,
        "z": 0.2859936058521271
    },
    "vertexNumber": 3,
    "colliderVertices": [
        {
            "x": -1.3322129249572755,
            "y": -0.3242015540599823
        },
        {
            "x": 1.406930685043335,
            "y": -0.39797013998031618
        },
        {
            "x": -1.7638306617736817,
            "y": 0.37279003858566286
        }
    ],
    "triangles": [
        1,
        0,
        2
    ],
    "carDensity": 3.0,
    "suspension": 0.7651186585426331,
    "motorSpeed": 879,
    "frontDensity": 4.900000095367432,
    "frontRadius": 0.6913748979568481,
    "frontOffset": 1.0997165441513062,
    "backDensity": 3.5999999046325685,
    "backRadius": 0.5633043646812439,
    "backOffset": -1.2949919700622559,
    "score": 916,
    "maxDistance": 834,
    "maxTime": 101.0
}{
    "ID": 65377,
    "genomaID": "CV3TD11",
    "color": {
        "x": 0.36806872487068179,
        "y": 0.05324602872133255,
        "z": 0.9842822551727295
    },
    "vertexNumber": 3,
    "colliderVertices": [
        {
            "x": -1.3322129249572755,
            "y": -0.3242015540599823
        },
        {
            "x": 1.406930685043335,
            "y": -0.39797013998031618
        },
        {
            "x": -1.7638306617736817,
            "y": 0.37279003858566286
        }
    ],
    "triangles": [
        1,
        0,
        2
    ],
    "carDensity": 3.0,
    "suspension": 0.5952407121658325,
    "motorSpeed": 874,
    "frontDensity": 4.900000095367432,
    "frontRadius": 0.6907195448875427,
    "frontOffset": 1.3613731861114503,
    "backDensity": 3.299999952316284,
    "backRadius": 0.5253103375434876,
    "backOffset": -1.2519381046295167,
    "score": 914,
    "maxDistance": 834,
    "maxTime": 104.0
}{
    "ID": 65395,
    "genomaID": "CV3TD12",
    "color": {
        "x": 0.8922040462493897,
        "y": 0.16881419718265534,
        "z": 0.9950582981109619
    },
    "vertexNumber": 3,
    "colliderVertices": [
        {
            "x": -1.5986344814300538,
            "y": -0.01148915383964777
        },
        {
            "x": 1.5669071674346924,
            "y": -0.0891728475689888
        },
        {
            "x": 1.1467747688293458,
            "y": 0.6319169998168945
        }
    ],
    "triangles": [
        1,
        0,
        2
    ],
    "carDensity": 3.0,
    "suspension": 0.9150776863098145,
    "motorSpeed": 874,
    "frontDensity": 4.900000095367432,
    "frontRadius": 0.6907195448875427,
    "frontOffset": 0.90955650806427,
    "backDensity": 3.5,
    "backRadius": 0.5492756366729736,
    "backOffset": -1.2007501125335694,
    "score": 910,
    "maxDistance": 828,
    "maxTime": 101.0
}{
    "ID": 65219,
    "genomaID": "CV3TD10",
    "color": {
        "x": 0.44939547777175906,
        "y": 0.6869245171546936,
        "z": 0.8737590312957764
    },
    "vertexNumber": 3,
    "colliderVertices": [
        {
            "x": -1.3322129249572755,
            "y": -0.3242015540599823
        },
        {
            "x": 1.406930685043335,
            "y": -0.39797013998031618
        },
        {
            "x": -1.7638306617736817,
            "y": 0.37279003858566286
        }
    ],
    "triangles": [
        1,
        0,
        2
    ],
    "carDensity": 3.0,
    "suspension": 0.456739604473114,
    "motorSpeed": 879,
    "frontDensity": 3.700000047683716,
    "frontRadius": 0.5723315477371216,
    "frontOffset": 1.1014636754989625,
    "backDensity": 3.4000000953674318,
    "backRadius": 0.5423464775085449,
    "backOffset": -0.5963367223739624,
    "score": 0,
    "maxDistance": 0,
    "maxTime": 1.0
}{
    "ID": 65320,
    "genomaID": "CV3TD12",
    "color": {
        "x": 0.826252818107605,
        "y": 0.7983169555664063,
        "z": 0.1831430345773697
    },
    "vertexNumber": 3,
    "colliderVertices": [
        {
            "x": -1.559657335281372,
            "y": -0.31580016016960146
        },
        {
            "x": 1.0767900943756104,
            "y": -0.10785074532032013
        },
        {
            "x": 0.2902243137359619,
            "y": 0.22379934787750245
        }
    ],
    "triangles": [
        1,
        0,
        2
    ],
    "carDensity": 3.0,
    "suspension": 0.8814452886581421,
    "motorSpeed": 879,
    "frontDensity": 4.599999904632568,
    "frontRadius": 0.6645531058311462,
    "frontOffset": 0.9261306524276733,
    "backDensity": 4.5,
    "backRadius": 0.6545494198799133,
    "backOffset": -1.279280662536621,
    "score": -11,
    "maxDistance": -1,
    "maxTime": 1.0
}