{
    "ID": 47248,
    "genomaID": "CV3TD12",
    "color": {
        "x": 0.5797355771064758,
        "y": 0.4698863625526428,
        "z": 0.5692866444587708
    },
    "vertexNumber": 3,
    "colliderVertices": [
        {
            "x": -1.3322129249572755,
            "y": -0.3242015540599823
        },
        {
            "x": 1.406930685043335,
            "y": -0.39797013998031618
        },
        {
            "x": -1.7638306617736817,
            "y": 0.37279003858566286
        }
    ],
    "triangles": [
        1,
        0,
        2
    ],
    "carDensity": 3.0,
    "suspension": 0.6023563146591187,
    "motorSpeed": 879,
    "frontDensity": 5.0,
    "frontRadius": 0.6981920599937439,
    "frontOffset": 1.2265441417694092,
    "backDensity": 3.5,
    "backRadius": 0.5500476360321045,
    "backOffset": -1.0610417127609254,
    "score": 917,
    "maxDistance": 834,
    "maxTime": 101.0
}{
    "ID": 47339,
    "genomaID": "CV3TD11",
    "color": {
        "x": 0.4356594681739807,
        "y": 0.042524222284555438,
        "z": 0.13122178614139558
    },
    "vertexNumber": 3,
    "colliderVertices": [
        {
            "x": -1.4639298915863038,
            "y": -0.14968635141849519
        },
        {
            "x": 1.6926277875900269,
            "y": -0.3010341227054596
        },
        {
            "x": 0.9615954756736755,
            "y": 0.32372647523880007
        }
    ],
    "triangles": [
        1,
        0,
        2
    ],
    "carDensity": 3.0,
    "suspension": 0.4291572570800781,
    "motorSpeed": 879,
    "frontDensity": 4.800000190734863,
    "frontRadius": 0.6772812604904175,
    "frontOffset": 1.348574161529541,
    "backDensity": 3.299999952316284,
    "backRadius": 0.529460072517395,
    "backOffset": -1.3564670085906983,
    "score": 914,
    "maxDistance": 833,
    "maxTime": 103.0
}{
    "ID": 47327,
    "genomaID": "CV3TD11",
    "color": {
        "x": 0.571217954158783,
        "y": 0.08509636670351029,
        "z": 0.6377937197685242
    },
    "vertexNumber": 3,
    "colliderVertices": [
        {
            "x": -1.4167654514312745,
            "y": -0.05450911074876785
        },
        {
            "x": 1.4079196453094483,
            "y": -0.3937686085700989
        },
        {
            "x": -1.247361660003662,
            "y": 0.22769761085510255
        }
    ],
    "triangles": [
        1,
        0,
        2
    ],
    "carDensity": 3.0,
    "suspension": 0.49541348218917849,
    "motorSpeed": 895,
    "frontDensity": 4.599999904632568,
    "frontRadius": 0.6601374745368958,
    "frontOffset": 0.780512273311615,
    "backDensity": 2.700000047683716,
    "backRadius": 0.4728356599807739,
    "backOffset": -1.268383502960205,
    "score": 912,
    "maxDistance": 833,
    "maxTime": 106.0
}{
    "ID": 47315,
    "genomaID": "CV3TD10",
    "color": {
        "x": 0.49777573347091677,
        "y": 0.613484799861908,
        "z": 0.20657292008399964
    },
    "vertexNumber": 3,
    "colliderVertices": [
        {
            "x": -1.3322129249572755,
            "y": -0.3242015540599823
        },
        {
            "x": 1.406930685043335,
            "y": -0.39797013998031618
        },
        {
            "x": -1.7638306617736817,
            "y": 0.37279003858566286
        }
    ],
    "triangles": [
        1,
        0,
        2
    ],
    "carDensity": 3.0,
    "suspension": 0.44552046060562136,
    "motorSpeed": 720,
    "frontDensity": 4.099999904632568,
    "frontRadius": 0.6065757274627686,
    "frontOffset": 1.4861764907836915,
    "backDensity": 3.299999952316284,
    "backRadius": 0.5323618650436401,
    "backOffset": -1.0219100713729859,
    "score": 26,
    "maxDistance": 4,
    "maxTime": 2.0
}{
    "ID": 47389,
    "genomaID": "CV3TD11",
    "color": {
        "x": 0.6000825762748718,
        "y": 0.659334123134613,
        "z": 0.9595612287521362
    },
    "vertexNumber": 3,
    "colliderVertices": [
        {
            "x": -1.3322129249572755,
            "y": -0.3242015540599823
        },
        {
            "x": 1.406930685043335,
            "y": -0.39797013998031618
        },
        {
            "x": -1.7638306617736817,
            "y": 0.37279003858566286
        }
    ],
    "triangles": [
        1,
        0,
        2
    ],
    "carDensity": 3.0,
    "suspension": 0.57655930519104,
    "motorSpeed": 1292,
    "frontDensity": 4.800000190734863,
    "frontRadius": 0.6772812604904175,
    "frontOffset": 1.0434917211532593,
    "backDensity": 3.299999952316284,
    "backRadius": 0.529460072517395,
    "backOffset": -1.3860187530517579,
    "score": 0,
    "maxDistance": 0,
    "maxTime": 1.0
}