{
    "ID": 48447,
    "genomaID": "CV3TD12",
    "color": {
        "x": 0.30198433995246889,
        "y": 0.934977650642395,
        "z": 0.3096877634525299
    },
    "vertexNumber": 3,
    "colliderVertices": [
        {
            "x": -1.3322129249572755,
            "y": -0.3242015540599823
        },
        {
            "x": 1.406930685043335,
            "y": -0.39797013998031618
        },
        {
            "x": -1.7638306617736817,
            "y": 0.37279003858566286
        }
    ],
    "triangles": [
        1,
        0,
        2
    ],
    "carDensity": 3.0,
    "suspension": 0.5930647850036621,
    "motorSpeed": 879,
    "frontDensity": 5.0,
    "frontRadius": 0.6981920599937439,
    "frontOffset": 0.5158141851425171,
    "backDensity": 3.5,
    "backRadius": 0.5500476360321045,
    "backOffset": -1.2265852689743043,
    "score": 917,
    "maxDistance": 834,
    "maxTime": 101.0
}{
    "ID": 48474,
    "genomaID": "CV3TD11",
    "color": {
        "x": 0.9591555595397949,
        "y": 0.6271639466285706,
        "z": 0.0692058876156807
    },
    "vertexNumber": 3,
    "colliderVertices": [
        {
            "x": -1.3322129249572755,
            "y": -0.3242015540599823
        },
        {
            "x": 1.406930685043335,
            "y": -0.39797013998031618
        },
        {
            "x": -1.7638306617736817,
            "y": 0.37279003858566286
        }
    ],
    "triangles": [
        1,
        0,
        2
    ],
    "carDensity": 3.0,
    "suspension": 0.4852134883403778,
    "motorSpeed": 879,
    "frontDensity": 4.800000190734863,
    "frontRadius": 0.6772812604904175,
    "frontOffset": 1.0434917211532593,
    "backDensity": 3.299999952316284,
    "backRadius": 0.529460072517395,
    "backOffset": -1.150177240371704,
    "score": 914,
    "maxDistance": 834,
    "maxTime": 104.0
}{
    "ID": 48566,
    "genomaID": "CV3TD10",
    "color": {
        "x": 0.5573375821113586,
        "y": 0.547770082950592,
        "z": 0.5145778059959412
    },
    "vertexNumber": 3,
    "colliderVertices": [
        {
            "x": -1.3322129249572755,
            "y": -0.3242015540599823
        },
        {
            "x": 1.406930685043335,
            "y": -0.39797013998031618
        },
        {
            "x": -1.7638306617736817,
            "y": 0.37279003858566286
        }
    ],
    "triangles": [
        1,
        0,
        2
    ],
    "carDensity": 3.0,
    "suspension": 0.9817790985107422,
    "motorSpeed": 879,
    "frontDensity": 5.0,
    "frontRadius": 0.6981920599937439,
    "frontOffset": 1.4299728870391846,
    "backDensity": 2.4000000953674318,
    "backRadius": 0.43834012746810915,
    "backOffset": -0.8165274262428284,
    "score": 912,
    "maxDistance": 833,
    "maxTime": 106.0
}{
    "ID": 48568,
    "genomaID": "CV5TD12",
    "color": {
        "x": 0.7269658446311951,
        "y": 0.1153574138879776,
        "z": 0.27116313576698305
    },
    "vertexNumber": 5,
    "colliderVertices": [
        {
            "x": -1.108141303062439,
            "y": -0.2511694133281708
        },
        {
            "x": 1.3561961650848389,
            "y": -0.38061952590942385
        },
        {
            "x": 1.084066390991211,
            "y": 0.6918516159057617
        },
        {
            "x": -0.3491857051849365,
            "y": 0.7362362146377564
        },
        {
            "x": -0.7837865352630615,
            "y": 0.5625520348548889
        }
    ],
    "triangles": [
        1,
        4,
        3,
        3,
        2,
        1,
        1,
        0,
        4
    ],
    "carDensity": 5.0,
    "suspension": 0.5388931035995483,
    "motorSpeed": 879,
    "frontDensity": 3.700000047683716,
    "frontRadius": 0.5660988092422485,
    "frontOffset": 0.8659900426864624,
    "backDensity": 3.299999952316284,
    "backRadius": 0.529460072517395,
    "backOffset": -1.150177240371704,
    "score": 13,
    "maxDistance": 2,
    "maxTime": 2.0
}{
    "ID": 48596,
    "genomaID": "CV3TD13",
    "color": {
        "x": 0.04487193003296852,
        "y": 0.9218603372573853,
        "z": 0.05435562878847122
    },
    "vertexNumber": 3,
    "colliderVertices": [
        {
            "x": -1.3322129249572755,
            "y": -0.3242015540599823
        },
        {
            "x": 1.406930685043335,
            "y": -0.39797013998031618
        },
        {
            "x": -1.7638306617736817,
            "y": 0.37279003858566286
        }
    ],
    "triangles": [
        1,
        0,
        2
    ],
    "carDensity": 3.0,
    "suspension": 0.7295162081718445,
    "motorSpeed": 879,
    "frontDensity": 4.900000095367432,
    "frontRadius": 0.6862618923187256,
    "frontOffset": 0.6545013189315796,
    "backDensity": 5.0,
    "backRadius": 0.6951094269752502,
    "backOffset": -0.8490456342697144,
    "score": 0,
    "maxDistance": -1,
    "maxTime": 1.0
}