{
    "ID": 51118,
    "genomaID": "CV3TD12",
    "color": {
        "x": 0.8351825475692749,
        "y": 0.6088482737541199,
        "z": 0.9782909154891968
    },
    "vertexNumber": 3,
    "colliderVertices": [
        {
            "x": -1.3322129249572755,
            "y": -0.3242015540599823
        },
        {
            "x": 1.406930685043335,
            "y": -0.39797013998031618
        },
        {
            "x": -1.7638306617736817,
            "y": 0.37279003858566286
        }
    ],
    "triangles": [
        1,
        0,
        2
    ],
    "carDensity": 3.0,
    "suspension": 0.8797401785850525,
    "motorSpeed": 879,
    "frontDensity": 4.800000190734863,
    "frontRadius": 0.6832131743431091,
    "frontOffset": 0.9184337854385376,
    "backDensity": 3.5,
    "backRadius": 0.5529971122741699,
    "backOffset": -1.3451030254364014,
    "score": 916,
    "maxDistance": 834,
    "maxTime": 102.0
}{
    "ID": 51043,
    "genomaID": "CV3TD11",
    "color": {
        "x": 0.8050636053085327,
        "y": 0.35933247208595278,
        "z": 0.1674269586801529
    },
    "vertexNumber": 3,
    "colliderVertices": [
        {
            "x": -1.3322129249572755,
            "y": -0.3242015540599823
        },
        {
            "x": 1.406930685043335,
            "y": -0.39797013998031618
        },
        {
            "x": -1.7638306617736817,
            "y": 0.37279003858566286
        }
    ],
    "triangles": [
        1,
        0,
        2
    ],
    "carDensity": 3.0,
    "suspension": 0.4414570927619934,
    "motorSpeed": 879,
    "frontDensity": 4.800000190734863,
    "frontRadius": 0.6832131743431091,
    "frontOffset": 1.3100416660308838,
    "backDensity": 3.299999952316284,
    "backRadius": 0.5300843119621277,
    "backOffset": -1.1297515630722047,
    "score": 913,
    "maxDistance": 833,
    "maxTime": 104.0
}{
    "ID": 51062,
    "genomaID": "CV3TD10",
    "color": {
        "x": 0.439258873462677,
        "y": 0.6396306157112122,
        "z": 0.051986582577228549
    },
    "vertexNumber": 3,
    "colliderVertices": [
        {
            "x": -1.3322129249572755,
            "y": -0.3242015540599823
        },
        {
            "x": 1.406930685043335,
            "y": -0.39797013998031618
        },
        {
            "x": -1.7638306617736817,
            "y": 0.37279003858566286
        }
    ],
    "triangles": [
        1,
        0,
        2
    ],
    "carDensity": 3.0,
    "suspension": 0.6245365142822266,
    "motorSpeed": 888,
    "frontDensity": 4.800000190734863,
    "frontRadius": 0.6772812604904175,
    "frontOffset": 1.100152850151062,
    "backDensity": 2.0999999046325685,
    "backRadius": 0.4102209210395813,
    "backOffset": -0.836612343788147,
    "score": 911,
    "maxDistance": 834,
    "maxTime": 108.0
}{
    "ID": 51035,
    "genomaID": "CV4TD12",
    "color": {
        "x": 0.6749839186668396,
        "y": 0.59889155626297,
        "z": 0.6400969624519348
    },
    "vertexNumber": 4,
    "colliderVertices": [
        {
            "x": -1.2641639709472657,
            "y": -0.167671337723732
        },
        {
            "x": 1.3798680305480958,
            "y": -0.10007329285144806
        },
        {
            "x": 1.188741683959961,
            "y": 0.6183784604072571
        },
        {
            "x": -1.9071826934814454,
            "y": 0.9894737005233765
        }
    ],
    "triangles": [
        3,
        2,
        1,
        1,
        0,
        3
    ],
    "carDensity": 4.0,
    "suspension": 0.4756747782230377,
    "motorSpeed": 879,
    "frontDensity": 4.900000095367432,
    "frontRadius": 0.694540798664093,
    "frontOffset": 0.794354259967804,
    "backDensity": 3.0,
    "backRadius": 0.4952898621559143,
    "backOffset": -0.9018286466598511,
    "score": 6,
    "maxDistance": 1,
    "maxTime": 2.0
}{
    "ID": 51199,
    "genomaID": "CV3TD9",
    "color": {
        "x": 0.6575701832771301,
        "y": 0.868037223815918,
        "z": 0.03163004294037819
    },
    "vertexNumber": 3,
    "colliderVertices": [
        {
            "x": -1.3322129249572755,
            "y": -0.3242015540599823
        },
        {
            "x": 1.406930685043335,
            "y": -0.39797013998031618
        },
        {
            "x": -1.7638306617736817,
            "y": 0.37279003858566286
        }
    ],
    "triangles": [
        1,
        0,
        2
    ],
    "carDensity": 3.0,
    "suspension": 0.5693402290344238,
    "motorSpeed": 1336,
    "frontDensity": 3.4000000953674318,
    "frontRadius": 0.541260838508606,
    "frontOffset": 0.7922102808952332,
    "backDensity": 3.299999952316284,
    "backRadius": 0.529460072517395,
    "backOffset": -1.0349057912826539,
    "score": 0,
    "maxDistance": 0,
    "maxTime": 1.0
}