{
    "ID": 53465,
    "genomaID": "CV4TD12",
    "color": {
        "x": 0.2190650999546051,
        "y": 0.819962739944458,
        "z": 0.1384425312280655
    },
    "vertexNumber": 4,
    "colliderVertices": [
        {
            "x": -1.2443959712982178,
            "y": -0.2051199972629547
        },
        {
            "x": 1.509580135345459,
            "y": -0.3199750483036041
        },
        {
            "x": 0.6839074492454529,
            "y": 0.044096946716308597
        },
        {
            "x": -1.4688520431518555,
            "y": 0.07815122604370117
        }
    ],
    "triangles": [
        3,
        2,
        1,
        1,
        0,
        3
    ],
    "carDensity": 4.0,
    "suspension": 0.557853102684021,
    "motorSpeed": 889,
    "frontDensity": 4.800000190734863,
    "frontRadius": 0.6772812604904175,
    "frontOffset": 1.2757318019866944,
    "backDensity": 3.299999952316284,
    "backRadius": 0.5323618650436401,
    "backOffset": -0.884158730506897,
    "score": 916,
    "maxDistance": 834,
    "maxTime": 102.0
}{
    "ID": 53532,
    "genomaID": "CV3TD11",
    "color": {
        "x": 0.9758309125900269,
        "y": 0.38954585790634158,
        "z": 0.8788208961486816
    },
    "vertexNumber": 3,
    "colliderVertices": [
        {
            "x": -1.3322129249572755,
            "y": -0.3242015540599823
        },
        {
            "x": 1.406930685043335,
            "y": -0.39797013998031618
        },
        {
            "x": -1.7638306617736817,
            "y": 0.37279003858566286
        }
    ],
    "triangles": [
        1,
        0,
        2
    ],
    "carDensity": 3.0,
    "suspension": 0.4169120192527771,
    "motorSpeed": 879,
    "frontDensity": 4.800000190734863,
    "frontRadius": 0.6832131743431091,
    "frontOffset": 1.0015231370925904,
    "backDensity": 3.299999952316284,
    "backRadius": 0.529460072517395,
    "backOffset": -1.0344256162643433,
    "score": 914,
    "maxDistance": 834,
    "maxTime": 104.0
}{
    "ID": 53543,
    "genomaID": "CV3TD11",
    "color": {
        "x": 0.033374909311532977,
        "y": 0.6836089491844177,
        "z": 0.6072254776954651
    },
    "vertexNumber": 3,
    "colliderVertices": [
        {
            "x": -1.0632387399673463,
            "y": -0.43455809354782107
        },
        {
            "x": 1.3427574634552003,
            "y": -0.44732171297073367
        },
        {
            "x": -1.4998435974121094,
            "y": 0.6457148790359497
        }
    ],
    "triangles": [
        1,
        0,
        2
    ],
    "carDensity": 3.0,
    "suspension": 0.6229479312896729,
    "motorSpeed": 879,
    "frontDensity": 4.800000190734863,
    "frontRadius": 0.6772812604904175,
    "frontOffset": 0.5305995941162109,
    "backDensity": 2.5999999046325685,
    "backRadius": 0.4565114378929138,
    "backOffset": -1.0196765661239625,
    "score": 911,
    "maxDistance": 833,
    "maxTime": 107.0
}{
    "ID": 53436,
    "genomaID": "CV4TD12",
    "color": {
        "x": 0.8729569911956787,
        "y": 0.9748997688293457,
        "z": 0.6180261969566345
    },
    "vertexNumber": 4,
    "colliderVertices": [
        {
            "x": -1.0977544784545899,
            "y": -0.34354910254478457
        },
        {
            "x": 1.243477702140808,
            "y": -0.17967529594898225
        },
        {
            "x": 1.3451104164123536,
            "y": 0.5331709980964661
        },
        {
            "x": -1.741683006286621,
            "y": 0.31460040807724
        }
    ],
    "triangles": [
        3,
        2,
        1,
        1,
        0,
        3
    ],
    "carDensity": 4.0,
    "suspension": 0.4169120192527771,
    "motorSpeed": 879,
    "frontDensity": 4.800000190734863,
    "frontRadius": 0.6832131743431091,
    "frontOffset": 0.9068807363510132,
    "backDensity": 3.299999952316284,
    "backRadius": 0.529460072517395,
    "backOffset": -1.0344256162643433,
    "score": 0,
    "maxDistance": 0,
    "maxTime": 1.0
}{
    "ID": 53593,
    "genomaID": "CV3TD9",
    "color": {
        "x": 0.6076138615608215,
        "y": 0.2100631296634674,
        "z": 0.02442515268921852
    },
    "vertexNumber": 3,
    "colliderVertices": [
        {
            "x": -1.3322129249572755,
            "y": -0.3242015540599823
        },
        {
            "x": 1.406930685043335,
            "y": -0.39797013998031618
        },
        {
            "x": -1.7638306617736817,
            "y": 0.37279003858566286
        }
    ],
    "triangles": [
        1,
        0,
        2
    ],
    "carDensity": 3.0,
    "suspension": 0.45754897594451907,
    "motorSpeed": 901,
    "frontDensity": 3.299999952316284,
    "frontRadius": 0.5284237861633301,
    "frontOffset": 1.1439133882522584,
    "backDensity": 2.799999952316284,
    "backRadius": 0.47909504175186159,
    "backOffset": -1.1350674629211426,
    "score": 0,
    "maxDistance": 0,
    "maxTime": 1.0
}