{
    "ID": 36576,
    "genomaID": "CV3TD11",
    "color": {
        "x": 0.6246430277824402,
        "y": 0.6293639540672302,
        "z": 0.03411531820893288
    },
    "vertexNumber": 3,
    "colliderVertices": [
        {
            "x": -1.4167654514312745,
            "y": -0.05450911074876785
        },
        {
            "x": 1.4079196453094483,
            "y": -0.3937686085700989
        },
        {
            "x": -1.247361660003662,
            "y": 0.22769761085510255
        }
    ],
    "triangles": [
        1,
        0,
        2
    ],
    "carDensity": 3.0,
    "suspension": 0.7820442318916321,
    "motorSpeed": 1084,
    "frontDensity": 4.599999904632568,
    "frontRadius": 0.6557742357254028,
    "frontOffset": 1.264475703239441,
    "backDensity": 3.299999952316284,
    "backRadius": 0.5272327661514282,
    "backOffset": -0.6894040107727051,
    "score": 918,
    "maxDistance": 833,
    "maxTime": 98.0
}{
    "ID": 36412,
    "genomaID": "CV3TD11",
    "color": {
        "x": 0.03325570002198219,
        "y": 0.9501603841781616,
        "z": 0.32562246918678286
    },
    "vertexNumber": 3,
    "colliderVertices": [
        {
            "x": -1.4167654514312745,
            "y": -0.05450911074876785
        },
        {
            "x": 1.4079196453094483,
            "y": -0.3937686085700989
        },
        {
            "x": -1.247361660003662,
            "y": 0.22769761085510255
        }
    ],
    "triangles": [
        1,
        0,
        2
    ],
    "carDensity": 3.0,
    "suspension": 0.4316813349723816,
    "motorSpeed": 894,
    "frontDensity": 4.599999904632568,
    "frontRadius": 0.6557742357254028,
    "frontOffset": 0.5637667179107666,
    "backDensity": 2.799999952316284,
    "backRadius": 0.4840424060821533,
    "backOffset": -1.2699220180511475,
    "score": 912,
    "maxDistance": 833,
    "maxTime": 106.0
}{
    "ID": 36507,
    "genomaID": "CV3TD10",
    "color": {
        "x": 0.4525945782661438,
        "y": 0.32109811902046206,
        "z": 0.4646300673484802
    },
    "vertexNumber": 3,
    "colliderVertices": [
        {
            "x": -1.4167654514312745,
            "y": -0.05450911074876785
        },
        {
            "x": 1.4079196453094483,
            "y": -0.3937686085700989
        },
        {
            "x": -1.247361660003662,
            "y": 0.22769761085510255
        }
    ],
    "triangles": [
        1,
        0,
        2
    ],
    "carDensity": 3.0,
    "suspension": 0.8590608239173889,
    "motorSpeed": 894,
    "frontDensity": 4.5,
    "frontRadius": 0.653109610080719,
    "frontOffset": 0.9123102426528931,
    "backDensity": 3.0999999046325685,
    "backRadius": 0.5119481086730957,
    "backOffset": -0.6559575796127319,
    "score": 910,
    "maxDistance": 830,
    "maxTime": 104.0
}{
    "ID": 36403,
    "genomaID": "CV3TD11",
    "color": {
        "x": 0.7694025039672852,
        "y": 0.6303190588951111,
        "z": 0.31513217091560366
    },
    "vertexNumber": 3,
    "colliderVertices": [
        {
            "x": -1.4167654514312745,
            "y": -0.05450911074876785
        },
        {
            "x": 1.4079196453094483,
            "y": -0.3937686085700989
        },
        {
            "x": -1.247361660003662,
            "y": 0.22769761085510255
        }
    ],
    "triangles": [
        1,
        0,
        2
    ],
    "carDensity": 3.0,
    "suspension": 0.7878159284591675,
    "motorSpeed": 884,
    "frontDensity": 4.5,
    "frontRadius": 0.6487516760826111,
    "frontOffset": 1.2774558067321778,
    "backDensity": 3.5,
    "backRadius": 0.5540645122528076,
    "backOffset": -1.102821707725525,
    "score": 13,
    "maxDistance": 2,
    "maxTime": 2.0
}{
    "ID": 36596,
    "genomaID": "CV6TD13",
    "color": {
        "x": 0.04487193003296852,
        "y": 0.9218603372573853,
        "z": 0.05435562878847122
    },
    "vertexNumber": 6,
    "colliderVertices": [
        {
            "x": -1.1683688163757325,
            "y": -0.4292396306991577
        },
        {
            "x": 1.7248165607452393,
            "y": -0.15823502838611604
        },
        {
            "x": 0.8655337691307068,
            "y": 0.4816522002220154
        },
        {
            "x": 0.41975998878479006,
            "y": 0.12704527378082276
        },
        {
            "x": -0.6246278285980225,
            "y": 0.018741607666015626
        },
        {
            "x": -1.1489529609680176,
            "y": 0.9901951551437378
        }
    ],
    "triangles": [
        0,
        4,
        3,
        3,
        1,
        0,
        0,
        5,
        4,
        3,
        2,
        1
    ],
    "carDensity": 6.0,
    "suspension": 0.6128216981887817,
    "motorSpeed": 1186,
    "frontDensity": 4.5,
    "frontRadius": 0.6484379768371582,
    "frontOffset": 0.7631579041481018,
    "backDensity": 3.299999952316284,
    "backRadius": 0.5272327661514282,
    "backOffset": -0.7229838371276856,
    "score": 0,
    "maxDistance": 0,
    "maxTime": 1.0
}