{
    "ID": 24807,
    "genomaID": "CV3TD11",
    "color": {
        "x": 0.8121681213378906,
        "y": 0.8124029636383057,
        "z": 0.5575398802757263
    },
    "vertexNumber": 3,
    "colliderVertices": [
        {
            "x": -1.4167654514312745,
            "y": -0.05450911074876785
        },
        {
            "x": 1.4079196453094483,
            "y": -0.3937686085700989
        },
        {
            "x": -1.247361660003662,
            "y": 0.22769761085510255
        }
    ],
    "triangles": [
        1,
        0,
        2
    ],
    "carDensity": 3.0,
    "suspension": 0.7656099796295166,
    "motorSpeed": 897,
    "frontDensity": 4.699999809265137,
    "frontRadius": 0.6665397882461548,
    "frontOffset": 1.2248823642730713,
    "backDensity": 3.299999952316284,
    "backRadius": 0.5276777744293213,
    "backOffset": -0.8225793242454529,
    "score": 914,
    "maxDistance": 833,
    "maxTime": 103.0
}{
    "ID": 24879,
    "genomaID": "CV3TD11",
    "color": {
        "x": 0.5281584858894348,
        "y": 0.8050053119659424,
        "z": 0.8658450841903687
    },
    "vertexNumber": 3,
    "colliderVertices": [
        {
            "x": -1.4167654514312745,
            "y": -0.05450911074876785
        },
        {
            "x": 1.4079196453094483,
            "y": -0.3937686085700989
        },
        {
            "x": -1.247361660003662,
            "y": 0.22769761085510255
        }
    ],
    "triangles": [
        1,
        0,
        2
    ],
    "carDensity": 3.0,
    "suspension": 0.489393949508667,
    "motorSpeed": 884,
    "frontDensity": 4.599999904632568,
    "frontRadius": 0.655458927154541,
    "frontOffset": 1.2058961391448975,
    "backDensity": 3.0999999046325685,
    "backRadius": 0.5116315484046936,
    "backOffset": -0.7120012044906616,
    "score": 912,
    "maxDistance": 833,
    "maxTime": 106.0
}{
    "ID": 24977,
    "genomaID": "CV3TD11",
    "color": {
        "x": 0.36806872487068179,
        "y": 0.05324602872133255,
        "z": 0.9842822551727295
    },
    "vertexNumber": 3,
    "colliderVertices": [
        {
            "x": -1.4167654514312745,
            "y": -0.05450911074876785
        },
        {
            "x": 1.4079196453094483,
            "y": -0.3937686085700989
        },
        {
            "x": -1.247361660003662,
            "y": 0.22769761085510255
        }
    ],
    "triangles": [
        1,
        0,
        2
    ],
    "carDensity": 3.0,
    "suspension": 0.5709214806556702,
    "motorSpeed": 884,
    "frontDensity": 4.599999904632568,
    "frontRadius": 0.6557742357254028,
    "frontOffset": 0.8933635950088501,
    "backDensity": 2.9000000953674318,
    "backRadius": 0.4860033392906189,
    "backOffset": -1.0147374868392945,
    "score": 911,
    "maxDistance": 833,
    "maxTime": 106.0
}{
    "ID": 24970,
    "genomaID": "CV3TD11",
    "color": {
        "x": 0.8832259178161621,
        "y": 0.7785098552703857,
        "z": 0.18183256685733796
    },
    "vertexNumber": 3,
    "colliderVertices": [
        {
            "x": -1.4167654514312745,
            "y": -0.05450911074876785
        },
        {
            "x": 1.4079196453094483,
            "y": -0.3937686085700989
        },
        {
            "x": -1.247361660003662,
            "y": 0.22769761085510255
        }
    ],
    "triangles": [
        1,
        0,
        2
    ],
    "carDensity": 3.0,
    "suspension": 0.4599088132381439,
    "motorSpeed": 857,
    "frontDensity": 3.5999999046325685,
    "frontRadius": 0.5581170320510864,
    "frontOffset": 1.0076936483383179,
    "backDensity": 3.5,
    "backRadius": 0.5489628911018372,
    "backOffset": -0.9551950693130493,
    "score": 26,
    "maxDistance": 4,
    "maxTime": 2.0
}{
    "ID": 24995,
    "genomaID": "CV3TD10",
    "color": {
        "x": 0.8922040462493897,
        "y": 0.16881419718265534,
        "z": 0.9950582981109619
    },
    "vertexNumber": 3,
    "colliderVertices": [
        {
            "x": -1.4167654514312745,
            "y": -0.05450911074876785
        },
        {
            "x": 1.4079196453094483,
            "y": -0.3937686085700989
        },
        {
            "x": -1.247361660003662,
            "y": 0.22769761085510255
        }
    ],
    "triangles": [
        1,
        0,
        2
    ],
    "carDensity": 3.0,
    "suspension": 0.8512839674949646,
    "motorSpeed": 1474,
    "frontDensity": 4.599999904632568,
    "frontRadius": 0.6557742357254028,
    "frontOffset": 1.2362322807312012,
    "backDensity": 2.200000047683716,
    "backRadius": 0.4163549542427063,
    "backOffset": -0.8162313103675842,
    "score": 0,
    "maxDistance": 0,
    "maxTime": 1.0
}