{
    "ID": 32855,
    "genomaID": "CV3TD11",
    "color": {
        "x": 0.5588133931159973,
        "y": 0.6415937542915344,
        "z": 0.8172217607498169
    },
    "vertexNumber": 3,
    "colliderVertices": [
        {
            "x": -1.4167654514312745,
            "y": -0.05450911074876785
        },
        {
            "x": 1.4079196453094483,
            "y": -0.3937686085700989
        },
        {
            "x": -1.247361660003662,
            "y": 0.22769761085510255
        }
    ],
    "triangles": [
        1,
        0,
        2
    ],
    "carDensity": 3.0,
    "suspension": 0.5668209791183472,
    "motorSpeed": 894,
    "frontDensity": 3.5999999046325685,
    "frontRadius": 0.5621271133422852,
    "frontOffset": 0.941574215888977,
    "backDensity": 4.199999809265137,
    "backRadius": 0.6154640316963196,
    "backOffset": -0.8739916086196899,
    "score": 918,
    "maxDistance": 834,
    "maxTime": 100.0
}{
    "ID": 32979,
    "genomaID": "CV3TD11",
    "color": {
        "x": 0.5119163393974304,
        "y": 0.012689949944615364,
        "z": 0.7192041277885437
    },
    "vertexNumber": 3,
    "colliderVertices": [
        {
            "x": -1.4167654514312745,
            "y": -0.05450911074876785
        },
        {
            "x": 1.4079196453094483,
            "y": -0.3937686085700989
        },
        {
            "x": -1.247361660003662,
            "y": 0.22769761085510255
        }
    ],
    "triangles": [
        1,
        0,
        2
    ],
    "carDensity": 3.0,
    "suspension": 0.8841083645820618,
    "motorSpeed": 894,
    "frontDensity": 4.599999904632568,
    "frontRadius": 0.6557742357254028,
    "frontOffset": 0.8393570184707642,
    "backDensity": 2.799999952316284,
    "backRadius": 0.4775422215461731,
    "backOffset": -1.1423017978668213,
    "score": 913,
    "maxDistance": 834,
    "maxTime": 106.0
}{
    "ID": 32893,
    "genomaID": "CV3TD10",
    "color": {
        "x": 0.6060280203819275,
        "y": 0.31735530495643618,
        "z": 0.2212081253528595
    },
    "vertexNumber": 3,
    "colliderVertices": [
        {
            "x": -1.4167654514312745,
            "y": -0.05450911074876785
        },
        {
            "x": 1.4079196453094483,
            "y": -0.3937686085700989
        },
        {
            "x": -1.247361660003662,
            "y": 0.22769761085510255
        }
    ],
    "triangles": [
        1,
        0,
        2
    ],
    "carDensity": 3.0,
    "suspension": 0.8838186860084534,
    "motorSpeed": 857,
    "frontDensity": 4.5,
    "frontRadius": 0.6450788378715515,
    "frontOffset": 0.9752148389816284,
    "backDensity": 3.200000047683716,
    "backRadius": 0.5219988226890564,
    "backOffset": -0.5935235023498535,
    "score": 911,
    "maxDistance": 834,
    "maxTime": 109.0
}{
    "ID": 32881,
    "genomaID": "CV3TD10",
    "color": {
        "x": 0.6724112629890442,
        "y": 0.740196168422699,
        "z": 0.6691412329673767
    },
    "vertexNumber": 3,
    "colliderVertices": [
        {
            "x": -1.4167654514312745,
            "y": -0.05450911074876785
        },
        {
            "x": 1.4079196453094483,
            "y": -0.3937686085700989
        },
        {
            "x": -1.247361660003662,
            "y": 0.22769761085510255
        }
    ],
    "triangles": [
        1,
        0,
        2
    ],
    "carDensity": 3.0,
    "suspension": 0.8841083645820618,
    "motorSpeed": 894,
    "frontDensity": 3.5,
    "frontRadius": 0.550006628036499,
    "frontOffset": 1.3829691410064698,
    "backDensity": 3.299999952316284,
    "backRadius": 0.5326175689697266,
    "backOffset": -1.166522741317749,
    "score": 26,
    "maxDistance": 4,
    "maxTime": 2.0
}{
    "ID": 32998,
    "genomaID": "CV3TD10",
    "color": {
        "x": 0.7236726880073547,
        "y": 0.13623930513858796,
        "z": 0.8786298036575317
    },
    "vertexNumber": 3,
    "colliderVertices": [
        {
            "x": -1.4167654514312745,
            "y": -0.05450911074876785
        },
        {
            "x": 1.4079196453094483,
            "y": -0.3937686085700989
        },
        {
            "x": -1.247361660003662,
            "y": 0.22769761085510255
        }
    ],
    "triangles": [
        1,
        0,
        2
    ],
    "carDensity": 3.0,
    "suspension": 0.45082521438598635,
    "motorSpeed": 894,
    "frontDensity": 4.900000095367432,
    "frontRadius": 0.690500795841217,
    "frontOffset": 0.941574215888977,
    "backDensity": 2.4000000953674318,
    "backRadius": 0.4352562129497528,
    "backOffset": -0.5498545169830322,
    "score": 0,
    "maxDistance": 0,
    "maxTime": 1.0
}