{
    "ID": 94412,
    "genomaID": "CV3TD12",
    "color": {
        "x": 0.03325570002198219,
        "y": 0.9501603841781616,
        "z": 0.32562246918678286
    },
    "vertexNumber": 3,
    "colliderVertices": [
        {
            "x": -1.9816960096359254,
            "y": -0.11146523058414459
        },
        {
            "x": 1.4943830966949463,
            "y": -0.2624768912792206
        },
        {
            "x": -1.6097688674926758,
            "y": 0.650647759437561
        }
    ],
    "triangles": [
        1,
        0,
        2
    ],
    "carDensity": 3.0,
    "suspension": 0.681907057762146,
    "motorSpeed": 858,
    "frontDensity": 4.900000095367432,
    "frontRadius": 0.6907195448875427,
    "frontOffset": 0.8956929445266724,
    "backDensity": 3.799999952316284,
    "backRadius": 0.5821859836578369,
    "backOffset": -1.4803638458251954,
    "score": 917,
    "maxDistance": 834,
    "maxTime": 101.0
}{
    "ID": 94409,
    "genomaID": "CV3TD10",
    "color": {
        "x": 0.6103983521461487,
        "y": 0.8030028343200684,
        "z": 0.1648343950510025
    },
    "vertexNumber": 3,
    "colliderVertices": [
        {
            "x": -1.448728084564209,
            "y": -0.4206351041793823
        },
        {
            "x": 1.2341947555541993,
            "y": -0.4096236228942871
        },
        {
            "x": -0.7727158069610596,
            "y": 0.05484116077423096
        }
    ],
    "triangles": [
        1,
        0,
        2
    ],
    "carDensity": 3.0,
    "suspension": 0.5874851942062378,
    "motorSpeed": 850,
    "frontDensity": 4.900000095367432,
    "frontRadius": 0.6907195448875427,
    "frontOffset": 0.5428646802902222,
    "backDensity": 2.299999952316284,
    "backRadius": 0.4301444888114929,
    "backOffset": -0.5208827257156372,
    "score": 912,
    "maxDistance": 833,
    "maxTime": 106.0
}{
    "ID": 94599,
    "genomaID": "CV3TD11",
    "color": {
        "x": 0.6575701832771301,
        "y": 0.868037223815918,
        "z": 0.03163004294037819
    },
    "vertexNumber": 3,
    "colliderVertices": [
        {
            "x": -1.448728084564209,
            "y": -0.4206351041793823
        },
        {
            "x": 1.2341947555541993,
            "y": -0.4096236228942871
        },
        {
            "x": -0.7727158069610596,
            "y": 0.05484116077423096
        }
    ],
    "triangles": [
        1,
        0,
        2
    ],
    "carDensity": 3.0,
    "suspension": 0.6266824007034302,
    "motorSpeed": 850,
    "frontDensity": 4.699999809265137,
    "frontRadius": 0.6695612072944641,
    "frontOffset": 1.3633992671966553,
    "backDensity": 2.700000047683716,
    "backRadius": 0.4730428457260132,
    "backOffset": -1.3532958030700684,
    "score": 910,
    "maxDistance": 833,
    "maxTime": 108.0
}{
    "ID": 94451,
    "genomaID": "CV3TD10",
    "color": {
        "x": 0.32096853852272036,
        "y": 0.557489812374115,
        "z": 0.332051545381546
    },
    "vertexNumber": 3,
    "colliderVertices": [
        {
            "x": -1.7789037227630616,
            "y": -0.07905746251344681
        },
        {
            "x": 1.5109095573425294,
            "y": -0.4307140111923218
        },
        {
            "x": 1.4536142349243165,
            "y": 0.309986412525177
        }
    ],
    "triangles": [
        1,
        0,
        2
    ],
    "carDensity": 3.0,
    "suspension": 0.7945161461830139,
    "motorSpeed": 623,
    "frontDensity": 4.900000095367432,
    "frontRadius": 0.6943543553352356,
    "frontOffset": 1.4662744998931885,
    "backDensity": 2.0999999046325685,
    "backRadius": 0.40903210639953616,
    "backOffset": -0.843070387840271,
    "score": 18,
    "maxDistance": 3,
    "maxTime": 2.0
}{
    "ID": 94480,
    "genomaID": "CV3TD9",
    "color": {
        "x": 0.05988384038209915,
        "y": 0.09346187859773636,
        "z": 0.5875927805900574
    },
    "vertexNumber": 3,
    "colliderVertices": [
        {
            "x": -1.24593186378479,
            "y": -0.17356999218463899
        },
        {
            "x": 1.4254326820373536,
            "y": -0.31066444516181948
        },
        {
            "x": -1.0050806999206544,
            "y": 0.2958831191062927
        }
    ],
    "triangles": [
        1,
        0,
        2
    ],
    "carDensity": 3.0,
    "suspension": 0.6004189848899841,
    "motorSpeed": 1152,
    "frontDensity": 2.200000047683716,
    "frontRadius": 0.41832560300827029,
    "frontOffset": 0.573577880859375,
    "backDensity": 3.5,
    "backRadius": 0.5467919111251831,
    "backOffset": -1.0828276872634888,
    "score": -11,
    "maxDistance": -1,
    "maxTime": 1.0
}