{
    "ID": 33513,
    "genomaID": "CV3TD11",
    "color": {
        "x": 0.956782341003418,
        "y": 0.08324600011110306,
        "z": 0.7790353298187256
    },
    "vertexNumber": 3,
    "colliderVertices": [
        {
            "x": -1.4167654514312745,
            "y": -0.05450911074876785
        },
        {
            "x": 1.4079196453094483,
            "y": -0.3937686085700989
        },
        {
            "x": -1.247361660003662,
            "y": 0.22769761085510255
        }
    ],
    "triangles": [
        1,
        0,
        2
    ],
    "carDensity": 3.0,
    "suspension": 0.8414841890335083,
    "motorSpeed": 938,
    "frontDensity": 4.599999904632568,
    "frontRadius": 0.6557742357254028,
    "frontOffset": 0.8260365128517151,
    "backDensity": 3.0,
    "backRadius": 0.49757829308509829,
    "backOffset": -0.5498545169830322,
    "score": 915,
    "maxDistance": 833,
    "maxTime": 101.0
}{
    "ID": 33548,
    "genomaID": "CV3TD11",
    "color": {
        "x": 0.6954454779624939,
        "y": 0.2025717794895172,
        "z": 0.3632669746875763
    },
    "vertexNumber": 3,
    "colliderVertices": [
        {
            "x": -1.4167654514312745,
            "y": -0.05450911074876785
        },
        {
            "x": 1.4079196453094483,
            "y": -0.3937686085700989
        },
        {
            "x": -1.247361660003662,
            "y": 0.22769761085510255
        }
    ],
    "triangles": [
        1,
        0,
        2
    ],
    "carDensity": 3.0,
    "suspension": 0.8838186860084534,
    "motorSpeed": 866,
    "frontDensity": 4.5,
    "frontRadius": 0.6450788378715515,
    "frontOffset": 0.9752148389816284,
    "backDensity": 3.700000047683716,
    "backRadius": 0.5682792663574219,
    "backOffset": -0.8125801682472229,
    "score": 913,
    "maxDistance": 833,
    "maxTime": 104.0
}{
    "ID": 33479,
    "genomaID": "CV3TD10",
    "color": {
        "x": 0.5281584858894348,
        "y": 0.8050053119659424,
        "z": 0.8658450841903687
    },
    "vertexNumber": 3,
    "colliderVertices": [
        {
            "x": -1.4167654514312745,
            "y": -0.05450911074876785
        },
        {
            "x": 1.4079196453094483,
            "y": -0.3937686085700989
        },
        {
            "x": -1.247361660003662,
            "y": 0.22769761085510255
        }
    ],
    "triangles": [
        1,
        0,
        2
    ],
    "carDensity": 3.0,
    "suspension": 0.9793611764907837,
    "motorSpeed": 894,
    "frontDensity": 4.300000190734863,
    "frontRadius": 0.632050096988678,
    "frontOffset": 1.4519574642181397,
    "backDensity": 3.0,
    "backRadius": 0.49757829308509829,
    "backOffset": -1.1584142446517945,
    "score": 911,
    "maxDistance": 833,
    "maxTime": 107.0
}{
    "ID": 33468,
    "genomaID": "CV3TD10",
    "color": {
        "x": 0.15364433825016023,
        "y": 0.7010276913642883,
        "z": 0.2859936058521271
    },
    "vertexNumber": 3,
    "colliderVertices": [
        {
            "x": -1.4167654514312745,
            "y": -0.05450911074876785
        },
        {
            "x": 1.4079196453094483,
            "y": -0.3937686085700989
        },
        {
            "x": -1.247361660003662,
            "y": 0.22769761085510255
        }
    ],
    "triangles": [
        1,
        0,
        2
    ],
    "carDensity": 3.0,
    "suspension": 0.7007057666778565,
    "motorSpeed": 894,
    "frontDensity": 4.300000190734863,
    "frontRadius": 0.632652223110199,
    "frontOffset": 1.1971319913864136,
    "backDensity": 3.0,
    "backRadius": 0.49757829308509829,
    "backOffset": -0.8531709909439087,
    "score": 19,
    "maxDistance": 3,
    "maxTime": 2.0
}{
    "ID": 33595,
    "genomaID": "CV3TD11",
    "color": {
        "x": 0.8922040462493897,
        "y": 0.16881419718265534,
        "z": 0.9950582981109619
    },
    "vertexNumber": 3,
    "colliderVertices": [
        {
            "x": -1.4167654514312745,
            "y": -0.05450911074876785
        },
        {
            "x": 1.4079196453094483,
            "y": -0.3937686085700989
        },
        {
            "x": -1.247361660003662,
            "y": 0.22769761085510255
        }
    ],
    "triangles": [
        1,
        0,
        2
    ],
    "carDensity": 3.0,
    "suspension": 0.838908851146698,
    "motorSpeed": 894,
    "frontDensity": 4.5,
    "frontRadius": 0.6469995379447937,
    "frontOffset": 0.859416127204895,
    "backDensity": 4.400000095367432,
    "backRadius": 0.6445350646972656,
    "backOffset": -1.166522741317749,
    "score": 0,
    "maxDistance": -1,
    "maxTime": 1.0
}