{
    "ID": 85052,
    "genomaID": "CV3TD12",
    "color": {
        "x": 0.1909351646900177,
        "y": 0.7012000679969788,
        "z": 0.7795767784118652
    },
    "vertexNumber": 3,
    "colliderVertices": [
        {
            "x": -1.4517676830291749,
            "y": -0.3785870671272278
        },
        {
            "x": 1.0073214769363404,
            "y": -0.056303925812244418
        },
        {
            "x": 0.1018216609954834,
            "y": 0.5950250029563904
        }
    ],
    "triangles": [
        1,
        0,
        2
    ],
    "carDensity": 3.0,
    "suspension": 0.8057399392127991,
    "motorSpeed": 850,
    "frontDensity": 4.900000095367432,
    "frontRadius": 0.6907195448875427,
    "frontOffset": 1.4111368656158448,
    "backDensity": 3.9000000953674318,
    "backRadius": 0.5935341119766235,
    "backOffset": -0.6904363632202148,
    "score": 916,
    "maxDistance": 834,
    "maxTime": 102.0
}{
    "ID": 85035,
    "genomaID": "CV3TD11",
    "color": {
        "x": 0.6749839186668396,
        "y": 0.59889155626297,
        "z": 0.6400969624519348
    },
    "vertexNumber": 3,
    "colliderVertices": [
        {
            "x": -1.24593186378479,
            "y": -0.17356999218463899
        },
        {
            "x": 1.4254326820373536,
            "y": -0.31066444516181948
        },
        {
            "x": -1.0050806999206544,
            "y": 0.2958831191062927
        }
    ],
    "triangles": [
        1,
        0,
        2
    ],
    "carDensity": 3.0,
    "suspension": 0.8671970367431641,
    "motorSpeed": 850,
    "frontDensity": 4.900000095367432,
    "frontRadius": 0.6864144206047058,
    "frontOffset": 1.0170339345932007,
    "backDensity": 3.0,
    "backRadius": 0.5026759505271912,
    "backOffset": -1.12929105758667,
    "score": 912,
    "maxDistance": 833,
    "maxTime": 106.0
}{
    "ID": 85021,
    "genomaID": "CV3TD10",
    "color": {
        "x": 0.32852211594581606,
        "y": 0.3939763903617859,
        "z": 0.050939805805683139
    },
    "vertexNumber": 3,
    "colliderVertices": [
        {
            "x": -1.448728084564209,
            "y": -0.4206351041793823
        },
        {
            "x": 1.2341947555541993,
            "y": -0.4096236228942871
        },
        {
            "x": -0.7727158069610596,
            "y": 0.05484116077423096
        }
    ],
    "triangles": [
        1,
        0,
        2
    ],
    "carDensity": 3.0,
    "suspension": 0.4465338885784149,
    "motorSpeed": 850,
    "frontDensity": 4.900000095367432,
    "frontRadius": 0.6907195448875427,
    "frontOffset": 1.2522389888763428,
    "backDensity": 2.0999999046325685,
    "backRadius": 0.41133081912994387,
    "backOffset": -1.1759543418884278,
    "score": 910,
    "maxDistance": 833,
    "maxTime": 108.0
}{
    "ID": 85081,
    "genomaID": "CV5TD13",
    "color": {
        "x": 0.6724112629890442,
        "y": 0.740196168422699,
        "z": 0.6691412329673767
    },
    "vertexNumber": 5,
    "colliderVertices": [
        {
            "x": -1.7223587036132813,
            "y": -0.16812296211719514
        },
        {
            "x": 1.0161060094833375,
            "y": -0.18490619957447053
        },
        {
            "x": 1.184269905090332,
            "y": 0.8721513748168945
        },
        {
            "x": -0.4633486270904541,
            "y": 0.3132933974266052
        },
        {
            "x": -0.6985595226287842,
            "y": 0.9038881063461304
        }
    ],
    "triangles": [
        3,
        2,
        0,
        0,
        4,
        3,
        2,
        1,
        0
    ],
    "carDensity": 5.0,
    "suspension": 0.5812548398971558,
    "motorSpeed": 906,
    "frontDensity": 4.699999809265137,
    "frontRadius": 0.6678627729415894,
    "frontOffset": 0.9915052652359009,
    "backDensity": 3.0,
    "backRadius": 0.5026759505271912,
    "backOffset": -1.278294563293457,
    "score": 18,
    "maxDistance": 3,
    "maxTime": 2.0
}{
    "ID": 85200,
    "genomaID": "CV3TD10",
    "color": {
        "x": 0.7681076526641846,
        "y": 0.2796610891819,
        "z": 0.3934035897254944
    },
    "vertexNumber": 3,
    "colliderVertices": [
        {
            "x": -1.4517676830291749,
            "y": -0.3785870671272278
        },
        {
            "x": 1.0073214769363404,
            "y": -0.056303925812244418
        },
        {
            "x": 0.1018216609954834,
            "y": 0.5950250029563904
        }
    ],
    "triangles": [
        1,
        0,
        2
    ],
    "carDensity": 3.0,
    "suspension": 0.6173200607299805,
    "motorSpeed": 850,
    "frontDensity": 4.900000095367432,
    "frontRadius": 0.6864737868309021,
    "frontOffset": 1.266735553741455,
    "backDensity": 2.299999952316284,
    "backRadius": 0.42932164669036868,
    "backOffset": -0.8177552819252014,
    "score": 0,
    "maxDistance": 0,
    "maxTime": 1.0
}