{
    "ID": 50578,
    "genomaID": "CV3TD12",
    "color": {
        "x": 0.9666177034378052,
        "y": 0.6240989565849304,
        "z": 0.9224027395248413
    },
    "vertexNumber": 3,
    "colliderVertices": [
        {
            "x": -1.3322129249572755,
            "y": -0.3242015540599823
        },
        {
            "x": 1.406930685043335,
            "y": -0.39797013998031618
        },
        {
            "x": -1.7638306617736817,
            "y": 0.37279003858566286
        }
    ],
    "triangles": [
        1,
        0,
        2
    ],
    "carDensity": 3.0,
    "suspension": 0.7204997539520264,
    "motorSpeed": 879,
    "frontDensity": 4.800000190734863,
    "frontRadius": 0.6832131743431091,
    "frontOffset": 1.2403693199157715,
    "backDensity": 3.799999952316284,
    "backRadius": 0.5764952898025513,
    "backOffset": -0.8584491014480591,
    "score": 918,
    "maxDistance": 834,
    "maxTime": 100.0
}{
    "ID": 50486,
    "genomaID": "CV3TD11",
    "color": {
        "x": 0.3033737242221832,
        "y": 0.7917381525039673,
        "z": 0.8435794115066528
    },
    "vertexNumber": 3,
    "colliderVertices": [
        {
            "x": -1.0632387399673463,
            "y": -0.43455809354782107
        },
        {
            "x": 1.3427574634552003,
            "y": -0.44732171297073367
        },
        {
            "x": -1.4998435974121094,
            "y": 0.6457148790359497
        }
    ],
    "triangles": [
        1,
        0,
        2
    ],
    "carDensity": 3.0,
    "suspension": 0.559038519859314,
    "motorSpeed": 879,
    "frontDensity": 4.800000190734863,
    "frontRadius": 0.6772812604904175,
    "frontOffset": 1.0870097875595093,
    "backDensity": 3.299999952316284,
    "backRadius": 0.5312628149986267,
    "backOffset": -0.8693708181381226,
    "score": 913,
    "maxDistance": 833,
    "maxTime": 104.0
}{
    "ID": 50551,
    "genomaID": "CV3TD11",
    "color": {
        "x": 0.2878674566745758,
        "y": 0.8805838823318481,
        "z": 0.012320639565587044
    },
    "vertexNumber": 3,
    "colliderVertices": [
        {
            "x": -1.3322129249572755,
            "y": -0.3242015540599823
        },
        {
            "x": 1.406930685043335,
            "y": -0.39797013998031618
        },
        {
            "x": -1.7638306617736817,
            "y": 0.37279003858566286
        }
    ],
    "triangles": [
        1,
        0,
        2
    ],
    "carDensity": 3.0,
    "suspension": 0.6245365142822266,
    "motorSpeed": 888,
    "frontDensity": 4.800000190734863,
    "frontRadius": 0.6772812604904175,
    "frontOffset": 1.0578643083572388,
    "backDensity": 3.200000047683716,
    "backRadius": 0.5184824466705322,
    "backOffset": -1.3988150358200074,
    "score": 911,
    "maxDistance": 831,
    "maxTime": 104.0
}{
    "ID": 50423,
    "genomaID": "CV4TD11",
    "color": {
        "x": 0.1624685674905777,
        "y": 0.05516207963228226,
        "z": 0.06042958050966263
    },
    "vertexNumber": 4,
    "colliderVertices": [
        {
            "x": -1.3059182167053223,
            "y": -0.2946121394634247
        },
        {
            "x": 1.697344422340393,
            "y": -0.3920825719833374
        },
        {
            "x": -0.8393962383270264,
            "y": 0.7325444221496582
        },
        {
            "x": -1.0490927696228028,
            "y": 0.1644526720046997
        }
    ],
    "triangles": [
        3,
        2,
        1,
        1,
        0,
        3
    ],
    "carDensity": 4.0,
    "suspension": 0.5484758019447327,
    "motorSpeed": 879,
    "frontDensity": 4.800000190734863,
    "frontRadius": 0.6772812604904175,
    "frontOffset": 0.7263165712356567,
    "backDensity": 2.0999999046325685,
    "backRadius": 0.4109174907207489,
    "backOffset": -1.1187928915023804,
    "score": 0,
    "maxDistance": 0,
    "maxTime": 1.0
}{
    "ID": 50598,
    "genomaID": "CV3TD11",
    "color": {
        "x": 0.7236726880073547,
        "y": 0.13623930513858796,
        "z": 0.8786298036575317
    },
    "vertexNumber": 3,
    "colliderVertices": [
        {
            "x": -1.3322129249572755,
            "y": -0.3242015540599823
        },
        {
            "x": 1.406930685043335,
            "y": -0.39797013998031618
        },
        {
            "x": -1.7638306617736817,
            "y": 0.37279003858566286
        }
    ],
    "triangles": [
        1,
        0,
        2
    ],
    "carDensity": 3.0,
    "suspension": 0.7762672305107117,
    "motorSpeed": 879,
    "frontDensity": 4.900000095367432,
    "frontRadius": 0.694540798664093,
    "frontOffset": 0.6380913257598877,
    "backDensity": 3.299999952316284,
    "backRadius": 0.529460072517395,
    "backOffset": -0.8791791200637817,
    "score": 0,
    "maxDistance": 0,
    "maxTime": 1.0
}