{
    "ID": 103932,
    "genomaID": "CV3TD12",
    "color": {
        "x": 0.9758309125900269,
        "y": 0.38954585790634158,
        "z": 0.8788208961486816
    },
    "vertexNumber": 3,
    "colliderVertices": [
        {
            "x": -1.448728084564209,
            "y": -0.4206351041793823
        },
        {
            "x": 1.2341947555541993,
            "y": -0.4096236228942871
        },
        {
            "x": -0.7727158069610596,
            "y": 0.05484116077423096
        }
    ],
    "triangles": [
        1,
        0,
        2
    ],
    "carDensity": 3.0,
    "suspension": 0.4970051944255829,
    "motorSpeed": 850,
    "frontDensity": 4.900000095367432,
    "frontRadius": 0.6907195448875427,
    "frontOffset": 0.6249827146530151,
    "backDensity": 3.9000000953674318,
    "backRadius": 0.5873497128486633,
    "backOffset": -1.4619250297546387,
    "score": 916,
    "maxDistance": 834,
    "maxTime": 102.0
}{
    "ID": 103900,
    "genomaID": "CV3TD11",
    "color": {
        "x": 0.8870282173156738,
        "y": 0.7666325569152832,
        "z": 0.8037217855453491
    },
    "vertexNumber": 3,
    "colliderVertices": [
        {
            "x": -1.448728084564209,
            "y": -0.4206351041793823
        },
        {
            "x": 1.2341947555541993,
            "y": -0.4096236228942871
        },
        {
            "x": -0.7727158069610596,
            "y": 0.05484116077423096
        }
    ],
    "triangles": [
        1,
        0,
        2
    ],
    "carDensity": 3.0,
    "suspension": 0.7902926802635193,
    "motorSpeed": 850,
    "frontDensity": 4.900000095367432,
    "frontRadius": 0.6881802082061768,
    "frontOffset": 0.9326566457748413,
    "backDensity": 3.200000047683716,
    "backRadius": 0.5216259956359863,
    "backOffset": -1.2692713737487794,
    "score": 911,
    "maxDistance": 832,
    "maxTime": 105.0
}{
    "ID": 103916,
    "genomaID": "CV3TD11",
    "color": {
        "x": 0.11273755133152008,
        "y": 0.07746756821870804,
        "z": 0.8756077289581299
    },
    "vertexNumber": 3,
    "colliderVertices": [
        {
            "x": -1.448728084564209,
            "y": -0.4206351041793823
        },
        {
            "x": 1.2341947555541993,
            "y": -0.4096236228942871
        },
        {
            "x": -0.7727158069610596,
            "y": 0.05484116077423096
        }
    ],
    "triangles": [
        1,
        0,
        2
    ],
    "carDensity": 3.0,
    "suspension": 0.9378050565719605,
    "motorSpeed": 850,
    "frontDensity": 4.900000095367432,
    "frontRadius": 0.6907195448875427,
    "frontOffset": 1.2625911235809327,
    "backDensity": 3.299999952316284,
    "backRadius": 0.5328162312507629,
    "backOffset": -0.6285861730575562,
    "score": 907,
    "maxDistance": 827,
    "maxTime": 104.0
}{
    "ID": 103819,
    "genomaID": "CV4TD12",
    "color": {
        "x": 0.44939547777175906,
        "y": 0.6869245171546936,
        "z": 0.8737590312957764
    },
    "vertexNumber": 4,
    "colliderVertices": [
        {
            "x": -1.1215640306472779,
            "y": -0.1842793971300125
        },
        {
            "x": 1.739316463470459,
            "y": -0.39492863416671755
        },
        {
            "x": 1.0127224922180176,
            "y": 0.3642553687095642
        },
        {
            "x": 0.15188193321228028,
            "y": 0.42430824041366579
        }
    ],
    "triangles": [
        3,
        2,
        1,
        1,
        0,
        3
    ],
    "carDensity": 4.0,
    "suspension": 0.6135239005088806,
    "motorSpeed": 645,
    "frontDensity": 4.900000095367432,
    "frontRadius": 0.6881802082061768,
    "frontOffset": 1.315136194229126,
    "backDensity": 3.200000047683716,
    "backRadius": 0.5175349116325378,
    "backOffset": -0.7962378859519959,
    "score": 18,
    "maxDistance": 3,
    "maxTime": 2.0
}{
    "ID": 103888,
    "genomaID": "CV3TD8",
    "color": {
        "x": 0.9655575752258301,
        "y": 0.17661847174167634,
        "z": 0.2819352447986603
    },
    "vertexNumber": 3,
    "colliderVertices": [
        {
            "x": -1.448728084564209,
            "y": -0.4206351041793823
        },
        {
            "x": 1.2341947555541993,
            "y": -0.4096236228942871
        },
        {
            "x": -0.7727158069610596,
            "y": 0.05484116077423096
        }
    ],
    "triangles": [
        1,
        0,
        2
    ],
    "carDensity": 3.0,
    "suspension": 0.7102932929992676,
    "motorSpeed": 850,
    "frontDensity": 2.4000000953674318,
    "frontRadius": 0.44193190336227419,
    "frontOffset": 0.5849130153656006,
    "backDensity": 3.4000000953674318,
    "backRadius": 0.5360636711120606,
    "backOffset": -1.2692713737487794,
    "score": -11,
    "maxDistance": -1,
    "maxTime": 1.0
}