{
    "ID": 936,
    "genomaID": "CV5TD11",
    "color": {
        "x": 0.7753911018371582,
        "y": 0.8345261812210083,
        "z": 0.608868420124054
    },
    "vertexNumber": 5,
    "colliderVertices": [
        {
            "x": -1.0495926141738892,
            "y": -0.15876080095767976
        },
        {
            "x": 1.8783825635910035,
            "y": -0.08754242211580277
        },
        {
            "x": 1.5777688026428223,
            "y": 0.18072152137756349
        },
        {
            "x": 1.24827241897583,
            "y": 0.04461169242858887
        },
        {
            "x": -1.596580982208252,
            "y": 0.15005028247833253
        }
    ],
    "triangles": [
        1,
        4,
        3,
        3,
        2,
        1,
        1,
        0,
        4
    ],
    "carDensity": 5.0,
    "suspension": 0.4808022975921631,
    "motorSpeed": 881,
    "frontDensity": 3.5,
    "frontRadius": 0.5505090951919556,
    "frontOffset": 1.1515170335769654,
    "backDensity": 2.200000047683716,
    "backRadius": 0.42317330837249758,
    "backOffset": -1.1931774616241456,
    "score": 900,
    "maxDistance": 833,
    "maxTime": 125.0
}{
    "ID": 970,
    "genomaID": "CV3TD8",
    "color": {
        "x": 0.8832259178161621,
        "y": 0.7785098552703857,
        "z": 0.18183256685733796
    },
    "vertexNumber": 3,
    "colliderVertices": [
        {
            "x": -1.6402621269226075,
            "y": -0.46583980321884158
        },
        {
            "x": 1.6502506732940674,
            "y": -0.06384623795747757
        },
        {
            "x": 0.35663628578186037,
            "y": 0.05457890033721924
        }
    ],
    "triangles": [
        1,
        0,
        2
    ],
    "carDensity": 3.0,
    "suspension": 0.4773885905742645,
    "motorSpeed": 1350,
    "frontDensity": 2.9000000953674318,
    "frontRadius": 0.49185410141944888,
    "frontOffset": 1.3591893911361695,
    "backDensity": 2.5,
    "backRadius": 0.4532777667045593,
    "backOffset": -1.3768467903137208,
    "score": 225,
    "maxDistance": 141,
    "maxTime": 17.0
}{
    "ID": 886,
    "genomaID": "CV3TD11",
    "color": {
        "x": 0.3033737242221832,
        "y": 0.7917381525039673,
        "z": 0.8435794115066528
    },
    "vertexNumber": 3,
    "colliderVertices": [
        {
            "x": -1.8340861797332764,
            "y": -0.1448390632867813
        },
        {
            "x": 1.2883038520812989,
            "y": -0.3335554897785187
        },
        {
            "x": 1.6734619140625,
            "y": 0.21834063529968263
        }
    ],
    "triangles": [
        1,
        0,
        2
    ],
    "carDensity": 3.0,
    "suspension": 0.8758704662322998,
    "motorSpeed": 542,
    "frontDensity": 3.700000047683716,
    "frontRadius": 0.5676501989364624,
    "frontOffset": 0.8295885920524597,
    "backDensity": 3.700000047683716,
    "backRadius": 0.5664253234863281,
    "backOffset": -0.9662092924118042,
    "score": 191,
    "maxDistance": 141,
    "maxTime": 28.0
}{
    "ID": 916,
    "genomaID": "CV3TD8",
    "color": {
        "x": 0.11273755133152008,
        "y": 0.07746756821870804,
        "z": 0.8756077289581299
    },
    "vertexNumber": 3,
    "colliderVertices": [
        {
            "x": -1.6402621269226075,
            "y": -0.46583980321884158
        },
        {
            "x": 1.6502506732940674,
            "y": -0.06384623795747757
        },
        {
            "x": 0.35663628578186037,
            "y": 0.05457890033721924
        }
    ],
    "triangles": [
        1,
        0,
        2
    ],
    "carDensity": 3.0,
    "suspension": 0.4773885905742645,
    "motorSpeed": 1081,
    "frontDensity": 2.9000000953674318,
    "frontRadius": 0.49185410141944888,
    "frontOffset": 1.3591893911361695,
    "backDensity": 2.5,
    "backRadius": 0.4532777667045593,
    "backOffset": -1.3768467903137208,
    "score": 27,
    "maxDistance": 4,
    "maxTime": 2.0
}{
    "ID": 998,
    "genomaID": "CV5TD12",
    "color": {
        "x": 0.7236726880073547,
        "y": 0.13623930513858796,
        "z": 0.8786298036575317
    },
    "vertexNumber": 5,
    "colliderVertices": [
        {
            "x": -1.2141413688659669,
            "y": -0.03584814444184303
        },
        {
            "x": 1.6528618335723878,
            "y": -0.14400263130664826
        },
        {
            "x": 0.7301844954490662,
            "y": 0.3855699896812439
        },
        {
            "x": 0.2261340618133545,
            "y": 0.23661744594573975
        },
        {
            "x": -1.973513126373291,
            "y": 0.8913244009017944
        }
    ],
    "triangles": [
        3,
        1,
        0,
        0,
        4,
        3,
        3,
        2,
        1
    ],
    "carDensity": 5.0,
    "suspension": 0.7729607820510864,
    "motorSpeed": 1068,
    "frontDensity": 3.299999952316284,
    "frontRadius": 0.5294192433357239,
    "frontOffset": 1.1860930919647217,
    "backDensity": 3.5999999046325685,
    "backRadius": 0.5598537921905518,
    "backOffset": -1.3901112079620362,
    "score": 0,
    "maxDistance": 0,
    "maxTime": 1.0
}