{
    "ID": 72614,
    "genomaID": "CV3TD12",
    "color": {
        "x": 0.6303030848503113,
        "y": 0.3808271288871765,
        "z": 0.6223776936531067
    },
    "vertexNumber": 3,
    "colliderVertices": [
        {
            "x": -1.6214687824249268,
            "y": -0.08317125588655472
        },
        {
            "x": 1.2661044597625733,
            "y": -0.3657998740673065
        },
        {
            "x": -0.8836376667022705,
            "y": 0.7232869863510132
        }
    ],
    "triangles": [
        1,
        0,
        2
    ],
    "carDensity": 3.0,
    "suspension": 0.9565086364746094,
    "motorSpeed": 884,
    "frontDensity": 4.900000095367432,
    "frontRadius": 0.69178706407547,
    "frontOffset": 1.2051951885223389,
    "backDensity": 3.5,
    "backRadius": 0.5492756366729736,
    "backOffset": -1.3321821689605713,
    "score": 916,
    "maxDistance": 834,
    "maxTime": 102.0
}{
    "ID": 72786,
    "genomaID": "CV3TD11",
    "color": {
        "x": 0.41092628240585329,
        "y": 0.05733812600374222,
        "z": 0.8896547555923462
    },
    "vertexNumber": 3,
    "colliderVertices": [
        {
            "x": -1.4517676830291749,
            "y": -0.3785870671272278
        },
        {
            "x": 1.0073214769363404,
            "y": -0.056303925812244418
        },
        {
            "x": 0.1018216609954834,
            "y": 0.5950250029563904
        }
    ],
    "triangles": [
        1,
        0,
        2
    ],
    "carDensity": 3.0,
    "suspension": 0.9815786480903626,
    "motorSpeed": 856,
    "frontDensity": 4.900000095367432,
    "frontRadius": 0.6907195448875427,
    "frontOffset": 1.1813194751739503,
    "backDensity": 3.0999999046325685,
    "backRadius": 0.507273256778717,
    "backOffset": -1.1137582063674927,
    "score": 913,
    "maxDistance": 834,
    "maxTime": 106.0
}{
    "ID": 72665,
    "genomaID": "CV3TD10",
    "color": {
        "x": 0.2190650999546051,
        "y": 0.819962739944458,
        "z": 0.1384425312280655
    },
    "vertexNumber": 3,
    "colliderVertices": [
        {
            "x": -1.3322129249572755,
            "y": -0.3242015540599823
        },
        {
            "x": 1.406930685043335,
            "y": -0.39797013998031618
        },
        {
            "x": -1.7638306617736817,
            "y": 0.37279003858566286
        }
    ],
    "triangles": [
        1,
        0,
        2
    ],
    "carDensity": 3.0,
    "suspension": 0.935843288898468,
    "motorSpeed": 502,
    "frontDensity": 4.599999904632568,
    "frontRadius": 0.6621392965316773,
    "frontOffset": 1.3090882301330567,
    "backDensity": 2.299999952316284,
    "backRadius": 0.4312823414802551,
    "backOffset": -0.9585472345352173,
    "score": 880,
    "maxDistance": 833,
    "maxTime": 178.0
}{
    "ID": 72645,
    "genomaID": "CV3TD11",
    "color": {
        "x": 0.8397320508956909,
        "y": 0.21620431542396546,
        "z": 0.005464315880089998
    },
    "vertexNumber": 3,
    "colliderVertices": [
        {
            "x": -1.3322129249572755,
            "y": -0.3242015540599823
        },
        {
            "x": 1.406930685043335,
            "y": -0.39797013998031618
        },
        {
            "x": -1.7638306617736817,
            "y": 0.37279003858566286
        }
    ],
    "triangles": [
        1,
        0,
        2
    ],
    "carDensity": 3.0,
    "suspension": 0.45361000299453738,
    "motorSpeed": 1384,
    "frontDensity": 4.900000095367432,
    "frontRadius": 0.6907195448875427,
    "frontOffset": 1.245917558670044,
    "backDensity": 2.799999952316284,
    "backRadius": 0.48476529121398928,
    "backOffset": -0.9746676683425903,
    "score": 0,
    "maxDistance": 0,
    "maxTime": 0.0
}{
    "ID": 72799,
    "genomaID": "CV3TD10",
    "color": {
        "x": 0.6575701832771301,
        "y": 0.868037223815918,
        "z": 0.03163004294037819
    },
    "vertexNumber": 3,
    "colliderVertices": [
        {
            "x": -1.3322129249572755,
            "y": -0.3242015540599823
        },
        {
            "x": 1.406930685043335,
            "y": -0.39797013998031618
        },
        {
            "x": -1.7638306617736817,
            "y": 0.37279003858566286
        }
    ],
    "triangles": [
        1,
        0,
        2
    ],
    "carDensity": 3.0,
    "suspension": 0.5182773470878601,
    "motorSpeed": 856,
    "frontDensity": 3.9000000953674318,
    "frontRadius": 0.589643120765686,
    "frontOffset": 0.850577712059021,
    "backDensity": 3.299999952316284,
    "backRadius": 0.5253103375434876,
    "backOffset": -1.1529123783111573,
    "score": 0,
    "maxDistance": 0,
    "maxTime": 1.0
}