{
    "ID": 24743,
    "genomaID": "CV3TD11",
    "color": {
        "x": 0.033374909311532977,
        "y": 0.6836089491844177,
        "z": 0.6072254776954651
    },
    "vertexNumber": 3,
    "colliderVertices": [
        {
            "x": -1.4167654514312745,
            "y": -0.05450911074876785
        },
        {
            "x": 1.4079196453094483,
            "y": -0.3937686085700989
        },
        {
            "x": -1.247361660003662,
            "y": 0.22769761085510255
        }
    ],
    "triangles": [
        1,
        0,
        2
    ],
    "carDensity": 3.0,
    "suspension": 0.8542378544807434,
    "motorSpeed": 897,
    "frontDensity": 4.599999904632568,
    "frontRadius": 0.6633200645446777,
    "frontOffset": 1.1093610525131226,
    "backDensity": 3.299999952316284,
    "backRadius": 0.5276777744293213,
    "backOffset": -0.5035631656646729,
    "score": 915,
    "maxDistance": 834,
    "maxTime": 103.0
}{
    "ID": 24755,
    "genomaID": "CV3TD11",
    "color": {
        "x": 0.6901889443397522,
        "y": 0.18011166155338288,
        "z": 0.05117417126893997
    },
    "vertexNumber": 3,
    "colliderVertices": [
        {
            "x": -1.4167654514312745,
            "y": -0.05450911074876785
        },
        {
            "x": 1.4079196453094483,
            "y": -0.3937686085700989
        },
        {
            "x": -1.247361660003662,
            "y": 0.22769761085510255
        }
    ],
    "triangles": [
        1,
        0,
        2
    ],
    "carDensity": 3.0,
    "suspension": 0.489393949508667,
    "motorSpeed": 884,
    "frontDensity": 4.599999904632568,
    "frontRadius": 0.655458927154541,
    "frontOffset": 1.2058961391448975,
    "backDensity": 3.0999999046325685,
    "backRadius": 0.5116315484046936,
    "backOffset": -0.7261731624603272,
    "score": 912,
    "maxDistance": 833,
    "maxTime": 105.0
}{
    "ID": 24688,
    "genomaID": "CV3TD10",
    "color": {
        "x": 0.9655575752258301,
        "y": 0.17661847174167634,
        "z": 0.2819352447986603
    },
    "vertexNumber": 3,
    "colliderVertices": [
        {
            "x": -1.4167654514312745,
            "y": -0.05450911074876785
        },
        {
            "x": 1.4079196453094483,
            "y": -0.3937686085700989
        },
        {
            "x": -1.247361660003662,
            "y": 0.22769761085510255
        }
    ],
    "triangles": [
        1,
        0,
        2
    ],
    "carDensity": 3.0,
    "suspension": 0.9889736771583557,
    "motorSpeed": 864,
    "frontDensity": 4.599999904632568,
    "frontRadius": 0.655458927154541,
    "frontOffset": 1.2058961391448975,
    "backDensity": 2.0,
    "backRadius": 0.40237462520599368,
    "backOffset": -1.0417786836624146,
    "score": 910,
    "maxDistance": 833,
    "maxTime": 108.0
}{
    "ID": 24692,
    "genomaID": "CV3TD11",
    "color": {
        "x": 0.2748042643070221,
        "y": 0.5898453593254089,
        "z": 0.35423484444618227
    },
    "vertexNumber": 3,
    "colliderVertices": [
        {
            "x": -1.4167654514312745,
            "y": -0.05450911074876785
        },
        {
            "x": 1.4079196453094483,
            "y": -0.3937686085700989
        },
        {
            "x": -1.247361660003662,
            "y": 0.22769761085510255
        }
    ],
    "triangles": [
        1,
        0,
        2
    ],
    "carDensity": 3.0,
    "suspension": 0.779102087020874,
    "motorSpeed": 576,
    "frontDensity": 4.5,
    "frontRadius": 0.6524487733840942,
    "frontOffset": 1.0655919313430787,
    "backDensity": 3.5,
    "backRadius": 0.5458881855010986,
    "backOffset": -0.7756339907646179,
    "score": 39,
    "maxDistance": 9,
    "maxTime": 3.0
}{
    "ID": 24716,
    "genomaID": "CV3TD13",
    "color": {
        "x": 0.11273755133152008,
        "y": 0.07746756821870804,
        "z": 0.8756077289581299
    },
    "vertexNumber": 3,
    "colliderVertices": [
        {
            "x": -1.4167654514312745,
            "y": -0.05450911074876785
        },
        {
            "x": 1.4079196453094483,
            "y": -0.3937686085700989
        },
        {
            "x": -1.247361660003662,
            "y": 0.22769761085510255
        }
    ],
    "triangles": [
        1,
        0,
        2
    ],
    "carDensity": 3.0,
    "suspension": 0.5550247430801392,
    "motorSpeed": 897,
    "frontDensity": 4.599999904632568,
    "frontRadius": 0.659152090549469,
    "frontOffset": 0.5039763450622559,
    "backDensity": 4.699999809265137,
    "backRadius": 0.6725502014160156,
    "backOffset": -1.385099172592163,
    "score": -11,
    "maxDistance": -1,
    "maxTime": 1.0
}