{
    "ID": 62297,
    "genomaID": "CV3TD12",
    "color": {
        "x": 0.15531636774539948,
        "y": 0.4467610716819763,
        "z": 0.050811298191547397
    },
    "vertexNumber": 3,
    "colliderVertices": [
        {
            "x": -1.3322129249572755,
            "y": -0.3242015540599823
        },
        {
            "x": 1.406930685043335,
            "y": -0.39797013998031618
        },
        {
            "x": -1.7638306617736817,
            "y": 0.37279003858566286
        }
    ],
    "triangles": [
        1,
        0,
        2
    ],
    "carDensity": 3.0,
    "suspension": 0.7244403958320618,
    "motorSpeed": 879,
    "frontDensity": 4.599999904632568,
    "frontRadius": 0.6645531058311462,
    "frontOffset": 0.7678360342979431,
    "backDensity": 3.9000000953674318,
    "backRadius": 0.594505786895752,
    "backOffset": -0.7614291310310364,
    "score": 918,
    "maxDistance": 833,
    "maxTime": 98.0
}{
    "ID": 62232,
    "genomaID": "CV3TD11",
    "color": {
        "x": 0.8832547664642334,
        "y": 0.6129466891288757,
        "z": 0.4796467423439026
    },
    "vertexNumber": 3,
    "colliderVertices": [
        {
            "x": -1.3322129249572755,
            "y": -0.3242015540599823
        },
        {
            "x": 1.406930685043335,
            "y": -0.39797013998031618
        },
        {
            "x": -1.7638306617736817,
            "y": 0.37279003858566286
        }
    ],
    "triangles": [
        1,
        0,
        2
    ],
    "carDensity": 3.0,
    "suspension": 0.48205506801605227,
    "motorSpeed": 879,
    "frontDensity": 4.599999904632568,
    "frontRadius": 0.6645531058311462,
    "frontOffset": 0.6912293434143066,
    "backDensity": 3.4000000953674318,
    "backRadius": 0.5423464775085449,
    "backOffset": -1.2862625122070313,
    "score": 914,
    "maxDistance": 834,
    "maxTime": 104.0
}{
    "ID": 62293,
    "genomaID": "CV3TD11",
    "color": {
        "x": 0.6060280203819275,
        "y": 0.31735530495643618,
        "z": 0.2212081253528595
    },
    "vertexNumber": 3,
    "colliderVertices": [
        {
            "x": -1.3322129249572755,
            "y": -0.3242015540599823
        },
        {
            "x": 1.406930685043335,
            "y": -0.39797013998031618
        },
        {
            "x": -1.7638306617736817,
            "y": 0.37279003858566286
        }
    ],
    "triangles": [
        1,
        0,
        2
    ],
    "carDensity": 3.0,
    "suspension": 0.48205506801605227,
    "motorSpeed": 879,
    "frontDensity": 4.599999904632568,
    "frontRadius": 0.6645531058311462,
    "frontOffset": 0.6912293434143066,
    "backDensity": 3.4000000953674318,
    "backRadius": 0.5423464775085449,
    "backOffset": -1.2862625122070313,
    "score": 913,
    "maxDistance": 833,
    "maxTime": 104.0
}{
    "ID": 62204,
    "genomaID": "CV3TD11",
    "color": {
        "x": 0.24854424595832826,
        "y": 0.17415274679660798,
        "z": 0.6007692217826843
    },
    "vertexNumber": 3,
    "colliderVertices": [
        {
            "x": -1.630248785018921,
            "y": -0.30327215790748598
        },
        {
            "x": 1.5690972805023194,
            "y": -0.4289395809173584
        },
        {
            "x": 1.1093201637268067,
            "y": 0.6009829640388489
        }
    ],
    "triangles": [
        1,
        0,
        2
    ],
    "carDensity": 3.0,
    "suspension": 0.7370678186416626,
    "motorSpeed": 752,
    "frontDensity": 4.800000190734863,
    "frontRadius": 0.6832131743431091,
    "frontOffset": 1.4061893224716187,
    "backDensity": 3.0999999046325685,
    "backRadius": 0.509495735168457,
    "backOffset": -0.9894486665725708,
    "score": 8,
    "maxDistance": 1,
    "maxTime": 1.0
}{
    "ID": 62398,
    "genomaID": "CV3TD12",
    "color": {
        "x": 0.7236726880073547,
        "y": 0.13623930513858796,
        "z": 0.8786298036575317
    },
    "vertexNumber": 3,
    "colliderVertices": [
        {
            "x": -1.9115512371063233,
            "y": -0.3172853887081146
        },
        {
            "x": 1.6203079223632813,
            "y": -0.02138674445450306
        },
        {
            "x": 1.690180778503418,
            "y": 0.08069324493408203
        }
    ],
    "triangles": [
        1,
        0,
        2
    ],
    "carDensity": 3.0,
    "suspension": 0.45898592472076418,
    "motorSpeed": 874,
    "frontDensity": 4.900000095367432,
    "frontRadius": 0.687065839767456,
    "frontOffset": 1.2956340312957764,
    "backDensity": 3.5,
    "backRadius": 0.5492756366729736,
    "backOffset": -0.5568637847900391,
    "score": 0,
    "maxDistance": 0,
    "maxTime": 0.0
}