{
    "ID": 84017,
    "genomaID": "CV3TD12",
    "color": {
        "x": 0.3178934156894684,
        "y": 0.9363491535186768,
        "z": 0.9737069606781006
    },
    "vertexNumber": 3,
    "colliderVertices": [
        {
            "x": -1.1977570056915284,
            "y": -0.22687312960624696
        },
        {
            "x": 1.4599976539611817,
            "y": -0.38685429096221926
        },
        {
            "x": -0.438037633895874,
            "y": 0.5326107144355774
        }
    ],
    "triangles": [
        1,
        0,
        2
    ],
    "carDensity": 3.0,
    "suspension": 0.9353444576263428,
    "motorSpeed": 874,
    "frontDensity": 5.0,
    "frontRadius": 0.6974217295646668,
    "frontOffset": 0.5740399360656738,
    "backDensity": 3.5,
    "backRadius": 0.5486017465591431,
    "backOffset": -0.9025429487228394,
    "score": 916,
    "maxDistance": 834,
    "maxTime": 101.0
}{
    "ID": 84183,
    "genomaID": "CV3TD11",
    "color": {
        "x": 0.2559671700000763,
        "y": 0.6770469546318054,
        "z": 0.8205124139785767
    },
    "vertexNumber": 3,
    "colliderVertices": [
        {
            "x": -1.24593186378479,
            "y": -0.17356999218463899
        },
        {
            "x": 1.4254326820373536,
            "y": -0.31066444516181948
        },
        {
            "x": -1.0050806999206544,
            "y": 0.2958831191062927
        }
    ],
    "triangles": [
        1,
        0,
        2
    ],
    "carDensity": 3.0,
    "suspension": 0.41225942969322207,
    "motorSpeed": 850,
    "frontDensity": 4.900000095367432,
    "frontRadius": 0.6864144206047058,
    "frontOffset": 0.7884991765022278,
    "backDensity": 3.0,
    "backRadius": 0.5026759505271912,
    "backOffset": -1.12929105758667,
    "score": 912,
    "maxDistance": 833,
    "maxTime": 105.0
}{
    "ID": 84152,
    "genomaID": "CV3TD11",
    "color": {
        "x": 0.6614616513252258,
        "y": 0.7677072286605835,
        "z": 0.02715790644288063
    },
    "vertexNumber": 3,
    "colliderVertices": [
        {
            "x": -1.4517676830291749,
            "y": -0.3785870671272278
        },
        {
            "x": 1.0073214769363404,
            "y": -0.056303925812244418
        },
        {
            "x": 0.1018216609954834,
            "y": 0.5950250029563904
        }
    ],
    "triangles": [
        1,
        0,
        2
    ],
    "carDensity": 3.0,
    "suspension": 0.7790282964706421,
    "motorSpeed": 850,
    "frontDensity": 4.900000095367432,
    "frontRadius": 0.6907195448875427,
    "frontOffset": 1.4972975254058838,
    "backDensity": 3.0999999046325685,
    "backRadius": 0.51302170753479,
    "backOffset": -1.1122084856033326,
    "score": 910,
    "maxDistance": 832,
    "maxTime": 106.0
}{
    "ID": 84037,
    "genomaID": "CV4TD12",
    "color": {
        "x": 0.1478743702173233,
        "y": 0.8366987705230713,
        "z": 0.7533611059188843
    },
    "vertexNumber": 4,
    "colliderVertices": [
        {
            "x": -1.4166576862335206,
            "y": -0.0017402174416929484
        },
        {
            "x": 1.3494336605072022,
            "y": -0.1141478568315506
        },
        {
            "x": 0.8687023520469666,
            "y": 0.8699229955673218
        },
        {
            "x": 0.8274444937705994,
            "y": 0.8934178352355957
        }
    ],
    "triangles": [
        3,
        2,
        1,
        1,
        0,
        3
    ],
    "carDensity": 4.0,
    "suspension": 0.9582998156547546,
    "motorSpeed": 850,
    "frontDensity": 4.900000095367432,
    "frontRadius": 0.6864144206047058,
    "frontOffset": 1.1933616399765015,
    "backDensity": 2.799999952316284,
    "backRadius": 0.4827560484409332,
    "backOffset": -1.4250696897506714,
    "score": 18,
    "maxDistance": 3,
    "maxTime": 2.0
}{
    "ID": 84193,
    "genomaID": "CV3TD11",
    "color": {
        "x": 0.6076138615608215,
        "y": 0.2100631296634674,
        "z": 0.02442515268921852
    },
    "vertexNumber": 3,
    "colliderVertices": [
        {
            "x": -1.4517676830291749,
            "y": -0.3785870671272278
        },
        {
            "x": 1.0073214769363404,
            "y": -0.056303925812244418
        },
        {
            "x": 0.1018216609954834,
            "y": 0.5950250029563904
        }
    ],
    "triangles": [
        1,
        0,
        2
    ],
    "carDensity": 3.0,
    "suspension": 0.5481326580047607,
    "motorSpeed": 850,
    "frontDensity": 4.900000095367432,
    "frontRadius": 0.6907195448875427,
    "frontOffset": 1.2877323627471924,
    "backDensity": 2.5999999046325685,
    "backRadius": 0.46105244755744936,
    "backOffset": -0.8648508787155151,
    "score": 0,
    "maxDistance": 0,
    "maxTime": 1.0
}