{
    "ID": 26024,
    "genomaID": "CV3TD11",
    "color": {
        "x": 0.4180935025215149,
        "y": 0.6545012593269348,
        "z": 0.6694570183753967
    },
    "vertexNumber": 3,
    "colliderVertices": [
        {
            "x": -1.4167654514312745,
            "y": -0.05450911074876785
        },
        {
            "x": 1.4079196453094483,
            "y": -0.3937686085700989
        },
        {
            "x": -1.247361660003662,
            "y": 0.22769761085510255
        }
    ],
    "triangles": [
        1,
        0,
        2
    ],
    "carDensity": 3.0,
    "suspension": 0.5868868827819824,
    "motorSpeed": 897,
    "frontDensity": 4.699999809265137,
    "frontRadius": 0.6665397882461548,
    "frontOffset": 1.1249231100082398,
    "backDensity": 3.299999952316284,
    "backRadius": 0.5276777744293213,
    "backOffset": -0.6196798086166382,
    "score": 915,
    "maxDistance": 833,
    "maxTime": 102.0
}{
    "ID": 26013,
    "genomaID": "CV3TD11",
    "color": {
        "x": 0.5851426720619202,
        "y": 0.73201984167099,
        "z": 0.16867198050022126
    },
    "vertexNumber": 3,
    "colliderVertices": [
        {
            "x": -1.4167654514312745,
            "y": -0.05450911074876785
        },
        {
            "x": 1.4079196453094483,
            "y": -0.3937686085700989
        },
        {
            "x": -1.247361660003662,
            "y": 0.22769761085510255
        }
    ],
    "triangles": [
        1,
        0,
        2
    ],
    "carDensity": 3.0,
    "suspension": 0.8440964818000794,
    "motorSpeed": 897,
    "frontDensity": 4.599999904632568,
    "frontRadius": 0.659152090549469,
    "frontOffset": 0.7750733494758606,
    "backDensity": 2.700000047683716,
    "backRadius": 0.47042882442474368,
    "backOffset": -0.5802112817764282,
    "score": 912,
    "maxDistance": 833,
    "maxTime": 105.0
}{
    "ID": 26069,
    "genomaID": "CV3TD12",
    "color": {
        "x": 0.5651840567588806,
        "y": 0.4480600953102112,
        "z": 0.6179218888282776
    },
    "vertexNumber": 3,
    "colliderVertices": [
        {
            "x": -1.4167654514312745,
            "y": -0.05450911074876785
        },
        {
            "x": 1.4079196453094483,
            "y": -0.3937686085700989
        },
        {
            "x": -1.247361660003662,
            "y": 0.22769761085510255
        }
    ],
    "triangles": [
        1,
        0,
        2
    ],
    "carDensity": 3.0,
    "suspension": 0.6349014043807983,
    "motorSpeed": 857,
    "frontDensity": 4.599999904632568,
    "frontRadius": 0.6626816391944885,
    "frontOffset": 1.0092579126358033,
    "backDensity": 3.5,
    "backRadius": 0.5489628911018372,
    "backOffset": -0.9551950693130493,
    "score": 911,
    "maxDistance": 833,
    "maxTime": 106.0
}{
    "ID": 26031,
    "genomaID": "CV3TD9",
    "color": {
        "x": 0.1651449352502823,
        "y": 0.1517629772424698,
        "z": 0.7083653807640076
    },
    "vertexNumber": 3,
    "colliderVertices": [
        {
            "x": -1.4167654514312745,
            "y": -0.05450911074876785
        },
        {
            "x": 1.4079196453094483,
            "y": -0.3937686085700989
        },
        {
            "x": -1.247361660003662,
            "y": 0.22769761085510255
        }
    ],
    "triangles": [
        1,
        0,
        2
    ],
    "carDensity": 3.0,
    "suspension": 0.8673991560935974,
    "motorSpeed": 884,
    "frontDensity": 3.200000047683716,
    "frontRadius": 0.5207986235618591,
    "frontOffset": 1.0090607404708863,
    "backDensity": 3.4000000953674318,
    "backRadius": 0.5381298661231995,
    "backOffset": -1.1698849201202393,
    "score": 20,
    "maxDistance": 3,
    "maxTime": 2.0
}{
    "ID": 26194,
    "genomaID": "CV3TD11",
    "color": {
        "x": 0.7795941829681397,
        "y": 0.2871544659137726,
        "z": 0.42937761545181277
    },
    "vertexNumber": 3,
    "colliderVertices": [
        {
            "x": -1.4225544929504395,
            "y": -0.48393863439559939
        },
        {
            "x": 1.4260752201080323,
            "y": -0.43664467334747317
        },
        {
            "x": 1.270545482635498,
            "y": 0.16499245166778565
        }
    ],
    "triangles": [
        1,
        0,
        2
    ],
    "carDensity": 3.0,
    "suspension": 0.8673991560935974,
    "motorSpeed": 884,
    "frontDensity": 4.699999809265137,
    "frontRadius": 0.6692898273468018,
    "frontOffset": 0.6307331323623657,
    "backDensity": 2.799999952316284,
    "backRadius": 0.47618842124938967,
    "backOffset": -1.3556997776031495,
    "score": 0,
    "maxDistance": 0,
    "maxTime": 1.0
}