{
    "ID": 60831,
    "genomaID": "CV3TD12",
    "color": {
        "x": 0.1651449352502823,
        "y": 0.1517629772424698,
        "z": 0.7083653807640076
    },
    "vertexNumber": 3,
    "colliderVertices": [
        {
            "x": -1.3322129249572755,
            "y": -0.3242015540599823
        },
        {
            "x": 1.406930685043335,
            "y": -0.39797013998031618
        },
        {
            "x": -1.7638306617736817,
            "y": 0.37279003858566286
        }
    ],
    "triangles": [
        1,
        0,
        2
    ],
    "carDensity": 3.0,
    "suspension": 0.47762343287467959,
    "motorSpeed": 874,
    "frontDensity": 4.900000095367432,
    "frontRadius": 0.6907195448875427,
    "frontOffset": 1.2956340312957764,
    "backDensity": 3.5,
    "backRadius": 0.5492756366729736,
    "backOffset": -0.6154242753982544,
    "score": 916,
    "maxDistance": 834,
    "maxTime": 102.0
}{
    "ID": 60928,
    "genomaID": "CV3TD11",
    "color": {
        "x": 0.3861667513847351,
        "y": 0.2903912365436554,
        "z": 0.5744612812995911
    },
    "vertexNumber": 3,
    "colliderVertices": [
        {
            "x": -1.3322129249572755,
            "y": -0.3242015540599823
        },
        {
            "x": 1.406930685043335,
            "y": -0.39797013998031618
        },
        {
            "x": -1.7638306617736817,
            "y": 0.37279003858566286
        }
    ],
    "triangles": [
        1,
        0,
        2
    ],
    "carDensity": 3.0,
    "suspension": 0.44354912638664248,
    "motorSpeed": 879,
    "frontDensity": 4.800000190734863,
    "frontRadius": 0.6832131743431091,
    "frontOffset": 1.0187565088272095,
    "backDensity": 3.299999952316284,
    "backRadius": 0.529460072517395,
    "backOffset": -0.6869202852249146,
    "score": 914,
    "maxDistance": 834,
    "maxTime": 104.0
}{
    "ID": 60998,
    "genomaID": "CV3TD11",
    "color": {
        "x": 0.7236726880073547,
        "y": 0.13623930513858796,
        "z": 0.8786298036575317
    },
    "vertexNumber": 3,
    "colliderVertices": [
        {
            "x": -1.3322129249572755,
            "y": -0.3242015540599823
        },
        {
            "x": 1.406930685043335,
            "y": -0.39797013998031618
        },
        {
            "x": -1.7638306617736817,
            "y": 0.37279003858566286
        }
    ],
    "triangles": [
        1,
        0,
        2
    ],
    "carDensity": 3.0,
    "suspension": 0.4202805757522583,
    "motorSpeed": 879,
    "frontDensity": 4.800000190734863,
    "frontRadius": 0.6832131743431091,
    "frontOffset": 0.6571756601333618,
    "backDensity": 2.700000047683716,
    "backRadius": 0.47356978058815,
    "backOffset": -0.6796305179595947,
    "score": 912,
    "maxDistance": 833,
    "maxTime": 106.0
}{
    "ID": 60839,
    "genomaID": "CV3TD10",
    "color": {
        "x": 0.27025511860847475,
        "y": 0.08126045018434525,
        "z": 0.4123501181602478
    },
    "vertexNumber": 3,
    "colliderVertices": [
        {
            "x": -1.3322129249572755,
            "y": -0.3242015540599823
        },
        {
            "x": 1.406930685043335,
            "y": -0.39797013998031618
        },
        {
            "x": -1.7638306617736817,
            "y": 0.37279003858566286
        }
    ],
    "triangles": [
        1,
        0,
        2
    ],
    "carDensity": 3.0,
    "suspension": 0.5834867358207703,
    "motorSpeed": 879,
    "frontDensity": 4.099999904632568,
    "frontRadius": 0.6060896515846252,
    "frontOffset": 1.4672107696533204,
    "backDensity": 3.200000047683716,
    "backRadius": 0.5220075845718384,
    "backOffset": -0.7316124439239502,
    "score": 0,
    "maxDistance": 0,
    "maxTime": 1.0
}{
    "ID": 60997,
    "genomaID": "CV3TD12",
    "color": {
        "x": 0.225060373544693,
        "y": 0.9318109750747681,
        "z": 0.6402801871299744
    },
    "vertexNumber": 3,
    "colliderVertices": [
        {
            "x": -1.3322129249572755,
            "y": -0.3242015540599823
        },
        {
            "x": 1.406930685043335,
            "y": -0.39797013998031618
        },
        {
            "x": -1.7638306617736817,
            "y": 0.37279003858566286
        }
    ],
    "triangles": [
        1,
        0,
        2
    ],
    "carDensity": 3.0,
    "suspension": 0.7623437643051148,
    "motorSpeed": 1237,
    "frontDensity": 4.900000095367432,
    "frontRadius": 0.6907195448875427,
    "frontOffset": 0.8805445432662964,
    "backDensity": 3.5,
    "backRadius": 0.5492756366729736,
    "backOffset": -0.6154242753982544,
    "score": 0,
    "maxDistance": 0,
    "maxTime": 1.0
}