{
    "ID": 3632,
    "genomaID": "CV5TD11",
    "color": {
        "x": 0.8832547664642334,
        "y": 0.6129466891288757,
        "z": 0.4796467423439026
    },
    "vertexNumber": 5,
    "colliderVertices": [
        {
            "x": -1.0632128715515137,
            "y": -0.3467496335506439
        },
        {
            "x": 1.1041748523712159,
            "y": -0.06819809228181839
        },
        {
            "x": 1.3774728775024415,
            "y": 0.34474295377731326
        },
        {
            "x": 1.0274066925048829,
            "y": 0.752133846282959
        },
        {
            "x": -1.1609992980957032,
            "y": 0.39669960737228396
        }
    ],
    "triangles": [
        1,
        4,
        3,
        3,
        2,
        1,
        1,
        0,
        4
    ],
    "carDensity": 5.0,
    "suspension": 0.8720027208328247,
    "motorSpeed": 795,
    "frontDensity": 3.700000047683716,
    "frontRadius": 0.5710952281951904,
    "frontOffset": 1.2612252235412598,
    "backDensity": 2.299999952316284,
    "backRadius": 0.431122750043869,
    "backOffset": -1.2094659805297852,
    "score": 896,
    "maxDistance": 833,
    "maxTime": 132.0
}{
    "ID": 3602,
    "genomaID": "CV5TD11",
    "color": {
        "x": 0.191432386636734,
        "y": 0.17907096445560456,
        "z": 0.9370725154876709
    },
    "vertexNumber": 5,
    "colliderVertices": [
        {
            "x": -1.486525535583496,
            "y": -0.1622365266084671
        },
        {
            "x": 1.0381996631622315,
            "y": -0.03627771511673927
        },
        {
            "x": 0.23191380500793458,
            "y": 0.6241728663444519
        },
        {
            "x": -0.8814566135406494,
            "y": 0.5444448590278626
        },
        {
            "x": -1.0721821784973145,
            "y": 0.21859240531921388
        }
    ],
    "triangles": [
        1,
        4,
        3,
        3,
        2,
        1,
        1,
        0,
        4
    ],
    "carDensity": 5.0,
    "suspension": 0.4971998333930969,
    "motorSpeed": 740,
    "frontDensity": 3.5,
    "frontRadius": 0.5469313859939575,
    "frontOffset": 0.6635332107543945,
    "backDensity": 2.0999999046325685,
    "backRadius": 0.4131523072719574,
    "backOffset": -0.9218004941940308,
    "score": 889,
    "maxDistance": 833,
    "maxTime": 150.0
}{
    "ID": 3789,
    "genomaID": "CV3TD10",
    "color": {
        "x": 0.6000825762748718,
        "y": 0.659334123134613,
        "z": 0.9595612287521362
    },
    "vertexNumber": 3,
    "colliderVertices": [
        {
            "x": -1.4167654514312745,
            "y": -0.05450911074876785
        },
        {
            "x": 1.4079196453094483,
            "y": -0.3937686085700989
        },
        {
            "x": -1.247361660003662,
            "y": 0.22769761085510255
        }
    ],
    "triangles": [
        1,
        0,
        2
    ],
    "carDensity": 3.0,
    "suspension": 0.9905532002449036,
    "motorSpeed": 595,
    "frontDensity": 3.200000047683716,
    "frontRadius": 0.522019624710083,
    "frontOffset": 1.4220318794250489,
    "backDensity": 3.9000000953674318,
    "backRadius": 0.5867034792900086,
    "backOffset": -0.997062087059021,
    "score": 887,
    "maxDistance": 833,
    "maxTime": 155.0
}{
    "ID": 3637,
    "genomaID": "CV4TD11",
    "color": {
        "x": 0.1478743702173233,
        "y": 0.8366987705230713,
        "z": 0.7533611059188843
    },
    "vertexNumber": 4,
    "colliderVertices": [
        {
            "x": -1.7015995979309083,
            "y": -0.35577109456062319
        },
        {
            "x": 1.4782741069793702,
            "y": -0.13649727404117585
        },
        {
            "x": 1.198348045349121,
            "y": 0.3636910319328308
        },
        {
            "x": 0.9195870757102966,
            "y": 0.8620215654373169
        }
    ],
    "triangles": [
        0,
        3,
        2,
        2,
        1,
        0
    ],
    "carDensity": 4.0,
    "suspension": 0.9738948941230774,
    "motorSpeed": 583,
    "frontDensity": 3.0999999046325685,
    "frontRadius": 0.5122264623641968,
    "frontOffset": 1.2258260250091553,
    "backDensity": 4.400000095367432,
    "backRadius": 0.635739266872406,
    "backOffset": -1.2648820877075196,
    "score": 37,
    "maxDistance": 8,
    "maxTime": 3.0
}{
    "ID": 3799,
    "genomaID": "CV3TD10",
    "color": {
        "x": 0.6575701832771301,
        "y": 0.868037223815918,
        "z": 0.03163004294037819
    },
    "vertexNumber": 3,
    "colliderVertices": [
        {
            "x": -1.4167654514312745,
            "y": -0.05450911074876785
        },
        {
            "x": 1.4079196453094483,
            "y": -0.3937686085700989
        },
        {
            "x": -1.247361660003662,
            "y": 0.22769761085510255
        }
    ],
    "triangles": [
        1,
        0,
        2
    ],
    "carDensity": 3.0,
    "suspension": 0.9905532002449036,
    "motorSpeed": 1200,
    "frontDensity": 3.200000047683716,
    "frontRadius": 0.522019624710083,
    "frontOffset": 1.4220318794250489,
    "backDensity": 3.9000000953674318,
    "backRadius": 0.5867034792900086,
    "backOffset": -1.3422954082489014,
    "score": 0,
    "maxDistance": 0,
    "maxTime": 1.0
}