{
    "ID": 104929,
    "genomaID": "CV3TD11",
    "color": {
        "x": 0.03369355574250221,
        "y": 0.5496731400489807,
        "z": 0.9435156583786011
    },
    "vertexNumber": 3,
    "colliderVertices": [
        {
            "x": -1.448728084564209,
            "y": -0.4206351041793823
        },
        {
            "x": 1.2341947555541993,
            "y": -0.4096236228942871
        },
        {
            "x": -0.7727158069610596,
            "y": 0.05484116077423096
        }
    ],
    "triangles": [
        1,
        0,
        2
    ],
    "carDensity": 3.0,
    "suspension": 0.7001361846923828,
    "motorSpeed": 1123,
    "frontDensity": 4.699999809265137,
    "frontRadius": 0.6661383509635925,
    "frontOffset": 1.0876442193984986,
    "backDensity": 2.5999999046325685,
    "backRadius": 0.4617137014865875,
    "backOffset": -1.2401955127716065,
    "score": 924,
    "maxDistance": 833,
    "maxTime": 92.0
}{
    "ID": 104914,
    "genomaID": "CV3TD11",
    "color": {
        "x": 0.6571291089057922,
        "y": 0.8127249479293823,
        "z": 0.6231763958930969
    },
    "vertexNumber": 3,
    "colliderVertices": [
        {
            "x": -1.448728084564209,
            "y": -0.4206351041793823
        },
        {
            "x": 1.2341947555541993,
            "y": -0.4096236228942871
        },
        {
            "x": -0.7727158069610596,
            "y": 0.05484116077423096
        }
    ],
    "triangles": [
        1,
        0,
        2
    ],
    "carDensity": 3.0,
    "suspension": 0.47347480058670046,
    "motorSpeed": 850,
    "frontDensity": 4.900000095367432,
    "frontRadius": 0.6881802082061768,
    "frontOffset": 1.392625093460083,
    "backDensity": 2.700000047683716,
    "backRadius": 0.4705962538719177,
    "backOffset": -1.2465744018554688,
    "score": 912,
    "maxDistance": 833,
    "maxTime": 106.0
}{
    "ID": 104978,
    "genomaID": "CV3TD11",
    "color": {
        "x": 0.9666177034378052,
        "y": 0.6240989565849304,
        "z": 0.9224027395248413
    },
    "vertexNumber": 3,
    "colliderVertices": [
        {
            "x": -1.448728084564209,
            "y": -0.4206351041793823
        },
        {
            "x": 1.2341947555541993,
            "y": -0.4096236228942871
        },
        {
            "x": -0.7727158069610596,
            "y": 0.05484116077423096
        }
    ],
    "triangles": [
        1,
        0,
        2
    ],
    "carDensity": 3.0,
    "suspension": 0.7326871156692505,
    "motorSpeed": 866,
    "frontDensity": 4.599999904632568,
    "frontRadius": 0.658340573310852,
    "frontOffset": 1.0876442193984986,
    "backDensity": 2.5999999046325685,
    "backRadius": 0.4617137014865875,
    "backOffset": -1.2401955127716065,
    "score": 910,
    "maxDistance": 833,
    "maxTime": 108.0
}{
    "ID": 104857,
    "genomaID": "CV4TD10",
    "color": {
        "x": 0.056843407452106479,
        "y": 0.986021876335144,
        "z": 0.7485479712486267
    },
    "vertexNumber": 4,
    "colliderVertices": [
        {
            "x": -1.1826435327529908,
            "y": -0.4991898536682129
        },
        {
            "x": 1.076981544494629,
            "y": -0.46400707960128786
        },
        {
            "x": 1.2232356071472169,
            "y": 0.31574922800064089
        },
        {
            "x": -1.2281837463378907,
            "y": 0.5664529204368591
        }
    ],
    "triangles": [
        3,
        2,
        1,
        1,
        0,
        3
    ],
    "carDensity": 4.0,
    "suspension": 0.6276770234107971,
    "motorSpeed": 850,
    "frontDensity": 3.799999952316284,
    "frontRadius": 0.576606273651123,
    "frontOffset": 1.2625911235809327,
    "backDensity": 2.4000000953674318,
    "backRadius": 0.43821245431900027,
    "backOffset": -0.7901570200920105,
    "score": 24,
    "maxDistance": 4,
    "maxTime": 2.0
}{
    "ID": 104923,
    "genomaID": "CV3TD9",
    "color": {
        "x": 0.8045568466186523,
        "y": 0.9990131855010986,
        "z": 0.7354395985603333
    },
    "vertexNumber": 3,
    "colliderVertices": [
        {
            "x": -1.448728084564209,
            "y": -0.4206351041793823
        },
        {
            "x": 1.2341947555541993,
            "y": -0.4096236228942871
        },
        {
            "x": -0.7727158069610596,
            "y": 0.05484116077423096
        }
    ],
    "triangles": [
        1,
        0,
        2
    ],
    "carDensity": 3.0,
    "suspension": 0.9253931045532227,
    "motorSpeed": 850,
    "frontDensity": 2.200000047683716,
    "frontRadius": 0.418891966342926,
    "frontOffset": 1.4964661598205567,
    "backDensity": 3.799999952316284,
    "backRadius": 0.5821332335472107,
    "backOffset": -1.182363748550415,
    "score": -11,
    "maxDistance": -1,
    "maxTime": 1.0
}