{
    "ID": 102630,
    "genomaID": "CV3TD10",
    "color": {
        "x": 0.08189452439546585,
        "y": 0.3821195960044861,
        "z": 0.08771801739931107
    },
    "vertexNumber": 3,
    "colliderVertices": [
        {
            "x": -1.448728084564209,
            "y": -0.4206351041793823
        },
        {
            "x": 1.2341947555541993,
            "y": -0.4096236228942871
        },
        {
            "x": -0.7727158069610596,
            "y": 0.05484116077423096
        }
    ],
    "triangles": [
        1,
        0,
        2
    ],
    "carDensity": 3.0,
    "suspension": 0.5381503105163574,
    "motorSpeed": 1443,
    "frontDensity": 4.900000095367432,
    "frontRadius": 0.6881802082061768,
    "frontOffset": 0.8670073747634888,
    "backDensity": 2.4000000953674318,
    "backRadius": 0.44458311796188357,
    "backOffset": -1.2847950458526612,
    "score": 944,
    "maxDistance": 833,
    "maxTime": 75.0
}{
    "ID": 102656,
    "genomaID": "CV3TD11",
    "color": {
        "x": 0.8817833662033081,
        "y": 0.5256525874137878,
        "z": 0.8587871789932251
    },
    "vertexNumber": 3,
    "colliderVertices": [
        {
            "x": -1.448728084564209,
            "y": -0.4206351041793823
        },
        {
            "x": 1.2341947555541993,
            "y": -0.4096236228942871
        },
        {
            "x": -0.7727158069610596,
            "y": 0.05484116077423096
        }
    ],
    "triangles": [
        1,
        0,
        2
    ],
    "carDensity": 3.0,
    "suspension": 0.8480352759361267,
    "motorSpeed": 850,
    "frontDensity": 4.900000095367432,
    "frontRadius": 0.6907195448875427,
    "frontOffset": 1.3275096416473389,
    "backDensity": 2.799999952316284,
    "backRadius": 0.4766441881656647,
    "backOffset": -1.3206112384796143,
    "score": 911,
    "maxDistance": 832,
    "maxTime": 106.0
}{
    "ID": 102657,
    "genomaID": "CV3TD11",
    "color": {
        "x": 0.056843407452106479,
        "y": 0.986021876335144,
        "z": 0.7485479712486267
    },
    "vertexNumber": 3,
    "colliderVertices": [
        {
            "x": -1.448728084564209,
            "y": -0.4206351041793823
        },
        {
            "x": 1.2341947555541993,
            "y": -0.4096236228942871
        },
        {
            "x": -0.7727158069610596,
            "y": 0.05484116077423096
        }
    ],
    "triangles": [
        1,
        0,
        2
    ],
    "carDensity": 3.0,
    "suspension": 0.4970051944255829,
    "motorSpeed": 850,
    "frontDensity": 4.900000095367432,
    "frontRadius": 0.6907195448875427,
    "frontOffset": 0.734839677810669,
    "backDensity": 3.299999952316284,
    "backRadius": 0.5328162312507629,
    "backOffset": -0.6285861730575562,
    "score": 908,
    "maxDistance": 828,
    "maxTime": 104.0
}{
    "ID": 102734,
    "genomaID": "CV3TD8",
    "color": {
        "x": 0.3087574541568756,
        "y": 0.3270076811313629,
        "z": 0.430522620677948
    },
    "vertexNumber": 3,
    "colliderVertices": [
        {
            "x": -1.448728084564209,
            "y": -0.4206351041793823
        },
        {
            "x": 1.2341947555541993,
            "y": -0.4096236228942871
        },
        {
            "x": -0.7727158069610596,
            "y": 0.05484116077423096
        }
    ],
    "triangles": [
        1,
        0,
        2
    ],
    "carDensity": 3.0,
    "suspension": 0.847665548324585,
    "motorSpeed": 850,
    "frontDensity": 3.200000047683716,
    "frontRadius": 0.5163602828979492,
    "frontOffset": 0.6249827146530151,
    "backDensity": 2.4000000953674318,
    "backRadius": 0.4414035677909851,
    "backOffset": -1.4619250297546387,
    "score": 43,
    "maxDistance": 10,
    "maxTime": 3.0
}{
    "ID": 102707,
    "genomaID": "CV3TD9",
    "color": {
        "x": 0.4525945782661438,
        "y": 0.32109811902046206,
        "z": 0.4646300673484802
    },
    "vertexNumber": 3,
    "colliderVertices": [
        {
            "x": -1.448728084564209,
            "y": -0.4206351041793823
        },
        {
            "x": 1.2341947555541993,
            "y": -0.4096236228942871
        },
        {
            "x": -0.7727158069610596,
            "y": 0.05484116077423096
        }
    ],
    "triangles": [
        1,
        0,
        2
    ],
    "carDensity": 3.0,
    "suspension": 0.8600658178329468,
    "motorSpeed": 850,
    "frontDensity": 2.0999999046325685,
    "frontRadius": 0.40568339824676516,
    "frontOffset": 1.193955421447754,
    "backDensity": 3.700000047683716,
    "backRadius": 0.5658549070358276,
    "backOffset": -1.3189605474472047,
    "score": -11,
    "maxDistance": -1,
    "maxTime": 1.0
}