{
    "ID": 33215,
    "genomaID": "CV3TD11",
    "color": {
        "x": 0.6712844967842102,
        "y": 0.42500942945480349,
        "z": 0.8594748973846436
    },
    "vertexNumber": 3,
    "colliderVertices": [
        {
            "x": -1.4167654514312745,
            "y": -0.05450911074876785
        },
        {
            "x": 1.4079196453094483,
            "y": -0.3937686085700989
        },
        {
            "x": -1.247361660003662,
            "y": 0.22769761085510255
        }
    ],
    "triangles": [
        1,
        0,
        2
    ],
    "carDensity": 3.0,
    "suspension": 0.4149132966995239,
    "motorSpeed": 894,
    "frontDensity": 4.599999904632568,
    "frontRadius": 0.6557742357254028,
    "frontOffset": 1.3938078880310059,
    "backDensity": 3.299999952316284,
    "backRadius": 0.5326175689697266,
    "backOffset": -1.4025516510009766,
    "score": 915,
    "maxDistance": 834,
    "maxTime": 103.0
}{
    "ID": 33342,
    "genomaID": "CV3TD10",
    "color": {
        "x": 0.8685866594314575,
        "y": 0.7226890921592712,
        "z": 0.7905361652374268
    },
    "vertexNumber": 3,
    "colliderVertices": [
        {
            "x": -1.4167654514312745,
            "y": -0.05450911074876785
        },
        {
            "x": 1.4079196453094483,
            "y": -0.3937686085700989
        },
        {
            "x": -1.247361660003662,
            "y": 0.22769761085510255
        }
    ],
    "triangles": [
        1,
        0,
        2
    ],
    "carDensity": 3.0,
    "suspension": 0.7441117167472839,
    "motorSpeed": 894,
    "frontDensity": 4.300000190734863,
    "frontRadius": 0.632652223110199,
    "frontOffset": 0.8322963118553162,
    "backDensity": 3.0,
    "backRadius": 0.49757829308509829,
    "backOffset": -0.8531709909439087,
    "score": 913,
    "maxDistance": 834,
    "maxTime": 106.0
}{
    "ID": 33205,
    "genomaID": "CV3TD10",
    "color": {
        "x": 0.3580075800418854,
        "y": 0.6482211947441101,
        "z": 0.6104552149772644
    },
    "vertexNumber": 3,
    "colliderVertices": [
        {
            "x": -1.4167654514312745,
            "y": -0.05450911074876785
        },
        {
            "x": 1.4079196453094483,
            "y": -0.3937686085700989
        },
        {
            "x": -1.247361660003662,
            "y": 0.22769761085510255
        }
    ],
    "triangles": [
        1,
        0,
        2
    ],
    "carDensity": 3.0,
    "suspension": 0.5835641622543335,
    "motorSpeed": 894,
    "frontDensity": 4.300000190734863,
    "frontRadius": 0.6343792080879211,
    "frontOffset": 1.0931967496871949,
    "backDensity": 2.9000000953674318,
    "backRadius": 0.48795294761657717,
    "backOffset": -1.3008121252059937,
    "score": 911,
    "maxDistance": 833,
    "maxTime": 107.0
}{
    "ID": 33220,
    "genomaID": "CV3TD9",
    "color": {
        "x": 0.9173623323440552,
        "y": 0.5073809027671814,
        "z": 0.04472649469971657
    },
    "vertexNumber": 3,
    "colliderVertices": [
        {
            "x": -1.4167654514312745,
            "y": -0.05450911074876785
        },
        {
            "x": 1.4079196453094483,
            "y": -0.3937686085700989
        },
        {
            "x": -1.247361660003662,
            "y": 0.22769761085510255
        }
    ],
    "triangles": [
        1,
        0,
        2
    ],
    "carDensity": 3.0,
    "suspension": 0.48935434222221377,
    "motorSpeed": 894,
    "frontDensity": 3.200000047683716,
    "frontRadius": 0.5245249271392822,
    "frontOffset": 1.0916730165481568,
    "backDensity": 3.0,
    "backRadius": 0.49757829308509829,
    "backOffset": -1.3008121252059937,
    "score": 33,
    "maxDistance": 5,
    "maxTime": 2.0
}{
    "ID": 33393,
    "genomaID": "CV3TD9",
    "color": {
        "x": 0.6076138615608215,
        "y": 0.2100631296634674,
        "z": 0.02442515268921852
    },
    "vertexNumber": 3,
    "colliderVertices": [
        {
            "x": -1.4167654514312745,
            "y": -0.05450911074876785
        },
        {
            "x": 1.4079196453094483,
            "y": -0.3937686085700989
        },
        {
            "x": -1.247361660003662,
            "y": 0.22769761085510255
        }
    ],
    "triangles": [
        1,
        0,
        2
    ],
    "carDensity": 3.0,
    "suspension": 0.7439049482345581,
    "motorSpeed": 1483,
    "frontDensity": 2.799999952316284,
    "frontRadius": 0.4844636917114258,
    "frontOffset": 0.859416127204895,
    "backDensity": 3.299999952316284,
    "backRadius": 0.5326175689697266,
    "backOffset": -1.0299161672592164,
    "score": 0,
    "maxDistance": -1,
    "maxTime": 1.0
}