{
    "ID": 70262,
    "genomaID": "CV3TD12",
    "color": {
        "x": 0.439258873462677,
        "y": 0.6396306157112122,
        "z": 0.051986582577228549
    },
    "vertexNumber": 3,
    "colliderVertices": [
        {
            "x": -1.6214687824249268,
            "y": -0.08317125588655472
        },
        {
            "x": 1.2661044597625733,
            "y": -0.3657998740673065
        },
        {
            "x": -0.8836376667022705,
            "y": 0.7232869863510132
        }
    ],
    "triangles": [
        1,
        0,
        2
    ],
    "carDensity": 3.0,
    "suspension": 0.7053998112678528,
    "motorSpeed": 874,
    "frontDensity": 5.0,
    "frontRadius": 0.6967602372169495,
    "frontOffset": 0.7047954797744751,
    "backDensity": 3.799999952316284,
    "backRadius": 0.5774596929550171,
    "backOffset": -0.9374104738235474,
    "score": 918,
    "maxDistance": 834,
    "maxTime": 99.0
}{
    "ID": 70384,
    "genomaID": "CV3TD11",
    "color": {
        "x": 0.16989709436893464,
        "y": 0.05799604207277298,
        "z": 0.8000109195709229
    },
    "vertexNumber": 3,
    "colliderVertices": [
        {
            "x": -1.3322129249572755,
            "y": -0.3242015540599823
        },
        {
            "x": 1.406930685043335,
            "y": -0.39797013998031618
        },
        {
            "x": -1.7638306617736817,
            "y": 0.37279003858566286
        }
    ],
    "triangles": [
        1,
        0,
        2
    ],
    "carDensity": 3.0,
    "suspension": 0.5362638235092163,
    "motorSpeed": 856,
    "frontDensity": 4.900000095367432,
    "frontRadius": 0.6907195448875427,
    "frontOffset": 1.317898154258728,
    "backDensity": 3.299999952316284,
    "backRadius": 0.5253103375434876,
    "backOffset": -0.6087086200714111,
    "score": 913,
    "maxDistance": 834,
    "maxTime": 106.0
}{
    "ID": 70347,
    "genomaID": "CV3TD11",
    "color": {
        "x": 0.7199751734733582,
        "y": 0.10106755793094635,
        "z": 0.008763433434069157
    },
    "vertexNumber": 3,
    "colliderVertices": [
        {
            "x": -1.3322129249572755,
            "y": -0.3242015540599823
        },
        {
            "x": 1.406930685043335,
            "y": -0.39797013998031618
        },
        {
            "x": -1.7638306617736817,
            "y": 0.37279003858566286
        }
    ],
    "triangles": [
        1,
        0,
        2
    ],
    "carDensity": 3.0,
    "suspension": 0.4716870188713074,
    "motorSpeed": 877,
    "frontDensity": 4.800000190734863,
    "frontRadius": 0.6782652139663696,
    "frontOffset": 0.7344176769256592,
    "backDensity": 3.200000047683716,
    "backRadius": 0.5182422399520874,
    "backOffset": -1.3904178142547608,
    "score": 911,
    "maxDistance": 832,
    "maxTime": 105.0
}{
    "ID": 70237,
    "genomaID": "CV6TD14",
    "color": {
        "x": 0.1478743702173233,
        "y": 0.8366987705230713,
        "z": 0.7533611059188843
    },
    "vertexNumber": 6,
    "colliderVertices": [
        {
            "x": -1.9899853467941285,
            "y": -0.08013755828142166
        },
        {
            "x": 1.6418097019195557,
            "y": -0.35085102915763857
        },
        {
            "x": 1.1862754821777344,
            "y": 0.5314455628395081
        },
        {
            "x": 0.8163322806358337,
            "y": 0.37409859895706179
        },
        {
            "x": 0.701772153377533,
            "y": 0.6324636936187744
        },
        {
            "x": -1.3314847946166993,
            "y": 0.319070041179657
        }
    ],
    "triangles": [
        3,
        1,
        5,
        5,
        4,
        3,
        3,
        2,
        1,
        1,
        0,
        5
    ],
    "carDensity": 6.0,
    "suspension": 0.9915298819541931,
    "motorSpeed": 877,
    "frontDensity": 4.800000190734863,
    "frontRadius": 0.6782652139663696,
    "frontOffset": 1.0268114805221558,
    "backDensity": 3.200000047683716,
    "backRadius": 0.5198066234588623,
    "backOffset": -0.9573227167129517,
    "score": 0,
    "maxDistance": 0,
    "maxTime": 1.0
}{
    "ID": 70397,
    "genomaID": "CV3TD12",
    "color": {
        "x": 0.225060373544693,
        "y": 0.9318109750747681,
        "z": 0.6402801871299744
    },
    "vertexNumber": 3,
    "colliderVertices": [
        {
            "x": -1.6214687824249268,
            "y": -0.08317125588655472
        },
        {
            "x": 1.2661044597625733,
            "y": -0.3657998740673065
        },
        {
            "x": -0.8836376667022705,
            "y": 0.7232869863510132
        }
    ],
    "triangles": [
        1,
        0,
        2
    ],
    "carDensity": 3.0,
    "suspension": 0.40132787823677065,
    "motorSpeed": 1431,
    "frontDensity": 5.0,
    "frontRadius": 0.6967602372169495,
    "frontOffset": 0.7047954797744751,
    "backDensity": 3.5,
    "backRadius": 0.5492756366729736,
    "backOffset": -1.3988364934921265,
    "score": 0,
    "maxDistance": 0,
    "maxTime": 1.0
}