{
    "ID": 74900,
    "genomaID": "CV3TD12",
    "color": {
        "x": 0.8870282173156738,
        "y": 0.7666325569152832,
        "z": 0.8037217855453491
    },
    "vertexNumber": 3,
    "colliderVertices": [
        {
            "x": -1.6214687824249268,
            "y": -0.08317125588655472
        },
        {
            "x": 1.2661044597625733,
            "y": -0.3657998740673065
        },
        {
            "x": -0.8836376667022705,
            "y": 0.7232869863510132
        }
    ],
    "triangles": [
        1,
        0,
        2
    ],
    "carDensity": 3.0,
    "suspension": 0.9033604264259338,
    "motorSpeed": 884,
    "frontDensity": 4.900000095367432,
    "frontRadius": 0.69178706407547,
    "frontOffset": 0.6180622577667236,
    "backDensity": 3.5999999046325685,
    "backRadius": 0.564211905002594,
    "backOffset": -0.5648581981658936,
    "score": 917,
    "maxDistance": 834,
    "maxTime": 101.0
}{
    "ID": 74841,
    "genomaID": "CV3TD11",
    "color": {
        "x": 0.7170844674110413,
        "y": 0.5298733115196228,
        "z": 0.2514771521091461
    },
    "vertexNumber": 3,
    "colliderVertices": [
        {
            "x": -1.559657335281372,
            "y": -0.31580016016960146
        },
        {
            "x": 1.0767900943756104,
            "y": -0.10785074532032013
        },
        {
            "x": 0.2902243137359619,
            "y": 0.22379934787750245
        }
    ],
    "triangles": [
        1,
        0,
        2
    ],
    "carDensity": 3.0,
    "suspension": 0.5148228406906128,
    "motorSpeed": 879,
    "frontDensity": 4.599999904632568,
    "frontRadius": 0.6580511331558228,
    "frontOffset": 0.9274247884750366,
    "backDensity": 3.4000000953674318,
    "backRadius": 0.5423464775085449,
    "backOffset": -1.368510127067566,
    "score": 913,
    "maxDistance": 833,
    "maxTime": 104.0
}{
    "ID": 74990,
    "genomaID": "CV3TD11",
    "color": {
        "x": 0.7507197856903076,
        "y": 0.8040612936019898,
        "z": 0.3491741716861725
    },
    "vertexNumber": 3,
    "colliderVertices": [
        {
            "x": -1.559657335281372,
            "y": -0.31580016016960146
        },
        {
            "x": 1.0767900943756104,
            "y": -0.10785074532032013
        },
        {
            "x": 0.2902243137359619,
            "y": 0.22379934787750245
        }
    ],
    "triangles": [
        1,
        0,
        2
    ],
    "carDensity": 3.0,
    "suspension": 0.7526232600212097,
    "motorSpeed": 879,
    "frontDensity": 4.599999904632568,
    "frontRadius": 0.6580511331558228,
    "frontOffset": 1.0062116384506226,
    "backDensity": 3.4000000953674318,
    "backRadius": 0.5423464775085449,
    "backOffset": -1.1480696201324463,
    "score": 912,
    "maxDistance": 833,
    "maxTime": 106.0
}{
    "ID": 74867,
    "genomaID": "CV4TD12",
    "color": {
        "x": 0.22674980759620667,
        "y": 0.8923680782318115,
        "z": 0.5692136883735657
    },
    "vertexNumber": 4,
    "colliderVertices": [
        {
            "x": -1.3582420349121094,
            "y": -0.29501184821128847
        },
        {
            "x": 1.2524628639221192,
            "y": -0.469627320766449
        },
        {
            "x": -0.5606944561004639,
            "y": 0.04630172252655029
        },
        {
            "x": -0.6244795322418213,
            "y": 0.5301553606987
        }
    ],
    "triangles": [
        0,
        3,
        2,
        2,
        1,
        0
    ],
    "carDensity": 4.0,
    "suspension": 0.42177432775497439,
    "motorSpeed": 874,
    "frontDensity": 4.800000190734863,
    "frontRadius": 0.6820590496063232,
    "frontOffset": 1.0843011140823365,
    "backDensity": 2.799999952316284,
    "backRadius": 0.48468756675720217,
    "backOffset": -0.8564718961715698,
    "score": 9,
    "maxDistance": 2,
    "maxTime": 3.0
}{
    "ID": 74983,
    "genomaID": "CV3TD11",
    "color": {
        "x": 0.2559671700000763,
        "y": 0.6770469546318054,
        "z": 0.8205124139785767
    },
    "vertexNumber": 3,
    "colliderVertices": [
        {
            "x": -1.057054877281189,
            "y": -0.35621973872184756
        },
        {
            "x": 1.7085057497024537,
            "y": -0.03453940525650978
        },
        {
            "x": 1.5348567962646485,
            "y": 0.10351991653442383
        }
    ],
    "triangles": [
        1,
        0,
        2
    ],
    "carDensity": 3.0,
    "suspension": 0.4214129149913788,
    "motorSpeed": 856,
    "frontDensity": 4.5,
    "frontRadius": 0.648307740688324,
    "frontOffset": 0.5064663887023926,
    "backDensity": 3.799999952316284,
    "backRadius": 0.5793102383613586,
    "backOffset": -1.1486103534698487,
    "score": -11,
    "maxDistance": -1,
    "maxTime": 1.0
}