{
    "ID": 13548,
    "genomaID": "CV3TD11",
    "color": {
        "x": 0.6954454779624939,
        "y": 0.2025717794895172,
        "z": 0.3632669746875763
    },
    "vertexNumber": 3,
    "colliderVertices": [
        {
            "x": -1.4167654514312745,
            "y": -0.05450911074876785
        },
        {
            "x": 1.4079196453094483,
            "y": -0.3937686085700989
        },
        {
            "x": -1.247361660003662,
            "y": 0.22769761085510255
        }
    ],
    "triangles": [
        1,
        0,
        2
    ],
    "carDensity": 3.0,
    "suspension": 0.7749539017677307,
    "motorSpeed": 884,
    "frontDensity": 4.599999904632568,
    "frontRadius": 0.6598103046417236,
    "frontOffset": 1.1702723503112794,
    "backDensity": 3.4000000953674318,
    "backRadius": 0.5437036156654358,
    "backOffset": -1.1514619588851929,
    "score": 914,
    "maxDistance": 834,
    "maxTime": 104.0
}{
    "ID": 13404,
    "genomaID": "CV3TD10",
    "color": {
        "x": 0.24854424595832826,
        "y": 0.17415274679660798,
        "z": 0.6007692217826843
    },
    "vertexNumber": 3,
    "colliderVertices": [
        {
            "x": -1.5248527526855469,
            "y": -0.2602148950099945
        },
        {
            "x": 1.6755564212799073,
            "y": -0.03501361981034279
        },
        {
            "x": 1.9543952941894532,
            "y": 0.1029132604598999
        }
    ],
    "triangles": [
        1,
        0,
        2
    ],
    "carDensity": 3.0,
    "suspension": 0.9116572141647339,
    "motorSpeed": 740,
    "frontDensity": 3.700000047683716,
    "frontRadius": 0.5709809064865112,
    "frontOffset": 0.8396326303482056,
    "backDensity": 2.700000047683716,
    "backRadius": 0.4684402346611023,
    "backOffset": -1.0964127779006959,
    "score": 895,
    "maxDistance": 833,
    "maxTime": 134.0
}{
    "ID": 13556,
    "genomaID": "CV3TD9",
    "color": {
        "x": 0.31485822796821597,
        "y": 0.8940056562423706,
        "z": 0.03377378359436989
    },
    "vertexNumber": 3,
    "colliderVertices": [
        {
            "x": -1.589296817779541,
            "y": -0.2554645240306854
        },
        {
            "x": 1.4065015316009522,
            "y": -0.028183165937662126
        },
        {
            "x": -0.30598902702331545,
            "y": 0.4320104718208313
        }
    ],
    "triangles": [
        1,
        0,
        2
    ],
    "carDensity": 3.0,
    "suspension": 0.8940014839172363,
    "motorSpeed": 740,
    "frontDensity": 3.9000000953674318,
    "frontRadius": 0.5913468599319458,
    "frontOffset": 1.3506205081939698,
    "backDensity": 2.5,
    "backRadius": 0.44996124505996706,
    "backOffset": -1.2619640827178956,
    "score": 894,
    "maxDistance": 833,
    "maxTime": 136.0
}{
    "ID": 13447,
    "genomaID": "CV3TD9",
    "color": {
        "x": 0.30198433995246889,
        "y": 0.934977650642395,
        "z": 0.3096877634525299
    },
    "vertexNumber": 3,
    "colliderVertices": [
        {
            "x": -1.2970116138458253,
            "y": -0.07248581200838089
        },
        {
            "x": 1.8144965171813965,
            "y": -0.4567064642906189
        },
        {
            "x": 1.2742629051208497,
            "y": 0.9052640199661255
        }
    ],
    "triangles": [
        1,
        0,
        2
    ],
    "carDensity": 3.0,
    "suspension": 0.43830838799476626,
    "motorSpeed": 751,
    "frontDensity": 3.5,
    "frontRadius": 0.5501224398612976,
    "frontOffset": 0.7823298573493958,
    "backDensity": 2.200000047683716,
    "backRadius": 0.4245619773864746,
    "backOffset": -1.3147209882736207,
    "score": 27,
    "maxDistance": 4,
    "maxTime": 2.0
}{
    "ID": 13594,
    "genomaID": "CV3TD9",
    "color": {
        "x": 0.7795941829681397,
        "y": 0.2871544659137726,
        "z": 0.42937761545181277
    },
    "vertexNumber": 3,
    "colliderVertices": [
        {
            "x": -1.6257870197296143,
            "y": -0.008286000229418278
        },
        {
            "x": 1.5057270526885987,
            "y": -0.021743299439549447
        },
        {
            "x": -1.0265865325927735,
            "y": 0.1485193967819214
        }
    ],
    "triangles": [
        1,
        0,
        2
    ],
    "carDensity": 3.0,
    "suspension": 0.701848030090332,
    "motorSpeed": 884,
    "frontDensity": 4.300000190734863,
    "frontRadius": 0.62636399269104,
    "frontOffset": 0.5365711450576782,
    "backDensity": 2.200000047683716,
    "backRadius": 0.4219469130039215,
    "backOffset": -0.8152942061424255,
    "score": 0,
    "maxDistance": 0,
    "maxTime": 1.0
}