{
    "ID": 59621,
    "genomaID": "CV5TD14",
    "color": {
        "x": 0.32852211594581606,
        "y": 0.3939763903617859,
        "z": 0.050939805805683139
    },
    "vertexNumber": 5,
    "colliderVertices": [
        {
            "x": -1.7081711292266846,
            "y": -0.42384642362594607
        },
        {
            "x": 1.5040349960327149,
            "y": -0.24385562539100648
        },
        {
            "x": -0.3251197338104248,
            "y": 0.24204111099243165
        },
        {
            "x": -0.3885071277618408,
            "y": 0.11015975475311279
        },
        {
            "x": -0.4316885471343994,
            "y": 0.3555256724357605
        }
    ],
    "triangles": [
        3,
        1,
        0,
        0,
        4,
        3,
        3,
        2,
        1
    ],
    "carDensity": 5.0,
    "suspension": 0.6762399077415466,
    "motorSpeed": 879,
    "frontDensity": 4.900000095367432,
    "frontRadius": 0.689730167388916,
    "frontOffset": 1.0856331586837769,
    "backDensity": 3.700000047683716,
    "backRadius": 0.571502149105072,
    "backOffset": -1.2448692321777344,
    "score": 917,
    "maxDistance": 834,
    "maxTime": 100.0
}{
    "ID": 59753,
    "genomaID": "CV3TD11",
    "color": {
        "x": 0.22645524144172669,
        "y": 0.08218289166688919,
        "z": 0.5214018225669861
    },
    "vertexNumber": 3,
    "colliderVertices": [
        {
            "x": -1.3322129249572755,
            "y": -0.3242015540599823
        },
        {
            "x": 1.406930685043335,
            "y": -0.39797013998031618
        },
        {
            "x": -1.7638306617736817,
            "y": 0.37279003858566286
        }
    ],
    "triangles": [
        1,
        0,
        2
    ],
    "carDensity": 3.0,
    "suspension": 0.5359864234924316,
    "motorSpeed": 879,
    "frontDensity": 4.800000190734863,
    "frontRadius": 0.6832131743431091,
    "frontOffset": 1.1681898832321168,
    "backDensity": 3.200000047683716,
    "backRadius": 0.5220075845718384,
    "backOffset": -1.1023088693618775,
    "score": 914,
    "maxDistance": 834,
    "maxTime": 105.0
}{
    "ID": 59665,
    "genomaID": "CV3TD11",
    "color": {
        "x": 0.2190650999546051,
        "y": 0.819962739944458,
        "z": 0.1384425312280655
    },
    "vertexNumber": 3,
    "colliderVertices": [
        {
            "x": -1.3322129249572755,
            "y": -0.3242015540599823
        },
        {
            "x": 1.406930685043335,
            "y": -0.39797013998031618
        },
        {
            "x": -1.7638306617736817,
            "y": 0.37279003858566286
        }
    ],
    "triangles": [
        1,
        0,
        2
    ],
    "carDensity": 3.0,
    "suspension": 0.9065412282943726,
    "motorSpeed": 879,
    "frontDensity": 4.800000190734863,
    "frontRadius": 0.6832131743431091,
    "frontOffset": 1.4061893224716187,
    "backDensity": 2.9000000953674318,
    "backRadius": 0.49024656414985659,
    "backOffset": -0.7412132024765015,
    "score": 912,
    "maxDistance": 833,
    "maxTime": 106.0
}{
    "ID": 59702,
    "genomaID": "CV3TD11",
    "color": {
        "x": 0.5671970248222351,
        "y": 0.8228640556335449,
        "z": 0.031154993921518327
    },
    "vertexNumber": 3,
    "colliderVertices": [
        {
            "x": -1.3322129249572755,
            "y": -0.3242015540599823
        },
        {
            "x": 1.406930685043335,
            "y": -0.39797013998031618
        },
        {
            "x": -1.7638306617736817,
            "y": 0.37279003858566286
        }
    ],
    "triangles": [
        1,
        0,
        2
    ],
    "carDensity": 3.0,
    "suspension": 0.6996212601661682,
    "motorSpeed": 879,
    "frontDensity": 4.800000190734863,
    "frontRadius": 0.6832131743431091,
    "frontOffset": 1.1417768001556397,
    "backDensity": 3.299999952316284,
    "backRadius": 0.529460072517395,
    "backOffset": -0.5372655391693115,
    "score": 13,
    "maxDistance": 2,
    "maxTime": 2.0
}{
    "ID": 59799,
    "genomaID": "CV3TD12",
    "color": {
        "x": 0.6575701832771301,
        "y": 0.868037223815918,
        "z": 0.03163004294037819
    },
    "vertexNumber": 3,
    "colliderVertices": [
        {
            "x": -1.3322129249572755,
            "y": -0.3242015540599823
        },
        {
            "x": 1.406930685043335,
            "y": -0.39797013998031618
        },
        {
            "x": -1.7638306617736817,
            "y": 0.37279003858566286
        }
    ],
    "triangles": [
        1,
        0,
        2
    ],
    "carDensity": 3.0,
    "suspension": 0.655815064907074,
    "motorSpeed": 1079,
    "frontDensity": 4.900000095367432,
    "frontRadius": 0.6907195448875427,
    "frontOffset": 1.2975128889083863,
    "backDensity": 3.5,
    "backRadius": 0.5492756366729736,
    "backOffset": -0.5589526891708374,
    "score": 0,
    "maxDistance": 0,
    "maxTime": 1.0
}