{
    "ID": 75256,
    "genomaID": "CV3TD12",
    "color": {
        "x": 0.8817833662033081,
        "y": 0.5256525874137878,
        "z": 0.8587871789932251
    },
    "vertexNumber": 3,
    "colliderVertices": [
        {
            "x": -1.6214687824249268,
            "y": -0.08317125588655472
        },
        {
            "x": 1.2661044597625733,
            "y": -0.3657998740673065
        },
        {
            "x": -0.8836376667022705,
            "y": 0.7232869863510132
        }
    ],
    "triangles": [
        1,
        0,
        2
    ],
    "carDensity": 3.0,
    "suspension": 0.999015748500824,
    "motorSpeed": 873,
    "frontDensity": 4.900000095367432,
    "frontRadius": 0.69178706407547,
    "frontOffset": 1.2053086757659913,
    "backDensity": 3.5,
    "backRadius": 0.5492756366729736,
    "backOffset": -0.753470242023468,
    "score": 915,
    "maxDistance": 833,
    "maxTime": 102.0
}{
    "ID": 75367,
    "genomaID": "CV3TD11",
    "color": {
        "x": 0.5547659993171692,
        "y": 0.021510722115635873,
        "z": 0.2571893036365509
    },
    "vertexNumber": 3,
    "colliderVertices": [
        {
            "x": -1.3322129249572755,
            "y": -0.3242015540599823
        },
        {
            "x": 1.406930685043335,
            "y": -0.39797013998031618
        },
        {
            "x": -1.7638306617736817,
            "y": 0.37279003858566286
        }
    ],
    "triangles": [
        1,
        0,
        2
    ],
    "carDensity": 3.0,
    "suspension": 0.9207016229629517,
    "motorSpeed": 856,
    "frontDensity": 4.699999809265137,
    "frontRadius": 0.672734797000885,
    "frontOffset": 1.3360694646835328,
    "backDensity": 3.299999952316284,
    "backRadius": 0.5253103375434876,
    "backOffset": -1.1744849681854249,
    "score": 912,
    "maxDistance": 834,
    "maxTime": 107.0
}{
    "ID": 75298,
    "genomaID": "CV3TD11",
    "color": {
        "x": 0.2689395248889923,
        "y": 0.36797836422920229,
        "z": 0.9883663654327393
    },
    "vertexNumber": 3,
    "colliderVertices": [
        {
            "x": -1.4517676830291749,
            "y": -0.3785870671272278
        },
        {
            "x": 1.0073214769363404,
            "y": -0.056303925812244418
        },
        {
            "x": 0.1018216609954834,
            "y": 0.5950250029563904
        }
    ],
    "triangles": [
        1,
        0,
        2
    ],
    "carDensity": 3.0,
    "suspension": 0.9419798254966736,
    "motorSpeed": 850,
    "frontDensity": 4.900000095367432,
    "frontRadius": 0.6907195448875427,
    "frontOffset": 0.8913203477859497,
    "backDensity": 3.200000047683716,
    "backRadius": 0.5151488780975342,
    "backOffset": -1.1137582063674927,
    "score": 908,
    "maxDistance": 830,
    "maxTime": 106.0
}{
    "ID": 75251,
    "genomaID": "CV5TD13",
    "color": {
        "x": 0.32096853852272036,
        "y": 0.557489812374115,
        "z": 0.332051545381546
    },
    "vertexNumber": 5,
    "colliderVertices": [
        {
            "x": -1.8092142343521119,
            "y": -0.19932010769844056
        },
        {
            "x": 1.4205670356750489,
            "y": -0.08725769072771073
        },
        {
            "x": 1.7604870796203614,
            "y": 0.3394177556037903
        },
        {
            "x": 1.7570528984069825,
            "y": 0.05813944339752197
        },
        {
            "x": 0.6947669386863709,
            "y": 0.3098757863044739
        }
    ],
    "triangles": [
        4,
        0,
        1,
        3,
        4,
        1
    ],
    "carDensity": 5.0,
    "suspension": 0.77543044090271,
    "motorSpeed": 874,
    "frontDensity": 4.900000095367432,
    "frontRadius": 0.69178706407547,
    "frontOffset": 0.9826565980911255,
    "backDensity": 2.799999952316284,
    "backRadius": 0.4794853925704956,
    "backOffset": -1.2922857999801636,
    "score": 0,
    "maxDistance": 0,
    "maxTime": 0.0
}{
    "ID": 75281,
    "genomaID": "CV3TD9",
    "color": {
        "x": 0.6724112629890442,
        "y": 0.740196168422699,
        "z": 0.6691412329673767
    },
    "vertexNumber": 3,
    "colliderVertices": [
        {
            "x": -1.3322129249572755,
            "y": -0.3242015540599823
        },
        {
            "x": 1.406930685043335,
            "y": -0.39797013998031618
        },
        {
            "x": -1.7638306617736817,
            "y": 0.37279003858566286
        }
    ],
    "triangles": [
        1,
        0,
        2
    ],
    "carDensity": 3.0,
    "suspension": 0.5520979166030884,
    "motorSpeed": 1102,
    "frontDensity": 2.9000000953674318,
    "frontRadius": 0.48989933729171755,
    "frontOffset": 0.7642261385917664,
    "backDensity": 3.200000047683716,
    "backRadius": 0.5198066234588623,
    "backOffset": -0.9891422986984253,
    "score": -11,
    "maxDistance": -1,
    "maxTime": 1.0
}