{
    "ID": 61841,
    "genomaID": "CV3TD12",
    "color": {
        "x": 0.7170844674110413,
        "y": 0.5298733115196228,
        "z": 0.2514771521091461
    },
    "vertexNumber": 3,
    "colliderVertices": [
        {
            "x": -1.3322129249572755,
            "y": -0.3242015540599823
        },
        {
            "x": 1.406930685043335,
            "y": -0.39797013998031618
        },
        {
            "x": -1.7638306617736817,
            "y": 0.37279003858566286
        }
    ],
    "triangles": [
        1,
        0,
        2
    ],
    "carDensity": 3.0,
    "suspension": 0.7244403958320618,
    "motorSpeed": 879,
    "frontDensity": 4.599999904632568,
    "frontRadius": 0.6645531058311462,
    "frontOffset": 0.7678360342979431,
    "backDensity": 3.9000000953674318,
    "backRadius": 0.594505786895752,
    "backOffset": -0.7614291310310364,
    "score": 918,
    "maxDistance": 833,
    "maxTime": 98.0
}{
    "ID": 61917,
    "genomaID": "CV3TD12",
    "color": {
        "x": 0.5640771985054016,
        "y": 0.2259691059589386,
        "z": 0.8355618715286255
    },
    "vertexNumber": 3,
    "colliderVertices": [
        {
            "x": -1.3322129249572755,
            "y": -0.3242015540599823
        },
        {
            "x": 1.406930685043335,
            "y": -0.39797013998031618
        },
        {
            "x": -1.7638306617736817,
            "y": 0.37279003858566286
        }
    ],
    "triangles": [
        1,
        0,
        2
    ],
    "carDensity": 3.0,
    "suspension": 0.7352713346481323,
    "motorSpeed": 874,
    "frontDensity": 4.900000095367432,
    "frontRadius": 0.6907195448875427,
    "frontOffset": 0.9018663167953491,
    "backDensity": 3.5,
    "backRadius": 0.5492756366729736,
    "backOffset": -0.6154242753982544,
    "score": 915,
    "maxDistance": 833,
    "maxTime": 102.0
}{
    "ID": 61990,
    "genomaID": "CV3TD11",
    "color": {
        "x": 0.7507197856903076,
        "y": 0.8040612936019898,
        "z": 0.3491741716861725
    },
    "vertexNumber": 3,
    "colliderVertices": [
        {
            "x": -1.3322129249572755,
            "y": -0.3242015540599823
        },
        {
            "x": 1.406930685043335,
            "y": -0.39797013998031618
        },
        {
            "x": -1.7638306617736817,
            "y": 0.37279003858566286
        }
    ],
    "triangles": [
        1,
        0,
        2
    ],
    "carDensity": 3.0,
    "suspension": 0.646091878414154,
    "motorSpeed": 879,
    "frontDensity": 4.800000190734863,
    "frontRadius": 0.6832131743431091,
    "frontOffset": 1.0187565088272095,
    "backDensity": 3.200000047683716,
    "backRadius": 0.5204463005065918,
    "backOffset": -0.6869202852249146,
    "score": 914,
    "maxDistance": 834,
    "maxTime": 104.0
}{
    "ID": 61932,
    "genomaID": "CV3TD9",
    "color": {
        "x": 0.9758309125900269,
        "y": 0.38954585790634158,
        "z": 0.8788208961486816
    },
    "vertexNumber": 3,
    "colliderVertices": [
        {
            "x": -1.04397451877594,
            "y": -0.4776389002799988
        },
        {
            "x": 1.170884370803833,
            "y": -0.17476655542850495
        },
        {
            "x": -0.9889185428619385,
            "y": 0.4071713089942932
        }
    ],
    "triangles": [
        1,
        0,
        2
    ],
    "carDensity": 3.0,
    "suspension": 0.8904292583465576,
    "motorSpeed": 879,
    "frontDensity": 3.200000047683716,
    "frontRadius": 0.5234380960464478,
    "frontOffset": 0.8405243158340454,
    "backDensity": 3.200000047683716,
    "backRadius": 0.5160125494003296,
    "backOffset": -1.4091262817382813,
    "score": 8,
    "maxDistance": 1,
    "maxTime": 1.0
}{
    "ID": 61999,
    "genomaID": "CV3TD12",
    "color": {
        "x": 0.6575701832771301,
        "y": 0.868037223815918,
        "z": 0.03163004294037819
    },
    "vertexNumber": 3,
    "colliderVertices": [
        {
            "x": -1.3322129249572755,
            "y": -0.3242015540599823
        },
        {
            "x": 1.406930685043335,
            "y": -0.39797013998031618
        },
        {
            "x": -1.7638306617736817,
            "y": 0.37279003858566286
        }
    ],
    "triangles": [
        1,
        0,
        2
    ],
    "carDensity": 3.0,
    "suspension": 0.7352713346481323,
    "motorSpeed": 1374,
    "frontDensity": 4.900000095367432,
    "frontRadius": 0.6907195448875427,
    "frontOffset": 0.9018663167953491,
    "backDensity": 3.5,
    "backRadius": 0.5492756366729736,
    "backOffset": -0.6154242753982544,
    "score": 0,
    "maxDistance": 0,
    "maxTime": 1.0
}