{
    "ID": 26587,
    "genomaID": "CV3TD11",
    "color": {
        "x": 0.7706644535064697,
        "y": 0.6154133677482605,
        "z": 0.4819989800453186
    },
    "vertexNumber": 3,
    "colliderVertices": [
        {
            "x": -1.4167654514312745,
            "y": -0.05450911074876785
        },
        {
            "x": 1.4079196453094483,
            "y": -0.3937686085700989
        },
        {
            "x": -1.247361660003662,
            "y": 0.22769761085510255
        }
    ],
    "triangles": [
        1,
        0,
        2
    ],
    "carDensity": 3.0,
    "suspension": 0.5507190823554993,
    "motorSpeed": 897,
    "frontDensity": 4.699999809265137,
    "frontRadius": 0.6665397882461548,
    "frontOffset": 1.3152928352355958,
    "backDensity": 3.299999952316284,
    "backRadius": 0.5276777744293213,
    "backOffset": -0.6196798086166382,
    "score": 915,
    "maxDistance": 833,
    "maxTime": 102.0
}{
    "ID": 26495,
    "genomaID": "CV3TD10",
    "color": {
        "x": 0.4879758954048157,
        "y": 0.6131840348243713,
        "z": 0.16286469995975495
    },
    "vertexNumber": 3,
    "colliderVertices": [
        {
            "x": -1.4167654514312745,
            "y": -0.05450911074876785
        },
        {
            "x": 1.4079196453094483,
            "y": -0.3937686085700989
        },
        {
            "x": -1.247361660003662,
            "y": 0.22769761085510255
        }
    ],
    "triangles": [
        1,
        0,
        2
    ],
    "carDensity": 3.0,
    "suspension": 0.9901306629180908,
    "motorSpeed": 884,
    "frontDensity": 4.5,
    "frontRadius": 0.6487516760826111,
    "frontOffset": 0.9910515546798706,
    "backDensity": 3.299999952316284,
    "backRadius": 0.5281961560249329,
    "backOffset": -0.7163616418838501,
    "score": 912,
    "maxDistance": 832,
    "maxTime": 104.0
}{
    "ID": 26595,
    "genomaID": "CV3TD10",
    "color": {
        "x": 0.8922040462493897,
        "y": 0.16881419718265534,
        "z": 0.9950582981109619
    },
    "vertexNumber": 3,
    "colliderVertices": [
        {
            "x": -1.4167654514312745,
            "y": -0.05450911074876785
        },
        {
            "x": 1.4079196453094483,
            "y": -0.3937686085700989
        },
        {
            "x": -1.247361660003662,
            "y": 0.22769761085510255
        }
    ],
    "triangles": [
        1,
        0,
        2
    ],
    "carDensity": 3.0,
    "suspension": 0.8116516470909119,
    "motorSpeed": 892,
    "frontDensity": 4.599999904632568,
    "frontRadius": 0.655458927154541,
    "frontOffset": 1.2058961391448975,
    "backDensity": 2.299999952316284,
    "backRadius": 0.43389758467674258,
    "backOffset": -0.9648927450180054,
    "score": 911,
    "maxDistance": 833,
    "maxTime": 107.0
}{
    "ID": 26471,
    "genomaID": "CV3TD10",
    "color": {
        "x": 0.8632849454879761,
        "y": 0.699835479259491,
        "z": 0.17797733843326569
    },
    "vertexNumber": 3,
    "colliderVertices": [
        {
            "x": -1.4167654514312745,
            "y": -0.05450911074876785
        },
        {
            "x": 1.4079196453094483,
            "y": -0.3937686085700989
        },
        {
            "x": -1.247361660003662,
            "y": 0.22769761085510255
        }
    ],
    "triangles": [
        1,
        0,
        2
    ],
    "carDensity": 3.0,
    "suspension": 0.4870489835739136,
    "motorSpeed": 857,
    "frontDensity": 4.300000190734863,
    "frontRadius": 0.6261888146400452,
    "frontOffset": 1.3742339611053467,
    "backDensity": 3.299999952316284,
    "backRadius": 0.5309875011444092,
    "backOffset": -1.4751780033111573,
    "score": 26,
    "maxDistance": 4,
    "maxTime": 2.0
}{
    "ID": 26599,
    "genomaID": "CV4TD13",
    "color": {
        "x": 0.6575701832771301,
        "y": 0.868037223815918,
        "z": 0.03163004294037819
    },
    "vertexNumber": 4,
    "colliderVertices": [
        {
            "x": -1.9368984699249268,
            "y": -0.4213833808898926
        },
        {
            "x": 1.7552380561828614,
            "y": -0.13954545557498933
        },
        {
            "x": 1.281325340270996,
            "y": 0.9207886457443237
        },
        {
            "x": -0.5163238048553467,
            "y": 0.3914104104042053
        }
    ],
    "triangles": [
        3,
        2,
        1,
        1,
        0,
        3
    ],
    "carDensity": 4.0,
    "suspension": 0.4663371741771698,
    "motorSpeed": 884,
    "frontDensity": 4.5,
    "frontRadius": 0.6487516760826111,
    "frontOffset": 1.1902875900268555,
    "backDensity": 4.900000095367432,
    "backRadius": 0.6918696761131287,
    "backOffset": -0.8010949492454529,
    "score": 0,
    "maxDistance": 0,
    "maxTime": 1.0
}