{
    "ID": 92860,
    "genomaID": "CV3TD12",
    "color": {
        "x": 0.17101825773715974,
        "y": 0.9460158348083496,
        "z": 0.36645153164863589
    },
    "vertexNumber": 3,
    "colliderVertices": [
        {
            "x": -1.448728084564209,
            "y": -0.4206351041793823
        },
        {
            "x": 1.2341947555541993,
            "y": -0.4096236228942871
        },
        {
            "x": -0.7727158069610596,
            "y": 0.05484116077423096
        }
    ],
    "triangles": [
        1,
        0,
        2
    ],
    "carDensity": 3.0,
    "suspension": 0.6999935507774353,
    "motorSpeed": 850,
    "frontDensity": 4.900000095367432,
    "frontRadius": 0.6907195448875427,
    "frontOffset": 1.08210289478302,
    "backDensity": 3.799999952316284,
    "backRadius": 0.5821859836578369,
    "backOffset": -1.4803638458251954,
    "score": 915,
    "maxDistance": 833,
    "maxTime": 102.0
}{
    "ID": 92866,
    "genomaID": "CV3TD11",
    "color": {
        "x": 0.8610556125640869,
        "y": 0.17619766294956208,
        "z": 0.9127825498580933
    },
    "vertexNumber": 3,
    "colliderVertices": [
        {
            "x": -1.24593186378479,
            "y": -0.17356999218463899
        },
        {
            "x": 1.4254326820373536,
            "y": -0.31066444516181948
        },
        {
            "x": -1.0050806999206544,
            "y": 0.2958831191062927
        }
    ],
    "triangles": [
        1,
        0,
        2
    ],
    "carDensity": 3.0,
    "suspension": 0.8878107070922852,
    "motorSpeed": 850,
    "frontDensity": 4.900000095367432,
    "frontRadius": 0.6943543553352356,
    "frontOffset": 0.5996212959289551,
    "backDensity": 2.5999999046325685,
    "backRadius": 0.4578041136264801,
    "backOffset": -1.3429861068725587,
    "score": 911,
    "maxDistance": 832,
    "maxTime": 106.0
}{
    "ID": 92928,
    "genomaID": "CV3TD10",
    "color": {
        "x": 0.3861667513847351,
        "y": 0.2903912365436554,
        "z": 0.5744612812995911
    },
    "vertexNumber": 3,
    "colliderVertices": [
        {
            "x": -1.448728084564209,
            "y": -0.4206351041793823
        },
        {
            "x": 1.2341947555541993,
            "y": -0.4096236228942871
        },
        {
            "x": -0.7727158069610596,
            "y": 0.05484116077423096
        }
    ],
    "triangles": [
        1,
        0,
        2
    ],
    "carDensity": 3.0,
    "suspension": 0.8730594515800476,
    "motorSpeed": 850,
    "frontDensity": 4.900000095367432,
    "frontRadius": 0.6907195448875427,
    "frontOffset": 1.1266396045684815,
    "backDensity": 2.0999999046325685,
    "backRadius": 0.4108831584453583,
    "backOffset": -1.3386237621307374,
    "score": 907,
    "maxDistance": 828,
    "maxTime": 105.0
}{
    "ID": 92811,
    "genomaID": "CV3TD10",
    "color": {
        "x": 0.13525451719760896,
        "y": 0.5760844349861145,
        "z": 0.020704152062535287
    },
    "vertexNumber": 3,
    "colliderVertices": [
        {
            "x": -1.448728084564209,
            "y": -0.4206351041793823
        },
        {
            "x": 1.2341947555541993,
            "y": -0.4096236228942871
        },
        {
            "x": -0.7727158069610596,
            "y": 0.05484116077423096
        }
    ],
    "triangles": [
        1,
        0,
        2
    ],
    "carDensity": 3.0,
    "suspension": 0.6266824007034302,
    "motorSpeed": 850,
    "frontDensity": 4.900000095367432,
    "frontRadius": 0.6907195448875427,
    "frontOffset": 1.0028845071792603,
    "backDensity": 2.0999999046325685,
    "backRadius": 0.41143953800201418,
    "backOffset": -1.2692713737487794,
    "score": 0,
    "maxDistance": 0,
    "maxTime": 0.0
}{
    "ID": 92996,
    "genomaID": "CV3TD11",
    "color": {
        "x": 0.04487193003296852,
        "y": 0.9218603372573853,
        "z": 0.05435562878847122
    },
    "vertexNumber": 3,
    "colliderVertices": [
        {
            "x": -1.24593186378479,
            "y": -0.17356999218463899
        },
        {
            "x": 1.4254326820373536,
            "y": -0.31066444516181948
        },
        {
            "x": -1.0050806999206544,
            "y": 0.2958831191062927
        }
    ],
    "triangles": [
        1,
        0,
        2
    ],
    "carDensity": 3.0,
    "suspension": 0.620246410369873,
    "motorSpeed": 720,
    "frontDensity": 4.599999904632568,
    "frontRadius": 0.6589146256446838,
    "frontOffset": 1.0375577211380005,
    "backDensity": 3.0,
    "backRadius": 0.5026759505271912,
    "backOffset": -1.1205440759658814,
    "score": 0,
    "maxDistance": 0,
    "maxTime": 1.0
}