{
    "ID": 51325,
    "genomaID": "CV3TD13",
    "color": {
        "x": 0.07924724370241165,
        "y": 0.9539177417755127,
        "z": 0.12339510023593903
    },
    "vertexNumber": 3,
    "colliderVertices": [
        {
            "x": -1.3322129249572755,
            "y": -0.3242015540599823
        },
        {
            "x": 1.406930685043335,
            "y": -0.39797013998031618
        },
        {
            "x": -1.7638306617736817,
            "y": 0.37279003858566286
        }
    ],
    "triangles": [
        1,
        0,
        2
    ],
    "carDensity": 3.0,
    "suspension": 0.5189334154129028,
    "motorSpeed": 874,
    "frontDensity": 4.800000190734863,
    "frontRadius": 0.6772812604904175,
    "frontOffset": 1.012877106666565,
    "backDensity": 5.0,
    "backRadius": 0.6988282203674316,
    "backOffset": -1.3890571594238282,
    "score": 917,
    "maxDistance": 828,
    "maxTime": 93.0
}{
    "ID": 51261,
    "genomaID": "CV3TD11",
    "color": {
        "x": 0.6438841223716736,
        "y": 0.48220139741897585,
        "z": 0.8416275978088379
    },
    "vertexNumber": 3,
    "colliderVertices": [
        {
            "x": -1.407301425933838,
            "y": -0.4665845036506653
        },
        {
            "x": 1.7052741050720215,
            "y": -0.32898566126823428
        },
        {
            "x": -1.6915535926818848,
            "y": 0.16745412349700929
        }
    ],
    "triangles": [
        1,
        0,
        2
    ],
    "carDensity": 3.0,
    "suspension": 0.6245365142822266,
    "motorSpeed": 888,
    "frontDensity": 4.800000190734863,
    "frontRadius": 0.6772812604904175,
    "frontOffset": 1.0578643083572388,
    "backDensity": 3.200000047683716,
    "backRadius": 0.5184824466705322,
    "backOffset": -0.71539306640625,
    "score": 913,
    "maxDistance": 833,
    "maxTime": 104.0
}{
    "ID": 51355,
    "genomaID": "CV3TD11",
    "color": {
        "x": 0.6901889443397522,
        "y": 0.18011166155338288,
        "z": 0.05117417126893997
    },
    "vertexNumber": 3,
    "colliderVertices": [
        {
            "x": -1.3322129249572755,
            "y": -0.3242015540599823
        },
        {
            "x": 1.406930685043335,
            "y": -0.39797013998031618
        },
        {
            "x": -1.7638306617736817,
            "y": 0.37279003858566286
        }
    ],
    "triangles": [
        1,
        0,
        2
    ],
    "carDensity": 3.0,
    "suspension": 0.7241548299789429,
    "motorSpeed": 879,
    "frontDensity": 4.800000190734863,
    "frontRadius": 0.6832131743431091,
    "frontOffset": 1.3100416660308838,
    "backDensity": 3.299999952316284,
    "backRadius": 0.5302814841270447,
    "backOffset": -1.2420237064361573,
    "score": 912,
    "maxDistance": 832,
    "maxTime": 104.0
}{
    "ID": 51210,
    "genomaID": "CV3TD11",
    "color": {
        "x": 0.2862115204334259,
        "y": 0.15781904757022859,
        "z": 0.12420190870761872
    },
    "vertexNumber": 3,
    "colliderVertices": [
        {
            "x": -1.3322129249572755,
            "y": -0.3242015540599823
        },
        {
            "x": 1.406930685043335,
            "y": -0.39797013998031618
        },
        {
            "x": -1.7638306617736817,
            "y": 0.37279003858566286
        }
    ],
    "triangles": [
        1,
        0,
        2
    ],
    "carDensity": 3.0,
    "suspension": 0.44031283259391787,
    "motorSpeed": 1185,
    "frontDensity": 4.900000095367432,
    "frontRadius": 0.694540798664093,
    "frontOffset": 0.9072889089584351,
    "backDensity": 2.799999952316284,
    "backRadius": 0.475730299949646,
    "backOffset": -1.1182376146316529,
    "score": 0,
    "maxDistance": 0,
    "maxTime": 1.0
}{
    "ID": 51398,
    "genomaID": "CV3TD11",
    "color": {
        "x": 0.7236726880073547,
        "y": 0.13623930513858796,
        "z": 0.8786298036575317
    },
    "vertexNumber": 3,
    "colliderVertices": [
        {
            "x": -1.3322129249572755,
            "y": -0.3242015540599823
        },
        {
            "x": 1.406930685043335,
            "y": -0.39797013998031618
        },
        {
            "x": -1.7638306617736817,
            "y": 0.37279003858566286
        }
    ],
    "triangles": [
        1,
        0,
        2
    ],
    "carDensity": 3.0,
    "suspension": 0.7762672305107117,
    "motorSpeed": 879,
    "frontDensity": 4.900000095367432,
    "frontRadius": 0.694540798664093,
    "frontOffset": 0.8916653394699097,
    "backDensity": 3.0,
    "backRadius": 0.4952898621559143,
    "backOffset": -0.6696772575378418,
    "score": 0,
    "maxDistance": 0,
    "maxTime": 1.0
}