{
    "ID": 212,
    "genomaID": "CV5TD11",
    "color": {
        "x": 0.03325570002198219,
        "y": 0.9501603841781616,
        "z": 0.32562246918678286
    },
    "vertexNumber": 5,
    "colliderVertices": [
        {
            "x": -1.7176902294158936,
            "y": -0.26654574275016787
        },
        {
            "x": 1.451763391494751,
            "y": -0.28060051798820498
        },
        {
            "x": 0.23310494422912599,
            "y": 0.9674450159072876
        },
        {
            "x": -0.1672194004058838,
            "y": 0.506209671497345
        },
        {
            "x": -1.714566707611084,
            "y": 0.053977131843566897
        }
    ],
    "triangles": [
        1,
        4,
        3,
        3,
        2,
        1,
        1,
        0,
        4
    ],
    "carDensity": 5.0,
    "suspension": 0.47049760818481448,
    "motorSpeed": 807,
    "frontDensity": 3.700000047683716,
    "frontRadius": 0.57136070728302,
    "frontOffset": 1.3601484298706055,
    "backDensity": 2.0999999046325685,
    "backRadius": 0.4060116410255432,
    "backOffset": -0.8363841772079468,
    "score": 894,
    "maxDistance": 833,
    "maxTime": 137.0
}{
    "ID": 285,
    "genomaID": "CV6TD13",
    "color": {
        "x": 0.5038884282112122,
        "y": 0.940292239189148,
        "z": 0.5253804326057434
    },
    "vertexNumber": 6,
    "colliderVertices": [
        {
            "x": -1.954736590385437,
            "y": -0.01310885138809681
        },
        {
            "x": 1.5640344619750977,
            "y": -0.2956887185573578
        },
        {
            "x": -0.13170742988586427,
            "y": 0.6962820291519165
        },
        {
            "x": -0.8324992656707764,
            "y": 0.9951033592224121
        },
        {
            "x": -1.2509584426879883,
            "y": 0.1006326675415039
        },
        {
            "x": -1.4110007286071778,
            "y": 0.9309601783752441
        }
    ],
    "triangles": [
        1,
        0,
        4,
        4,
        3,
        1,
        0,
        5,
        4,
        3,
        2,
        1
    ],
    "carDensity": 6.0,
    "suspension": 0.8348730802536011,
    "motorSpeed": 659,
    "frontDensity": 2.9000000953674318,
    "frontRadius": 0.49066412448883059,
    "frontOffset": 0.9587305784225464,
    "backDensity": 3.5,
    "backRadius": 0.546396791934967,
    "backOffset": -1.3667690753936768,
    "score": 164,
    "maxDistance": 111,
    "maxTime": 21.0
}{
    "ID": 318,
    "genomaID": "CV6TD15",
    "color": {
        "x": 0.8351825475692749,
        "y": 0.6088482737541199,
        "z": 0.9782909154891968
    },
    "vertexNumber": 6,
    "colliderVertices": [
        {
            "x": -1.1932551860809327,
            "y": -0.16036303341388703
        },
        {
            "x": 1.1533924341201783,
            "y": -0.09537793695926666
        },
        {
            "x": 1.540400505065918,
            "y": 0.5158050656318665
        },
        {
            "x": 1.4826679229736329,
            "y": 0.9684512615203857
        },
        {
            "x": 1.4531903266906739,
            "y": 0.4544258713722229
        },
        {
            "x": 1.3718938827514649,
            "y": 0.990818977355957
        }
    ],
    "triangles": [
        4,
        2,
        1,
        1,
        5,
        4,
        4,
        3,
        2,
        1,
        0,
        5
    ],
    "carDensity": 6.0,
    "suspension": 0.4086458086967468,
    "motorSpeed": 579,
    "frontDensity": 4.099999904632568,
    "frontRadius": 0.6079129576683044,
    "frontOffset": 1.3577783107757569,
    "backDensity": 5.0,
    "backRadius": 0.6969648599624634,
    "backOffset": -1.2841237783432007,
    "score": 26,
    "maxDistance": 4,
    "maxTime": 2.0
}{
    "ID": 208,
    "genomaID": "CV4TD10",
    "color": {
        "x": 0.021262289956212045,
        "y": 0.27244940400123598,
        "z": 0.6636649966239929
    },
    "vertexNumber": 4,
    "colliderVertices": [
        {
            "x": -1.2272217273712159,
            "y": -0.10442329943180084
        },
        {
            "x": 1.6032733917236329,
            "y": -0.4423856735229492
        },
        {
            "x": -1.3285398483276368,
            "y": 0.4073238968849182
        },
        {
            "x": -1.5057520866394044,
            "y": 0.8654681444168091
        }
    ],
    "triangles": [
        0,
        3,
        2,
        2,
        1,
        0
    ],
    "carDensity": 4.0,
    "suspension": 0.8073989152908325,
    "motorSpeed": 1049,
    "frontDensity": 4.199999809265137,
    "frontRadius": 0.6249286532402039,
    "frontOffset": 1.0035701990127564,
    "backDensity": 2.5,
    "backRadius": 0.4453020691871643,
    "backOffset": -0.509520411491394,
    "score": 0,
    "maxDistance": 0,
    "maxTime": 1.0
}{
    "ID": 399,
    "genomaID": "CV6TD14",
    "color": {
        "x": 0.6575701832771301,
        "y": 0.868037223815918,
        "z": 0.03163004294037819
    },
    "vertexNumber": 6,
    "colliderVertices": [
        {
            "x": -1.5544908046722413,
            "y": -0.1510680466890335
        },
        {
            "x": 1.0434590578079224,
            "y": -0.04282683506608009
        },
        {
            "x": 1.986173152923584,
            "y": 0.248893141746521
        },
        {
            "x": 1.5920915603637696,
            "y": 0.8991022109985352
        },
        {
            "x": 1.212623119354248,
            "y": 0.3091732859611511
        },
        {
            "x": -1.7733125686645508,
            "y": 0.5630841851234436
        }
    ],
    "triangles": [
        4,
        3,
        1,
        1,
        5,
        4,
        3,
        2,
        1,
        1,
        0,
        5
    ],
    "carDensity": 6.0,
    "suspension": 0.9706858396530151,
    "motorSpeed": 772,
    "frontDensity": 4.099999904632568,
    "frontRadius": 0.6101976037025452,
    "frontOffset": 0.7641001343727112,
    "backDensity": 3.9000000953674318,
    "backRadius": 0.5924587845802307,
    "backOffset": -1.2884833812713624,
    "score": 0,
    "maxDistance": 0,
    "maxTime": 1.0
}