{
    "ID": 108818,
    "genomaID": "CV3TD11",
    "color": {
        "x": 0.7942795753479004,
        "y": 0.32352355122566225,
        "z": 0.00027966502238996327
    },
    "vertexNumber": 3,
    "colliderVertices": [
        {
            "x": -1.448728084564209,
            "y": -0.4206351041793823
        },
        {
            "x": 1.2341947555541993,
            "y": -0.4096236228942871
        },
        {
            "x": -0.7727158069610596,
            "y": 0.05484116077423096
        }
    ],
    "triangles": [
        1,
        0,
        2
    ],
    "carDensity": 3.0,
    "suspension": 0.725551962852478,
    "motorSpeed": 1231,
    "frontDensity": 4.900000095367432,
    "frontRadius": 0.6881802082061768,
    "frontOffset": 0.870071291923523,
    "backDensity": 3.200000047683716,
    "backRadius": 0.5221288204193115,
    "backOffset": -1.2433675527572632,
    "score": 932,
    "maxDistance": 833,
    "maxTime": 84.0
}{
    "ID": 108865,
    "genomaID": "CV3TD11",
    "color": {
        "x": 0.2190650999546051,
        "y": 0.819962739944458,
        "z": 0.1384425312280655
    },
    "vertexNumber": 3,
    "colliderVertices": [
        {
            "x": -1.8240056037902833,
            "y": -0.0244140662252903
        },
        {
            "x": 1.0424052476882935,
            "y": -0.36028537154197695
        },
        {
            "x": -0.7335360050201416,
            "y": 0.509985625743866
        }
    ],
    "triangles": [
        1,
        0,
        2
    ],
    "carDensity": 3.0,
    "suspension": 0.4652835428714752,
    "motorSpeed": 850,
    "frontDensity": 5.0,
    "frontRadius": 0.6962220668792725,
    "frontOffset": 1.1509073972702027,
    "backDensity": 3.299999952316284,
    "backRadius": 0.5344315767288208,
    "backOffset": -1.1093865633010865,
    "score": 913,
    "maxDistance": 834,
    "maxTime": 105.0
}{
    "ID": 108947,
    "genomaID": "CV3TD10",
    "color": {
        "x": 0.7199751734733582,
        "y": 0.10106755793094635,
        "z": 0.008763433434069157
    },
    "vertexNumber": 3,
    "colliderVertices": [
        {
            "x": -1.448728084564209,
            "y": -0.4206351041793823
        },
        {
            "x": 1.2341947555541993,
            "y": -0.4096236228942871
        },
        {
            "x": -0.7727158069610596,
            "y": 0.05484116077423096
        }
    ],
    "triangles": [
        1,
        0,
        2
    ],
    "carDensity": 3.0,
    "suspension": 0.6319480538368225,
    "motorSpeed": 850,
    "frontDensity": 4.900000095367432,
    "frontRadius": 0.6907195448875427,
    "frontOffset": 0.9572106599807739,
    "backDensity": 2.200000047683716,
    "backRadius": 0.4244769811630249,
    "backOffset": -1.4598281383514405,
    "score": 911,
    "maxDistance": 833,
    "maxTime": 107.0
}{
    "ID": 108904,
    "genomaID": "CV6TD14",
    "color": {
        "x": 0.08802367001771927,
        "y": 0.7961810827255249,
        "z": 0.9108858108520508
    },
    "vertexNumber": 6,
    "colliderVertices": [
        {
            "x": -1.685516357421875,
            "y": -0.3457243740558624
        },
        {
            "x": 1.3215482234954835,
            "y": -0.49821680784225466
        },
        {
            "x": 1.1561651229858399,
            "y": 0.20751512050628663
        },
        {
            "x": 0.6764463782310486,
            "y": 0.6727179288864136
        },
        {
            "x": 0.1533339023590088,
            "y": 0.489126980304718
        },
        {
            "x": -1.9352679252624512,
            "y": 0.8962558507919312
        }
    ],
    "triangles": [
        4,
        3,
        1,
        1,
        5,
        4,
        3,
        2,
        1,
        1,
        0,
        5
    ],
    "carDensity": 6.0,
    "suspension": 0.9179176092147827,
    "motorSpeed": 850,
    "frontDensity": 3.799999952316284,
    "frontRadius": 0.5816993117332459,
    "frontOffset": 1.3667523860931397,
    "backDensity": 3.5999999046325685,
    "backRadius": 0.5561515092849731,
    "backOffset": -0.7482508420944214,
    "score": 18,
    "maxDistance": 3,
    "maxTime": 2.0
}{
    "ID": 108993,
    "genomaID": "CV3TD10",
    "color": {
        "x": 0.6076138615608215,
        "y": 0.2100631296634674,
        "z": 0.02442515268921852
    },
    "vertexNumber": 3,
    "colliderVertices": [
        {
            "x": -1.144219160079956,
            "y": -0.34459778666496279
        },
        {
            "x": 1.1720192432403565,
            "y": -0.25926777720451357
        },
        {
            "x": -1.223421573638916,
            "y": 0.5928296446800232
        }
    ],
    "triangles": [
        1,
        0,
        2
    ],
    "carDensity": 3.0,
    "suspension": 0.6981129050254822,
    "motorSpeed": 850,
    "frontDensity": 3.4000000953674318,
    "frontRadius": 0.5410094261169434,
    "frontOffset": 1.3905751705169678,
    "backDensity": 3.5999999046325685,
    "backRadius": 0.5622387528419495,
    "backOffset": -0.826389729976654,
    "score": 0,
    "maxDistance": 0,
    "maxTime": 1.0
}