{
    "ID": 96803,
    "genomaID": "CV3TD12",
    "color": {
        "x": 0.7694025039672852,
        "y": 0.6303190588951111,
        "z": 0.31513217091560366
    },
    "vertexNumber": 3,
    "colliderVertices": [
        {
            "x": -1.448728084564209,
            "y": -0.4206351041793823
        },
        {
            "x": 1.2341947555541993,
            "y": -0.4096236228942871
        },
        {
            "x": -0.7727158069610596,
            "y": 0.05484116077423096
        }
    ],
    "triangles": [
        1,
        0,
        2
    ],
    "carDensity": 3.0,
    "suspension": 0.7720770835876465,
    "motorSpeed": 850,
    "frontDensity": 4.900000095367432,
    "frontRadius": 0.6907195448875427,
    "frontOffset": 0.8838714361190796,
    "backDensity": 3.799999952316284,
    "backRadius": 0.5774370431900024,
    "backOffset": -1.2182402610778809,
    "score": 915,
    "maxDistance": 833,
    "maxTime": 102.0
}{
    "ID": 96993,
    "genomaID": "CV3TD11",
    "color": {
        "x": 0.6076138615608215,
        "y": 0.2100631296634674,
        "z": 0.02442515268921852
    },
    "vertexNumber": 3,
    "colliderVertices": [
        {
            "x": -1.448728084564209,
            "y": -0.4206351041793823
        },
        {
            "x": 1.2341947555541993,
            "y": -0.4096236228942871
        },
        {
            "x": -0.7727158069610596,
            "y": 0.05484116077423096
        }
    ],
    "triangles": [
        1,
        0,
        2
    ],
    "carDensity": 3.0,
    "suspension": 0.9559542536735535,
    "motorSpeed": 850,
    "frontDensity": 4.900000095367432,
    "frontRadius": 0.6907195448875427,
    "frontOffset": 0.8726989030838013,
    "backDensity": 3.4000000953674318,
    "backRadius": 0.5370846390724182,
    "backOffset": -1.2692713737487794,
    "score": 913,
    "maxDistance": 833,
    "maxTime": 104.0
}{
    "ID": 96850,
    "genomaID": "CV3TD10",
    "color": {
        "x": 0.25414803624153139,
        "y": 0.6976225972175598,
        "z": 0.8672903776168823
    },
    "vertexNumber": 3,
    "colliderVertices": [
        {
            "x": -1.24593186378479,
            "y": -0.17356999218463899
        },
        {
            "x": 1.4254326820373536,
            "y": -0.31066444516181948
        },
        {
            "x": -1.0050806999206544,
            "y": 0.2958831191062927
        }
    ],
    "triangles": [
        1,
        0,
        2
    ],
    "carDensity": 3.0,
    "suspension": 0.7054780721664429,
    "motorSpeed": 880,
    "frontDensity": 4.599999904632568,
    "frontRadius": 0.6589146256446838,
    "frontOffset": 1.4293837547302247,
    "backDensity": 2.5,
    "backRadius": 0.4527578353881836,
    "backOffset": -0.7153712511062622,
    "score": 910,
    "maxDistance": 833,
    "maxTime": 108.0
}{
    "ID": 96901,
    "genomaID": "CV4TD13",
    "color": {
        "x": 0.0397876538336277,
        "y": 0.858208179473877,
        "z": 0.30803385376930239
    },
    "vertexNumber": 4,
    "colliderVertices": [
        {
            "x": -1.864546537399292,
            "y": -0.10091806948184967
        },
        {
            "x": 1.0433353185653687,
            "y": -0.12063993513584137
        },
        {
            "x": -0.16465258598327638,
            "y": 0.1319640874862671
        },
        {
            "x": -1.1546931266784669,
            "y": 0.9370496273040772
        }
    ],
    "triangles": [
        0,
        3,
        2,
        2,
        1,
        0
    ],
    "carDensity": 4.0,
    "suspension": 0.8853272199630737,
    "motorSpeed": 881,
    "frontDensity": 4.599999904632568,
    "frontRadius": 0.6589146256446838,
    "frontOffset": 0.9973455667495728,
    "backDensity": 3.799999952316284,
    "backRadius": 0.5831120610237122,
    "backOffset": -0.6150444746017456,
    "score": 24,
    "maxDistance": 4,
    "maxTime": 2.0
}{
    "ID": 96937,
    "genomaID": "CV3TD11",
    "color": {
        "x": 0.5304045081138611,
        "y": 0.8377341032028198,
        "z": 0.746658980846405
    },
    "vertexNumber": 3,
    "colliderVertices": [
        {
            "x": -1.448728084564209,
            "y": -0.4206351041793823
        },
        {
            "x": 1.2341947555541993,
            "y": -0.4096236228942871
        },
        {
            "x": -0.7727158069610596,
            "y": 0.05484116077423096
        }
    ],
    "triangles": [
        1,
        0,
        2
    ],
    "carDensity": 3.0,
    "suspension": 0.6290628910064697,
    "motorSpeed": 850,
    "frontDensity": 2.9000000953674318,
    "frontRadius": 0.48787301778793337,
    "frontOffset": 0.8517569303512573,
    "backDensity": 5.0,
    "backRadius": 0.6965692043304443,
    "backOffset": -1.1480169296264649,
    "score": -11,
    "maxDistance": -1,
    "maxTime": 1.0
}