{
    "ID": 102547,
    "genomaID": "CV3TD12",
    "color": {
        "x": 0.7199751734733582,
        "y": 0.10106755793094635,
        "z": 0.008763433434069157
    },
    "vertexNumber": 3,
    "colliderVertices": [
        {
            "x": -1.448728084564209,
            "y": -0.4206351041793823
        },
        {
            "x": 1.2341947555541993,
            "y": -0.4096236228942871
        },
        {
            "x": -0.7727158069610596,
            "y": 0.05484116077423096
        }
    ],
    "triangles": [
        1,
        0,
        2
    ],
    "carDensity": 3.0,
    "suspension": 0.6192411184310913,
    "motorSpeed": 1400,
    "frontDensity": 4.599999904632568,
    "frontRadius": 0.658340573310852,
    "frontOffset": 1.2416977882385255,
    "backDensity": 4.300000190734863,
    "backRadius": 0.6322370171546936,
    "backOffset": -1.3950713872909547,
    "score": 950,
    "maxDistance": 825,
    "maxTime": 66.0
}{
    "ID": 102445,
    "genomaID": "CV3TD11",
    "color": {
        "x": 0.8397320508956909,
        "y": 0.21620431542396546,
        "z": 0.005464315880089998
    },
    "vertexNumber": 3,
    "colliderVertices": [
        {
            "x": -1.448728084564209,
            "y": -0.4206351041793823
        },
        {
            "x": 1.2341947555541993,
            "y": -0.4096236228942871
        },
        {
            "x": -0.7727158069610596,
            "y": 0.05484116077423096
        }
    ],
    "triangles": [
        1,
        0,
        2
    ],
    "carDensity": 3.0,
    "suspension": 0.6135239005088806,
    "motorSpeed": 850,
    "frontDensity": 4.900000095367432,
    "frontRadius": 0.6881802082061768,
    "frontOffset": 1.3332135677337647,
    "backDensity": 3.0,
    "backRadius": 0.5031653642654419,
    "backOffset": -0.654842734336853,
    "score": 911,
    "maxDistance": 832,
    "maxTime": 105.0
}{
    "ID": 102441,
    "genomaID": "CV3TD11",
    "color": {
        "x": 0.7170844674110413,
        "y": 0.5298733115196228,
        "z": 0.2514771521091461
    },
    "vertexNumber": 3,
    "colliderVertices": [
        {
            "x": -1.448728084564209,
            "y": -0.4206351041793823
        },
        {
            "x": 1.2341947555541993,
            "y": -0.4096236228942871
        },
        {
            "x": -0.7727158069610596,
            "y": 0.05484116077423096
        }
    ],
    "triangles": [
        1,
        0,
        2
    ],
    "carDensity": 3.0,
    "suspension": 0.4970051944255829,
    "motorSpeed": 850,
    "frontDensity": 4.900000095367432,
    "frontRadius": 0.6907195448875427,
    "frontOffset": 0.734839677810669,
    "backDensity": 3.299999952316284,
    "backRadius": 0.5328162312507629,
    "backOffset": -0.6285861730575562,
    "score": 908,
    "maxDistance": 828,
    "maxTime": 104.0
}{
    "ID": 102460,
    "genomaID": "CV3TD10",
    "color": {
        "x": 0.17101825773715974,
        "y": 0.9460158348083496,
        "z": 0.36645153164863589
    },
    "vertexNumber": 3,
    "colliderVertices": [
        {
            "x": -1.448728084564209,
            "y": -0.4206351041793823
        },
        {
            "x": 1.2341947555541993,
            "y": -0.4096236228942871
        },
        {
            "x": -0.7727158069610596,
            "y": 0.05484116077423096
        }
    ],
    "triangles": [
        1,
        0,
        2
    ],
    "carDensity": 3.0,
    "suspension": 0.7834834456443787,
    "motorSpeed": 850,
    "frontDensity": 3.700000047683716,
    "frontRadius": 0.5686073899269104,
    "frontOffset": 1.4624360799789429,
    "backDensity": 3.299999952316284,
    "backRadius": 0.532076895236969,
    "backOffset": -1.3305447101593018,
    "score": 42,
    "maxDistance": 7,
    "maxTime": 2.0
}{
    "ID": 102575,
    "genomaID": "CV3TD10",
    "color": {
        "x": 0.3764975666999817,
        "y": 0.889763593673706,
        "z": 0.5628216862678528
    },
    "vertexNumber": 3,
    "colliderVertices": [
        {
            "x": -1.448728084564209,
            "y": -0.4206351041793823
        },
        {
            "x": 1.2341947555541993,
            "y": -0.4096236228942871
        },
        {
            "x": -0.7727158069610596,
            "y": 0.05484116077423096
        }
    ],
    "triangles": [
        1,
        0,
        2
    ],
    "carDensity": 3.0,
    "suspension": 0.7174187302589417,
    "motorSpeed": 850,
    "frontDensity": 3.5999999046325685,
    "frontRadius": 0.5603000521659851,
    "frontOffset": 0.5711071491241455,
    "backDensity": 3.4000000953674318,
    "backRadius": 0.5420628786087036,
    "backOffset": -1.2692713737487794,
    "score": -11,
    "maxDistance": -1,
    "maxTime": 1.0
}