{
    "ID": 55248,
    "genomaID": "CV3TD12",
    "color": {
        "x": 0.5797355771064758,
        "y": 0.4698863625526428,
        "z": 0.5692866444587708
    },
    "vertexNumber": 3,
    "colliderVertices": [
        {
            "x": -1.3322129249572755,
            "y": -0.3242015540599823
        },
        {
            "x": 1.406930685043335,
            "y": -0.39797013998031618
        },
        {
            "x": -1.7638306617736817,
            "y": 0.37279003858566286
        }
    ],
    "triangles": [
        1,
        0,
        2
    ],
    "carDensity": 3.0,
    "suspension": 0.4957006573677063,
    "motorSpeed": 879,
    "frontDensity": 4.800000190734863,
    "frontRadius": 0.6832131743431091,
    "frontOffset": 1.446184515953064,
    "backDensity": 3.5,
    "backRadius": 0.5547314286231995,
    "backOffset": -0.9269696474075317,
    "score": 916,
    "maxDistance": 834,
    "maxTime": 102.0
}{
    "ID": 55333,
    "genomaID": "CV3TD11",
    "color": {
        "x": 0.87385094165802,
        "y": 0.2363967001438141,
        "z": 0.37498119473457339
    },
    "vertexNumber": 3,
    "colliderVertices": [
        {
            "x": -1.7107701301574708,
            "y": -0.07533479481935501
        },
        {
            "x": 1.303591012954712,
            "y": -0.2002372443675995
        },
        {
            "x": -1.0375332832336426,
            "y": 0.5149524807929993
        }
    ],
    "triangles": [
        1,
        0,
        2
    ],
    "carDensity": 3.0,
    "suspension": 0.6165014505386353,
    "motorSpeed": 886,
    "frontDensity": 4.800000190734863,
    "frontRadius": 0.6772812604904175,
    "frontOffset": 0.6479882001876831,
    "backDensity": 3.200000047683716,
    "backRadius": 0.5233955383300781,
    "backOffset": -1.3670175075531006,
    "score": 914,
    "maxDistance": 834,
    "maxTime": 104.0
}{
    "ID": 55382,
    "genomaID": "CV3TD11",
    "color": {
        "x": 0.18018175661563874,
        "y": 0.28061285614967348,
        "z": 0.16327108442783357
    },
    "vertexNumber": 3,
    "colliderVertices": [
        {
            "x": -1.3322129249572755,
            "y": -0.3242015540599823
        },
        {
            "x": 1.406930685043335,
            "y": -0.39797013998031618
        },
        {
            "x": -1.7638306617736817,
            "y": 0.37279003858566286
        }
    ],
    "triangles": [
        1,
        0,
        2
    ],
    "carDensity": 3.0,
    "suspension": 0.5233871936798096,
    "motorSpeed": 879,
    "frontDensity": 4.800000190734863,
    "frontRadius": 0.6772812604904175,
    "frontOffset": 1.2735893726348878,
    "backDensity": 2.799999952316284,
    "backRadius": 0.4774503707885742,
    "backOffset": -1.3671072721481324,
    "score": 912,
    "maxDistance": 834,
    "maxTime": 106.0
}{
    "ID": 55300,
    "genomaID": "CV6TD14",
    "color": {
        "x": 0.8870282173156738,
        "y": 0.7666325569152832,
        "z": 0.8037217855453491
    },
    "vertexNumber": 6,
    "colliderVertices": [
        {
            "x": -1.3206512928009034,
            "y": -0.17250676453113557
        },
        {
            "x": 1.2075138092041016,
            "y": -0.258160263299942
        },
        {
            "x": 0.479079008102417,
            "y": 0.4522790312767029
        },
        {
            "x": 0.24797892570495606,
            "y": 0.8941808938980103
        },
        {
            "x": -0.928508996963501,
            "y": 0.9858487844467163
        },
        {
            "x": -1.5569705963134766,
            "y": 0.4215947985649109
        }
    ],
    "triangles": [
        4,
        2,
        1,
        1,
        5,
        4,
        4,
        3,
        2,
        1,
        0,
        5
    ],
    "carDensity": 6.0,
    "suspension": 0.4250035583972931,
    "motorSpeed": 879,
    "frontDensity": 4.800000190734863,
    "frontRadius": 0.6772812604904175,
    "frontOffset": 0.9237016439437866,
    "backDensity": 3.299999952316284,
    "backRadius": 0.529460072517395,
    "backOffset": -1.2927860021591187,
    "score": 7,
    "maxDistance": 1,
    "maxTime": 2.0
}{
    "ID": 55396,
    "genomaID": "CV3TD11",
    "color": {
        "x": 0.04487193003296852,
        "y": 0.9218603372573853,
        "z": 0.05435562878847122
    },
    "vertexNumber": 3,
    "colliderVertices": [
        {
            "x": -1.0632387399673463,
            "y": -0.43455809354782107
        },
        {
            "x": 1.3427574634552003,
            "y": -0.44732171297073367
        },
        {
            "x": -1.4998435974121094,
            "y": 0.6457148790359497
        }
    ],
    "triangles": [
        1,
        0,
        2
    ],
    "carDensity": 3.0,
    "suspension": 0.952989935874939,
    "motorSpeed": 1461,
    "frontDensity": 4.800000190734863,
    "frontRadius": 0.6772812604904175,
    "frontOffset": 1.2872165441513062,
    "backDensity": 3.200000047683716,
    "backRadius": 0.5226409435272217,
    "backOffset": -1.1697757244110108,
    "score": 0,
    "maxDistance": 0,
    "maxTime": 1.0
}