{
    "ID": 82222,
    "genomaID": "CV3TD11",
    "color": {
        "x": 0.8580331802368164,
        "y": 0.2694608271121979,
        "z": 0.38077789545059206
    },
    "vertexNumber": 3,
    "colliderVertices": [
        {
            "x": -1.3322129249572755,
            "y": -0.3242015540599823
        },
        {
            "x": 1.406930685043335,
            "y": -0.39797013998031618
        },
        {
            "x": -1.7638306617736817,
            "y": 0.37279003858566286
        }
    ],
    "triangles": [
        1,
        0,
        2
    ],
    "carDensity": 3.0,
    "suspension": 0.7986849546432495,
    "motorSpeed": 877,
    "frontDensity": 4.900000095367432,
    "frontRadius": 0.6854335069656372,
    "frontOffset": 1.2174198627471924,
    "backDensity": 3.200000047683716,
    "backRadius": 0.516522228717804,
    "backOffset": -0.8116682171821594,
    "score": 914,
    "maxDistance": 834,
    "maxTime": 105.0
}{
    "ID": 82381,
    "genomaID": "CV3TD11",
    "color": {
        "x": 0.27488282322883608,
        "y": 0.43963927030563357,
        "z": 0.30342355370521548
    },
    "vertexNumber": 3,
    "colliderVertices": [
        {
            "x": -1.3322129249572755,
            "y": -0.3242015540599823
        },
        {
            "x": 1.406930685043335,
            "y": -0.39797013998031618
        },
        {
            "x": -1.7638306617736817,
            "y": 0.37279003858566286
        }
    ],
    "triangles": [
        1,
        0,
        2
    ],
    "carDensity": 3.0,
    "suspension": 0.9927855134010315,
    "motorSpeed": 877,
    "frontDensity": 4.900000095367432,
    "frontRadius": 0.6854895949363709,
    "frontOffset": 1.1870718002319337,
    "backDensity": 3.0999999046325685,
    "backRadius": 0.5092386603355408,
    "backOffset": -0.9206908941268921,
    "score": 912,
    "maxDistance": 832,
    "maxTime": 105.0
}{
    "ID": 82377,
    "genomaID": "CV3TD11",
    "color": {
        "x": 0.36806872487068179,
        "y": 0.05324602872133255,
        "z": 0.9842822551727295
    },
    "vertexNumber": 3,
    "colliderVertices": [
        {
            "x": -1.4517676830291749,
            "y": -0.3785870671272278
        },
        {
            "x": 1.0073214769363404,
            "y": -0.056303925812244418
        },
        {
            "x": 0.1018216609954834,
            "y": 0.5950250029563904
        }
    ],
    "triangles": [
        1,
        0,
        2
    ],
    "carDensity": 3.0,
    "suspension": 0.9469841718673706,
    "motorSpeed": 850,
    "frontDensity": 4.900000095367432,
    "frontRadius": 0.6907195448875427,
    "frontOffset": 0.7301596403121948,
    "backDensity": 3.299999952316284,
    "backRadius": 0.5308176279067993,
    "backOffset": -0.6407910585403442,
    "score": 910,
    "maxDistance": 830,
    "maxTime": 103.0
}{
    "ID": 82202,
    "genomaID": "CV3TD12",
    "color": {
        "x": 0.191432386636734,
        "y": 0.17907096445560456,
        "z": 0.9370725154876709
    },
    "vertexNumber": 3,
    "colliderVertices": [
        {
            "x": -1.4517676830291749,
            "y": -0.3785870671272278
        },
        {
            "x": 1.0073214769363404,
            "y": -0.056303925812244418
        },
        {
            "x": 0.1018216609954834,
            "y": 0.5950250029563904
        }
    ],
    "triangles": [
        1,
        0,
        2
    ],
    "carDensity": 3.0,
    "suspension": 0.5481326580047607,
    "motorSpeed": 850,
    "frontDensity": 4.900000095367432,
    "frontRadius": 0.6907195448875427,
    "frontOffset": 1.1953260898590088,
    "backDensity": 4.099999904632568,
    "backRadius": 0.6088025569915772,
    "backOffset": -0.6791576147079468,
    "score": 9,
    "maxDistance": 2,
    "maxTime": 3.0
}{
    "ID": 82326,
    "genomaID": "CV3TD10",
    "color": {
        "x": 0.44838660955429079,
        "y": 0.031699422746896747,
        "z": 0.9644633531570435
    },
    "vertexNumber": 3,
    "colliderVertices": [
        {
            "x": -1.24593186378479,
            "y": -0.17356999218463899
        },
        {
            "x": 1.4254326820373536,
            "y": -0.31066444516181948
        },
        {
            "x": -1.0050806999206544,
            "y": 0.2958831191062927
        }
    ],
    "triangles": [
        1,
        0,
        2
    ],
    "carDensity": 3.0,
    "suspension": 0.6249181032180786,
    "motorSpeed": 850,
    "frontDensity": 2.700000047683716,
    "frontRadius": 0.4730784296989441,
    "frontOffset": 0.5541243553161621,
    "backDensity": 3.700000047683716,
    "backRadius": 0.5749773383140564,
    "backOffset": -1.1632243394851685,
    "score": -11,
    "maxDistance": -1,
    "maxTime": 1.0
}