{
    "ID": 61416,
    "genomaID": "CV3TD12",
    "color": {
        "x": 0.23132100701332093,
        "y": 0.0023838283959776165,
        "z": 0.7214786410331726
    },
    "vertexNumber": 3,
    "colliderVertices": [
        {
            "x": -1.3322129249572755,
            "y": -0.3242015540599823
        },
        {
            "x": 1.406930685043335,
            "y": -0.39797013998031618
        },
        {
            "x": -1.7638306617736817,
            "y": 0.37279003858566286
        }
    ],
    "triangles": [
        1,
        0,
        2
    ],
    "carDensity": 3.0,
    "suspension": 0.7244403958320618,
    "motorSpeed": 879,
    "frontDensity": 4.599999904632568,
    "frontRadius": 0.6645531058311462,
    "frontOffset": 0.7678360342979431,
    "backDensity": 3.9000000953674318,
    "backRadius": 0.594505786895752,
    "backOffset": -1.4421294927597047,
    "score": 917,
    "maxDistance": 833,
    "maxTime": 99.0
}{
    "ID": 61574,
    "genomaID": "CV3TD12",
    "color": {
        "x": 0.7046118378639221,
        "y": 0.33948877453804018,
        "z": 0.3959283232688904
    },
    "vertexNumber": 3,
    "colliderVertices": [
        {
            "x": -1.3322129249572755,
            "y": -0.3242015540599823
        },
        {
            "x": 1.406930685043335,
            "y": -0.39797013998031618
        },
        {
            "x": -1.7638306617736817,
            "y": 0.37279003858566286
        }
    ],
    "triangles": [
        1,
        0,
        2
    ],
    "carDensity": 3.0,
    "suspension": 0.8910596370697022,
    "motorSpeed": 874,
    "frontDensity": 4.900000095367432,
    "frontRadius": 0.6907195448875427,
    "frontOffset": 1.2956340312957764,
    "backDensity": 3.5,
    "backRadius": 0.5492756366729736,
    "backOffset": -1.0560237169265748,
    "score": 915,
    "maxDistance": 834,
    "maxTime": 103.0
}{
    "ID": 61562,
    "genomaID": "CV3TD12",
    "color": {
        "x": 0.43786293268203738,
        "y": 0.39886051416397097,
        "z": 0.7916882038116455
    },
    "vertexNumber": 3,
    "colliderVertices": [
        {
            "x": -1.3322129249572755,
            "y": -0.3242015540599823
        },
        {
            "x": 1.406930685043335,
            "y": -0.39797013998031618
        },
        {
            "x": -1.7638306617736817,
            "y": 0.37279003858566286
        }
    ],
    "triangles": [
        1,
        0,
        2
    ],
    "carDensity": 3.0,
    "suspension": 0.9026823043823242,
    "motorSpeed": 877,
    "frontDensity": 4.800000190734863,
    "frontRadius": 0.6757321357727051,
    "frontOffset": 1.4057252407073975,
    "backDensity": 3.9000000953674318,
    "backRadius": 0.5931724905967712,
    "backOffset": -1.1470956802368165,
    "score": 544,
    "maxDistance": 465,
    "maxTime": 59.0
}{
    "ID": 61423,
    "genomaID": "CV6TD14",
    "color": {
        "x": 0.1624685674905777,
        "y": 0.05516207963228226,
        "z": 0.06042958050966263
    },
    "vertexNumber": 6,
    "colliderVertices": [
        {
            "x": -1.0746188163757325,
            "y": -0.1721135526895523
        },
        {
            "x": 1.1942371129989625,
            "y": -0.3720262944698334
        },
        {
            "x": 1.4445819854736329,
            "y": 0.03797447681427002
        },
        {
            "x": 0.26733994483947756,
            "y": 0.12372016906738281
        },
        {
            "x": -1.1451458930969239,
            "y": 0.7279433012008667
        },
        {
            "x": -1.4753379821777344,
            "y": 0.7156401872634888
        }
    ],
    "triangles": [
        3,
        1,
        5,
        5,
        4,
        3,
        3,
        2,
        1,
        1,
        0,
        5
    ],
    "carDensity": 6.0,
    "suspension": 0.5751618146896362,
    "motorSpeed": 879,
    "frontDensity": 4.800000190734863,
    "frontRadius": 0.6780305504798889,
    "frontOffset": 0.9104872941970825,
    "backDensity": 3.299999952316284,
    "backRadius": 0.529460072517395,
    "backOffset": -0.8036655783653259,
    "score": 0,
    "maxDistance": 0,
    "maxTime": 1.0
}{
    "ID": 61600,
    "genomaID": "CV3TD10",
    "color": {
        "x": 0.7681076526641846,
        "y": 0.2796610891819,
        "z": 0.3934035897254944
    },
    "vertexNumber": 3,
    "colliderVertices": [
        {
            "x": -1.3322129249572755,
            "y": -0.3242015540599823
        },
        {
            "x": 1.406930685043335,
            "y": -0.39797013998031618
        },
        {
            "x": -1.7638306617736817,
            "y": 0.37279003858566286
        }
    ],
    "triangles": [
        1,
        0,
        2
    ],
    "carDensity": 3.0,
    "suspension": 0.9026823043823242,
    "motorSpeed": 877,
    "frontDensity": 3.299999952316284,
    "frontRadius": 0.5349276065826416,
    "frontOffset": 1.4057252407073975,
    "backDensity": 3.5999999046325685,
    "backRadius": 0.5553990602493286,
    "backOffset": -0.6884427070617676,
    "score": 0,
    "maxDistance": 0,
    "maxTime": 1.0
}