{
    "ID": 113423,
    "genomaID": "CV3TD12",
    "color": {
        "x": 0.1624685674905777,
        "y": 0.05516207963228226,
        "z": 0.06042958050966263
    },
    "vertexNumber": 3,
    "colliderVertices": [
        {
            "x": -1.448728084564209,
            "y": -0.4206351041793823
        },
        {
            "x": 1.2341947555541993,
            "y": -0.4096236228942871
        },
        {
            "x": -0.7727158069610596,
            "y": 0.05484116077423096
        }
    ],
    "triangles": [
        1,
        0,
        2
    ],
    "carDensity": 3.0,
    "suspension": 0.40042516589164736,
    "motorSpeed": 850,
    "frontDensity": 4.900000095367432,
    "frontRadius": 0.6907195448875427,
    "frontOffset": 0.8576070070266724,
    "backDensity": 3.700000047683716,
    "backRadius": 0.5729662179946899,
    "backOffset": -1.3460214138031006,
    "score": 915,
    "maxDistance": 834,
    "maxTime": 103.0
}{
    "ID": 113471,
    "genomaID": "CV3TD11",
    "color": {
        "x": 0.8632849454879761,
        "y": 0.699835479259491,
        "z": 0.17797733843326569
    },
    "vertexNumber": 3,
    "colliderVertices": [
        {
            "x": -1.448728084564209,
            "y": -0.4206351041793823
        },
        {
            "x": 1.2341947555541993,
            "y": -0.4096236228942871
        },
        {
            "x": -0.7727158069610596,
            "y": 0.05484116077423096
        }
    ],
    "triangles": [
        1,
        0,
        2
    ],
    "carDensity": 3.0,
    "suspension": 0.6292497515678406,
    "motorSpeed": 850,
    "frontDensity": 4.900000095367432,
    "frontRadius": 0.6907195448875427,
    "frontOffset": 1.1346012353897095,
    "backDensity": 3.0999999046325685,
    "backRadius": 0.5147460699081421,
    "backOffset": -0.5991989374160767,
    "score": 913,
    "maxDistance": 834,
    "maxTime": 105.0
}{
    "ID": 113494,
    "genomaID": "CV3TD11",
    "color": {
        "x": 0.6699648499488831,
        "y": 0.7535088062286377,
        "z": 0.8060994148254395
    },
    "vertexNumber": 3,
    "colliderVertices": [
        {
            "x": -1.448728084564209,
            "y": -0.4206351041793823
        },
        {
            "x": 1.2341947555541993,
            "y": -0.4096236228942871
        },
        {
            "x": -0.7727158069610596,
            "y": 0.05484116077423096
        }
    ],
    "triangles": [
        1,
        0,
        2
    ],
    "carDensity": 3.0,
    "suspension": 0.8949503898620606,
    "motorSpeed": 850,
    "frontDensity": 4.900000095367432,
    "frontRadius": 0.6881802082061768,
    "frontOffset": 1.4644750356674195,
    "backDensity": 2.5999999046325685,
    "backRadius": 0.45509785413742068,
    "backOffset": -0.5323132276535034,
    "score": 911,
    "maxDistance": 833,
    "maxTime": 107.0
}{
    "ID": 113412,
    "genomaID": "CV3TD9",
    "color": {
        "x": 0.03325570002198219,
        "y": 0.9501603841781616,
        "z": 0.32562246918678286
    },
    "vertexNumber": 3,
    "colliderVertices": [
        {
            "x": -1.448728084564209,
            "y": -0.4206351041793823
        },
        {
            "x": 1.2341947555541993,
            "y": -0.4096236228942871
        },
        {
            "x": -0.7727158069610596,
            "y": 0.05484116077423096
        }
    ],
    "triangles": [
        1,
        0,
        2
    ],
    "carDensity": 3.0,
    "suspension": 0.7951276302337647,
    "motorSpeed": 868,
    "frontDensity": 2.5999999046325685,
    "frontRadius": 0.4625193476676941,
    "frontOffset": 1.336066722869873,
    "backDensity": 3.0999999046325685,
    "backRadius": 0.513372540473938,
    "backOffset": -1.1713082790374756,
    "score": 25,
    "maxDistance": 4,
    "maxTime": 2.0
}{
    "ID": 113594,
    "genomaID": "CV3TD12",
    "color": {
        "x": 0.7795941829681397,
        "y": 0.2871544659137726,
        "z": 0.42937761545181277
    },
    "vertexNumber": 3,
    "colliderVertices": [
        {
            "x": -1.448728084564209,
            "y": -0.4206351041793823
        },
        {
            "x": 1.2341947555541993,
            "y": -0.4096236228942871
        },
        {
            "x": -0.7727158069610596,
            "y": 0.05484116077423096
        }
    ],
    "triangles": [
        1,
        0,
        2
    ],
    "carDensity": 3.0,
    "suspension": 0.41706007719039919,
    "motorSpeed": 1495,
    "frontDensity": 4.900000095367432,
    "frontRadius": 0.6907195448875427,
    "frontOffset": 0.8576070070266724,
    "backDensity": 3.700000047683716,
    "backRadius": 0.5729662179946899,
    "backOffset": -1.3460214138031006,
    "score": 0,
    "maxDistance": 0,
    "maxTime": 1.0
}