{
    "ID": 99288,
    "genomaID": "CV3TD11",
    "color": {
        "x": 0.9655575752258301,
        "y": 0.17661847174167634,
        "z": 0.2819352447986603
    },
    "vertexNumber": 3,
    "colliderVertices": [
        {
            "x": -1.448728084564209,
            "y": -0.4206351041793823
        },
        {
            "x": 1.2341947555541993,
            "y": -0.4096236228942871
        },
        {
            "x": -0.7727158069610596,
            "y": 0.05484116077423096
        }
    ],
    "triangles": [
        1,
        0,
        2
    ],
    "carDensity": 3.0,
    "suspension": 0.6110441088676453,
    "motorSpeed": 1321,
    "frontDensity": 4.900000095367432,
    "frontRadius": 0.6907195448875427,
    "frontOffset": 0.6037677526473999,
    "backDensity": 3.299999952316284,
    "backRadius": 0.5345848202705383,
    "backOffset": -1.1885900497436524,
    "score": 941,
    "maxDistance": 834,
    "maxTime": 78.0
}{
    "ID": 99393,
    "genomaID": "CV3TD12",
    "color": {
        "x": 0.6076138615608215,
        "y": 0.2100631296634674,
        "z": 0.02442515268921852
    },
    "vertexNumber": 3,
    "colliderVertices": [
        {
            "x": -1.448728084564209,
            "y": -0.4206351041793823
        },
        {
            "x": 1.2341947555541993,
            "y": -0.4096236228942871
        },
        {
            "x": -0.7727158069610596,
            "y": 0.05484116077423096
        }
    ],
    "triangles": [
        1,
        0,
        2
    ],
    "carDensity": 3.0,
    "suspension": 0.4881940484046936,
    "motorSpeed": 850,
    "frontDensity": 4.900000095367432,
    "frontRadius": 0.6907195448875427,
    "frontOffset": 0.8801261186599731,
    "backDensity": 3.5,
    "backRadius": 0.5515425205230713,
    "backOffset": -1.3085963726043702,
    "score": 913,
    "maxDistance": 833,
    "maxTime": 104.0
}{
    "ID": 99253,
    "genomaID": "CV3TD12",
    "color": {
        "x": 0.7018647789955139,
        "y": 0.7490060925483704,
        "z": 0.8822269439697266
    },
    "vertexNumber": 3,
    "colliderVertices": [
        {
            "x": -1.448728084564209,
            "y": -0.4206351041793823
        },
        {
            "x": 1.2341947555541993,
            "y": -0.4096236228942871
        },
        {
            "x": -0.7727158069610596,
            "y": 0.05484116077423096
        }
    ],
    "triangles": [
        1,
        0,
        2
    ],
    "carDensity": 3.0,
    "suspension": 0.6782008409500122,
    "motorSpeed": 850,
    "frontDensity": 4.900000095367432,
    "frontRadius": 0.6907195448875427,
    "frontOffset": 1.0711933374404908,
    "backDensity": 3.9000000953674318,
    "backRadius": 0.5927612781524658,
    "backOffset": -1.096789002418518,
    "score": 906,
    "maxDistance": 833,
    "maxTime": 114.0
}{
    "ID": 99306,
    "genomaID": "CV3TD11",
    "color": {
        "x": 0.5197533965110779,
        "y": 0.9451771974563599,
        "z": 0.4369392991065979
    },
    "vertexNumber": 3,
    "colliderVertices": [
        {
            "x": -1.7957011461257935,
            "y": -0.2785545289516449
        },
        {
            "x": 1.956009864807129,
            "y": -0.3722322881221771
        },
        {
            "x": 0.3318369388580322,
            "y": 0.5681095719337463
        }
    ],
    "triangles": [
        1,
        0,
        2
    ],
    "carDensity": 3.0,
    "suspension": 0.473331093788147,
    "motorSpeed": 850,
    "frontDensity": 4.699999809265137,
    "frontRadius": 0.6679428815841675,
    "frontOffset": 0.982664942741394,
    "backDensity": 3.4000000953674318,
    "backRadius": 0.5370846390724182,
    "backOffset": -1.2692713737487794,
    "score": 18,
    "maxDistance": 3,
    "maxTime": 2.0
}{
    "ID": 99337,
    "genomaID": "CV3TD8",
    "color": {
        "x": 0.5304045081138611,
        "y": 0.8377341032028198,
        "z": 0.746658980846405
    },
    "vertexNumber": 3,
    "colliderVertices": [
        {
            "x": -1.448728084564209,
            "y": -0.4206351041793823
        },
        {
            "x": 1.2341947555541993,
            "y": -0.4096236228942871
        },
        {
            "x": -0.7727158069610596,
            "y": 0.05484116077423096
        }
    ],
    "triangles": [
        1,
        0,
        2
    ],
    "carDensity": 3.0,
    "suspension": 0.6110441088676453,
    "motorSpeed": 850,
    "frontDensity": 2.4000000953674318,
    "frontRadius": 0.44386136531829836,
    "frontOffset": 0.7508426308631897,
    "backDensity": 3.4000000953674318,
    "backRadius": 0.5370846390724182,
    "backOffset": -1.4619250297546387,
    "score": -11,
    "maxDistance": -1,
    "maxTime": 1.0
}