{
    "ID": 109110,
    "genomaID": "CV3TD11",
    "color": {
        "x": 0.2773931324481964,
        "y": 0.4475160241127014,
        "z": 0.5171505808830261
    },
    "vertexNumber": 3,
    "colliderVertices": [
        {
            "x": -1.448728084564209,
            "y": -0.4206351041793823
        },
        {
            "x": 1.2341947555541993,
            "y": -0.4096236228942871
        },
        {
            "x": -0.7727158069610596,
            "y": 0.05484116077423096
        }
    ],
    "triangles": [
        1,
        0,
        2
    ],
    "carDensity": 3.0,
    "suspension": 0.8680764436721802,
    "motorSpeed": 1053,
    "frontDensity": 4.900000095367432,
    "frontRadius": 0.6881802082061768,
    "frontOffset": 1.1690348386764527,
    "backDensity": 2.799999952316284,
    "backRadius": 0.47771579027175906,
    "backOffset": -1.3405593633651734,
    "score": 920,
    "maxDistance": 832,
    "maxTime": 95.0
}{
    "ID": 109070,
    "genomaID": "CV3TD11",
    "color": {
        "x": 0.29777243733406069,
        "y": 0.7550115585327148,
        "z": 0.47786659002304079
    },
    "vertexNumber": 3,
    "colliderVertices": [
        {
            "x": -1.448728084564209,
            "y": -0.4206351041793823
        },
        {
            "x": 1.2341947555541993,
            "y": -0.4096236228942871
        },
        {
            "x": -0.7727158069610596,
            "y": 0.05484116077423096
        }
    ],
    "triangles": [
        1,
        0,
        2
    ],
    "carDensity": 3.0,
    "suspension": 0.8065840005874634,
    "motorSpeed": 850,
    "frontDensity": 4.900000095367432,
    "frontRadius": 0.6881802082061768,
    "frontOffset": 1.336066722869873,
    "backDensity": 3.299999952316284,
    "backRadius": 0.5349446535110474,
    "backOffset": -1.0686677694320679,
    "score": 913,
    "maxDistance": 833,
    "maxTime": 105.0
}{
    "ID": 109039,
    "genomaID": "CV3TD11",
    "color": {
        "x": 0.27025511860847475,
        "y": 0.08126045018434525,
        "z": 0.4123501181602478
    },
    "vertexNumber": 3,
    "colliderVertices": [
        {
            "x": -1.448728084564209,
            "y": -0.4206351041793823
        },
        {
            "x": 1.2341947555541993,
            "y": -0.4096236228942871
        },
        {
            "x": -0.7727158069610596,
            "y": 0.05484116077423096
        }
    ],
    "triangles": [
        1,
        0,
        2
    ],
    "carDensity": 3.0,
    "suspension": 0.9338405728340149,
    "motorSpeed": 850,
    "frontDensity": 4.800000190734863,
    "frontRadius": 0.6771577596664429,
    "frontOffset": 0.8328436017036438,
    "backDensity": 2.9000000953674318,
    "backRadius": 0.4867536127567291,
    "backOffset": -1.2523963451385499,
    "score": 911,
    "maxDistance": 833,
    "maxTime": 107.0
}{
    "ID": 109010,
    "genomaID": "CV3TD12",
    "color": {
        "x": 0.2862115204334259,
        "y": 0.15781904757022859,
        "z": 0.12420190870761872
    },
    "vertexNumber": 3,
    "colliderVertices": [
        {
            "x": -1.448728084564209,
            "y": -0.4206351041793823
        },
        {
            "x": 1.2341947555541993,
            "y": -0.4096236228942871
        },
        {
            "x": -0.7727158069610596,
            "y": 0.05484116077423096
        }
    ],
    "triangles": [
        1,
        0,
        2
    ],
    "carDensity": 3.0,
    "suspension": 0.529107928276062,
    "motorSpeed": 1043,
    "frontDensity": 4.599999904632568,
    "frontRadius": 0.6590124368667603,
    "frontOffset": 1.2345808744430543,
    "backDensity": 3.5999999046325685,
    "backRadius": 0.5561515092849731,
    "backOffset": -0.7482508420944214,
    "score": 31,
    "maxDistance": 7,
    "maxTime": 3.0
}{
    "ID": 109192,
    "genomaID": "CV3TD12",
    "color": {
        "x": 0.09872342646121979,
        "y": 0.4539591670036316,
        "z": 0.37379875779151919
    },
    "vertexNumber": 3,
    "colliderVertices": [
        {
            "x": -1.448728084564209,
            "y": -0.4206351041793823
        },
        {
            "x": 1.2341947555541993,
            "y": -0.4096236228942871
        },
        {
            "x": -0.7727158069610596,
            "y": 0.05484116077423096
        }
    ],
    "triangles": [
        1,
        0,
        2
    ],
    "carDensity": 3.0,
    "suspension": 0.8355655074119568,
    "motorSpeed": 850,
    "frontDensity": 4.900000095367432,
    "frontRadius": 0.6881802082061768,
    "frontOffset": 0.7258687019348145,
    "backDensity": 3.5999999046325685,
    "backRadius": 0.5642228722572327,
    "backOffset": -0.989820122718811,
    "score": 0,
    "maxDistance": 0,
    "maxTime": 1.0
}