{
    "ID": 50918,
    "genomaID": "CV3TD11",
    "color": {
        "x": 0.8351825475692749,
        "y": 0.6088482737541199,
        "z": 0.9782909154891968
    },
    "vertexNumber": 3,
    "colliderVertices": [
        {
            "x": -1.3322129249572755,
            "y": -0.3242015540599823
        },
        {
            "x": 1.406930685043335,
            "y": -0.39797013998031618
        },
        {
            "x": -1.7638306617736817,
            "y": 0.37279003858566286
        }
    ],
    "triangles": [
        1,
        0,
        2
    ],
    "carDensity": 3.0,
    "suspension": 0.6245365142822266,
    "motorSpeed": 891,
    "frontDensity": 4.800000190734863,
    "frontRadius": 0.6772812604904175,
    "frontOffset": 1.4656665325164796,
    "backDensity": 3.4000000953674318,
    "backRadius": 0.5430188179016113,
    "backOffset": -1.461609125137329,
    "score": 916,
    "maxDistance": 834,
    "maxTime": 102.0
}{
    "ID": 50927,
    "genomaID": "CV3TD11",
    "color": {
        "x": 0.571217954158783,
        "y": 0.08509636670351029,
        "z": 0.6377937197685242
    },
    "vertexNumber": 3,
    "colliderVertices": [
        {
            "x": -1.0632387399673463,
            "y": -0.43455809354782107
        },
        {
            "x": 1.3427574634552003,
            "y": -0.44732171297073367
        },
        {
            "x": -1.4998435974121094,
            "y": 0.6457148790359497
        }
    ],
    "triangles": [
        1,
        0,
        2
    ],
    "carDensity": 3.0,
    "suspension": 0.9787906408309937,
    "motorSpeed": 879,
    "frontDensity": 4.800000190734863,
    "frontRadius": 0.6772812604904175,
    "frontOffset": 0.960105299949646,
    "backDensity": 3.299999952316284,
    "backRadius": 0.5323618650436401,
    "backOffset": -0.8622604608535767,
    "score": 912,
    "maxDistance": 832,
    "maxTime": 104.0
}{
    "ID": 50945,
    "genomaID": "CV3TD12",
    "color": {
        "x": 0.3469218313694,
        "y": 0.999477744102478,
        "z": 0.32627180218696597
    },
    "vertexNumber": 3,
    "colliderVertices": [
        {
            "x": -1.771407127380371,
            "y": -0.14592809975147248
        },
        {
            "x": 1.2676596641540528,
            "y": -0.17981620132923127
        },
        {
            "x": 0.7809943556785584,
            "y": 0.3867620825767517
        }
    ],
    "triangles": [
        1,
        0,
        2
    ],
    "carDensity": 3.0,
    "suspension": 0.696777880191803,
    "motorSpeed": 879,
    "frontDensity": 4.900000095367432,
    "frontRadius": 0.6862618923187256,
    "frontOffset": 1.1199153661727906,
    "backDensity": 3.5,
    "backRadius": 0.5499622225761414,
    "backOffset": -1.2431161403656006,
    "score": 909,
    "maxDistance": 827,
    "maxTime": 101.0
}{
    "ID": 50859,
    "genomaID": "CV5TD13",
    "color": {
        "x": 0.46289175748825076,
        "y": 0.31804123520851138,
        "z": 0.7582323551177979
    },
    "vertexNumber": 5,
    "colliderVertices": [
        {
            "x": -1.0671464204788209,
            "y": -0.2935620844364166
        },
        {
            "x": 1.3506183624267579,
            "y": -0.0343288816511631
        },
        {
            "x": -0.6228702068328857,
            "y": 0.4584272503852844
        },
        {
            "x": -0.9845998287200928,
            "y": 0.27897924184799197
        },
        {
            "x": -1.0990333557128907,
            "y": 0.045861005783081058
        }
    ],
    "triangles": [
        1,
        4,
        3,
        3,
        2,
        1,
        1,
        0,
        4
    ],
    "carDensity": 5.0,
    "suspension": 0.49998173117637637,
    "motorSpeed": 879,
    "frontDensity": 4.800000190734863,
    "frontRadius": 0.6772812604904175,
    "frontOffset": 1.0883413553237916,
    "backDensity": 3.299999952316284,
    "backRadius": 0.5323618650436401,
    "backOffset": -0.8622604608535767,
    "score": 13,
    "maxDistance": 2,
    "maxTime": 2.0
}{
    "ID": 50999,
    "genomaID": "CV3TD10",
    "color": {
        "x": 0.6575701832771301,
        "y": 0.868037223815918,
        "z": 0.03163004294037819
    },
    "vertexNumber": 3,
    "colliderVertices": [
        {
            "x": -1.0632387399673463,
            "y": -0.43455809354782107
        },
        {
            "x": 1.3427574634552003,
            "y": -0.44732171297073367
        },
        {
            "x": -1.4998435974121094,
            "y": 0.6457148790359497
        }
    ],
    "triangles": [
        1,
        0,
        2
    ],
    "carDensity": 3.0,
    "suspension": 0.4537547528743744,
    "motorSpeed": 879,
    "frontDensity": 3.4000000953674318,
    "frontRadius": 0.5386414527893066,
    "frontOffset": 1.0104457139968873,
    "backDensity": 4.400000095367432,
    "backRadius": 0.6426275372505188,
    "backOffset": -0.6947541236877441,
    "score": 0,
    "maxDistance": 0,
    "maxTime": 1.0
}