{
    "ID": 96019,
    "genomaID": "CV3TD12",
    "color": {
        "x": 0.44939547777175906,
        "y": 0.6869245171546936,
        "z": 0.8737590312957764
    },
    "vertexNumber": 3,
    "colliderVertices": [
        {
            "x": -1.448728084564209,
            "y": -0.4206351041793823
        },
        {
            "x": 1.2341947555541993,
            "y": -0.4096236228942871
        },
        {
            "x": -0.7727158069610596,
            "y": 0.05484116077423096
        }
    ],
    "triangles": [
        1,
        0,
        2
    ],
    "carDensity": 3.0,
    "suspension": 0.7891204357147217,
    "motorSpeed": 850,
    "frontDensity": 4.800000190734863,
    "frontRadius": 0.6779786944389343,
    "frontOffset": 0.7538114190101624,
    "backDensity": 3.799999952316284,
    "backRadius": 0.5821859836578369,
    "backOffset": -1.4803638458251954,
    "score": 915,
    "maxDistance": 834,
    "maxTime": 103.0
}{
    "ID": 96113,
    "genomaID": "CV3TD11",
    "color": {
        "x": 0.956782341003418,
        "y": 0.08324600011110306,
        "z": 0.7790353298187256
    },
    "vertexNumber": 3,
    "colliderVertices": [
        {
            "x": -1.24593186378479,
            "y": -0.17356999218463899
        },
        {
            "x": 1.4254326820373536,
            "y": -0.31066444516181948
        },
        {
            "x": -1.0050806999206544,
            "y": 0.2958831191062927
        }
    ],
    "triangles": [
        1,
        0,
        2
    ],
    "carDensity": 3.0,
    "suspension": 0.8853272199630737,
    "motorSpeed": 881,
    "frontDensity": 4.599999904632568,
    "frontRadius": 0.6589146256446838,
    "frontOffset": 0.9973455667495728,
    "backDensity": 2.799999952316284,
    "backRadius": 0.4848451018333435,
    "backOffset": -1.213829755783081,
    "score": 912,
    "maxDistance": 834,
    "maxTime": 106.0
}{
    "ID": 96015,
    "genomaID": "CV3TD11",
    "color": {
        "x": 0.6712844967842102,
        "y": 0.42500942945480349,
        "z": 0.8594748973846436
    },
    "vertexNumber": 3,
    "colliderVertices": [
        {
            "x": -1.24593186378479,
            "y": -0.17356999218463899
        },
        {
            "x": 1.4254326820373536,
            "y": -0.31066444516181948
        },
        {
            "x": -1.0050806999206544,
            "y": 0.2958831191062927
        }
    ],
    "triangles": [
        1,
        0,
        2
    ],
    "carDensity": 3.0,
    "suspension": 0.8284446597099304,
    "motorSpeed": 880,
    "frontDensity": 4.599999904632568,
    "frontRadius": 0.6648858785629273,
    "frontOffset": 1.0049322843551636,
    "backDensity": 3.4000000953674318,
    "backRadius": 0.5350871086120606,
    "backOffset": -1.225332498550415,
    "score": 910,
    "maxDistance": 830,
    "maxTime": 104.0
}{
    "ID": 96119,
    "genomaID": "CV3TD11",
    "color": {
        "x": 0.24064531922340394,
        "y": 0.7900550365447998,
        "z": 0.11062611639499664
    },
    "vertexNumber": 3,
    "colliderVertices": [
        {
            "x": -1.448728084564209,
            "y": -0.4206351041793823
        },
        {
            "x": 1.2341947555541993,
            "y": -0.4096236228942871
        },
        {
            "x": -0.7727158069610596,
            "y": 0.05484116077423096
        }
    ],
    "triangles": [
        1,
        0,
        2
    ],
    "carDensity": 3.0,
    "suspension": 0.6576764583587647,
    "motorSpeed": 1087,
    "frontDensity": 4.800000190734863,
    "frontRadius": 0.6804202795028687,
    "frontOffset": 1.2780784368515015,
    "backDensity": 3.0,
    "backRadius": 0.5007303357124329,
    "backOffset": -1.2692713737487794,
    "score": 17,
    "maxDistance": 4,
    "maxTime": 3.0
}{
    "ID": 96084,
    "genomaID": "CV3TD8",
    "color": {
        "x": 0.6245480179786682,
        "y": 0.6591420769691467,
        "z": 0.2456893026828766
    },
    "vertexNumber": 3,
    "colliderVertices": [
        {
            "x": -1.448728084564209,
            "y": -0.4206351041793823
        },
        {
            "x": 1.2341947555541993,
            "y": -0.4096236228942871
        },
        {
            "x": -0.7727158069610596,
            "y": 0.05484116077423096
        }
    ],
    "triangles": [
        1,
        0,
        2
    ],
    "carDensity": 3.0,
    "suspension": 0.6290628910064697,
    "motorSpeed": 1438,
    "frontDensity": 2.0,
    "frontRadius": 0.40346115827560427,
    "frontOffset": 0.8517569303512573,
    "backDensity": 2.799999952316284,
    "backRadius": 0.4793315827846527,
    "backOffset": -0.8486577272415161,
    "score": -11,
    "maxDistance": -1,
    "maxTime": 1.0
}