{
    "ID": 33703,
    "genomaID": "CV3TD11",
    "color": {
        "x": 0.33203521370887759,
        "y": 0.6631348729133606,
        "z": 0.6886522173881531
    },
    "vertexNumber": 3,
    "colliderVertices": [
        {
            "x": -1.3943984508514405,
            "y": -0.31335577368736269
        },
        {
            "x": 1.2462581396102906,
            "y": -0.3336595594882965
        },
        {
            "x": 0.0847771167755127,
            "y": 0.07915830612182617
        }
    ],
    "triangles": [
        1,
        0,
        2
    ],
    "carDensity": 3.0,
    "suspension": 0.9714298248291016,
    "motorSpeed": 1113,
    "frontDensity": 4.599999904632568,
    "frontRadius": 0.65940922498703,
    "frontOffset": 1.2589763402938843,
    "backDensity": 3.299999952316284,
    "backRadius": 0.5261764526367188,
    "backOffset": -1.461387038230896,
    "score": 918,
    "maxDistance": 833,
    "maxTime": 98.0
}{
    "ID": 33760,
    "genomaID": "CV3TD11",
    "color": {
        "x": 0.8434851169586182,
        "y": 0.3895016312599182,
        "z": 0.015743853524327279
    },
    "vertexNumber": 3,
    "colliderVertices": [
        {
            "x": -1.4167654514312745,
            "y": -0.05450911074876785
        },
        {
            "x": 1.4079196453094483,
            "y": -0.3937686085700989
        },
        {
            "x": -1.247361660003662,
            "y": 0.22769761085510255
        }
    ],
    "triangles": [
        1,
        0,
        2
    ],
    "carDensity": 3.0,
    "suspension": 0.44655922055244448,
    "motorSpeed": 879,
    "frontDensity": 4.699999809265137,
    "frontRadius": 0.6665397882461548,
    "frontOffset": 1.1811506748199463,
    "backDensity": 3.299999952316284,
    "backRadius": 0.5260943174362183,
    "backOffset": -1.3897497653961182,
    "score": 913,
    "maxDistance": 833,
    "maxTime": 105.0
}{
    "ID": 33791,
    "genomaID": "CV3TD11",
    "color": {
        "x": 0.43907028436660769,
        "y": 0.31042757630348208,
        "z": 0.19297173619270326
    },
    "vertexNumber": 3,
    "colliderVertices": [
        {
            "x": -1.4167654514312745,
            "y": -0.05450911074876785
        },
        {
            "x": 1.4079196453094483,
            "y": -0.3937686085700989
        },
        {
            "x": -1.247361660003662,
            "y": 0.22769761085510255
        }
    ],
    "triangles": [
        1,
        0,
        2
    ],
    "carDensity": 3.0,
    "suspension": 0.8414841890335083,
    "motorSpeed": 894,
    "frontDensity": 4.599999904632568,
    "frontRadius": 0.6557742357254028,
    "frontOffset": 1.4522438049316407,
    "backDensity": 3.0,
    "backRadius": 0.49757829308509829,
    "backOffset": -1.1238240003585816,
    "score": 912,
    "maxDistance": 833,
    "maxTime": 105.0
}{
    "ID": 33672,
    "genomaID": "CV3TD9",
    "color": {
        "x": 0.4611632227897644,
        "y": 0.6206987500190735,
        "z": 0.4823681712150574
    },
    "vertexNumber": 3,
    "colliderVertices": [
        {
            "x": -1.4167654514312745,
            "y": -0.05450911074876785
        },
        {
            "x": 1.4079196453094483,
            "y": -0.3937686085700989
        },
        {
            "x": -1.247361660003662,
            "y": 0.22769761085510255
        }
    ],
    "triangles": [
        1,
        0,
        2
    ],
    "carDensity": 3.0,
    "suspension": 0.8259621262550354,
    "motorSpeed": 894,
    "frontDensity": 2.5999999046325685,
    "frontRadius": 0.46131816506385805,
    "frontOffset": 0.5008435249328613,
    "backDensity": 3.0,
    "backRadius": 0.49757829308509829,
    "backOffset": -1.2041223049163819,
    "score": 13,
    "maxDistance": 2,
    "maxTime": 2.0
}{
    "ID": 33772,
    "genomaID": "CV3TD11",
    "color": {
        "x": 0.2748730480670929,
        "y": 0.19846823811531068,
        "z": 0.7138980031013489
    },
    "vertexNumber": 3,
    "colliderVertices": [
        {
            "x": -1.4167654514312745,
            "y": -0.05450911074876785
        },
        {
            "x": 1.4079196453094483,
            "y": -0.3937686085700989
        },
        {
            "x": -1.247361660003662,
            "y": 0.22769761085510255
        }
    ],
    "triangles": [
        1,
        0,
        2
    ],
    "carDensity": 3.0,
    "suspension": 0.7439049482345581,
    "motorSpeed": 1145,
    "frontDensity": 4.599999904632568,
    "frontRadius": 0.6557742357254028,
    "frontOffset": 0.859416127204895,
    "backDensity": 3.299999952316284,
    "backRadius": 0.5326175689697266,
    "backOffset": -1.299490213394165,
    "score": 0,
    "maxDistance": 0,
    "maxTime": 1.0
}