{
    "ID": 99840,
    "genomaID": "CV3TD11",
    "color": {
        "x": 0.16537119448184968,
        "y": 0.9236080646514893,
        "z": 0.8277966976165772
    },
    "vertexNumber": 3,
    "colliderVertices": [
        {
            "x": -1.448728084564209,
            "y": -0.4206351041793823
        },
        {
            "x": 1.2341947555541993,
            "y": -0.4096236228942871
        },
        {
            "x": -0.7727158069610596,
            "y": 0.05484116077423096
        }
    ],
    "triangles": [
        1,
        0,
        2
    ],
    "carDensity": 3.0,
    "suspension": 0.9540941119194031,
    "motorSpeed": 1373,
    "frontDensity": 4.900000095367432,
    "frontRadius": 0.6881802082061768,
    "frontOffset": 0.8695203065872192,
    "backDensity": 3.200000047683716,
    "backRadius": 0.5174224376678467,
    "backOffset": -1.2692713737487794,
    "score": 941,
    "maxDistance": 830,
    "maxTime": 75.0
}{
    "ID": 99999,
    "genomaID": "CV3TD12",
    "color": {
        "x": 0.6575701832771301,
        "y": 0.868037223815918,
        "z": 0.03163004294037819
    },
    "vertexNumber": 3,
    "colliderVertices": [
        {
            "x": -1.448728084564209,
            "y": -0.4206351041793823
        },
        {
            "x": 1.2341947555541993,
            "y": -0.4096236228942871
        },
        {
            "x": -0.7727158069610596,
            "y": 0.05484116077423096
        }
    ],
    "triangles": [
        1,
        0,
        2
    ],
    "carDensity": 3.0,
    "suspension": 0.7149876356124878,
    "motorSpeed": 850,
    "frontDensity": 4.900000095367432,
    "frontRadius": 0.6881802082061768,
    "frontOffset": 0.6813077926635742,
    "backDensity": 3.700000047683716,
    "backRadius": 0.5658549070358276,
    "backOffset": -1.2692713737487794,
    "score": 913,
    "maxDistance": 833,
    "maxTime": 104.0
}{
    "ID": 99987,
    "genomaID": "CV3TD11",
    "color": {
        "x": 0.7706644535064697,
        "y": 0.6154133677482605,
        "z": 0.4819989800453186
    },
    "vertexNumber": 3,
    "colliderVertices": [
        {
            "x": -1.448728084564209,
            "y": -0.4206351041793823
        },
        {
            "x": 1.2341947555541993,
            "y": -0.4096236228942871
        },
        {
            "x": -0.7727158069610596,
            "y": 0.05484116077423096
        }
    ],
    "triangles": [
        1,
        0,
        2
    ],
    "carDensity": 3.0,
    "suspension": 0.44088688492774966,
    "motorSpeed": 850,
    "frontDensity": 4.599999904632568,
    "frontRadius": 0.6580060720443726,
    "frontOffset": 0.9227241277694702,
    "backDensity": 3.4000000953674318,
    "backRadius": 0.5370846390724182,
    "backOffset": -1.3696680068969727,
    "score": 911,
    "maxDistance": 833,
    "maxTime": 107.0
}{
    "ID": 99924,
    "genomaID": "CV3TD10",
    "color": {
        "x": 0.6774768233299255,
        "y": 0.7049570679664612,
        "z": 0.9311487674713135
    },
    "vertexNumber": 3,
    "colliderVertices": [
        {
            "x": -1.448728084564209,
            "y": -0.4206351041793823
        },
        {
            "x": 1.2341947555541993,
            "y": -0.4096236228942871
        },
        {
            "x": -0.7727158069610596,
            "y": 0.05484116077423096
        }
    ],
    "triangles": [
        1,
        0,
        2
    ],
    "carDensity": 3.0,
    "suspension": 0.9764907360076904,
    "motorSpeed": 850,
    "frontDensity": 4.199999809265137,
    "frontRadius": 0.6241196990013123,
    "frontOffset": 1.1130911111831666,
    "backDensity": 3.4000000953674318,
    "backRadius": 0.5370846390724182,
    "backOffset": -1.2711312770843506,
    "score": 24,
    "maxDistance": 4,
    "maxTime": 2.0
}{
    "ID": 99989,
    "genomaID": "CV6TD12",
    "color": {
        "x": 0.6000825762748718,
        "y": 0.659334123134613,
        "z": 0.9595612287521362
    },
    "vertexNumber": 6,
    "colliderVertices": [
        {
            "x": -1.0446131229400635,
            "y": -0.008954168297350407
        },
        {
            "x": 1.497446060180664,
            "y": -0.048453815281391147
        },
        {
            "x": -0.6446592807769775,
            "y": 0.12999022006988526
        },
        {
            "x": -0.9967801570892334,
            "y": 0.24248743057250977
        },
        {
            "x": -1.326819896697998,
            "y": 0.5312581658363342
        },
        {
            "x": -1.7541074752807618,
            "y": 0.5209370255470276
        }
    ],
    "triangles": [
        0,
        5,
        3,
        3,
        2,
        0,
        5,
        4,
        3,
        2,
        1,
        0
    ],
    "carDensity": 6.0,
    "suspension": 0.8950645327568054,
    "motorSpeed": 850,
    "frontDensity": 3.700000047683716,
    "frontRadius": 0.5694456696510315,
    "frontOffset": 1.1773121356964112,
    "backDensity": 2.5,
    "backRadius": 0.448358416557312,
    "backOffset": -1.0731397867202759,
    "score": 0,
    "maxDistance": 0,
    "maxTime": 1.0
}