{
    "ID": 114070,
    "genomaID": "CV3TD11",
    "color": {
        "x": 0.29777243733406069,
        "y": 0.7550115585327148,
        "z": 0.47786659002304079
    },
    "vertexNumber": 3,
    "colliderVertices": [
        {
            "x": -1.2047429084777833,
            "y": -0.4736526608467102
        },
        {
            "x": 1.5994837284088135,
            "y": -0.38594192266464236
        },
        {
            "x": -0.7958810329437256,
            "y": 0.8463958501815796
        }
    ],
    "triangles": [
        1,
        0,
        2
    ],
    "carDensity": 3.0,
    "suspension": 0.7250230312347412,
    "motorSpeed": 896,
    "frontDensity": 4.900000095367432,
    "frontRadius": 0.6907195448875427,
    "frontOffset": 0.8519891500473023,
    "backDensity": 3.4000000953674318,
    "backRadius": 0.5432265996932983,
    "backOffset": -1.3460214138031006,
    "score": 916,
    "maxDistance": 833,
    "maxTime": 100.0
}{
    "ID": 114171,
    "genomaID": "CV3TD12",
    "color": {
        "x": 0.4488270878791809,
        "y": 0.05411756783723831,
        "z": 0.6737887263298035
    },
    "vertexNumber": 3,
    "colliderVertices": [
        {
            "x": -1.448728084564209,
            "y": -0.4206351041793823
        },
        {
            "x": 1.2341947555541993,
            "y": -0.4096236228942871
        },
        {
            "x": -0.7727158069610596,
            "y": 0.05484116077423096
        }
    ],
    "triangles": [
        1,
        0,
        2
    ],
    "carDensity": 3.0,
    "suspension": 0.7049601078033447,
    "motorSpeed": 850,
    "frontDensity": 4.900000095367432,
    "frontRadius": 0.6907195448875427,
    "frontOffset": 1.0363835096359254,
    "backDensity": 3.700000047683716,
    "backRadius": 0.5729662179946899,
    "backOffset": -1.3460214138031006,
    "score": 914,
    "maxDistance": 833,
    "maxTime": 103.0
}{
    "ID": 114107,
    "genomaID": "CV3TD10",
    "color": {
        "x": 0.4525945782661438,
        "y": 0.32109811902046206,
        "z": 0.4646300673484802
    },
    "vertexNumber": 3,
    "colliderVertices": [
        {
            "x": -1.448728084564209,
            "y": -0.4206351041793823
        },
        {
            "x": 1.2341947555541993,
            "y": -0.4096236228942871
        },
        {
            "x": -0.7727158069610596,
            "y": 0.05484116077423096
        }
    ],
    "triangles": [
        1,
        0,
        2
    ],
    "carDensity": 3.0,
    "suspension": 0.5186240673065186,
    "motorSpeed": 850,
    "frontDensity": 5.0,
    "frontRadius": 0.6975833773612976,
    "frontOffset": 1.4237403869628907,
    "backDensity": 2.299999952316284,
    "backRadius": 0.4302878975868225,
    "backOffset": -0.8090482354164124,
    "score": 912,
    "maxDistance": 833,
    "maxTime": 105.0
}{
    "ID": 114092,
    "genomaID": "CV3TD9",
    "color": {
        "x": 0.2748042643070221,
        "y": 0.5898453593254089,
        "z": 0.35423484444618227
    },
    "vertexNumber": 3,
    "colliderVertices": [
        {
            "x": -1.448728084564209,
            "y": -0.4206351041793823
        },
        {
            "x": 1.2341947555541993,
            "y": -0.4096236228942871
        },
        {
            "x": -0.7727158069610596,
            "y": 0.05484116077423096
        }
    ],
    "triangles": [
        1,
        0,
        2
    ],
    "carDensity": 3.0,
    "suspension": 0.6491949558258057,
    "motorSpeed": 850,
    "frontDensity": 2.799999952316284,
    "frontRadius": 0.4825974404811859,
    "frontOffset": 0.9876583814620972,
    "backDensity": 3.4000000953674318,
    "backRadius": 0.5432286858558655,
    "backOffset": -1.1750801801681519,
    "score": 32,
    "maxDistance": 5,
    "maxTime": 2.0
}{
    "ID": 114188,
    "genomaID": "CV3TD9",
    "color": {
        "x": 0.7009046673774719,
        "y": 0.348634272813797,
        "z": 0.8699125051498413
    },
    "vertexNumber": 3,
    "colliderVertices": [
        {
            "x": -1.448728084564209,
            "y": -0.4206351041793823
        },
        {
            "x": 1.2341947555541993,
            "y": -0.4096236228942871
        },
        {
            "x": -0.7727158069610596,
            "y": 0.05484116077423096
        }
    ],
    "triangles": [
        1,
        0,
        2
    ],
    "carDensity": 3.0,
    "suspension": 0.5186240673065186,
    "motorSpeed": 1183,
    "frontDensity": 4.099999904632568,
    "frontRadius": 0.6063235998153687,
    "frontOffset": 0.9439176321029663,
    "backDensity": 2.299999952316284,
    "backRadius": 0.4302878975868225,
    "backOffset": -0.8090482354164124,
    "score": 0,
    "maxDistance": 0,
    "maxTime": 1.0
}