{
    "ID": 31052,
    "genomaID": "CV3TD10",
    "color": {
        "x": 0.1909351646900177,
        "y": 0.7012000679969788,
        "z": 0.7795767784118652
    },
    "vertexNumber": 3,
    "colliderVertices": [
        {
            "x": -1.4167654514312745,
            "y": -0.05450911074876785
        },
        {
            "x": 1.4079196453094483,
            "y": -0.3937686085700989
        },
        {
            "x": -1.247361660003662,
            "y": 0.22769761085510255
        }
    ],
    "triangles": [
        1,
        0,
        2
    ],
    "carDensity": 3.0,
    "suspension": 0.6396617293357849,
    "motorSpeed": 1180,
    "frontDensity": 4.5,
    "frontRadius": 0.6539081931114197,
    "frontOffset": 1.2672914266586304,
    "backDensity": 3.0999999046325685,
    "backRadius": 0.5129175782203674,
    "backOffset": -1.2783496379852296,
    "score": 924,
    "maxDistance": 834,
    "maxTime": 93.0
}{
    "ID": 31160,
    "genomaID": "CV3TD10",
    "color": {
        "x": 0.8434851169586182,
        "y": 0.3895016312599182,
        "z": 0.015743853524327279
    },
    "vertexNumber": 3,
    "colliderVertices": [
        {
            "x": -1.4167654514312745,
            "y": -0.05450911074876785
        },
        {
            "x": 1.4079196453094483,
            "y": -0.3937686085700989
        },
        {
            "x": -1.247361660003662,
            "y": 0.22769761085510255
        }
    ],
    "triangles": [
        1,
        0,
        2
    ],
    "carDensity": 3.0,
    "suspension": 0.7329616546630859,
    "motorSpeed": 884,
    "frontDensity": 4.5,
    "frontRadius": 0.6487516760826111,
    "frontOffset": 1.4058659076690674,
    "backDensity": 3.299999952316284,
    "backRadius": 0.5281961560249329,
    "backOffset": -1.433595895767212,
    "score": 913,
    "maxDistance": 834,
    "maxTime": 106.0
}{
    "ID": 31200,
    "genomaID": "CV3TD11",
    "color": {
        "x": 0.7681076526641846,
        "y": 0.2796610891819,
        "z": 0.3934035897254944
    },
    "vertexNumber": 3,
    "colliderVertices": [
        {
            "x": -1.4167654514312745,
            "y": -0.05450911074876785
        },
        {
            "x": 1.4079196453094483,
            "y": -0.3937686085700989
        },
        {
            "x": -1.247361660003662,
            "y": 0.22769761085510255
        }
    ],
    "triangles": [
        1,
        0,
        2
    ],
    "carDensity": 3.0,
    "suspension": 0.5765745043754578,
    "motorSpeed": 861,
    "frontDensity": 4.599999904632568,
    "frontRadius": 0.6557742357254028,
    "frontOffset": 0.6861507892608643,
    "backDensity": 3.0,
    "backRadius": 0.49843716621398928,
    "backOffset": -1.3342660665512086,
    "score": 909,
    "maxDistance": 832,
    "maxTime": 109.0
}{
    "ID": 31074,
    "genomaID": "CV3TD11",
    "color": {
        "x": 0.9591555595397949,
        "y": 0.6271639466285706,
        "z": 0.0692058876156807
    },
    "vertexNumber": 3,
    "colliderVertices": [
        {
            "x": -1.4167654514312745,
            "y": -0.05450911074876785
        },
        {
            "x": 1.4079196453094483,
            "y": -0.3937686085700989
        },
        {
            "x": -1.247361660003662,
            "y": 0.22769761085510255
        }
    ],
    "triangles": [
        1,
        0,
        2
    ],
    "carDensity": 3.0,
    "suspension": 0.6396617293357849,
    "motorSpeed": 894,
    "frontDensity": 4.5,
    "frontRadius": 0.6539081931114197,
    "frontOffset": 1.2672914266586304,
    "backDensity": 4.0,
    "backRadius": 0.6016528606414795,
    "backOffset": -1.2783496379852296,
    "score": 18,
    "maxDistance": 3,
    "maxTime": 2.0
}{
    "ID": 31189,
    "genomaID": "CV3TD8",
    "color": {
        "x": 0.6000825762748718,
        "y": 0.659334123134613,
        "z": 0.9595612287521362
    },
    "vertexNumber": 3,
    "colliderVertices": [
        {
            "x": -1.4167654514312745,
            "y": -0.05450911074876785
        },
        {
            "x": 1.4079196453094483,
            "y": -0.3937686085700989
        },
        {
            "x": -1.247361660003662,
            "y": 0.22769761085510255
        }
    ],
    "triangles": [
        1,
        0,
        2
    ],
    "carDensity": 3.0,
    "suspension": 0.6268689632415772,
    "motorSpeed": 884,
    "frontDensity": 2.200000047683716,
    "frontRadius": 0.42334914207458498,
    "frontOffset": 0.6287012100219727,
    "backDensity": 3.299999952316284,
    "backRadius": 0.5281961560249329,
    "backOffset": -1.4630100727081299,
    "score": 0,
    "maxDistance": -1,
    "maxTime": 1.0
}