{
    "ID": 89801,
    "genomaID": "CV3TD12",
    "color": {
        "x": 0.38835567235946658,
        "y": 0.05267573148012161,
        "z": 0.386147677898407
    },
    "vertexNumber": 3,
    "colliderVertices": [
        {
            "x": -1.448728084564209,
            "y": -0.4206351041793823
        },
        {
            "x": 1.2341947555541993,
            "y": -0.4096236228942871
        },
        {
            "x": -0.7727158069610596,
            "y": 0.05484116077423096
        }
    ],
    "triangles": [
        1,
        0,
        2
    ],
    "carDensity": 3.0,
    "suspension": 0.7980523705482483,
    "motorSpeed": 850,
    "frontDensity": 4.900000095367432,
    "frontRadius": 0.6907195448875427,
    "frontOffset": 1.492254614830017,
    "backDensity": 3.799999952316284,
    "backRadius": 0.5758593678474426,
    "backOffset": -1.089877963066101,
    "score": 915,
    "maxDistance": 833,
    "maxTime": 102.0
}{
    "ID": 89905,
    "genomaID": "CV3TD11",
    "color": {
        "x": 0.4780673384666443,
        "y": 0.0060458192601799969,
        "z": 0.23249772191047669
    },
    "vertexNumber": 3,
    "colliderVertices": [
        {
            "x": -1.24593186378479,
            "y": -0.17356999218463899
        },
        {
            "x": 1.4254326820373536,
            "y": -0.31066444516181948
        },
        {
            "x": -1.0050806999206544,
            "y": 0.2958831191062927
        }
    ],
    "triangles": [
        1,
        0,
        2
    ],
    "carDensity": 3.0,
    "suspension": 0.4752851128578186,
    "motorSpeed": 850,
    "frontDensity": 4.800000190734863,
    "frontRadius": 0.6797356009483337,
    "frontOffset": 0.8346396684646606,
    "backDensity": 3.4000000953674318,
    "backRadius": 0.5381521582603455,
    "backOffset": -1.2843021154403687,
    "score": 912,
    "maxDistance": 833,
    "maxTime": 106.0
}{
    "ID": 89891,
    "genomaID": "CV3TD10",
    "color": {
        "x": 0.4594835638999939,
        "y": 0.552699863910675,
        "z": 0.8818554878234863
    },
    "vertexNumber": 3,
    "colliderVertices": [
        {
            "x": -1.24593186378479,
            "y": -0.17356999218463899
        },
        {
            "x": 1.4254326820373536,
            "y": -0.31066444516181948
        },
        {
            "x": -1.0050806999206544,
            "y": 0.2958831191062927
        }
    ],
    "triangles": [
        1,
        0,
        2
    ],
    "carDensity": 3.0,
    "suspension": 0.4752851128578186,
    "motorSpeed": 850,
    "frontDensity": 4.800000190734863,
    "frontRadius": 0.6797356009483337,
    "frontOffset": 0.8346396684646606,
    "backDensity": 2.200000047683716,
    "backRadius": 0.4240801930427551,
    "backOffset": -1.2843021154403687,
    "score": 910,
    "maxDistance": 833,
    "maxTime": 108.0
}{
    "ID": 89850,
    "genomaID": "CV3TD12",
    "color": {
        "x": 0.25414803624153139,
        "y": 0.6976225972175598,
        "z": 0.8672903776168823
    },
    "vertexNumber": 3,
    "colliderVertices": [
        {
            "x": -1.448728084564209,
            "y": -0.4206351041793823
        },
        {
            "x": 1.2341947555541993,
            "y": -0.4096236228942871
        },
        {
            "x": -0.7727158069610596,
            "y": 0.05484116077423096
        }
    ],
    "triangles": [
        1,
        0,
        2
    ],
    "carDensity": 3.0,
    "suspension": 0.7693219780921936,
    "motorSpeed": 597,
    "frontDensity": 4.900000095367432,
    "frontRadius": 0.6907195448875427,
    "frontOffset": 0.8779584169387817,
    "backDensity": 3.700000047683716,
    "backRadius": 0.5726330280303955,
    "backOffset": -1.2391293048858643,
    "score": 24,
    "maxDistance": 4,
    "maxTime": 2.0
}{
    "ID": 89943,
    "genomaID": "CV3TD10",
    "color": {
        "x": 0.033374909311532977,
        "y": 0.6836089491844177,
        "z": 0.6072254776954651
    },
    "vertexNumber": 3,
    "colliderVertices": [
        {
            "x": -1.448728084564209,
            "y": -0.4206351041793823
        },
        {
            "x": 1.2341947555541993,
            "y": -0.4096236228942871
        },
        {
            "x": -0.7727158069610596,
            "y": 0.05484116077423096
        }
    ],
    "triangles": [
        1,
        0,
        2
    ],
    "carDensity": 3.0,
    "suspension": 0.7211733460426331,
    "motorSpeed": 898,
    "frontDensity": 2.799999952316284,
    "frontRadius": 0.48273584246635439,
    "frontOffset": 0.8779584169387817,
    "backDensity": 4.0,
    "backRadius": 0.5967223644256592,
    "backOffset": -1.4971814155578614,
    "score": -11,
    "maxDistance": -1,
    "maxTime": 1.0
}