{
    "ID": 52901,
    "genomaID": "CV3TD11",
    "color": {
        "x": 0.0397876538336277,
        "y": 0.858208179473877,
        "z": 0.30803385376930239
    },
    "vertexNumber": 3,
    "colliderVertices": [
        {
            "x": -1.3322129249572755,
            "y": -0.3242015540599823
        },
        {
            "x": 1.406930685043335,
            "y": -0.39797013998031618
        },
        {
            "x": -1.7638306617736817,
            "y": 0.37279003858566286
        }
    ],
    "triangles": [
        1,
        0,
        2
    ],
    "carDensity": 3.0,
    "suspension": 0.49643656611442568,
    "motorSpeed": 936,
    "frontDensity": 4.800000190734863,
    "frontRadius": 0.6832131743431091,
    "frontOffset": 1.4890739917755128,
    "backDensity": 3.299999952316284,
    "backRadius": 0.5317313075065613,
    "backOffset": -1.1502506732940674,
    "score": 917,
    "maxDistance": 832,
    "maxTime": 98.0
}{
    "ID": 52902,
    "genomaID": "CV3TD11",
    "color": {
        "x": 0.5671970248222351,
        "y": 0.8228640556335449,
        "z": 0.031154993921518327
    },
    "vertexNumber": 3,
    "colliderVertices": [
        {
            "x": -1.3322129249572755,
            "y": -0.3242015540599823
        },
        {
            "x": 1.406930685043335,
            "y": -0.39797013998031618
        },
        {
            "x": -1.7638306617736817,
            "y": 0.37279003858566286
        }
    ],
    "triangles": [
        1,
        0,
        2
    ],
    "carDensity": 3.0,
    "suspension": 0.7545968890190125,
    "motorSpeed": 856,
    "frontDensity": 4.800000190734863,
    "frontRadius": 0.6772812604904175,
    "frontOffset": 0.6434839963912964,
    "backDensity": 3.0999999046325685,
    "backRadius": 0.5132067203521729,
    "backOffset": -1.4466962814331055,
    "score": 912,
    "maxDistance": 834,
    "maxTime": 107.0
}{
    "ID": 52851,
    "genomaID": "CV3TD11",
    "color": {
        "x": 0.32096853852272036,
        "y": 0.557489812374115,
        "z": 0.332051545381546
    },
    "vertexNumber": 3,
    "colliderVertices": [
        {
            "x": -1.3322129249572755,
            "y": -0.3242015540599823
        },
        {
            "x": 1.406930685043335,
            "y": -0.39797013998031618
        },
        {
            "x": -1.7638306617736817,
            "y": 0.37279003858566286
        }
    ],
    "triangles": [
        1,
        0,
        2
    ],
    "carDensity": 3.0,
    "suspension": 0.8336954712867737,
    "motorSpeed": 879,
    "frontDensity": 4.800000190734863,
    "frontRadius": 0.6832131743431091,
    "frontOffset": 1.3100416660308838,
    "backDensity": 3.299999952316284,
    "backRadius": 0.5302814841270447,
    "backOffset": -1.2056125402450562,
    "score": 908,
    "maxDistance": 828,
    "maxTime": 103.0
}{
    "ID": 52825,
    "genomaID": "CV6TD12",
    "color": {
        "x": 0.42219966650009158,
        "y": 0.9523158073425293,
        "z": 0.8046450614929199
    },
    "vertexNumber": 6,
    "colliderVertices": [
        {
            "x": -1.0505720376968384,
            "y": -0.21693876385688783
        },
        {
            "x": 1.040652871131897,
            "y": -0.3832799196243286
        },
        {
            "x": 0.9827608466148377,
            "y": 0.913884162902832
        },
        {
            "x": 0.17196345329284669,
            "y": 0.10105550289154053
        },
        {
            "x": -1.4367446899414063,
            "y": 0.4194781184196472
        },
        {
            "x": -1.937187671661377,
            "y": 0.833003044128418
        }
    ],
    "triangles": [
        0,
        4,
        3,
        3,
        1,
        0,
        0,
        5,
        4,
        3,
        2,
        1
    ],
    "carDensity": 6.0,
    "suspension": 0.6716330647468567,
    "motorSpeed": 879,
    "frontDensity": 3.299999952316284,
    "frontRadius": 0.5268633961677551,
    "frontOffset": 0.9029663801193237,
    "backDensity": 3.299999952316284,
    "backRadius": 0.5320625901222229,
    "backOffset": -1.249044418334961,
    "score": 20,
    "maxDistance": 3,
    "maxTime": 2.0
}{
    "ID": 52995,
    "genomaID": "CV3TD11",
    "color": {
        "x": 0.8922040462493897,
        "y": 0.16881419718265534,
        "z": 0.9950582981109619
    },
    "vertexNumber": 3,
    "colliderVertices": [
        {
            "x": -1.3322129249572755,
            "y": -0.3242015540599823
        },
        {
            "x": 1.406930685043335,
            "y": -0.39797013998031618
        },
        {
            "x": -1.7638306617736817,
            "y": 0.37279003858566286
        }
    ],
    "triangles": [
        1,
        0,
        2
    ],
    "carDensity": 3.0,
    "suspension": 0.8709093928337097,
    "motorSpeed": 879,
    "frontDensity": 4.199999809265137,
    "frontRadius": 0.6233158111572266,
    "frontOffset": 1.1907541751861573,
    "backDensity": 3.5,
    "backRadius": 0.5500476360321045,
    "backOffset": -1.0924335718154908,
    "score": 0,
    "maxDistance": 0,
    "maxTime": 1.0
}