{
    "ID": 101967,
    "genomaID": "CV3TD11",
    "color": {
        "x": 0.5547659993171692,
        "y": 0.021510722115635873,
        "z": 0.2571893036365509
    },
    "vertexNumber": 3,
    "colliderVertices": [
        {
            "x": -1.448728084564209,
            "y": -0.4206351041793823
        },
        {
            "x": 1.2341947555541993,
            "y": -0.4096236228942871
        },
        {
            "x": -0.7727158069610596,
            "y": 0.05484116077423096
        }
    ],
    "triangles": [
        1,
        0,
        2
    ],
    "carDensity": 3.0,
    "suspension": 0.7157554626464844,
    "motorSpeed": 1310,
    "frontDensity": 4.800000190734863,
    "frontRadius": 0.6770075559616089,
    "frontOffset": 0.7750387787818909,
    "backDensity": 3.4000000953674318,
    "backRadius": 0.5420628786087036,
    "backOffset": -1.2692713737487794,
    "score": 935,
    "maxDistance": 833,
    "maxTime": 82.0
}{
    "ID": 101927,
    "genomaID": "CV3TD11",
    "color": {
        "x": 0.571217954158783,
        "y": 0.08509636670351029,
        "z": 0.6377937197685242
    },
    "vertexNumber": 3,
    "colliderVertices": [
        {
            "x": -1.448728084564209,
            "y": -0.4206351041793823
        },
        {
            "x": 1.2341947555541993,
            "y": -0.4096236228942871
        },
        {
            "x": -0.7727158069610596,
            "y": 0.05484116077423096
        }
    ],
    "triangles": [
        1,
        0,
        2
    ],
    "carDensity": 3.0,
    "suspension": 0.7876683473587036,
    "motorSpeed": 844,
    "frontDensity": 4.900000095367432,
    "frontRadius": 0.6907195448875427,
    "frontOffset": 1.2168129682540894,
    "backDensity": 3.4000000953674318,
    "backRadius": 0.5370846390724182,
    "backOffset": -0.5354435443878174,
    "score": 913,
    "maxDistance": 834,
    "maxTime": 105.0
}{
    "ID": 101958,
    "genomaID": "CV3TD11",
    "color": {
        "x": 0.28277984261512759,
        "y": 0.37338748574256899,
        "z": 0.43425315618515017
    },
    "vertexNumber": 3,
    "colliderVertices": [
        {
            "x": -1.448728084564209,
            "y": -0.4206351041793823
        },
        {
            "x": 1.2341947555541993,
            "y": -0.4096236228942871
        },
        {
            "x": -0.7727158069610596,
            "y": 0.05484116077423096
        }
    ],
    "triangles": [
        1,
        0,
        2
    ],
    "carDensity": 3.0,
    "suspension": 0.7960718274116516,
    "motorSpeed": 792,
    "frontDensity": 4.900000095367432,
    "frontRadius": 0.6907195448875427,
    "frontOffset": 0.6249827146530151,
    "backDensity": 3.4000000953674318,
    "backRadius": 0.5370846390724182,
    "backOffset": -1.4619250297546387,
    "score": 910,
    "maxDistance": 834,
    "maxTime": 110.0
}{
    "ID": 101884,
    "genomaID": "CV3TD9",
    "color": {
        "x": 0.6245480179786682,
        "y": 0.6591420769691467,
        "z": 0.2456893026828766
    },
    "vertexNumber": 3,
    "colliderVertices": [
        {
            "x": -1.448728084564209,
            "y": -0.4206351041793823
        },
        {
            "x": 1.2341947555541993,
            "y": -0.4096236228942871
        },
        {
            "x": -0.7727158069610596,
            "y": 0.05484116077423096
        }
    ],
    "triangles": [
        1,
        0,
        2
    ],
    "carDensity": 3.0,
    "suspension": 0.9720667004585266,
    "motorSpeed": 850,
    "frontDensity": 3.0,
    "frontRadius": 0.49551764130592348,
    "frontOffset": 1.4163472652435303,
    "backDensity": 3.299999952316284,
    "backRadius": 0.532076895236969,
    "backOffset": -1.0713411569595338,
    "score": 24,
    "maxDistance": 4,
    "maxTime": 2.0
}{
    "ID": 101999,
    "genomaID": "CV3TD10",
    "color": {
        "x": 0.6575701832771301,
        "y": 0.868037223815918,
        "z": 0.03163004294037819
    },
    "vertexNumber": 3,
    "colliderVertices": [
        {
            "x": -1.448728084564209,
            "y": -0.4206351041793823
        },
        {
            "x": 1.2341947555541993,
            "y": -0.4096236228942871
        },
        {
            "x": -0.7727158069610596,
            "y": 0.05484116077423096
        }
    ],
    "triangles": [
        1,
        0,
        2
    ],
    "carDensity": 3.0,
    "suspension": 0.9155979156494141,
    "motorSpeed": 850,
    "frontDensity": 2.5999999046325685,
    "frontRadius": 0.45841825008392336,
    "frontOffset": 0.5218374729156494,
    "backDensity": 3.5,
    "backRadius": 0.54901522397995,
    "backOffset": -1.4542368650436402,
    "score": 0,
    "maxDistance": -1,
    "maxTime": 1.0
}