{
    "ID": 18324,
    "genomaID": "CV3TD10",
    "color": {
        "x": 0.6774768233299255,
        "y": 0.7049570679664612,
        "z": 0.9311487674713135
    },
    "vertexNumber": 3,
    "colliderVertices": [
        {
            "x": -1.4167654514312745,
            "y": -0.05450911074876785
        },
        {
            "x": 1.4079196453094483,
            "y": -0.3937686085700989
        },
        {
            "x": -1.247361660003662,
            "y": 0.22769761085510255
        }
    ],
    "triangles": [
        1,
        0,
        2
    ],
    "carDensity": 3.0,
    "suspension": 0.8458947539329529,
    "motorSpeed": 920,
    "frontDensity": 4.400000095367432,
    "frontRadius": 0.6439106464385986,
    "frontOffset": 0.6031671762466431,
    "backDensity": 3.200000047683716,
    "backRadius": 0.5158115029335022,
    "backOffset": -1.1638931035995484,
    "score": 915,
    "maxDistance": 834,
    "maxTime": 103.0
}{
    "ID": 18370,
    "genomaID": "CV3TD9",
    "color": {
        "x": 0.8832259178161621,
        "y": 0.7785098552703857,
        "z": 0.18183256685733796
    },
    "vertexNumber": 3,
    "colliderVertices": [
        {
            "x": -1.6257870197296143,
            "y": -0.008286000229418278
        },
        {
            "x": 1.5057270526885987,
            "y": -0.021743299439549447
        },
        {
            "x": -1.0265865325927735,
            "y": 0.1485193967819214
        }
    ],
    "triangles": [
        1,
        0,
        2
    ],
    "carDensity": 3.0,
    "suspension": 0.8356080651283264,
    "motorSpeed": 884,
    "frontDensity": 4.300000190734863,
    "frontRadius": 0.6277180314064026,
    "frontOffset": 1.4647969007492066,
    "backDensity": 2.4000000953674318,
    "backRadius": 0.44405585527420046,
    "backOffset": -1.235920786857605,
    "score": 909,
    "maxDistance": 833,
    "maxTime": 109.0
}{
    "ID": 18309,
    "genomaID": "CV3TD8",
    "color": {
        "x": 0.3208238184452057,
        "y": 0.5311277508735657,
        "z": 0.3739834129810333
    },
    "vertexNumber": 3,
    "colliderVertices": [
        {
            "x": -1.6257870197296143,
            "y": -0.008286000229418278
        },
        {
            "x": 1.5057270526885987,
            "y": -0.021743299439549447
        },
        {
            "x": -1.0265865325927735,
            "y": 0.1485193967819214
        }
    ],
    "triangles": [
        1,
        0,
        2
    ],
    "carDensity": 3.0,
    "suspension": 0.6899106502532959,
    "motorSpeed": 884,
    "frontDensity": 2.9000000953674318,
    "frontRadius": 0.4940260052680969,
    "frontOffset": 0.5844601392745972,
    "backDensity": 2.200000047683716,
    "backRadius": 0.4225462079048157,
    "backOffset": -1.050449252128601,
    "score": 898,
    "maxDistance": 834,
    "maxTime": 131.0
}{
    "ID": 18225,
    "genomaID": "CV3TD9",
    "color": {
        "x": 0.42219966650009158,
        "y": 0.9523158073425293,
        "z": 0.8046450614929199
    },
    "vertexNumber": 3,
    "colliderVertices": [
        {
            "x": -1.4167654514312745,
            "y": -0.05450911074876785
        },
        {
            "x": 1.4079196453094483,
            "y": -0.3937686085700989
        },
        {
            "x": -1.247361660003662,
            "y": 0.22769761085510255
        }
    ],
    "triangles": [
        1,
        0,
        2
    ],
    "carDensity": 3.0,
    "suspension": 0.6658554077148438,
    "motorSpeed": 884,
    "frontDensity": 3.0,
    "frontRadius": 0.5012286901473999,
    "frontOffset": 0.7134264707565308,
    "backDensity": 2.799999952316284,
    "backRadius": 0.47794705629348757,
    "backOffset": -1.269133448600769,
    "score": 27,
    "maxDistance": 4,
    "maxTime": 2.0
}{
    "ID": 18394,
    "genomaID": "CV3TD10",
    "color": {
        "x": 0.7795941829681397,
        "y": 0.2871544659137726,
        "z": 0.42937761545181277
    },
    "vertexNumber": 3,
    "colliderVertices": [
        {
            "x": -1.6257870197296143,
            "y": -0.008286000229418278
        },
        {
            "x": 1.5057270526885987,
            "y": -0.021743299439549447
        },
        {
            "x": -1.0265865325927735,
            "y": 0.1485193967819214
        }
    ],
    "triangles": [
        1,
        0,
        2
    ],
    "carDensity": 3.0,
    "suspension": 0.9607073068618774,
    "motorSpeed": 884,
    "frontDensity": 5.0,
    "frontRadius": 0.6999577879905701,
    "frontOffset": 0.6258342266082764,
    "backDensity": 2.200000047683716,
    "backRadius": 0.4225462079048157,
    "backOffset": -1.050449252128601,
    "score": 0,
    "maxDistance": 0,
    "maxTime": 1.0
}