{
    "ID": 57706,
    "genomaID": "CV3TD12",
    "color": {
        "x": 0.5197533965110779,
        "y": 0.9451771974563599,
        "z": 0.4369392991065979
    },
    "vertexNumber": 3,
    "colliderVertices": [
        {
            "x": -1.3322129249572755,
            "y": -0.3242015540599823
        },
        {
            "x": 1.406930685043335,
            "y": -0.39797013998031618
        },
        {
            "x": -1.7638306617736817,
            "y": 0.37279003858566286
        }
    ],
    "triangles": [
        1,
        0,
        2
    ],
    "carDensity": 3.0,
    "suspension": 0.6380908489227295,
    "motorSpeed": 874,
    "frontDensity": 5.0,
    "frontRadius": 0.6973872184753418,
    "frontOffset": 0.7367465496063232,
    "backDensity": 3.5,
    "backRadius": 0.5492756366729736,
    "backOffset": -0.5175812244415283,
    "score": 915,
    "maxDistance": 833,
    "maxTime": 102.0
}{
    "ID": 57636,
    "genomaID": "CV3TD11",
    "color": {
        "x": 0.8729569911956787,
        "y": 0.9748997688293457,
        "z": 0.6180261969566345
    },
    "vertexNumber": 3,
    "colliderVertices": [
        {
            "x": -1.3322129249572755,
            "y": -0.3242015540599823
        },
        {
            "x": 1.406930685043335,
            "y": -0.39797013998031618
        },
        {
            "x": -1.7638306617736817,
            "y": 0.37279003858566286
        }
    ],
    "triangles": [
        1,
        0,
        2
    ],
    "carDensity": 3.0,
    "suspension": 0.49416792392730715,
    "motorSpeed": 877,
    "frontDensity": 4.800000190734863,
    "frontRadius": 0.6832131743431091,
    "frontOffset": 1.1224302053451539,
    "backDensity": 3.200000047683716,
    "backRadius": 0.5206743478775024,
    "backOffset": -1.1119917631149293,
    "score": 913,
    "maxDistance": 833,
    "maxTime": 104.0
}{
    "ID": 57718,
    "genomaID": "CV3TD11",
    "color": {
        "x": 0.8351825475692749,
        "y": 0.6088482737541199,
        "z": 0.9782909154891968
    },
    "vertexNumber": 3,
    "colliderVertices": [
        {
            "x": -1.8589117527008057,
            "y": -0.14955182373523713
        },
        {
            "x": 1.02250337600708,
            "y": -0.3449787199497223
        },
        {
            "x": 0.9577998518943787,
            "y": 0.6304314136505127
        }
    ],
    "triangles": [
        1,
        0,
        2
    ],
    "carDensity": 3.0,
    "suspension": 0.8841087222099304,
    "motorSpeed": 879,
    "frontDensity": 4.900000095367432,
    "frontRadius": 0.6941309571266174,
    "frontOffset": 1.3320858478546143,
    "backDensity": 3.299999952316284,
    "backRadius": 0.5337790250778198,
    "backOffset": -1.351586103439331,
    "score": 910,
    "maxDistance": 828,
    "maxTime": 102.0
}{
    "ID": 57698,
    "genomaID": "CV4TD13",
    "color": {
        "x": 0.2689395248889923,
        "y": 0.36797836422920229,
        "z": 0.9883663654327393
    },
    "vertexNumber": 4,
    "colliderVertices": [
        {
            "x": -1.6425840854644776,
            "y": -0.01893913932144642
        },
        {
            "x": 1.5302424430847169,
            "y": -0.2113610804080963
        },
        {
            "x": 0.6089295744895935,
            "y": 0.08967864513397217
        },
        {
            "x": -1.3789539337158204,
            "y": 0.18096256256103517
        }
    ],
    "triangles": [
        3,
        2,
        1,
        1,
        0,
        3
    ],
    "carDensity": 4.0,
    "suspension": 0.6165014505386353,
    "motorSpeed": 822,
    "frontDensity": 4.900000095367432,
    "frontRadius": 0.6890277862548828,
    "frontOffset": 0.9261432886123657,
    "backDensity": 3.700000047683716,
    "backRadius": 0.5718090534210205,
    "backOffset": -1.1776564121246338,
    "score": 13,
    "maxDistance": 2,
    "maxTime": 2.0
}{
    "ID": 57790,
    "genomaID": "CV5TD11",
    "color": {
        "x": 0.7507197856903076,
        "y": 0.8040612936019898,
        "z": 0.3491741716861725
    },
    "vertexNumber": 5,
    "colliderVertices": [
        {
            "x": -1.7081711292266846,
            "y": -0.42384642362594607
        },
        {
            "x": 1.5040349960327149,
            "y": -0.24385562539100648
        },
        {
            "x": -0.3251197338104248,
            "y": 0.24204111099243165
        },
        {
            "x": -0.3885071277618408,
            "y": 0.11015975475311279
        },
        {
            "x": -0.4316885471343994,
            "y": 0.3555256724357605
        }
    ],
    "triangles": [
        3,
        1,
        0,
        0,
        4,
        3,
        3,
        2,
        1
    ],
    "carDensity": 5.0,
    "suspension": 0.8744950294494629,
    "motorSpeed": 879,
    "frontDensity": 2.0999999046325685,
    "frontRadius": 0.41359949111938479,
    "frontOffset": 1.0328677892684937,
    "backDensity": 3.5,
    "backRadius": 0.5466935634613037,
    "backOffset": -0.9857598543167114,
    "score": 0,
    "maxDistance": 0,
    "maxTime": 1.0
}