{
    "ID": 85896,
    "genomaID": "CV3TD11",
    "color": {
        "x": 0.20144513249397279,
        "y": 0.27811673283576968,
        "z": 0.5601909756660461
    },
    "vertexNumber": 3,
    "colliderVertices": [
        {
            "x": -1.4517676830291749,
            "y": -0.3785870671272278
        },
        {
            "x": 1.0073214769363404,
            "y": -0.056303925812244418
        },
        {
            "x": 0.1018216609954834,
            "y": 0.5950250029563904
        }
    ],
    "triangles": [
        1,
        0,
        2
    ],
    "carDensity": 3.0,
    "suspension": 0.9511920809745789,
    "motorSpeed": 1064,
    "frontDensity": 4.900000095367432,
    "frontRadius": 0.6907195448875427,
    "frontOffset": 1.4972975254058838,
    "backDensity": 3.0999999046325685,
    "backRadius": 0.51302170753479,
    "backOffset": -1.0769416093826295,
    "score": 922,
    "maxDistance": 834,
    "maxTime": 95.0
}{
    "ID": 85868,
    "genomaID": "CV3TD10",
    "color": {
        "x": 0.15364433825016023,
        "y": 0.7010276913642883,
        "z": 0.2859936058521271
    },
    "vertexNumber": 3,
    "colliderVertices": [
        {
            "x": -1.448728084564209,
            "y": -0.4206351041793823
        },
        {
            "x": 1.2341947555541993,
            "y": -0.4096236228942871
        },
        {
            "x": -0.7727158069610596,
            "y": 0.05484116077423096
        }
    ],
    "triangles": [
        1,
        0,
        2
    ],
    "carDensity": 3.0,
    "suspension": 0.9535589218139648,
    "motorSpeed": 850,
    "frontDensity": 4.900000095367432,
    "frontRadius": 0.6907195448875427,
    "frontOffset": 1.4301793575286866,
    "backDensity": 2.4000000953674318,
    "backRadius": 0.43679946660995486,
    "backOffset": -1.0556248426437379,
    "score": 912,
    "maxDistance": 834,
    "maxTime": 106.0
}{
    "ID": 85821,
    "genomaID": "CV3TD10",
    "color": {
        "x": 0.32852211594581606,
        "y": 0.3939763903617859,
        "z": 0.050939805805683139
    },
    "vertexNumber": 3,
    "colliderVertices": [
        {
            "x": -1.4517676830291749,
            "y": -0.3785870671272278
        },
        {
            "x": 1.0073214769363404,
            "y": -0.056303925812244418
        },
        {
            "x": 0.1018216609954834,
            "y": 0.5950250029563904
        }
    ],
    "triangles": [
        1,
        0,
        2
    ],
    "carDensity": 3.0,
    "suspension": 0.6074643135070801,
    "motorSpeed": 850,
    "frontDensity": 4.900000095367432,
    "frontRadius": 0.6864737868309021,
    "frontOffset": 1.4740608930587769,
    "backDensity": 2.299999952316284,
    "backRadius": 0.42932164669036868,
    "backOffset": -1.2351011037826539,
    "score": 910,
    "maxDistance": 833,
    "maxTime": 108.0
}{
    "ID": 85811,
    "genomaID": "CV3TD11",
    "color": {
        "x": 0.13525451719760896,
        "y": 0.5760844349861145,
        "z": 0.020704152062535287
    },
    "vertexNumber": 3,
    "colliderVertices": [
        {
            "x": -1.24593186378479,
            "y": -0.17356999218463899
        },
        {
            "x": 1.4254326820373536,
            "y": -0.31066444516181948
        },
        {
            "x": -1.0050806999206544,
            "y": 0.2958831191062927
        }
    ],
    "triangles": [
        1,
        0,
        2
    ],
    "carDensity": 3.0,
    "suspension": 0.5198736190795898,
    "motorSpeed": 649,
    "frontDensity": 4.900000095367432,
    "frontRadius": 0.6864144206047058,
    "frontOffset": 1.3967149257659913,
    "backDensity": 2.5999999046325685,
    "backRadius": 0.46005207300186159,
    "backOffset": -1.2588965892791749,
    "score": 24,
    "maxDistance": 4,
    "maxTime": 2.0
}{
    "ID": 85997,
    "genomaID": "CV3TD10",
    "color": {
        "x": 0.225060373544693,
        "y": 0.9318109750747681,
        "z": 0.6402801871299744
    },
    "vertexNumber": 3,
    "colliderVertices": [
        {
            "x": -1.4517676830291749,
            "y": -0.3785870671272278
        },
        {
            "x": 1.0073214769363404,
            "y": -0.056303925812244418
        },
        {
            "x": 0.1018216609954834,
            "y": 0.5950250029563904
        }
    ],
    "triangles": [
        1,
        0,
        2
    ],
    "carDensity": 3.0,
    "suspension": 0.5209572315216065,
    "motorSpeed": 1368,
    "frontDensity": 4.900000095367432,
    "frontRadius": 0.6864737868309021,
    "frontOffset": 1.4740608930587769,
    "backDensity": 2.299999952316284,
    "backRadius": 0.42932164669036868,
    "backOffset": -1.2351011037826539,
    "score": 0,
    "maxDistance": 0,
    "maxTime": 1.0
}