{
    "ID": 55756,
    "genomaID": "CV3TD12",
    "color": {
        "x": 0.31485822796821597,
        "y": 0.8940056562423706,
        "z": 0.03377378359436989
    },
    "vertexNumber": 3,
    "colliderVertices": [
        {
            "x": -1.7107701301574708,
            "y": -0.07533479481935501
        },
        {
            "x": 1.303591012954712,
            "y": -0.2002372443675995
        },
        {
            "x": -1.0375332832336426,
            "y": 0.5149524807929993
        }
    ],
    "triangles": [
        1,
        0,
        2
    ],
    "carDensity": 3.0,
    "suspension": 0.8949996829032898,
    "motorSpeed": 886,
    "frontDensity": 4.800000190734863,
    "frontRadius": 0.6772812604904175,
    "frontOffset": 0.50107741355896,
    "backDensity": 3.700000047683716,
    "backRadius": 0.5700392127037048,
    "backOffset": -1.3670175075531006,
    "score": 917,
    "maxDistance": 834,
    "maxTime": 100.0
}{
    "ID": 55706,
    "genomaID": "CV4TD12",
    "color": {
        "x": 0.5197533965110779,
        "y": 0.9451771974563599,
        "z": 0.4369392991065979
    },
    "vertexNumber": 4,
    "colliderVertices": [
        {
            "x": -1.5236496925354005,
            "y": -0.4967159628868103
        },
        {
            "x": 1.0600391626358033,
            "y": -0.11397804319858551
        },
        {
            "x": 0.15825438499450684,
            "y": 0.24631249904632569
        },
        {
            "x": 0.09673523902893067,
            "y": 0.7161710262298584
        }
    ],
    "triangles": [
        0,
        3,
        2,
        2,
        1,
        0
    ],
    "carDensity": 4.0,
    "suspension": 0.8838229775428772,
    "motorSpeed": 879,
    "frontDensity": 4.800000190734863,
    "frontRadius": 0.6832131743431091,
    "frontOffset": 1.0015231370925904,
    "backDensity": 3.299999952316284,
    "backRadius": 0.529460072517395,
    "backOffset": -1.2575501203536988,
    "score": 914,
    "maxDistance": 834,
    "maxTime": 104.0
}{
    "ID": 55653,
    "genomaID": "CV3TD11",
    "color": {
        "x": 0.7018647789955139,
        "y": 0.7490060925483704,
        "z": 0.8822269439697266
    },
    "vertexNumber": 3,
    "colliderVertices": [
        {
            "x": -1.3322129249572755,
            "y": -0.3242015540599823
        },
        {
            "x": 1.406930685043335,
            "y": -0.39797013998031618
        },
        {
            "x": -1.7638306617736817,
            "y": 0.37279003858566286
        }
    ],
    "triangles": [
        1,
        0,
        2
    ],
    "carDensity": 3.0,
    "suspension": 0.8522963523864746,
    "motorSpeed": 879,
    "frontDensity": 4.900000095367432,
    "frontRadius": 0.6885237097740173,
    "frontOffset": 1.3828294277191163,
    "backDensity": 2.5999999046325685,
    "backRadius": 0.4626213610172272,
    "backOffset": -1.24452543258667,
    "score": 912,
    "maxDistance": 833,
    "maxTime": 106.0
}{
    "ID": 55618,
    "genomaID": "CV5TD13",
    "color": {
        "x": 0.7942795753479004,
        "y": 0.32352355122566225,
        "z": 0.00027966502238996327
    },
    "vertexNumber": 5,
    "colliderVertices": [
        {
            "x": -1.5669636726379395,
            "y": -0.06805289536714554
        },
        {
            "x": 1.142600655555725,
            "y": -0.46330010890960696
        },
        {
            "x": 0.48207783699035647,
            "y": 0.5186881422996521
        },
        {
            "x": 0.457869291305542,
            "y": 0.4283307194709778
        },
        {
            "x": -0.3502180576324463,
            "y": 0.7922987937927246
        }
    ],
    "triangles": [
        1,
        4,
        3,
        3,
        2,
        1,
        1,
        0,
        4
    ],
    "carDensity": 5.0,
    "suspension": 0.9176321029663086,
    "motorSpeed": 879,
    "frontDensity": 4.800000190734863,
    "frontRadius": 0.6832131743431091,
    "frontOffset": 1.0015231370925904,
    "backDensity": 3.299999952316284,
    "backRadius": 0.529460072517395,
    "backOffset": -1.2097523212432862,
    "score": 13,
    "maxDistance": 2,
    "maxTime": 2.0
}{
    "ID": 55800,
    "genomaID": "CV3TD11",
    "color": {
        "x": 0.7681076526641846,
        "y": 0.2796610891819,
        "z": 0.3934035897254944
    },
    "vertexNumber": 3,
    "colliderVertices": [
        {
            "x": -1.0632387399673463,
            "y": -0.43455809354782107
        },
        {
            "x": 1.3427574634552003,
            "y": -0.44732171297073367
        },
        {
            "x": -1.4998435974121094,
            "y": 0.6457148790359497
        }
    ],
    "triangles": [
        1,
        0,
        2
    ],
    "carDensity": 3.0,
    "suspension": 0.571700930595398,
    "motorSpeed": 1208,
    "frontDensity": 4.800000190734863,
    "frontRadius": 0.6772812604904175,
    "frontOffset": 1.2872165441513062,
    "backDensity": 3.200000047683716,
    "backRadius": 0.5226409435272217,
    "backOffset": -1.2534034252166749,
    "score": 0,
    "maxDistance": 0,
    "maxTime": 1.0
}