{
    "ID": 120748,
    "genomaID": "CV3TD11",
    "color": {
        "x": 0.6954454779624939,
        "y": 0.2025717794895172,
        "z": 0.3632669746875763
    },
    "vertexNumber": 3,
    "colliderVertices": [
        {
            "x": -1.448728084564209,
            "y": -0.4206351041793823
        },
        {
            "x": 1.2341947555541993,
            "y": -0.4096236228942871
        },
        {
            "x": -0.7727158069610596,
            "y": 0.05484116077423096
        }
    ],
    "triangles": [
        1,
        0,
        2
    ],
    "carDensity": 3.0,
    "suspension": 0.46436837315559389,
    "motorSpeed": 1105,
    "frontDensity": 5.0,
    "frontRadius": 0.6996583938598633,
    "frontOffset": 1.3146851062774659,
    "backDensity": 3.0999999046325685,
    "backRadius": 0.5114575624465942,
    "backOffset": -1.2816615104675294,
    "score": 924,
    "maxDistance": 833,
    "maxTime": 92.0
}{
    "ID": 120780,
    "genomaID": "CV3TD11",
    "color": {
        "x": 0.5994501709938049,
        "y": 0.3919968008995056,
        "z": 0.2023175060749054
    },
    "vertexNumber": 3,
    "colliderVertices": [
        {
            "x": -1.448728084564209,
            "y": -0.4206351041793823
        },
        {
            "x": 1.2341947555541993,
            "y": -0.4096236228942871
        },
        {
            "x": -0.7727158069610596,
            "y": 0.05484116077423096
        }
    ],
    "triangles": [
        1,
        0,
        2
    ],
    "carDensity": 3.0,
    "suspension": 0.9030349850654602,
    "motorSpeed": 859,
    "frontDensity": 4.900000095367432,
    "frontRadius": 0.6881802082061768,
    "frontOffset": 0.832551896572113,
    "backDensity": 3.200000047683716,
    "backRadius": 0.516883909702301,
    "backOffset": -1.4727457761764527,
    "score": 914,
    "maxDistance": 834,
    "maxTime": 105.0
}{
    "ID": 120735,
    "genomaID": "CV3TD11",
    "color": {
        "x": 0.7050297856330872,
        "y": 0.45557886362075808,
        "z": 0.6577662825584412
    },
    "vertexNumber": 3,
    "colliderVertices": [
        {
            "x": -1.448728084564209,
            "y": -0.4206351041793823
        },
        {
            "x": 1.2341947555541993,
            "y": -0.4096236228942871
        },
        {
            "x": -0.7727158069610596,
            "y": 0.05484116077423096
        }
    ],
    "triangles": [
        1,
        0,
        2
    ],
    "carDensity": 3.0,
    "suspension": 0.7497074007987976,
    "motorSpeed": 850,
    "frontDensity": 4.900000095367432,
    "frontRadius": 0.6856672763824463,
    "frontOffset": 1.3246934413909913,
    "backDensity": 3.0,
    "backRadius": 0.49679672718048098,
    "backOffset": -0.7339154481887817,
    "score": 912,
    "maxDistance": 833,
    "maxTime": 105.0
}{
    "ID": 120730,
    "genomaID": "CV3TD11",
    "color": {
        "x": 0.08575690537691117,
        "y": 0.9913949966430664,
        "z": 0.17458464205265046
    },
    "vertexNumber": 3,
    "colliderVertices": [
        {
            "x": -1.0317139625549317,
            "y": -0.19789233803749085
        },
        {
            "x": 1.1434211730957032,
            "y": -0.3728082478046417
        },
        {
            "x": -0.1788160800933838,
            "y": 0.39120298624038699
        }
    ],
    "triangles": [
        1,
        0,
        2
    ],
    "carDensity": 3.0,
    "suspension": 0.8122445940971375,
    "motorSpeed": 850,
    "frontDensity": 4.900000095367432,
    "frontRadius": 0.6881802082061768,
    "frontOffset": 0.617901086807251,
    "backDensity": 3.200000047683716,
    "backRadius": 0.5167701244354248,
    "backOffset": -1.1061099767684937,
    "score": 32,
    "maxDistance": 9,
    "maxTime": 4.0
}{
    "ID": 120796,
    "genomaID": "CV3TD10",
    "color": {
        "x": 0.04487193003296852,
        "y": 0.9218603372573853,
        "z": 0.05435562878847122
    },
    "vertexNumber": 3,
    "colliderVertices": [
        {
            "x": -1.448728084564209,
            "y": -0.4206351041793823
        },
        {
            "x": 1.2341947555541993,
            "y": -0.4096236228942871
        },
        {
            "x": -0.7727158069610596,
            "y": 0.05484116077423096
        }
    ],
    "triangles": [
        1,
        0,
        2
    ],
    "carDensity": 3.0,
    "suspension": 0.6549059748649597,
    "motorSpeed": 850,
    "frontDensity": 2.700000047683716,
    "frontRadius": 0.46606335043907168,
    "frontOffset": 1.3246934413909913,
    "backDensity": 3.700000047683716,
    "backRadius": 0.5682078003883362,
    "backOffset": -1.119716763496399,
    "score": 0,
    "maxDistance": 0,
    "maxTime": 1.0
}