{
    "ID": 89310,
    "genomaID": "CV3TD12",
    "color": {
        "x": 0.2773931324481964,
        "y": 0.4475160241127014,
        "z": 0.5171505808830261
    },
    "vertexNumber": 3,
    "colliderVertices": [
        {
            "x": -1.448728084564209,
            "y": -0.4206351041793823
        },
        {
            "x": 1.2341947555541993,
            "y": -0.4096236228942871
        },
        {
            "x": -0.7727158069610596,
            "y": 0.05484116077423096
        }
    ],
    "triangles": [
        1,
        0,
        2
    ],
    "carDensity": 3.0,
    "suspension": 0.7211733460426331,
    "motorSpeed": 850,
    "frontDensity": 4.900000095367432,
    "frontRadius": 0.6907195448875427,
    "frontOffset": 0.8779584169387817,
    "backDensity": 4.0,
    "backRadius": 0.5967223644256592,
    "backOffset": -1.4971814155578614,
    "score": 916,
    "maxDistance": 833,
    "maxTime": 101.0
}{
    "ID": 89321,
    "genomaID": "CV3TD11",
    "color": {
        "x": 0.8634781837463379,
        "y": 0.5154933333396912,
        "z": 0.8085871934890747
    },
    "vertexNumber": 3,
    "colliderVertices": [
        {
            "x": -1.4517676830291749,
            "y": -0.3785870671272278
        },
        {
            "x": 1.0073214769363404,
            "y": -0.056303925812244418
        },
        {
            "x": 0.1018216609954834,
            "y": 0.5950250029563904
        }
    ],
    "triangles": [
        1,
        0,
        2
    ],
    "carDensity": 3.0,
    "suspension": 0.8813864588737488,
    "motorSpeed": 850,
    "frontDensity": 4.900000095367432,
    "frontRadius": 0.6907195448875427,
    "frontOffset": 0.9371496438980103,
    "backDensity": 3.0999999046325685,
    "backRadius": 0.51302170753479,
    "backOffset": -1.2484958171844483,
    "score": 911,
    "maxDistance": 833,
    "maxTime": 106.0
}{
    "ID": 89288,
    "genomaID": "CV3TD11",
    "color": {
        "x": 0.9655575752258301,
        "y": 0.17661847174167634,
        "z": 0.2819352447986603
    },
    "vertexNumber": 3,
    "colliderVertices": [
        {
            "x": -1.4517676830291749,
            "y": -0.3785870671272278
        },
        {
            "x": 1.0073214769363404,
            "y": -0.056303925812244418
        },
        {
            "x": 0.1018216609954834,
            "y": 0.5950250029563904
        }
    ],
    "triangles": [
        1,
        0,
        2
    ],
    "carDensity": 3.0,
    "suspension": 0.8443503975868225,
    "motorSpeed": 850,
    "frontDensity": 4.900000095367432,
    "frontRadius": 0.6947603821754456,
    "frontOffset": 1.367043375968933,
    "backDensity": 3.4000000953674318,
    "backRadius": 0.5435584187507629,
    "backOffset": -0.755061686038971,
    "score": 909,
    "maxDistance": 829,
    "maxTime": 104.0
}{
    "ID": 89223,
    "genomaID": "CV3TD12",
    "color": {
        "x": 0.1624685674905777,
        "y": 0.05516207963228226,
        "z": 0.06042958050966263
    },
    "vertexNumber": 3,
    "colliderVertices": [
        {
            "x": -1.486419439315796,
            "y": -0.1576743870973587
        },
        {
            "x": 1.5210704803466797,
            "y": -0.11431093513965607
        },
        {
            "x": -1.010589599609375,
            "y": 0.4995899796485901
        }
    ],
    "triangles": [
        1,
        0,
        2
    ],
    "carDensity": 3.0,
    "suspension": 0.7211733460426331,
    "motorSpeed": 850,
    "frontDensity": 4.900000095367432,
    "frontRadius": 0.6907195448875427,
    "frontOffset": 1.4893176555633546,
    "backDensity": 3.700000047683716,
    "backRadius": 0.5726330280303955,
    "backOffset": -1.2391293048858643,
    "score": 24,
    "maxDistance": 4,
    "maxTime": 2.0
}{
    "ID": 89400,
    "genomaID": "CV3TD10",
    "color": {
        "x": 0.7681076526641846,
        "y": 0.2796610891819,
        "z": 0.3934035897254944
    },
    "vertexNumber": 3,
    "colliderVertices": [
        {
            "x": -1.600231647491455,
            "y": -0.41059839725494387
        },
        {
            "x": 1.721948504447937,
            "y": -0.4953311085700989
        },
        {
            "x": -1.0559139251708985,
            "y": 0.9447715282440186
        }
    ],
    "triangles": [
        1,
        0,
        2
    ],
    "carDensity": 3.0,
    "suspension": 0.4749881327152252,
    "motorSpeed": 850,
    "frontDensity": 2.9000000953674318,
    "frontRadius": 0.4946868419647217,
    "frontOffset": 1.4737274646759034,
    "backDensity": 3.700000047683716,
    "backRadius": 0.5726330280303955,
    "backOffset": -0.5224605798721314,
    "score": 0,
    "maxDistance": 0,
    "maxTime": 1.0
}