{
    "ID": 67075,
    "genomaID": "CV4TD13",
    "color": {
        "x": 0.4754706025123596,
        "y": 0.2664465010166168,
        "z": 0.8748672008514404
    },
    "vertexNumber": 4,
    "colliderVertices": [
        {
            "x": -1.216557264328003,
            "y": -0.04718852788209915
        },
        {
            "x": 1.4977397918701172,
            "y": -0.10489775240421295
        },
        {
            "x": -0.533829927444458,
            "y": 0.6460285186767578
        },
        {
            "x": -1.1124954223632813,
            "y": 0.34975844621658327
        }
    ],
    "triangles": [
        3,
        2,
        1,
        1,
        0,
        3
    ],
    "carDensity": 4.0,
    "suspension": 0.5952407121658325,
    "motorSpeed": 874,
    "frontDensity": 4.900000095367432,
    "frontRadius": 0.6907195448875427,
    "frontOffset": 1.3613731861114503,
    "backDensity": 3.5999999046325685,
    "backRadius": 0.5571228861808777,
    "backOffset": -0.6745883226394653,
    "score": 916,
    "maxDistance": 834,
    "maxTime": 102.0
}{
    "ID": 67018,
    "genomaID": "CV3TD11",
    "color": {
        "x": 0.7942795753479004,
        "y": 0.32352355122566225,
        "z": 0.00027966502238996327
    },
    "vertexNumber": 3,
    "colliderVertices": [
        {
            "x": -1.3322129249572755,
            "y": -0.3242015540599823
        },
        {
            "x": 1.406930685043335,
            "y": -0.39797013998031618
        },
        {
            "x": -1.7638306617736817,
            "y": 0.37279003858566286
        }
    ],
    "triangles": [
        1,
        0,
        2
    ],
    "carDensity": 3.0,
    "suspension": 0.9216256141662598,
    "motorSpeed": 874,
    "frontDensity": 4.900000095367432,
    "frontRadius": 0.6907195448875427,
    "frontOffset": 1.3691799640655518,
    "backDensity": 3.4000000953674318,
    "backRadius": 0.5350179076194763,
    "backOffset": -1.4140679836273194,
    "score": 912,
    "maxDistance": 831,
    "maxTime": 103.0
}{
    "ID": 67143,
    "genomaID": "CV3TD12",
    "color": {
        "x": 0.033374909311532977,
        "y": 0.6836089491844177,
        "z": 0.6072254776954651
    },
    "vertexNumber": 3,
    "colliderVertices": [
        {
            "x": -1.6214687824249268,
            "y": -0.08317125588655472
        },
        {
            "x": 1.2661044597625733,
            "y": -0.3657998740673065
        },
        {
            "x": -0.8836376667022705,
            "y": 0.7232869863510132
        }
    ],
    "triangles": [
        1,
        0,
        2
    ],
    "carDensity": 3.0,
    "suspension": 0.8575283885002136,
    "motorSpeed": 874,
    "frontDensity": 4.900000095367432,
    "frontRadius": 0.6907195448875427,
    "frontOffset": 1.068966269493103,
    "backDensity": 3.5,
    "backRadius": 0.5492756366729736,
    "backOffset": -1.2463409900665284,
    "score": 909,
    "maxDistance": 828,
    "maxTime": 102.0
}{
    "ID": 67038,
    "genomaID": "CV6TD14",
    "color": {
        "x": 0.8690057992935181,
        "y": 0.8295984268188477,
        "z": 0.17063750326633454
    },
    "vertexNumber": 6,
    "colliderVertices": [
        {
            "x": -1.9149037599563599,
            "y": -0.07547611743211746
        },
        {
            "x": 1.6878405809402466,
            "y": -0.34731271862983706
        },
        {
            "x": 1.551095962524414,
            "y": 0.8813934326171875
        },
        {
            "x": 0.6564154028892517,
            "y": 0.3385830521583557
        },
        {
            "x": -0.3503429889678955,
            "y": 0.9376214742660523
        },
        {
            "x": -1.7317862510681153,
            "y": 0.8445338010787964
        }
    ],
    "triangles": [
        3,
        1,
        5,
        5,
        4,
        3,
        3,
        2,
        1,
        1,
        0,
        5
    ],
    "carDensity": 6.0,
    "suspension": 0.8789454698562622,
    "motorSpeed": 874,
    "frontDensity": 4.900000095367432,
    "frontRadius": 0.6907195448875427,
    "frontOffset": 0.7290136814117432,
    "backDensity": 3.4000000953674318,
    "backRadius": 0.5350179076194763,
    "backOffset": -1.4262144565582276,
    "score": 0,
    "maxDistance": 0,
    "maxTime": 1.0
}{
    "ID": 67200,
    "genomaID": "CV3TD10",
    "color": {
        "x": 0.7681076526641846,
        "y": 0.2796610891819,
        "z": 0.3934035897254944
    },
    "vertexNumber": 3,
    "colliderVertices": [
        {
            "x": -1.796711802482605,
            "y": -0.47942018508911135
        },
        {
            "x": 1.9849647283554078,
            "y": -0.2929990589618683
        },
        {
            "x": -1.3102617263793946,
            "y": 0.98992919921875
        }
    ],
    "triangles": [
        1,
        0,
        2
    ],
    "carDensity": 3.0,
    "suspension": 0.40540412068367007,
    "motorSpeed": 889,
    "frontDensity": 4.900000095367432,
    "frontRadius": 0.6907195448875427,
    "frontOffset": 1.3613731861114503,
    "backDensity": 2.0,
    "backRadius": 0.4023674726486206,
    "backOffset": -1.360626459121704,
    "score": 0,
    "maxDistance": 0,
    "maxTime": 1.0
}