{
    "ID": 4814,
    "genomaID": "CV3TD8",
    "color": {
        "x": 0.6303030848503113,
        "y": 0.3808271288871765,
        "z": 0.6223776936531067
    },
    "vertexNumber": 3,
    "colliderVertices": [
        {
            "x": -1.5829863548278809,
            "y": -0.039146844297647479
        },
        {
            "x": 1.7785292863845826,
            "y": -0.03110969439148903
        },
        {
            "x": -1.4605779647827149,
            "y": 0.14276373386383058
        }
    ],
    "triangles": [
        1,
        0,
        2
    ],
    "carDensity": 3.0,
    "suspension": 0.42544400691986086,
    "motorSpeed": 1443,
    "frontDensity": 3.4000000953674318,
    "frontRadius": 0.5391331315040588,
    "frontOffset": 1.0421572923660279,
    "backDensity": 2.4000000953674318,
    "backRadius": 0.44229793548583987,
    "backOffset": -0.9174484014511108,
    "score": 930,
    "maxDistance": 832,
    "maxTime": 85.0
}{
    "ID": 4843,
    "genomaID": "CV3TD8",
    "color": {
        "x": 0.8050636053085327,
        "y": 0.35933247208595278,
        "z": 0.1674269586801529
    },
    "vertexNumber": 3,
    "colliderVertices": [
        {
            "x": -1.5829863548278809,
            "y": -0.039146844297647479
        },
        {
            "x": 1.7785292863845826,
            "y": -0.03110969439148903
        },
        {
            "x": -1.4605779647827149,
            "y": 0.14276373386383058
        }
    ],
    "triangles": [
        1,
        0,
        2
    ],
    "carDensity": 3.0,
    "suspension": 0.5719560980796814,
    "motorSpeed": 751,
    "frontDensity": 3.200000047683716,
    "frontRadius": 0.5247323513031006,
    "frontOffset": 0.6389656066894531,
    "backDensity": 2.200000047683716,
    "backRadius": 0.42074716091156008,
    "backOffset": -0.8408917188644409,
    "score": 890,
    "maxDistance": 833,
    "maxTime": 146.0
}{
    "ID": 4822,
    "genomaID": "CV3TD11",
    "color": {
        "x": 0.8580331802368164,
        "y": 0.2694608271121979,
        "z": 0.38077789545059206
    },
    "vertexNumber": 3,
    "colliderVertices": [
        {
            "x": -1.8413431644439698,
            "y": -0.4391525387763977
        },
        {
            "x": 1.7373590469360352,
            "y": -0.22641077637672425
        },
        {
            "x": -1.382004737854004,
            "y": 0.3069691061973572
        }
    ],
    "triangles": [
        1,
        0,
        2
    ],
    "carDensity": 3.0,
    "suspension": 0.9500844478607178,
    "motorSpeed": 585,
    "frontDensity": 4.800000190734863,
    "frontRadius": 0.6779031753540039,
    "frontOffset": 0.6789635419845581,
    "backDensity": 2.700000047683716,
    "backRadius": 0.4735147953033447,
    "backOffset": -1.4960030317306519,
    "score": 888,
    "maxDistance": 833,
    "maxTime": 152.0
}{
    "ID": 4970,
    "genomaID": "CV3TD9",
    "color": {
        "x": 0.8832259178161621,
        "y": 0.7785098552703857,
        "z": 0.18183256685733796
    },
    "vertexNumber": 3,
    "colliderVertices": [
        {
            "x": -1.5829863548278809,
            "y": -0.039146844297647479
        },
        {
            "x": 1.7785292863845826,
            "y": -0.03110969439148903
        },
        {
            "x": -1.4605779647827149,
            "y": 0.14276373386383058
        }
    ],
    "triangles": [
        1,
        0,
        2
    ],
    "carDensity": 3.0,
    "suspension": 0.5930591821670532,
    "motorSpeed": 697,
    "frontDensity": 3.4000000953674318,
    "frontRadius": 0.5425957441329956,
    "frontOffset": 0.8414775133132935,
    "backDensity": 3.299999952316284,
    "backRadius": 0.5345013737678528,
    "backOffset": -1.1872222423553467,
    "score": 62,
    "maxDistance": 17,
    "maxTime": 4.0
}{
    "ID": 4997,
    "genomaID": "CV3TD12",
    "color": {
        "x": 0.225060373544693,
        "y": 0.9318109750747681,
        "z": 0.6402801871299744
    },
    "vertexNumber": 3,
    "colliderVertices": [
        {
            "x": -1.2246575355529786,
            "y": -0.3217257559299469
        },
        {
            "x": 1.0915188789367676,
            "y": -0.382637083530426
        },
        {
            "x": 1.108813762664795,
            "y": 0.7108469009399414
        }
    ],
    "triangles": [
        1,
        0,
        2
    ],
    "carDensity": 3.0,
    "suspension": 0.986702024936676,
    "motorSpeed": 755,
    "frontDensity": 3.799999952316284,
    "frontRadius": 0.5778767466545105,
    "frontOffset": 1.4507026672363282,
    "backDensity": 5.0,
    "backRadius": 0.6957223415374756,
    "backOffset": -1.1336605548858643,
    "score": 0,
    "maxDistance": 0,
    "maxTime": 1.0
}