{
    "ID": 95418,
    "genomaID": "CV3TD12",
    "color": {
        "x": 0.7942795753479004,
        "y": 0.32352355122566225,
        "z": 0.00027966502238996327
    },
    "vertexNumber": 3,
    "colliderVertices": [
        {
            "x": -1.6686112880706788,
            "y": -0.4270586371421814
        },
        {
            "x": 1.1019541025161744,
            "y": -0.36667343974113467
        },
        {
            "x": -0.1978452205657959,
            "y": 0.02462160587310791
        }
    ],
    "triangles": [
        1,
        0,
        2
    ],
    "carDensity": 3.0,
    "suspension": 0.7522867321968079,
    "motorSpeed": 880,
    "frontDensity": 4.599999904632568,
    "frontRadius": 0.6589146256446838,
    "frontOffset": 0.8463460206985474,
    "backDensity": 4.0,
    "backRadius": 0.5951892733573914,
    "backOffset": -0.5328701734542847,
    "score": 917,
    "maxDistance": 833,
    "maxTime": 99.0
}{
    "ID": 95441,
    "genomaID": "CV3TD11",
    "color": {
        "x": 0.7170844674110413,
        "y": 0.5298733115196228,
        "z": 0.2514771521091461
    },
    "vertexNumber": 3,
    "colliderVertices": [
        {
            "x": -1.448728084564209,
            "y": -0.4206351041793823
        },
        {
            "x": 1.2341947555541993,
            "y": -0.4096236228942871
        },
        {
            "x": -0.7727158069610596,
            "y": 0.05484116077423096
        }
    ],
    "triangles": [
        1,
        0,
        2
    ],
    "carDensity": 3.0,
    "suspension": 0.6576764583587647,
    "motorSpeed": 850,
    "frontDensity": 4.800000190734863,
    "frontRadius": 0.6804202795028687,
    "frontOffset": 0.9876531362533569,
    "backDensity": 3.0,
    "backRadius": 0.5007303357124329,
    "backOffset": -1.2692713737487794,
    "score": 912,
    "maxDistance": 834,
    "maxTime": 107.0
}{
    "ID": 95564,
    "genomaID": "CV3TD11",
    "color": {
        "x": 0.00889670941978693,
        "y": 0.2784339487552643,
        "z": 0.9750510454177856
    },
    "vertexNumber": 3,
    "colliderVertices": [
        {
            "x": -1.448728084564209,
            "y": -0.4206351041793823
        },
        {
            "x": 1.2341947555541993,
            "y": -0.4096236228942871
        },
        {
            "x": -0.7727158069610596,
            "y": 0.05484116077423096
        }
    ],
    "triangles": [
        1,
        0,
        2
    ],
    "carDensity": 3.0,
    "suspension": 0.7338769435882568,
    "motorSpeed": 534,
    "frontDensity": 4.900000095367432,
    "frontRadius": 0.6907195448875427,
    "frontOffset": 1.3633992671966553,
    "backDensity": 3.4000000953674318,
    "backRadius": 0.5370846390724182,
    "backOffset": -1.2692713737487794,
    "score": 887,
    "maxDistance": 833,
    "maxTime": 155.0
}{
    "ID": 95433,
    "genomaID": "CV6TD15",
    "color": {
        "x": 0.9543694257736206,
        "y": 0.6707087159156799,
        "z": 0.4607693552970886
    },
    "vertexNumber": 6,
    "colliderVertices": [
        {
            "x": -1.54400634765625,
            "y": -0.3402627408504486
        },
        {
            "x": 1.749943733215332,
            "y": -0.22242292761802674
        },
        {
            "x": 1.5770840644836426,
            "y": 0.7985050678253174
        },
        {
            "x": -0.7317450046539307,
            "y": 0.7790384292602539
        },
        {
            "x": -1.4280180931091309,
            "y": 0.27852028608322146
        },
        {
            "x": -1.907649040222168,
            "y": 0.10711264610290528
        }
    ],
    "triangles": [
        4,
        3,
        1,
        1,
        5,
        4,
        3,
        2,
        1,
        1,
        0,
        5
    ],
    "carDensity": 6.0,
    "suspension": 0.793225109577179,
    "motorSpeed": 850,
    "frontDensity": 4.599999904632568,
    "frontRadius": 0.6558356285095215,
    "frontOffset": 1.2473037242889405,
    "backDensity": 3.5,
    "backRadius": 0.5461224913597107,
    "backOffset": -0.605444073677063,
    "score": 0,
    "maxDistance": 0,
    "maxTime": 1.0
}{
    "ID": 95464,
    "genomaID": "CV3TD9",
    "color": {
        "x": 0.10817171633243561,
        "y": 0.09526099264621735,
        "z": 0.18957391381263734
    },
    "vertexNumber": 3,
    "colliderVertices": [
        {
            "x": -1.24593186378479,
            "y": -0.17356999218463899
        },
        {
            "x": 1.4254326820373536,
            "y": -0.31066444516181948
        },
        {
            "x": -1.0050806999206544,
            "y": 0.2958831191062927
        }
    ],
    "triangles": [
        1,
        0,
        2
    ],
    "carDensity": 3.0,
    "suspension": 0.48401087522506716,
    "motorSpeed": 850,
    "frontDensity": 2.5,
    "frontRadius": 0.45043402910232546,
    "frontOffset": 0.573577880859375,
    "backDensity": 3.5,
    "backRadius": 0.5467919111251831,
    "backOffset": -1.327942132949829,
    "score": -11,
    "maxDistance": -1,
    "maxTime": 1.0
}