{
    "ID": 76371,
    "genomaID": "CV3TD11",
    "color": {
        "x": 0.4488270878791809,
        "y": 0.05411756783723831,
        "z": 0.6737887263298035
    },
    "vertexNumber": 3,
    "colliderVertices": [
        {
            "x": -1.3322129249572755,
            "y": -0.3242015540599823
        },
        {
            "x": 1.406930685043335,
            "y": -0.39797013998031618
        },
        {
            "x": -1.7638306617736817,
            "y": 0.37279003858566286
        }
    ],
    "triangles": [
        1,
        0,
        2
    ],
    "carDensity": 3.0,
    "suspension": 0.5797695517539978,
    "motorSpeed": 935,
    "frontDensity": 4.599999904632568,
    "frontRadius": 0.6621392965316773,
    "frontOffset": 1.2705483436584473,
    "backDensity": 3.200000047683716,
    "backRadius": 0.5198066234588623,
    "backOffset": -0.7010949850082398,
    "score": 917,
    "maxDistance": 834,
    "maxTime": 100.0
}{
    "ID": 76370,
    "genomaID": "CV3TD11",
    "color": {
        "x": 0.8832259178161621,
        "y": 0.7785098552703857,
        "z": 0.18183256685733796
    },
    "vertexNumber": 3,
    "colliderVertices": [
        {
            "x": -1.6214687824249268,
            "y": -0.08317125588655472
        },
        {
            "x": 1.2661044597625733,
            "y": -0.3657998740673065
        },
        {
            "x": -0.8836376667022705,
            "y": 0.7232869863510132
        }
    ],
    "triangles": [
        1,
        0,
        2
    ],
    "carDensity": 3.0,
    "suspension": 0.607215404510498,
    "motorSpeed": 874,
    "frontDensity": 4.900000095367432,
    "frontRadius": 0.69178706407547,
    "frontOffset": 1.3506214618682862,
    "backDensity": 2.9000000953674318,
    "backRadius": 0.49486976861953738,
    "backOffset": -0.7558344006538391,
    "score": 913,
    "maxDistance": 834,
    "maxTime": 106.0
}{
    "ID": 76289,
    "genomaID": "CV3TD11",
    "color": {
        "x": 0.43622130155563357,
        "y": 0.40297406911849978,
        "z": 0.13085652887821198
    },
    "vertexNumber": 3,
    "colliderVertices": [
        {
            "x": -1.3322129249572755,
            "y": -0.3242015540599823
        },
        {
            "x": 1.406930685043335,
            "y": -0.39797013998031618
        },
        {
            "x": -1.7638306617736817,
            "y": 0.37279003858566286
        }
    ],
    "triangles": [
        1,
        0,
        2
    ],
    "carDensity": 3.0,
    "suspension": 0.4198208153247833,
    "motorSpeed": 827,
    "frontDensity": 4.900000095367432,
    "frontRadius": 0.6907195448875427,
    "frontOffset": 0.8544946908950806,
    "backDensity": 3.299999952316284,
    "backRadius": 0.5290386080741882,
    "backOffset": -0.846786618232727,
    "score": 911,
    "maxDistance": 834,
    "maxTime": 108.0
}{
    "ID": 76220,
    "genomaID": "CV6TD14",
    "color": {
        "x": 0.9173623323440552,
        "y": 0.5073809027671814,
        "z": 0.04472649469971657
    },
    "vertexNumber": 6,
    "colliderVertices": [
        {
            "x": -1.939171314239502,
            "y": -0.08113021403551102
        },
        {
            "x": 1.5524327754974366,
            "y": -0.3407560884952545
        },
        {
            "x": 1.6930632591247559,
            "y": 0.0652308464050293
        },
        {
            "x": 0.6298984885215759,
            "y": 0.47902971506118777
        },
        {
            "x": -0.9701874256134033,
            "y": 0.7040925025939941
        },
        {
            "x": -1.5787749290466309,
            "y": 0.4988974928855896
        }
    ],
    "triangles": [
        3,
        1,
        5,
        5,
        4,
        3,
        3,
        2,
        1,
        1,
        0,
        5
    ],
    "carDensity": 6.0,
    "suspension": 0.5902341604232788,
    "motorSpeed": 902,
    "frontDensity": 4.900000095367432,
    "frontRadius": 0.6907195448875427,
    "frontOffset": 1.1760658025741578,
    "backDensity": 3.200000047683716,
    "backRadius": 0.5169987678527832,
    "backOffset": -0.9512523412704468,
    "score": 0,
    "maxDistance": 0,
    "maxTime": 1.0
}{
    "ID": 76295,
    "genomaID": "CV3TD9",
    "color": {
        "x": 0.4879758954048157,
        "y": 0.6131840348243713,
        "z": 0.16286469995975495
    },
    "vertexNumber": 3,
    "colliderVertices": [
        {
            "x": -1.3322129249572755,
            "y": -0.3242015540599823
        },
        {
            "x": 1.406930685043335,
            "y": -0.39797013998031618
        },
        {
            "x": -1.7638306617736817,
            "y": 0.37279003858566286
        }
    ],
    "triangles": [
        1,
        0,
        2
    ],
    "carDensity": 3.0,
    "suspension": 0.6917563676834106,
    "motorSpeed": 877,
    "frontDensity": 2.0999999046325685,
    "frontRadius": 0.41184401512145998,
    "frontOffset": 0.7642261385917664,
    "backDensity": 3.9000000953674318,
    "backRadius": 0.5850015878677368,
    "backOffset": -1.2692525386810303,
    "score": -11,
    "maxDistance": -1,
    "maxTime": 1.0
}