{
    "ID": 25343,
    "genomaID": "CV3TD11",
    "color": {
        "x": 0.033374909311532977,
        "y": 0.6836089491844177,
        "z": 0.6072254776954651
    },
    "vertexNumber": 3,
    "colliderVertices": [
        {
            "x": -1.4167654514312745,
            "y": -0.05450911074876785
        },
        {
            "x": 1.4079196453094483,
            "y": -0.3937686085700989
        },
        {
            "x": -1.247361660003662,
            "y": 0.22769761085510255
        }
    ],
    "triangles": [
        1,
        0,
        2
    ],
    "carDensity": 3.0,
    "suspension": 0.6991840600967407,
    "motorSpeed": 1081,
    "frontDensity": 4.599999904632568,
    "frontRadius": 0.655458927154541,
    "frontOffset": 1.2058961391448975,
    "backDensity": 2.799999952316284,
    "backRadius": 0.48079800605773928,
    "backOffset": -1.3089282512664796,
    "score": 920,
    "maxDistance": 833,
    "maxTime": 96.0
}{
    "ID": 25234,
    "genomaID": "CV3TD11",
    "color": {
        "x": 0.41188591718673708,
        "y": 0.1231936365365982,
        "z": 0.2154926359653473
    },
    "vertexNumber": 3,
    "colliderVertices": [
        {
            "x": -1.4167654514312745,
            "y": -0.05450911074876785
        },
        {
            "x": 1.4079196453094483,
            "y": -0.3937686085700989
        },
        {
            "x": -1.247361660003662,
            "y": 0.22769761085510255
        }
    ],
    "triangles": [
        1,
        0,
        2
    ],
    "carDensity": 3.0,
    "suspension": 0.4415474236011505,
    "motorSpeed": 897,
    "frontDensity": 4.699999809265137,
    "frontRadius": 0.6699442267417908,
    "frontOffset": 1.2248823642730713,
    "backDensity": 2.9000000953674318,
    "backRadius": 0.48564499616622927,
    "backOffset": -1.2646516561508179,
    "score": 912,
    "maxDistance": 833,
    "maxTime": 105.0
}{
    "ID": 25240,
    "genomaID": "CV3TD10",
    "color": {
        "x": 0.16537119448184968,
        "y": 0.9236080646514893,
        "z": 0.8277966976165772
    },
    "vertexNumber": 3,
    "colliderVertices": [
        {
            "x": -1.4167654514312745,
            "y": -0.05450911074876785
        },
        {
            "x": 1.4079196453094483,
            "y": -0.3937686085700989
        },
        {
            "x": -1.247361660003662,
            "y": 0.22769761085510255
        }
    ],
    "triangles": [
        1,
        0,
        2
    ],
    "carDensity": 3.0,
    "suspension": 0.4153963029384613,
    "motorSpeed": 885,
    "frontDensity": 4.400000095367432,
    "frontRadius": 0.6376957893371582,
    "frontOffset": 1.3704710006713868,
    "backDensity": 2.9000000953674318,
    "backRadius": 0.4860033392906189,
    "backOffset": -1.0179835557937623,
    "score": 910,
    "maxDistance": 833,
    "maxTime": 109.0
}{
    "ID": 25309,
    "genomaID": "CV3TD9",
    "color": {
        "x": 0.3208238184452057,
        "y": 0.5311277508735657,
        "z": 0.3739834129810333
    },
    "vertexNumber": 3,
    "colliderVertices": [
        {
            "x": -1.4167654514312745,
            "y": -0.05450911074876785
        },
        {
            "x": 1.4079196453094483,
            "y": -0.3937686085700989
        },
        {
            "x": -1.247361660003662,
            "y": 0.22769761085510255
        }
    ],
    "triangles": [
        1,
        0,
        2
    ],
    "carDensity": 3.0,
    "suspension": 0.7742383480072022,
    "motorSpeed": 996,
    "frontDensity": 2.9000000953674318,
    "frontRadius": 0.4902943968772888,
    "frontOffset": 0.9910515546798706,
    "backDensity": 3.299999952316284,
    "backRadius": 0.5281961560249329,
    "backOffset": -1.236993670463562,
    "score": 20,
    "maxDistance": 3,
    "maxTime": 2.0
}{
    "ID": 25383,
    "genomaID": "CV3TD11",
    "color": {
        "x": 0.2559671700000763,
        "y": 0.6770469546318054,
        "z": 0.8205124139785767
    },
    "vertexNumber": 3,
    "colliderVertices": [
        {
            "x": -1.0843324661254883,
            "y": -0.010982097126543522
        },
        {
            "x": 1.2892935276031495,
            "y": -0.2630068361759186
        },
        {
            "x": -1.9064340591430665,
            "y": 0.3673171401023865
        }
    ],
    "triangles": [
        1,
        0,
        2
    ],
    "carDensity": 3.0,
    "suspension": 0.7107200622558594,
    "motorSpeed": 947,
    "frontDensity": 4.599999904632568,
    "frontRadius": 0.6557742357254028,
    "frontOffset": 1.121494174003601,
    "backDensity": 2.9000000953674318,
    "backRadius": 0.4860033392906189,
    "backOffset": -0.8968621492385864,
    "score": 0,
    "maxDistance": 0,
    "maxTime": 1.0
}