{
    "ID": 39842,
    "genomaID": "CV3TD11",
    "color": {
        "x": 0.6371554732322693,
        "y": 0.23892191052436829,
        "z": 0.6570999026298523
    },
    "vertexNumber": 3,
    "colliderVertices": [
        {
            "x": -1.3322129249572755,
            "y": -0.3242015540599823
        },
        {
            "x": 1.406930685043335,
            "y": -0.39797013998031618
        },
        {
            "x": -1.7638306617736817,
            "y": 0.37279003858566286
        }
    ],
    "triangles": [
        1,
        0,
        2
    ],
    "carDensity": 3.0,
    "suspension": 0.40678927302360537,
    "motorSpeed": 879,
    "frontDensity": 5.0,
    "frontRadius": 0.6981920599937439,
    "frontOffset": 0.7885867953300476,
    "backDensity": 3.299999952316284,
    "backRadius": 0.5260943174362183,
    "backOffset": -0.9005511999130249,
    "score": 915,
    "maxDistance": 834,
    "maxTime": 103.0
}{
    "ID": 39831,
    "genomaID": "CV3TD11",
    "color": {
        "x": 0.1651449352502823,
        "y": 0.1517629772424698,
        "z": 0.7083653807640076
    },
    "vertexNumber": 3,
    "colliderVertices": [
        {
            "x": -1.3322129249572755,
            "y": -0.3242015540599823
        },
        {
            "x": 1.406930685043335,
            "y": -0.39797013998031618
        },
        {
            "x": -1.7638306617736817,
            "y": 0.37279003858566286
        }
    ],
    "triangles": [
        1,
        0,
        2
    ],
    "carDensity": 3.0,
    "suspension": 0.6915429830551148,
    "motorSpeed": 879,
    "frontDensity": 4.699999809265137,
    "frontRadius": 0.6656356453895569,
    "frontOffset": 1.3072718381881714,
    "backDensity": 3.299999952316284,
    "backRadius": 0.5260943174362183,
    "backOffset": -1.2626960277557374,
    "score": 912,
    "maxDistance": 833,
    "maxTime": 105.0
}{
    "ID": 39940,
    "genomaID": "CV3TD10",
    "color": {
        "x": 0.1638960987329483,
        "y": 0.4136189818382263,
        "z": 0.6844692826271057
    },
    "vertexNumber": 3,
    "colliderVertices": [
        {
            "x": -1.4167654514312745,
            "y": -0.05450911074876785
        },
        {
            "x": 1.4079196453094483,
            "y": -0.3937686085700989
        },
        {
            "x": -1.247361660003662,
            "y": 0.22769761085510255
        }
    ],
    "triangles": [
        1,
        0,
        2
    ],
    "carDensity": 3.0,
    "suspension": 0.5171619653701782,
    "motorSpeed": 894,
    "frontDensity": 4.599999904632568,
    "frontRadius": 0.6557742357254028,
    "frontOffset": 0.7442148923873901,
    "backDensity": 2.200000047683716,
    "backRadius": 0.4244937598705292,
    "backOffset": -0.5393930673599243,
    "score": 911,
    "maxDistance": 833,
    "maxTime": 106.0
}{
    "ID": 39848,
    "genomaID": "CV3TD10",
    "color": {
        "x": 0.5797355771064758,
        "y": 0.4698863625526428,
        "z": 0.5692866444587708
    },
    "vertexNumber": 3,
    "colliderVertices": [
        {
            "x": -1.4167654514312745,
            "y": -0.05450911074876785
        },
        {
            "x": 1.4079196453094483,
            "y": -0.3937686085700989
        },
        {
            "x": -1.247361660003662,
            "y": 0.22769761085510255
        }
    ],
    "triangles": [
        1,
        0,
        2
    ],
    "carDensity": 3.0,
    "suspension": 0.9041519165039063,
    "motorSpeed": 894,
    "frontDensity": 4.0,
    "frontRadius": 0.5974860787391663,
    "frontOffset": 1.4127027988433838,
    "backDensity": 3.0,
    "backRadius": 0.49757829308509829,
    "backOffset": -0.5157796144485474,
    "score": 20,
    "maxDistance": 3,
    "maxTime": 2.0
}{
    "ID": 39991,
    "genomaID": "CV3TD10",
    "color": {
        "x": 0.43907028436660769,
        "y": 0.31042757630348208,
        "z": 0.19297173619270326
    },
    "vertexNumber": 3,
    "colliderVertices": [
        {
            "x": -1.3322129249572755,
            "y": -0.3242015540599823
        },
        {
            "x": 1.406930685043335,
            "y": -0.39797013998031618
        },
        {
            "x": -1.7638306617736817,
            "y": 0.37279003858566286
        }
    ],
    "triangles": [
        1,
        0,
        2
    ],
    "carDensity": 3.0,
    "suspension": 0.4855518937110901,
    "motorSpeed": 1468,
    "frontDensity": 4.099999904632568,
    "frontRadius": 0.6079445481300354,
    "frontOffset": 1.0330344438552857,
    "backDensity": 3.4000000953674318,
    "backRadius": 0.5371336340904236,
    "backOffset": -1.148540735244751,
    "score": 0,
    "maxDistance": 0,
    "maxTime": 1.0
}