{
    "ID": 86808,
    "genomaID": "CV3TD11",
    "color": {
        "x": 0.021262289956212045,
        "y": 0.27244940400123598,
        "z": 0.6636649966239929
    },
    "vertexNumber": 3,
    "colliderVertices": [
        {
            "x": -1.4517676830291749,
            "y": -0.3785870671272278
        },
        {
            "x": 1.0073214769363404,
            "y": -0.056303925812244418
        },
        {
            "x": 0.1018216609954834,
            "y": 0.5950250029563904
        }
    ],
    "triangles": [
        1,
        0,
        2
    ],
    "carDensity": 3.0,
    "suspension": 0.9500600695610046,
    "motorSpeed": 908,
    "frontDensity": 4.900000095367432,
    "frontRadius": 0.6907195448875427,
    "frontOffset": 0.7795434594154358,
    "backDensity": 3.4000000953674318,
    "backRadius": 0.5377213358879089,
    "backOffset": -1.2951425313949586,
    "score": 918,
    "maxDistance": 834,
    "maxTime": 99.0
}{
    "ID": 86924,
    "genomaID": "CV3TD11",
    "color": {
        "x": 0.6774768233299255,
        "y": 0.7049570679664612,
        "z": 0.9311487674713135
    },
    "vertexNumber": 3,
    "colliderVertices": [
        {
            "x": -1.24593186378479,
            "y": -0.17356999218463899
        },
        {
            "x": 1.4254326820373536,
            "y": -0.31066444516181948
        },
        {
            "x": -1.0050806999206544,
            "y": 0.2958831191062927
        }
    ],
    "triangles": [
        1,
        0,
        2
    ],
    "carDensity": 3.0,
    "suspension": 0.6880820393562317,
    "motorSpeed": 880,
    "frontDensity": 4.800000190734863,
    "frontRadius": 0.6788076758384705,
    "frontOffset": 1.0641447305679322,
    "backDensity": 3.0999999046325685,
    "backRadius": 0.5092660188674927,
    "backOffset": -0.9128726720809937,
    "score": 912,
    "maxDistance": 833,
    "maxTime": 105.0
}{
    "ID": 86923,
    "genomaID": "CV4TD11",
    "color": {
        "x": 0.8045568466186523,
        "y": 0.9990131855010986,
        "z": 0.7354395985603333
    },
    "vertexNumber": 4,
    "colliderVertices": [
        {
            "x": -1.5407707691192628,
            "y": -0.37889713048934939
        },
        {
            "x": 1.2227555513381959,
            "y": -0.03489584103226662
        },
        {
            "x": -0.7162439823150635,
            "y": 0.3145795464515686
        },
        {
            "x": -0.9129273891448975,
            "y": 0.23946928977966309
        }
    ],
    "triangles": [
        3,
        2,
        1,
        1,
        0,
        3
    ],
    "carDensity": 4.0,
    "suspension": 0.740943431854248,
    "motorSpeed": 1483,
    "frontDensity": 4.900000095367432,
    "frontRadius": 0.6907195448875427,
    "frontOffset": 0.904391884803772,
    "backDensity": 2.200000047683716,
    "backRadius": 0.4245922863483429,
    "backOffset": -0.5061229467391968,
    "score": 643,
    "maxDistance": 534,
    "maxTime": 49.0
}{
    "ID": 86889,
    "genomaID": "CV3TD10",
    "color": {
        "x": 0.43622130155563357,
        "y": 0.40297406911849978,
        "z": 0.13085652887821198
    },
    "vertexNumber": 3,
    "colliderVertices": [
        {
            "x": -1.4517676830291749,
            "y": -0.3785870671272278
        },
        {
            "x": 1.0073214769363404,
            "y": -0.056303925812244418
        },
        {
            "x": 0.1018216609954834,
            "y": 0.5950250029563904
        }
    ],
    "triangles": [
        1,
        0,
        2
    ],
    "carDensity": 3.0,
    "suspension": 0.9738349318504334,
    "motorSpeed": 707,
    "frontDensity": 4.900000095367432,
    "frontRadius": 0.6899317502975464,
    "frontOffset": 1.1881864070892335,
    "backDensity": 2.299999952316284,
    "backRadius": 0.42729371786117556,
    "backOffset": -1.4053046703338624,
    "score": 12,
    "maxDistance": 2,
    "maxTime": 2.0
}{
    "ID": 86994,
    "genomaID": "CV3TD12",
    "color": {
        "x": 0.7795941829681397,
        "y": 0.2871544659137726,
        "z": 0.42937761545181277
    },
    "vertexNumber": 3,
    "colliderVertices": [
        {
            "x": -1.4517676830291749,
            "y": -0.3785870671272278
        },
        {
            "x": 1.0073214769363404,
            "y": -0.056303925812244418
        },
        {
            "x": 0.1018216609954834,
            "y": 0.5950250029563904
        }
    ],
    "triangles": [
        1,
        0,
        2
    ],
    "carDensity": 3.0,
    "suspension": 0.6639658808708191,
    "motorSpeed": 907,
    "frontDensity": 4.900000095367432,
    "frontRadius": 0.6907195448875427,
    "frontOffset": 0.8324968218803406,
    "backDensity": 4.099999904632568,
    "backRadius": 0.6062097549438477,
    "backOffset": -0.8964334726333618,
    "score": 0,
    "maxDistance": 0,
    "maxTime": 1.0
}