{
    "ID": 23652,
    "genomaID": "CV3TD11",
    "color": {
        "x": 0.1909351646900177,
        "y": 0.7012000679969788,
        "z": 0.7795767784118652
    },
    "vertexNumber": 3,
    "colliderVertices": [
        {
            "x": -1.4167654514312745,
            "y": -0.05450911074876785
        },
        {
            "x": 1.4079196453094483,
            "y": -0.3937686085700989
        },
        {
            "x": -1.247361660003662,
            "y": 0.22769761085510255
        }
    ],
    "triangles": [
        1,
        0,
        2
    ],
    "carDensity": 3.0,
    "suspension": 0.8542378544807434,
    "motorSpeed": 897,
    "frontDensity": 4.599999904632568,
    "frontRadius": 0.659152090549469,
    "frontOffset": 1.2248823642730713,
    "backDensity": 3.299999952316284,
    "backRadius": 0.5276777744293213,
    "backOffset": -1.047613501548767,
    "score": 914,
    "maxDistance": 834,
    "maxTime": 104.0
}{
    "ID": 23682,
    "genomaID": "CV3TD11",
    "color": {
        "x": 0.6390175223350525,
        "y": 0.011966945603489876,
        "z": 0.8972160816192627
    },
    "vertexNumber": 3,
    "colliderVertices": [
        {
            "x": -1.4167654514312745,
            "y": -0.05450911074876785
        },
        {
            "x": 1.4079196453094483,
            "y": -0.3937686085700989
        },
        {
            "x": -1.247361660003662,
            "y": 0.22769761085510255
        }
    ],
    "triangles": [
        1,
        0,
        2
    ],
    "carDensity": 3.0,
    "suspension": 0.5596582889556885,
    "motorSpeed": 884,
    "frontDensity": 4.599999904632568,
    "frontRadius": 0.659152090549469,
    "frontOffset": 0.9697393178939819,
    "backDensity": 2.5999999046325685,
    "backRadius": 0.4564695954322815,
    "backOffset": -1.072409987449646,
    "score": 911,
    "maxDistance": 833,
    "maxTime": 107.0
}{
    "ID": 23720,
    "genomaID": "CV3TD10",
    "color": {
        "x": 0.826252818107605,
        "y": 0.7983169555664063,
        "z": 0.1831430345773697
    },
    "vertexNumber": 3,
    "colliderVertices": [
        {
            "x": -1.4167654514312745,
            "y": -0.05450911074876785
        },
        {
            "x": 1.4079196453094483,
            "y": -0.3937686085700989
        },
        {
            "x": -1.247361660003662,
            "y": 0.22769761085510255
        }
    ],
    "triangles": [
        1,
        0,
        2
    ],
    "carDensity": 3.0,
    "suspension": 0.9127216339111328,
    "motorSpeed": 884,
    "frontDensity": 4.5,
    "frontRadius": 0.6487516760826111,
    "frontOffset": 1.4717929363250733,
    "backDensity": 3.299999952316284,
    "backRadius": 0.5285347700119019,
    "backOffset": -1.3912808895111085,
    "score": 910,
    "maxDistance": 831,
    "maxTime": 105.0
}{
    "ID": 23687,
    "genomaID": "CV3TD11",
    "color": {
        "x": 0.439253032207489,
        "y": 0.012950779870152474,
        "z": 0.31184056401252749
    },
    "vertexNumber": 3,
    "colliderVertices": [
        {
            "x": -1.4167654514312745,
            "y": -0.05450911074876785
        },
        {
            "x": 1.4079196453094483,
            "y": -0.3937686085700989
        },
        {
            "x": -1.247361660003662,
            "y": 0.22769761085510255
        }
    ],
    "triangles": [
        1,
        0,
        2
    ],
    "carDensity": 3.0,
    "suspension": 0.6818163394927979,
    "motorSpeed": 1255,
    "frontDensity": 4.5,
    "frontRadius": 0.6487516760826111,
    "frontOffset": 1.064771056175232,
    "backDensity": 3.5,
    "backRadius": 0.5458881855010986,
    "backOffset": -1.1807760000228882,
    "score": 27,
    "maxDistance": 6,
    "maxTime": 3.0
}{
    "ID": 23778,
    "genomaID": "CV4TD12",
    "color": {
        "x": 0.9666177034378052,
        "y": 0.6240989565849304,
        "z": 0.9224027395248413
    },
    "vertexNumber": 4,
    "colliderVertices": [
        {
            "x": -1.5874431133270264,
            "y": -0.048003800213336948
        },
        {
            "x": 1.3978619575500489,
            "y": -0.016815366223454477
        },
        {
            "x": -0.10486102104187012,
            "y": 0.5429849028587341
        },
        {
            "x": -1.5189461708068848,
            "y": 0.17718195915222169
        }
    ],
    "triangles": [
        3,
        2,
        1,
        1,
        0,
        3
    ],
    "carDensity": 4.0,
    "suspension": 0.40679070353507998,
    "motorSpeed": 884,
    "frontDensity": 4.599999904632568,
    "frontRadius": 0.6613221764564514,
    "frontOffset": 1.3852620124816895,
    "backDensity": 3.200000047683716,
    "backRadius": 0.523428201675415,
    "backOffset": -0.5002968311309815,
    "score": 0,
    "maxDistance": 0,
    "maxTime": 1.0
}