{
    "ID": 16218,
    "genomaID": "CV3TD11",
    "color": {
        "x": 0.7942795753479004,
        "y": 0.32352355122566225,
        "z": 0.00027966502238996327
    },
    "vertexNumber": 3,
    "colliderVertices": [
        {
            "x": -1.4167654514312745,
            "y": -0.05450911074876785
        },
        {
            "x": 1.4079196453094483,
            "y": -0.3937686085700989
        },
        {
            "x": -1.247361660003662,
            "y": 0.22769761085510255
        }
    ],
    "triangles": [
        1,
        0,
        2
    ],
    "carDensity": 3.0,
    "suspension": 0.45361414551734927,
    "motorSpeed": 884,
    "frontDensity": 4.300000190734863,
    "frontRadius": 0.6272242665290833,
    "frontOffset": 1.1702723503112794,
    "backDensity": 3.5999999046325685,
    "backRadius": 0.5627650022506714,
    "backOffset": -0.6909198760986328,
    "score": 914,
    "maxDistance": 834,
    "maxTime": 104.0
}{
    "ID": 16297,
    "genomaID": "CV4TD9",
    "color": {
        "x": 0.15531636774539948,
        "y": 0.4467610716819763,
        "z": 0.050811298191547397
    },
    "vertexNumber": 4,
    "colliderVertices": [
        {
            "x": -1.161450743675232,
            "y": -0.2355819046497345
        },
        {
            "x": 1.5357372760772706,
            "y": -0.19841215014457704
        },
        {
            "x": 1.0191593170166016,
            "y": 0.6115598082542419
        },
        {
            "x": -0.12963318824768067,
            "y": 0.3430923819541931
        }
    ],
    "triangles": [
        3,
        2,
        1,
        1,
        0,
        3
    ],
    "carDensity": 4.0,
    "suspension": 0.9865716695785523,
    "motorSpeed": 899,
    "frontDensity": 3.200000047683716,
    "frontRadius": 0.5234051942825317,
    "frontOffset": 1.4726580381393433,
    "backDensity": 2.200000047683716,
    "backRadius": 0.415388822555542,
    "backOffset": -1.1514619588851929,
    "score": 899,
    "maxDistance": 833,
    "maxTime": 126.0
}{
    "ID": 16286,
    "genomaID": "CV3TD10",
    "color": {
        "x": 0.3033737242221832,
        "y": 0.7917381525039673,
        "z": 0.8435794115066528
    },
    "vertexNumber": 3,
    "colliderVertices": [
        {
            "x": -1.0864309072494507,
            "y": -0.19293192028999329
        },
        {
            "x": 1.164738655090332,
            "y": -0.33091410994529726
        },
        {
            "x": -0.49770379066467287,
            "y": 0.008912205696105957
        }
    ],
    "triangles": [
        1,
        0,
        2
    ],
    "carDensity": 3.0,
    "suspension": 0.6951499581336975,
    "motorSpeed": 751,
    "frontDensity": 3.5,
    "frontRadius": 0.5501224398612976,
    "frontOffset": 1.4851359128952027,
    "backDensity": 2.700000047683716,
    "backRadius": 0.4728059768676758,
    "backOffset": -0.8429597616195679,
    "score": 894,
    "maxDistance": 833,
    "maxTime": 137.0
}{
    "ID": 16249,
    "genomaID": "CV3TD8",
    "color": {
        "x": 0.9539196491241455,
        "y": 0.1290532499551773,
        "z": 0.8852263689041138
    },
    "vertexNumber": 3,
    "colliderVertices": [
        {
            "x": -1.293029546737671,
            "y": -0.497403621673584
        },
        {
            "x": 1.448540449142456,
            "y": -0.0035615568049252035
        },
        {
            "x": 1.5706071853637696,
            "y": 0.25701361894607546
        }
    ],
    "triangles": [
        1,
        0,
        2
    ],
    "carDensity": 3.0,
    "suspension": 0.9760087728500366,
    "motorSpeed": 884,
    "frontDensity": 3.0,
    "frontRadius": 0.500583291053772,
    "frontOffset": 0.9298049211502075,
    "backDensity": 2.0999999046325685,
    "backRadius": 0.4134162366390228,
    "backOffset": -1.4103443622589112,
    "score": 46,
    "maxDistance": 10,
    "maxTime": 3.0
}{
    "ID": 16389,
    "genomaID": "CV5TD12",
    "color": {
        "x": 0.6000825762748718,
        "y": 0.659334123134613,
        "z": 0.9595612287521362
    },
    "vertexNumber": 5,
    "colliderVertices": [
        {
            "x": -1.782646894454956,
            "y": -0.07570964843034744
        },
        {
            "x": 1.589433193206787,
            "y": -0.2848273813724518
        },
        {
            "x": 0.9541048407554627,
            "y": 0.31182795763015749
        },
        {
            "x": -0.3263070583343506,
            "y": 0.9085733890533447
        },
        {
            "x": -1.152479648590088,
            "y": 0.2640078663825989
        }
    ],
    "triangles": [
        1,
        4,
        3,
        3,
        2,
        1,
        1,
        0,
        4
    ],
    "carDensity": 5.0,
    "suspension": 0.858620285987854,
    "motorSpeed": 1251,
    "frontDensity": 4.400000095367432,
    "frontRadius": 0.6412047147750855,
    "frontOffset": 1.1330041885375977,
    "backDensity": 2.799999952316284,
    "backRadius": 0.4762198328971863,
    "backOffset": -0.5162824392318726,
    "score": 0,
    "maxDistance": 0,
    "maxTime": 1.0
}