{
    "ID": 103740,
    "genomaID": "CV3TD11",
    "color": {
        "x": 0.1638960987329483,
        "y": 0.4136189818382263,
        "z": 0.6844692826271057
    },
    "vertexNumber": 3,
    "colliderVertices": [
        {
            "x": -1.448728084564209,
            "y": -0.4206351041793823
        },
        {
            "x": 1.2341947555541993,
            "y": -0.4096236228942871
        },
        {
            "x": -0.7727158069610596,
            "y": 0.05484116077423096
        }
    ],
    "triangles": [
        1,
        0,
        2
    ],
    "carDensity": 3.0,
    "suspension": 0.4344636797904968,
    "motorSpeed": 1470,
    "frontDensity": 5.0,
    "frontRadius": 0.6980684399604797,
    "frontOffset": 1.0802618265151978,
    "backDensity": 2.700000047683716,
    "backRadius": 0.47096508741378786,
    "backOffset": -1.0757793188095093,
    "score": 949,
    "maxDistance": 833,
    "maxTime": 72.0
}{
    "ID": 103788,
    "genomaID": "CV3TD11",
    "color": {
        "x": 0.7009046673774719,
        "y": 0.348634272813797,
        "z": 0.8699125051498413
    },
    "vertexNumber": 3,
    "colliderVertices": [
        {
            "x": -1.7475886344909669,
            "y": -0.3331572711467743
        },
        {
            "x": 1.205899953842163,
            "y": -0.29428091645240786
        },
        {
            "x": -1.2002816200256348,
            "y": 0.24655115604400636
        }
    ],
    "triangles": [
        1,
        0,
        2
    ],
    "carDensity": 3.0,
    "suspension": 0.6192411184310913,
    "motorSpeed": 866,
    "frontDensity": 5.0,
    "frontRadius": 0.6951425671577454,
    "frontOffset": 1.2416977882385255,
    "backDensity": 2.5999999046325685,
    "backRadius": 0.4617137014865875,
    "backOffset": -1.2401955127716065,
    "score": 912,
    "maxDistance": 834,
    "maxTime": 107.0
}{
    "ID": 103656,
    "genomaID": "CV3TD11",
    "color": {
        "x": 0.8817833662033081,
        "y": 0.5256525874137878,
        "z": 0.8587871789932251
    },
    "vertexNumber": 3,
    "colliderVertices": [
        {
            "x": -1.448728084564209,
            "y": -0.4206351041793823
        },
        {
            "x": 1.2341947555541993,
            "y": -0.4096236228942871
        },
        {
            "x": -0.7727158069610596,
            "y": 0.05484116077423096
        }
    ],
    "triangles": [
        1,
        0,
        2
    ],
    "carDensity": 3.0,
    "suspension": 0.9014957547187805,
    "motorSpeed": 850,
    "frontDensity": 4.900000095367432,
    "frontRadius": 0.6881802082061768,
    "frontOffset": 0.5849130153656006,
    "backDensity": 3.4000000953674318,
    "backRadius": 0.5360636711120606,
    "backOffset": -1.2692713737487794,
    "score": 910,
    "maxDistance": 830,
    "maxTime": 104.0
}{
    "ID": 103771,
    "genomaID": "CV3TD11",
    "color": {
        "x": 0.4488270878791809,
        "y": 0.05411756783723831,
        "z": 0.6737887263298035
    },
    "vertexNumber": 3,
    "colliderVertices": [
        {
            "x": -1.448728084564209,
            "y": -0.4206351041793823
        },
        {
            "x": 1.2341947555541993,
            "y": -0.4096236228942871
        },
        {
            "x": -0.7727158069610596,
            "y": 0.05484116077423096
        }
    ],
    "triangles": [
        1,
        0,
        2
    ],
    "carDensity": 3.0,
    "suspension": 0.6628644466400147,
    "motorSpeed": 850,
    "frontDensity": 4.900000095367432,
    "frontRadius": 0.6907195448875427,
    "frontOffset": 0.7603877186775208,
    "backDensity": 2.799999952316284,
    "backRadius": 0.47755861282348635,
    "backOffset": -0.6976025104522705,
    "score": 24,
    "maxDistance": 4,
    "maxTime": 2.0
}{
    "ID": 103753,
    "genomaID": "CV3TD8",
    "color": {
        "x": 0.22645524144172669,
        "y": 0.08218289166688919,
        "z": 0.5214018225669861
    },
    "vertexNumber": 3,
    "colliderVertices": [
        {
            "x": -1.448728084564209,
            "y": -0.4206351041793823
        },
        {
            "x": 1.2341947555541993,
            "y": -0.4096236228942871
        },
        {
            "x": -0.7727158069610596,
            "y": 0.05484116077423096
        }
    ],
    "triangles": [
        1,
        0,
        2
    ],
    "carDensity": 3.0,
    "suspension": 0.9977483153343201,
    "motorSpeed": 850,
    "frontDensity": 2.4000000953674318,
    "frontRadius": 0.44219881296157839,
    "frontOffset": 0.5849130153656006,
    "backDensity": 3.4000000953674318,
    "backRadius": 0.535124659538269,
    "backOffset": -1.2692713737487794,
    "score": -11,
    "maxDistance": -1,
    "maxTime": 1.0
}