{
    "ID": 84814,
    "genomaID": "CV3TD12",
    "color": {
        "x": 0.6303030848503113,
        "y": 0.3808271288871765,
        "z": 0.6223776936531067
    },
    "vertexNumber": 3,
    "colliderVertices": [
        {
            "x": -1.0256907939910889,
            "y": -0.12069286406040192
        },
        {
            "x": 1.3871371746063233,
            "y": -0.421758234500885
        },
        {
            "x": -1.6018881797790528,
            "y": 0.5131745934486389
        }
    ],
    "triangles": [
        1,
        0,
        2
    ],
    "carDensity": 3.0,
    "suspension": 0.9735661745071411,
    "motorSpeed": 887,
    "frontDensity": 4.900000095367432,
    "frontRadius": 0.6907195448875427,
    "frontOffset": 0.9769130945205689,
    "backDensity": 3.5999999046325685,
    "backRadius": 0.5594569444656372,
    "backOffset": -1.3684897422790528,
    "score": 916,
    "maxDistance": 833,
    "maxTime": 100.0
}{
    "ID": 84883,
    "genomaID": "CV3TD11",
    "color": {
        "x": 0.9098223447799683,
        "y": 0.4113134741783142,
        "z": 0.5985069870948792
    },
    "vertexNumber": 3,
    "colliderVertices": [
        {
            "x": -1.24593186378479,
            "y": -0.17356999218463899
        },
        {
            "x": 1.4254326820373536,
            "y": -0.31066444516181948
        },
        {
            "x": -1.0050806999206544,
            "y": 0.2958831191062927
        }
    ],
    "triangles": [
        1,
        0,
        2
    ],
    "carDensity": 3.0,
    "suspension": 0.5676831603050232,
    "motorSpeed": 850,
    "frontDensity": 4.900000095367432,
    "frontRadius": 0.6864144206047058,
    "frontOffset": 1.1683237552642823,
    "backDensity": 3.4000000953674318,
    "backRadius": 0.536808967590332,
    "backOffset": -0.8291711211204529,
    "score": 912,
    "maxDistance": 833,
    "maxTime": 105.0
}{
    "ID": 84882,
    "genomaID": "CV3TD11",
    "color": {
        "x": 0.6390175223350525,
        "y": 0.011966945603489876,
        "z": 0.8972160816192627
    },
    "vertexNumber": 3,
    "colliderVertices": [
        {
            "x": -1.24593186378479,
            "y": -0.17356999218463899
        },
        {
            "x": 1.4254326820373536,
            "y": -0.31066444516181948
        },
        {
            "x": -1.0050806999206544,
            "y": 0.2958831191062927
        }
    ],
    "triangles": [
        1,
        0,
        2
    ],
    "carDensity": 3.0,
    "suspension": 0.6378125548362732,
    "motorSpeed": 812,
    "frontDensity": 4.900000095367432,
    "frontRadius": 0.6864144206047058,
    "frontOffset": 0.8271817564964294,
    "backDensity": 3.0,
    "backRadius": 0.5026759505271912,
    "backOffset": -1.4000051021575928,
    "score": 910,
    "maxDistance": 834,
    "maxTime": 110.0
}{
    "ID": 84804,
    "genomaID": "CV3TD11",
    "color": {
        "x": 0.24854424595832826,
        "y": 0.17415274679660798,
        "z": 0.6007692217826843
    },
    "vertexNumber": 3,
    "colliderVertices": [
        {
            "x": -1.1977570056915284,
            "y": -0.22687312960624696
        },
        {
            "x": 1.4599976539611817,
            "y": -0.38685429096221926
        },
        {
            "x": -0.438037633895874,
            "y": 0.5326107144355774
        }
    ],
    "triangles": [
        1,
        0,
        2
    ],
    "carDensity": 3.0,
    "suspension": 0.43275198340415957,
    "motorSpeed": 874,
    "frontDensity": 5.0,
    "frontRadius": 0.6974217295646668,
    "frontOffset": 0.9886094331741333,
    "backDensity": 2.799999952316284,
    "backRadius": 0.4819546341896057,
    "backOffset": -0.9646645784378052,
    "score": 9,
    "maxDistance": 2,
    "maxTime": 3.0
}{
    "ID": 84974,
    "genomaID": "CV3TD10",
    "color": {
        "x": 0.7046118378639221,
        "y": 0.33948877453804018,
        "z": 0.3959283232688904
    },
    "vertexNumber": 3,
    "colliderVertices": [
        {
            "x": -1.24593186378479,
            "y": -0.17356999218463899
        },
        {
            "x": 1.4254326820373536,
            "y": -0.31066444516181948
        },
        {
            "x": -1.0050806999206544,
            "y": 0.2958831191062927
        }
    ],
    "triangles": [
        1,
        0,
        2
    ],
    "carDensity": 3.0,
    "suspension": 0.5812548398971558,
    "motorSpeed": 850,
    "frontDensity": 2.4000000953674318,
    "frontRadius": 0.4391300678253174,
    "frontOffset": 0.9915052652359009,
    "backDensity": 4.699999809265137,
    "backRadius": 0.668048083782196,
    "backOffset": -1.278294563293457,
    "score": -11,
    "maxDistance": -1,
    "maxTime": 1.0
}