{
    "ID": 32653,
    "genomaID": "CV3TD11",
    "color": {
        "x": 0.7018647789955139,
        "y": 0.7490060925483704,
        "z": 0.8822269439697266
    },
    "vertexNumber": 3,
    "colliderVertices": [
        {
            "x": -1.4167654514312745,
            "y": -0.05450911074876785
        },
        {
            "x": 1.4079196453094483,
            "y": -0.3937686085700989
        },
        {
            "x": -1.247361660003662,
            "y": 0.22769761085510255
        }
    ],
    "triangles": [
        1,
        0,
        2
    ],
    "carDensity": 3.0,
    "suspension": 0.5668209791183472,
    "motorSpeed": 894,
    "frontDensity": 3.5999999046325685,
    "frontRadius": 0.5621271133422852,
    "frontOffset": 0.941574215888977,
    "backDensity": 4.199999809265137,
    "backRadius": 0.6154640316963196,
    "backOffset": -0.8739916086196899,
    "score": 918,
    "maxDistance": 834,
    "maxTime": 100.0
}{
    "ID": 32672,
    "genomaID": "CV3TD10",
    "color": {
        "x": 0.4611632227897644,
        "y": 0.6206987500190735,
        "z": 0.4823681712150574
    },
    "vertexNumber": 3,
    "colliderVertices": [
        {
            "x": -1.4167654514312745,
            "y": -0.05450911074876785
        },
        {
            "x": 1.4079196453094483,
            "y": -0.3937686085700989
        },
        {
            "x": -1.247361660003662,
            "y": 0.22769761085510255
        }
    ],
    "triangles": [
        1,
        0,
        2
    ],
    "carDensity": 3.0,
    "suspension": 0.900022566318512,
    "motorSpeed": 884,
    "frontDensity": 4.5,
    "frontRadius": 0.6487516760826111,
    "frontOffset": 1.2793858051300049,
    "backDensity": 2.700000047683716,
    "backRadius": 0.47050297260284426,
    "backOffset": -1.3939640522003174,
    "score": 912,
    "maxDistance": 834,
    "maxTime": 107.0
}{
    "ID": 32632,
    "genomaID": "CV3TD9",
    "color": {
        "x": 0.8832547664642334,
        "y": 0.6129466891288757,
        "z": 0.4796467423439026
    },
    "vertexNumber": 3,
    "colliderVertices": [
        {
            "x": -1.4167654514312745,
            "y": -0.05450911074876785
        },
        {
            "x": 1.4079196453094483,
            "y": -0.3937686085700989
        },
        {
            "x": -1.247361660003662,
            "y": 0.22769761085510255
        }
    ],
    "triangles": [
        1,
        0,
        2
    ],
    "carDensity": 3.0,
    "suspension": 0.6573593616485596,
    "motorSpeed": 884,
    "frontDensity": 4.5,
    "frontRadius": 0.6487516760826111,
    "frontOffset": 1.1603986024856568,
    "backDensity": 2.4000000953674318,
    "backRadius": 0.4387698769569397,
    "backOffset": -0.6263469457626343,
    "score": 910,
    "maxDistance": 833,
    "maxTime": 108.0
}{
    "ID": 32655,
    "genomaID": "CV4TD11",
    "color": {
        "x": 0.5588133931159973,
        "y": 0.6415937542915344,
        "z": 0.8172217607498169
    },
    "vertexNumber": 4,
    "colliderVertices": [
        {
            "x": -1.333688497543335,
            "y": -0.13999469578266145
        },
        {
            "x": 1.392198085784912,
            "y": -0.06345260888338089
        },
        {
            "x": 0.7678532004356384,
            "y": 0.44024795293807986
        },
        {
            "x": -0.9835836887359619,
            "y": 0.8140832185745239
        }
    ],
    "triangles": [
        3,
        2,
        1,
        1,
        0,
        3
    ],
    "carDensity": 4.0,
    "suspension": 0.9112808108329773,
    "motorSpeed": 884,
    "frontDensity": 4.5,
    "frontRadius": 0.6487516760826111,
    "frontOffset": 1.219571828842163,
    "backDensity": 3.299999952316284,
    "backRadius": 0.5281961560249329,
    "backOffset": -1.0853081941604615,
    "score": 20,
    "maxDistance": 3,
    "maxTime": 2.0
}{
    "ID": 32796,
    "genomaID": "CV3TD12",
    "color": {
        "x": 0.04487193003296852,
        "y": 0.9218603372573853,
        "z": 0.05435562878847122
    },
    "vertexNumber": 3,
    "colliderVertices": [
        {
            "x": -1.4167654514312745,
            "y": -0.05450911074876785
        },
        {
            "x": 1.4079196453094483,
            "y": -0.3937686085700989
        },
        {
            "x": -1.247361660003662,
            "y": 0.22769761085510255
        }
    ],
    "triangles": [
        1,
        0,
        2
    ],
    "carDensity": 3.0,
    "suspension": 0.8841083645820618,
    "motorSpeed": 894,
    "frontDensity": 4.699999809265137,
    "frontRadius": 0.6719280481338501,
    "frontOffset": 0.6827517747879028,
    "backDensity": 3.5,
    "backRadius": 0.5480700731277466,
    "backOffset": -0.8652836084365845,
    "score": 0,
    "maxDistance": 0,
    "maxTime": 1.0
}