{
    "ID": 44945,
    "genomaID": "CV4TD12",
    "color": {
        "x": 0.3469218313694,
        "y": 0.999477744102478,
        "z": 0.32627180218696597
    },
    "vertexNumber": 4,
    "colliderVertices": [
        {
            "x": -1.0020352602005005,
            "y": -0.11292095482349396
        },
        {
            "x": 1.1676745414733887,
            "y": -0.2529011070728302
        },
        {
            "x": 0.798585832118988,
            "y": 0.07508575916290283
        },
        {
            "x": 0.01784348487854004,
            "y": 0.40028291940689089
        }
    ],
    "triangles": [
        3,
        2,
        1,
        1,
        0,
        3
    ],
    "carDensity": 4.0,
    "suspension": 0.40048345923423769,
    "motorSpeed": 920,
    "frontDensity": 4.699999809265137,
    "frontRadius": 0.6654146909713745,
    "frontOffset": 1.263240098953247,
    "backDensity": 3.299999952316284,
    "backRadius": 0.5331999063491821,
    "backOffset": -1.3967111110687256,
    "score": 917,
    "maxDistance": 834,
    "maxTime": 100.0
}{
    "ID": 44846,
    "genomaID": "CV3TD11",
    "color": {
        "x": 0.8601193428039551,
        "y": 0.32319143414497378,
        "z": 0.0954677015542984
    },
    "vertexNumber": 3,
    "colliderVertices": [
        {
            "x": -1.3322129249572755,
            "y": -0.3242015540599823
        },
        {
            "x": 1.406930685043335,
            "y": -0.39797013998031618
        },
        {
            "x": -1.7638306617736817,
            "y": 0.37279003858566286
        }
    ],
    "triangles": [
        1,
        0,
        2
    ],
    "carDensity": 3.0,
    "suspension": 0.5006003379821777,
    "motorSpeed": 879,
    "frontDensity": 4.800000190734863,
    "frontRadius": 0.6772812604904175,
    "frontOffset": 1.077407717704773,
    "backDensity": 3.299999952316284,
    "backRadius": 0.529460072517395,
    "backOffset": -1.1014140844345093,
    "score": 913,
    "maxDistance": 833,
    "maxTime": 104.0
}{
    "ID": 44972,
    "genomaID": "CV3TD11",
    "color": {
        "x": 0.2748730480670929,
        "y": 0.19846823811531068,
        "z": 0.7138980031013489
    },
    "vertexNumber": 3,
    "colliderVertices": [
        {
            "x": -1.3322129249572755,
            "y": -0.3242015540599823
        },
        {
            "x": 1.406930685043335,
            "y": -0.39797013998031618
        },
        {
            "x": -1.7638306617736817,
            "y": 0.37279003858566286
        }
    ],
    "triangles": [
        1,
        0,
        2
    ],
    "carDensity": 3.0,
    "suspension": 0.761099100112915,
    "motorSpeed": 520,
    "frontDensity": 5.0,
    "frontRadius": 0.6981920599937439,
    "frontOffset": 1.2239973545074463,
    "backDensity": 3.0,
    "backRadius": 0.5032231211662293,
    "backOffset": -0.7986935973167419,
    "score": 884,
    "maxDistance": 833,
    "maxTime": 162.0
}{
    "ID": 44807,
    "genomaID": "CV3TD12",
    "color": {
        "x": 0.8121681213378906,
        "y": 0.8124029636383057,
        "z": 0.5575398802757263
    },
    "vertexNumber": 3,
    "colliderVertices": [
        {
            "x": -1.4320168495178223,
            "y": -0.1842767745256424
        },
        {
            "x": 1.77071213722229,
            "y": -0.471912682056427
        },
        {
            "x": -0.3710463047027588,
            "y": 0.7329118251800537
        }
    ],
    "triangles": [
        1,
        0,
        2
    ],
    "carDensity": 3.0,
    "suspension": 0.684999406337738,
    "motorSpeed": 879,
    "frontDensity": 4.800000190734863,
    "frontRadius": 0.6772812604904175,
    "frontOffset": 1.0058859586715699,
    "backDensity": 3.9000000953674318,
    "backRadius": 0.5940704941749573,
    "backOffset": -0.7591740489006043,
    "score": 0,
    "maxDistance": 0,
    "maxTime": 1.0
}{
    "ID": 44999,
    "genomaID": "CV3TD9",
    "color": {
        "x": 0.6575701832771301,
        "y": 0.868037223815918,
        "z": 0.03163004294037819
    },
    "vertexNumber": 3,
    "colliderVertices": [
        {
            "x": -1.3322129249572755,
            "y": -0.3242015540599823
        },
        {
            "x": 1.406930685043335,
            "y": -0.39797013998031618
        },
        {
            "x": -1.7638306617736817,
            "y": 0.37279003858566286
        }
    ],
    "triangles": [
        1,
        0,
        2
    ],
    "carDensity": 3.0,
    "suspension": 0.4696352183818817,
    "motorSpeed": 879,
    "frontDensity": 3.299999952316284,
    "frontRadius": 0.5340521931648254,
    "frontOffset": 1.424525260925293,
    "backDensity": 3.200000047683716,
    "backRadius": 0.5212941765785217,
    "backOffset": -1.2902014255523682,
    "score": 0,
    "maxDistance": 0,
    "maxTime": 1.0
}