{
    "ID": 22110,
    "genomaID": "CV3TD11",
    "color": {
        "x": 0.43831032514572146,
        "y": 0.6220983862876892,
        "z": 0.829938530921936
    },
    "vertexNumber": 3,
    "colliderVertices": [
        {
            "x": -1.3657686710357667,
            "y": -0.31611159443855288
        },
        {
            "x": 1.2195587158203126,
            "y": -0.19344410300254823
        },
        {
            "x": 0.7673758864402771,
            "y": 0.4987334609031677
        }
    ],
    "triangles": [
        1,
        0,
        2
    ],
    "carDensity": 3.0,
    "suspension": 0.4595809578895569,
    "motorSpeed": 900,
    "frontDensity": 4.699999809265137,
    "frontRadius": 0.6672317981719971,
    "frontOffset": 1.1307146549224854,
    "backDensity": 3.0999999046325685,
    "backRadius": 0.5136075615882874,
    "backOffset": -1.4547494649887086,
    "score": 913,
    "maxDistance": 833,
    "maxTime": 104.0,
    "speed": 8
}{
    "ID": 22021,
    "genomaID": "CV3TD10",
    "color": {
        "x": 0.40347129106521609,
        "y": 0.9957618713378906,
        "z": 0.7073728442192078
    },
    "vertexNumber": 3,
    "colliderVertices": [
        {
            "x": -1.5433669090270997,
            "y": -0.4481053948402405
        },
        {
            "x": 1.7143089771270753,
            "y": -0.15352614223957063
        },
        {
            "x": -1.4756584167480469,
            "y": 0.10922551155090332
        }
    ],
    "triangles": [
        1,
        0,
        2
    ],
    "carDensity": 3.0,
    "suspension": 0.4135782718658447,
    "motorSpeed": 709,
    "frontDensity": 4.300000190734863,
    "frontRadius": 0.6257767677307129,
    "frontOffset": 1.1697114706039429,
    "backDensity": 2.5999999046325685,
    "backRadius": 0.4590807557106018,
    "backOffset": -1.4112577438354493,
    "score": 894,
    "maxDistance": 833,
    "maxTime": 136.8000030517578,
    "speed": 6
}{
    "ID": 22087,
    "genomaID": "CV4TD11",
    "color": {
        "x": 0.6230459809303284,
        "y": 0.18502236902713777,
        "z": 0.48213261365890505
    },
    "vertexNumber": 4,
    "colliderVertices": [
        {
            "x": -1.262343168258667,
            "y": -0.32303115725517275
        },
        {
            "x": 1.736066222190857,
            "y": -0.40364938974380495
        },
        {
            "x": -0.6540172100067139,
            "y": 0.6776068210601807
        },
        {
            "x": -1.352332592010498,
            "y": 0.6773865222930908
        }
    ],
    "triangles": [
        3,
        2,
        1,
        1,
        0,
        3
    ],
    "carDensity": 4.0,
    "suspension": 0.9904580116271973,
    "motorSpeed": 696,
    "frontDensity": 4.099999904632568,
    "frontRadius": 0.6126639246940613,
    "frontOffset": 1.3779642581939698,
    "backDensity": 3.0999999046325685,
    "backRadius": 0.5109738111495972,
    "backOffset": -1.0949829816818238,
    "score": 893,
    "maxDistance": 833,
    "maxTime": 138.60000610351563,
    "speed": 6
}{
    "ID": 22173,
    "genomaID": "CV3TD10",
    "color": {
        "x": 0.8770337104797363,
        "y": 0.6029910445213318,
        "z": 0.7983345985412598
    },
    "vertexNumber": 3,
    "colliderVertices": [
        {
            "x": -1.2541747093200684,
            "y": -0.38386595249176028
        },
        {
            "x": 1.0193626880645753,
            "y": -0.271028071641922
        },
        {
            "x": 1.3762645721435547,
            "y": 0.10750925540924072
        }
    ],
    "triangles": [
        1,
        0,
        2
    ],
    "carDensity": 3.0,
    "suspension": 0.9273461103439331,
    "motorSpeed": 801,
    "frontDensity": 3.5999999046325685,
    "frontRadius": 0.5609493255615234,
    "frontOffset": 1.172813892364502,
    "backDensity": 3.4000000953674318,
    "backRadius": 0.5419475436210632,
    "backOffset": -0.6485539674758911,
    "score": 26,
    "maxDistance": 4,
    "maxTime": 1.7999999523162842,
    "speed": 2
}{
    "ID": 22176,
    "genomaID": "CV3TD10",
    "color": {
        "x": 0.5646211504936218,
        "y": 0.5388018488883972,
        "z": 0.891024112701416
    },
    "vertexNumber": 3,
    "colliderVertices": [
        {
            "x": -1.7412893772125245,
            "y": -0.24600020051002503
        },
        {
            "x": 1.6365805864334107,
            "y": -0.11980439722537995
        },
        {
            "x": -1.7040982246398926,
            "y": 0.012483358383178711
        }
    ],
    "triangles": [
        1,
        0,
        2
    ],
    "carDensity": 3.0,
    "suspension": 0.9072062373161316,
    "motorSpeed": 1457,
    "frontDensity": 4.099999904632568,
    "frontRadius": 0.6126639246940613,
    "frontOffset": 1.159051775932312,
    "backDensity": 2.9000000953674318,
    "backRadius": 0.49115341901779177,
    "backOffset": -1.460282802581787,
    "score": 0,
    "maxDistance": 0,
    "maxTime": 0.800000011920929,
    "speed": 0
}