{
    "ID": 113161,
    "genomaID": "CV4TD13",
    "color": {
        "x": 0.3694678843021393,
        "y": 0.12531735002994538,
        "z": 0.28705695271492007
    },
    "vertexNumber": 4,
    "colliderVertices": [
        {
            "x": -1.1571428775787354,
            "y": -0.017785312607884408
        },
        {
            "x": 1.6976892948150635,
            "y": -0.45099586248397829
        },
        {
            "x": -0.907581090927124,
            "y": 0.6379216909408569
        },
        {
            "x": -1.5830674171447755,
            "y": 0.3191775679588318
        }
    ],
    "triangles": [
        3,
        2,
        1,
        1,
        0,
        3
    ],
    "carDensity": 4.0,
    "suspension": 0.7912518978118897,
    "motorSpeed": 869,
    "frontDensity": 4.900000095367432,
    "frontRadius": 0.689996063709259,
    "frontOffset": 0.7504369616508484,
    "backDensity": 4.0,
    "backRadius": 0.5951395034790039,
    "backOffset": -1.465367078781128,
    "score": 916,
    "maxDistance": 834,
    "maxTime": 101.5,
    "speed": 8
}{
    "ID": 113057,
    "genomaID": "CV4TD13",
    "color": {
        "x": 0.8725746870040894,
        "y": 0.9586373567581177,
        "z": 0.8193961381912231
    },
    "vertexNumber": 4,
    "colliderVertices": [
        {
            "x": -1.2988917827606202,
            "y": -0.2752462327480316
        },
        {
            "x": 1.7441651821136475,
            "y": -0.425096333026886
        },
        {
            "x": -1.126734733581543,
            "y": 0.13047420978546143
        },
        {
            "x": -1.8666682243347169,
            "y": 0.6922590732574463
        }
    ],
    "triangles": [
        0,
        3,
        2,
        2,
        1,
        0
    ],
    "carDensity": 4.0,
    "suspension": 0.6448759436607361,
    "motorSpeed": 869,
    "frontDensity": 4.900000095367432,
    "frontRadius": 0.689996063709259,
    "frontOffset": 1.4702765941619874,
    "backDensity": 3.700000047683716,
    "backRadius": 0.5688552260398865,
    "backOffset": -1.324367880821228,
    "score": 913,
    "maxDistance": 832,
    "maxTime": 102.30000305175781,
    "speed": 8
}{
    "ID": 113197,
    "genomaID": "CV4TD12",
    "color": {
        "x": 0.4004287123680115,
        "y": 0.941399097442627,
        "z": 0.8905913829803467
    },
    "vertexNumber": 4,
    "colliderVertices": [
        {
            "x": -1.1571428775787354,
            "y": -0.017785312607884408
        },
        {
            "x": 1.6976892948150635,
            "y": -0.45099586248397829
        },
        {
            "x": -0.907581090927124,
            "y": 0.6379216909408569
        },
        {
            "x": -1.5830674171447755,
            "y": 0.3191775679588318
        }
    ],
    "triangles": [
        3,
        2,
        1,
        1,
        0,
        3
    ],
    "carDensity": 4.0,
    "suspension": 0.9021590948104858,
    "motorSpeed": 867,
    "frontDensity": 4.900000095367432,
    "frontRadius": 0.689996063709259,
    "frontOffset": 0.9246255159378052,
    "backDensity": 3.200000047683716,
    "backRadius": 0.5191757678985596,
    "backOffset": -1.2763621807098389,
    "score": 912,
    "maxDistance": 834,
    "maxTime": 106.9000015258789,
    "speed": 8
}{
    "ID": 113014,
    "genomaID": "CV3TD11",
    "color": {
        "x": 0.8415801525115967,
        "y": 0.888700008392334,
        "z": 0.6227731108665466
    },
    "vertexNumber": 3,
    "colliderVertices": [
        {
            "x": -1.615149736404419,
            "y": -0.08056289702653885
        },
        {
            "x": 1.1510634422302247,
            "y": -0.4890420436859131
        },
        {
            "x": -0.87314772605896,
            "y": 0.506628692150116
        }
    ],
    "triangles": [
        1,
        0,
        2
    ],
    "carDensity": 3.0,
    "suspension": 0.8684903979301453,
    "motorSpeed": 1222,
    "frontDensity": 4.800000190734863,
    "frontRadius": 0.6816945672035217,
    "frontOffset": 0.8662253618240356,
    "backDensity": 3.4000000953674318,
    "backRadius": 0.5438003540039063,
    "backOffset": -1.3382976055145264,
    "score": 0,
    "maxDistance": 0,
    "maxTime": 1.0,
    "speed": 0
}{
    "ID": 113200,
    "genomaID": "CV4TD12",
    "color": {
        "x": 0.7157778143882752,
        "y": 0.7526435852050781,
        "z": 0.5779417157173157
    },
    "vertexNumber": 4,
    "colliderVertices": [
        {
            "x": -1.1571428775787354,
            "y": -0.017785312607884408
        },
        {
            "x": 1.6976892948150635,
            "y": -0.45099586248397829
        },
        {
            "x": -0.907581090927124,
            "y": 0.6379216909408569
        },
        {
            "x": -1.5830674171447755,
            "y": 0.3191775679588318
        }
    ],
    "triangles": [
        3,
        2,
        1,
        1,
        0,
        3
    ],
    "carDensity": 4.0,
    "suspension": 0.7753526568412781,
    "motorSpeed": 869,
    "frontDensity": 4.199999809265137,
    "frontRadius": 0.6208081245422363,
    "frontOffset": 1.2337391376495362,
    "backDensity": 3.5999999046325685,
    "backRadius": 0.5576536059379578,
    "backOffset": -1.0780738592147828,
    "score": 0,
    "maxDistance": 0,
    "maxTime": 1.0,
    "speed": 0
}