{
    "ID": 79625,
    "genomaID": "CV3TD12",
    "color": {
        "x": 0.5644888281822205,
        "y": 0.8662688732147217,
        "z": 0.6183064579963684
    },
    "vertexNumber": 3,
    "colliderVertices": [
        {
            "x": -1.3146932125091553,
            "y": -0.35629478096961977
        },
        {
            "x": 1.1096062660217286,
            "y": -0.44019651412963869
        },
        {
            "x": -1.8295903205871583,
            "y": 0.6733900308609009
        }
    ],
    "triangles": [
        1,
        0,
        2
    ],
    "carDensity": 3.0,
    "suspension": 0.9676439166069031,
    "motorSpeed": 851,
    "frontDensity": 5.0,
    "frontRadius": 0.6996235847473145,
    "frontOffset": 1.1829211711883546,
    "backDensity": 3.700000047683716,
    "backRadius": 0.5727956295013428,
    "backOffset": -1.29623544216156,
    "score": 915,
    "maxDistance": 834,
    "maxTime": 103.5999984741211,
    "speed": 8
}{
    "ID": 79613,
    "genomaID": "CV3TD11",
    "color": {
        "x": 0.2999573051929474,
        "y": 0.8041330575942993,
        "z": 0.9977710247039795
    },
    "vertexNumber": 3,
    "colliderVertices": [
        {
            "x": -1.615149736404419,
            "y": -0.08056289702653885
        },
        {
            "x": 1.1510634422302247,
            "y": -0.4890420436859131
        },
        {
            "x": -0.87314772605896,
            "y": 0.506628692150116
        }
    ],
    "triangles": [
        1,
        0,
        2
    ],
    "carDensity": 3.0,
    "suspension": 0.5567458868026733,
    "motorSpeed": 851,
    "frontDensity": 4.900000095367432,
    "frontRadius": 0.6938021779060364,
    "frontOffset": 0.8264396786689758,
    "backDensity": 3.200000047683716,
    "backRadius": 0.5205300450325012,
    "backOffset": -1.209257960319519,
    "score": 912,
    "maxDistance": 834,
    "maxTime": 106.80000305175781,
    "speed": 8
}{
    "ID": 79762,
    "genomaID": "CV3TD12",
    "color": {
        "x": 0.0007673503132537007,
        "y": 0.7393807768821716,
        "z": 0.6554601788520813
    },
    "vertexNumber": 3,
    "colliderVertices": [
        {
            "x": -1.615149736404419,
            "y": -0.08056289702653885
        },
        {
            "x": 1.1510634422302247,
            "y": -0.4890420436859131
        },
        {
            "x": -0.87314772605896,
            "y": 0.506628692150116
        }
    ],
    "triangles": [
        1,
        0,
        2
    ],
    "carDensity": 3.0,
    "suspension": 0.47621458768844607,
    "motorSpeed": 851,
    "frontDensity": 4.900000095367432,
    "frontRadius": 0.6903325319290161,
    "frontOffset": 1.1718071699142457,
    "backDensity": 3.5999999046325685,
    "backRadius": 0.5625555515289307,
    "backOffset": -1.022114872932434,
    "score": 910,
    "maxDistance": 831,
    "maxTime": 105.19999694824219,
    "speed": 8
}{
    "ID": 79624,
    "genomaID": "CV6TD13",
    "color": {
        "x": 0.21015825867652894,
        "y": 0.7514325380325317,
        "z": 0.603265106678009
    },
    "vertexNumber": 6,
    "colliderVertices": [
        {
            "x": -1.258922815322876,
            "y": -0.020709635689854623
        },
        {
            "x": 1.2471259832382203,
            "y": -0.2645486295223236
        },
        {
            "x": 0.0761258602142334,
            "y": 0.05880725383758545
        },
        {
            "x": -0.3622629642486572,
            "y": 0.793633222579956
        },
        {
            "x": -0.47997164726257326,
            "y": 0.24720370769500733
        },
        {
            "x": -1.637770175933838,
            "y": 0.1857457160949707
        }
    ],
    "triangles": [
        5,
        4,
        2,
        2,
        1,
        5,
        4,
        3,
        2,
        1,
        0,
        5
    ],
    "carDensity": 6.0,
    "suspension": 0.7235785722732544,
    "motorSpeed": 851,
    "frontDensity": 3.0,
    "frontRadius": 0.49750566482543948,
    "frontOffset": 0.5698212385177612,
    "backDensity": 3.5999999046325685,
    "backRadius": 0.5596940517425537,
    "backOffset": -1.436586618423462,
    "score": 0,
    "maxDistance": 0,
    "maxTime": 0.800000011920929,
    "speed": 0
}{
    "ID": 79800,
    "genomaID": "CV5TD14",
    "color": {
        "x": 0.7157778143882752,
        "y": 0.7526435852050781,
        "z": 0.5779417157173157
    },
    "vertexNumber": 5,
    "colliderVertices": [
        {
            "x": -1.829848051071167,
            "y": -0.42607295513153078
        },
        {
            "x": 1.188997507095337,
            "y": -0.4391065239906311
        },
        {
            "x": -0.40207982063293459,
            "y": 0.9496022462844849
        },
        {
            "x": -0.4638078212738037,
            "y": 0.19248425960540772
        },
        {
            "x": -1.215414047241211,
            "y": 0.19544517993927003
        }
    ],
    "triangles": [
        1,
        4,
        3,
        3,
        2,
        1,
        1,
        0,
        4
    ],
    "carDensity": 5.0,
    "suspension": 0.6790785193443298,
    "motorSpeed": 524,
    "frontDensity": 4.599999904632568,
    "frontRadius": 0.660163938999176,
    "frontOffset": 1.241687536239624,
    "backDensity": 3.9000000953674318,
    "backRadius": 0.5936185121536255,
    "backOffset": -1.0827871561050416,
    "score": 0,
    "maxDistance": 0,
    "maxTime": 0.0,
    "speed": 0
}