{
    "ID": 17146,
    "genomaID": "CV4TD11",
    "color": {
        "x": 0.09030605107545853,
        "y": 0.587245762348175,
        "z": 0.2169661819934845
    },
    "vertexNumber": 4,
    "colliderVertices": [
        {
            "x": -1.1230627298355103,
            "y": -0.49231189489364626
        },
        {
            "x": 1.8197379112243653,
            "y": -0.1046447902917862
        },
        {
            "x": -0.038932085037231448,
            "y": 0.03355681896209717
        },
        {
            "x": -0.5637366771697998,
            "y": 0.10489439964294434
        }
    ],
    "triangles": [
        0,
        3,
        2,
        2,
        1,
        0
    ],
    "carDensity": 4.0,
    "suspension": 0.6875978708267212,
    "motorSpeed": 790,
    "frontDensity": 3.9000000953674318,
    "frontRadius": 0.5896615982055664,
    "frontOffset": 1.3386948108673096,
    "backDensity": 2.9000000953674318,
    "backRadius": 0.49139314889907839,
    "backOffset": -1.4195846319198609,
    "score": 899,
    "maxDistance": 833,
    "maxTime": 126.5999984741211,
    "speed": 7
}{
    "ID": 17117,
    "genomaID": "CV4TD11",
    "color": {
        "x": 0.21057823300361634,
        "y": 0.03984392061829567,
        "z": 0.7053022980690002
    },
    "vertexNumber": 4,
    "colliderVertices": [
        {
            "x": -1.1230627298355103,
            "y": -0.49231189489364626
        },
        {
            "x": 1.8197379112243653,
            "y": -0.1046447902917862
        },
        {
            "x": -0.038932085037231448,
            "y": 0.03355681896209717
        },
        {
            "x": -0.5637366771697998,
            "y": 0.10489439964294434
        }
    ],
    "triangles": [
        0,
        3,
        2,
        2,
        1,
        0
    ],
    "carDensity": 4.0,
    "suspension": 0.9295504093170166,
    "motorSpeed": 725,
    "frontDensity": 3.9000000953674318,
    "frontRadius": 0.5896615982055664,
    "frontOffset": 1.2373875379562379,
    "backDensity": 2.9000000953674318,
    "backRadius": 0.49139314889907839,
    "backOffset": -1.2708625793457032,
    "score": 894,
    "maxDistance": 833,
    "maxTime": 136.10000610351563,
    "speed": 6
}{
    "ID": 17184,
    "genomaID": "CV3TD10",
    "color": {
        "x": 0.9423954486846924,
        "y": 0.37610429525375368,
        "z": 0.541720449924469
    },
    "vertexNumber": 3,
    "colliderVertices": [
        {
            "x": -1.2541747093200684,
            "y": -0.38386595249176028
        },
        {
            "x": 1.0193626880645753,
            "y": -0.271028071641922
        },
        {
            "x": 1.3762645721435547,
            "y": 0.10750925540924072
        }
    ],
    "triangles": [
        1,
        0,
        2
    ],
    "carDensity": 3.0,
    "suspension": 0.7236285209655762,
    "motorSpeed": 710,
    "frontDensity": 3.5999999046325685,
    "frontRadius": 0.5609493255615234,
    "frontOffset": 1.317748785018921,
    "backDensity": 3.4000000953674318,
    "backRadius": 0.5419475436210632,
    "backOffset": -0.6916004419326782,
    "score": 893,
    "maxDistance": 833,
    "maxTime": 137.8000030517578,
    "speed": 6
}{
    "ID": 17200,
    "genomaID": "CV3TD10",
    "color": {
        "x": 0.7157778143882752,
        "y": 0.7526435852050781,
        "z": 0.5779417157173157
    },
    "vertexNumber": 3,
    "colliderVertices": [
        {
            "x": -1.2541747093200684,
            "y": -0.38386595249176028
        },
        {
            "x": 1.0193626880645753,
            "y": -0.271028071641922
        },
        {
            "x": 1.3762645721435547,
            "y": 0.10750925540924072
        }
    ],
    "triangles": [
        1,
        0,
        2
    ],
    "carDensity": 3.0,
    "suspension": 0.8138439655303955,
    "motorSpeed": 725,
    "frontDensity": 4.5,
    "frontRadius": 0.6481454372406006,
    "frontOffset": 1.1553914546966553,
    "backDensity": 3.0999999046325685,
    "backRadius": 0.5140807628631592,
    "backOffset": -1.2259328365325928,
    "score": 33,
    "maxDistance": 5,
    "maxTime": 1.7999999523162842,
    "speed": 3
}{
    "ID": 17199,
    "genomaID": "CV3TD9",
    "color": {
        "x": 0.20653727650642396,
        "y": 0.7379440665245056,
        "z": 0.5660251975059509
    },
    "vertexNumber": 3,
    "colliderVertices": [
        {
            "x": -1.2244994640350342,
            "y": -0.31930825114250185
        },
        {
            "x": 1.9577997922897339,
            "y": -0.3664114773273468
        },
        {
            "x": -1.4588193893432618,
            "y": 0.5839346051216126
        }
    ],
    "triangles": [
        1,
        0,
        2
    ],
    "carDensity": 3.0,
    "suspension": 0.8041353821754456,
    "motorSpeed": 941,
    "frontDensity": 3.4000000953674318,
    "frontRadius": 0.544228732585907,
    "frontOffset": 1.1975829601287842,
    "backDensity": 3.0999999046325685,
    "backRadius": 0.5140807628631592,
    "backOffset": -0.827503502368927,
    "score": 0,
    "maxDistance": 0,
    "maxTime": 0.800000011920929,
    "speed": 0
}