{
    "ID": 113722,
    "genomaID": "CV4TD13",
    "color": {
        "x": 0.3380949795246124,
        "y": 0.903610348701477,
        "z": 0.08308065682649613
    },
    "vertexNumber": 4,
    "colliderVertices": [
        {
            "x": -1.1571428775787354,
            "y": -0.017785312607884408
        },
        {
            "x": 1.6976892948150635,
            "y": -0.45099586248397829
        },
        {
            "x": -0.907581090927124,
            "y": 0.6379216909408569
        },
        {
            "x": -1.5830674171447755,
            "y": 0.3191775679588318
        }
    ],
    "triangles": [
        3,
        2,
        1,
        1,
        0,
        3
    ],
    "carDensity": 4.0,
    "suspension": 0.9021590948104858,
    "motorSpeed": 869,
    "frontDensity": 4.900000095367432,
    "frontRadius": 0.689996063709259,
    "frontOffset": 0.8641558885574341,
    "backDensity": 3.799999952316284,
    "backRadius": 0.5807322263717651,
    "backOffset": -1.36849045753479,
    "score": 916,
    "maxDistance": 834,
    "maxTime": 101.5,
    "speed": 8
}{
    "ID": 113617,
    "genomaID": "CV4TD13",
    "color": {
        "x": 0.06466711312532425,
        "y": 0.33973923325538638,
        "z": 0.8371891975402832
    },
    "vertexNumber": 4,
    "colliderVertices": [
        {
            "x": -1.1571428775787354,
            "y": -0.017785312607884408
        },
        {
            "x": 1.6976892948150635,
            "y": -0.45099586248397829
        },
        {
            "x": -0.907581090927124,
            "y": 0.6379216909408569
        },
        {
            "x": -1.5830674171447755,
            "y": 0.3191775679588318
        }
    ],
    "triangles": [
        3,
        2,
        1,
        1,
        0,
        3
    ],
    "carDensity": 4.0,
    "suspension": 0.9739240407943726,
    "motorSpeed": 869,
    "frontDensity": 4.900000095367432,
    "frontRadius": 0.6931619048118591,
    "frontOffset": 1.423280119895935,
    "backDensity": 3.5999999046325685,
    "backRadius": 0.5576536059379578,
    "backOffset": -1.379525899887085,
    "score": 913,
    "maxDistance": 833,
    "maxTime": 103.80000305175781,
    "speed": 8
}{
    "ID": 113774,
    "genomaID": "CV4TD12",
    "color": {
        "x": 0.16558422148227693,
        "y": 0.6600871682167053,
        "z": 0.13062037527561189
    },
    "vertexNumber": 4,
    "colliderVertices": [
        {
            "x": -1.1571428775787354,
            "y": -0.017785312607884408
        },
        {
            "x": 1.6976892948150635,
            "y": -0.45099586248397829
        },
        {
            "x": -0.907581090927124,
            "y": 0.6379216909408569
        },
        {
            "x": -1.5830674171447755,
            "y": 0.3191775679588318
        }
    ],
    "triangles": [
        3,
        2,
        1,
        1,
        0,
        3
    ],
    "carDensity": 4.0,
    "suspension": 0.5105996131896973,
    "motorSpeed": 869,
    "frontDensity": 4.800000190734863,
    "frontRadius": 0.6791265606880188,
    "frontOffset": 1.4415974617004395,
    "backDensity": 3.0999999046325685,
    "backRadius": 0.5133461356163025,
    "backOffset": -1.36849045753479,
    "score": 911,
    "maxDistance": 833,
    "maxTime": 106.30000305175781,
    "speed": 8
}{
    "ID": 113623,
    "genomaID": "CV4TD11",
    "color": {
        "x": 0.11372663080692291,
        "y": 0.4762110114097595,
        "z": 0.36127057671546938
    },
    "vertexNumber": 4,
    "colliderVertices": [
        {
            "x": -1.6039133071899415,
            "y": -0.30052563548088076
        },
        {
            "x": 1.8319348096847535,
            "y": -0.29918715357780459
        },
        {
            "x": -0.588430643081665,
            "y": 0.3441564440727234
        },
        {
            "x": -1.9422869682312012,
            "y": 0.07036375999450684
        }
    ],
    "triangles": [
        3,
        2,
        1,
        1,
        0,
        3
    ],
    "carDensity": 4.0,
    "suspension": 0.7921303510665894,
    "motorSpeed": 858,
    "frontDensity": 4.900000095367432,
    "frontRadius": 0.6920121908187866,
    "frontOffset": 0.6668294668197632,
    "backDensity": 2.4000000953674318,
    "backRadius": 0.4388129711151123,
    "backOffset": -1.092384696006775,
    "score": 0,
    "maxDistance": 0,
    "maxTime": 0.0,
    "speed": -2147483648
}{
    "ID": 113799,
    "genomaID": "CV5TD11",
    "color": {
        "x": 0.20653727650642396,
        "y": 0.7379440665245056,
        "z": 0.5660251975059509
    },
    "vertexNumber": 5,
    "colliderVertices": [
        {
            "x": -1.2334036827087403,
            "y": -0.10966069996356964
        },
        {
            "x": 1.4827024936676026,
            "y": -0.41487962007522585
        },
        {
            "x": -1.1108875274658204,
            "y": 0.831552267074585
        },
        {
            "x": -1.4670543670654297,
            "y": 0.1723785400390625
        },
        {
            "x": -1.9534926414489747,
            "y": 0.6229402422904968
        }
    ],
    "triangles": [
        3,
        2,
        0,
        0,
        4,
        3,
        2,
        1,
        0
    ],
    "carDensity": 5.0,
    "suspension": 0.9739240407943726,
    "motorSpeed": 927,
    "frontDensity": 2.0999999046325685,
    "frontRadius": 0.40874654054641726,
    "frontOffset": 1.3331525325775147,
    "backDensity": 3.5999999046325685,
    "backRadius": 0.5576536059379578,
    "backOffset": -0.8433552980422974,
    "score": 0,
    "maxDistance": 0,
    "maxTime": 1.0,
    "speed": 0
}