{
    "ID": 46211,
    "genomaID": "CV5TD14",
    "color": {
        "x": 0.3950609564781189,
        "y": 0.9663015604019165,
        "z": 0.10336209833621979
    },
    "vertexNumber": 5,
    "colliderVertices": [
        {
            "x": -1.0398712158203126,
            "y": -0.15340085327625276
        },
        {
            "x": 1.2174824476242066,
            "y": -0.09507055580615998
        },
        {
            "x": 1.2585153579711915,
            "y": 0.011498212814331055
        },
        {
            "x": -1.642320156097412,
            "y": 0.4225284457206726
        },
        {
            "x": -1.8464860916137696,
            "y": 0.7244479656219482
        }
    ],
    "triangles": [
        4,
        0,
        1,
        1,
        2,
        3
    ],
    "carDensity": 5.0,
    "suspension": 0.810046911239624,
    "motorSpeed": 864,
    "frontDensity": 4.900000095367432,
    "frontRadius": 0.6900643706321716,
    "frontOffset": 0.9438258409500122,
    "backDensity": 3.799999952316284,
    "backRadius": 0.5783012509346008,
    "backOffset": -0.7563799023628235,
    "score": 916,
    "maxDistance": 834,
    "maxTime": 102.30000305175781,
    "speed": 8
}{
    "ID": 46279,
    "genomaID": "CV3TD12",
    "color": {
        "x": 0.07293427735567093,
        "y": 0.7639034986495972,
        "z": 0.21623137593269349
    },
    "vertexNumber": 3,
    "colliderVertices": [
        {
            "x": -1.615149736404419,
            "y": -0.08056289702653885
        },
        {
            "x": 1.1510634422302247,
            "y": -0.4890420436859131
        },
        {
            "x": -0.87314772605896,
            "y": 0.506628692150116
        }
    ],
    "triangles": [
        1,
        0,
        2
    ],
    "carDensity": 3.0,
    "suspension": 0.7149747610092163,
    "motorSpeed": 851,
    "frontDensity": 4.800000190734863,
    "frontRadius": 0.6791735291481018,
    "frontOffset": 0.5918723344802856,
    "backDensity": 3.9000000953674318,
    "backRadius": 0.5884959697723389,
    "backOffset": -1.338439702987671,
    "score": 913,
    "maxDistance": 833,
    "maxTime": 103.9000015258789,
    "speed": 8
}{
    "ID": 46346,
    "genomaID": "CV3TD12",
    "color": {
        "x": 0.09030605107545853,
        "y": 0.587245762348175,
        "z": 0.2169661819934845
    },
    "vertexNumber": 3,
    "colliderVertices": [
        {
            "x": -1.615149736404419,
            "y": -0.08056289702653885
        },
        {
            "x": 1.1510634422302247,
            "y": -0.4890420436859131
        },
        {
            "x": -0.87314772605896,
            "y": 0.506628692150116
        }
    ],
    "triangles": [
        1,
        0,
        2
    ],
    "carDensity": 3.0,
    "suspension": 0.9906756281852722,
    "motorSpeed": 851,
    "frontDensity": 4.800000190734863,
    "frontRadius": 0.6791735291481018,
    "frontOffset": 0.7644124627113342,
    "backDensity": 3.700000047683716,
    "backRadius": 0.5727956295013428,
    "backOffset": -1.2408336400985718,
    "score": 912,
    "maxDistance": 833,
    "maxTime": 104.80000305175781,
    "speed": 8
}{
    "ID": 46327,
    "genomaID": "CV5TD13",
    "color": {
        "x": 0.418354332447052,
        "y": 0.9232157468795776,
        "z": 0.7851275205612183
    },
    "vertexNumber": 5,
    "colliderVertices": [
        {
            "x": -1.0945733785629273,
            "y": -0.09782679378986359
        },
        {
            "x": 1.0327937602996827,
            "y": -0.44043004512786868
        },
        {
            "x": 0.17387032508850099,
            "y": 0.3003001809120178
        },
        {
            "x": -1.4829635620117188,
            "y": 0.012605667114257813
        },
        {
            "x": -1.6510939598083497,
            "y": 0.9027860164642334
        }
    ],
    "triangles": [
        4,
        0,
        1,
        1,
        2,
        3
    ],
    "carDensity": 5.0,
    "suspension": 0.7149747610092163,
    "motorSpeed": 851,
    "frontDensity": 4.800000190734863,
    "frontRadius": 0.6776784658432007,
    "frontOffset": 1.481365442276001,
    "backDensity": 2.9000000953674318,
    "backRadius": 0.4851725399494171,
    "backOffset": -1.338439702987671,
    "score": 20,
    "maxDistance": 3,
    "maxTime": 1.7999999523162842,
    "speed": 2
}{
    "ID": 46390,
    "genomaID": "CV5TD14",
    "color": {
        "x": 0.07470608502626419,
        "y": 0.5904449820518494,
        "z": 0.9264026880264282
    },
    "vertexNumber": 5,
    "colliderVertices": [
        {
            "x": -1.4309029579162598,
            "y": -0.3516915738582611
        },
        {
            "x": 1.7327741384506226,
            "y": -0.33675119280815127
        },
        {
            "x": 1.968526840209961,
            "y": 0.6028086543083191
        },
        {
            "x": 1.2122983932495118,
            "y": 0.9254746437072754
        },
        {
            "x": -1.892930507659912,
            "y": 0.3075605034828186
        }
    ],
    "triangles": [
        1,
        4,
        3,
        3,
        2,
        1,
        1,
        0,
        4
    ],
    "carDensity": 5.0,
    "suspension": 0.6213805675506592,
    "motorSpeed": 1225,
    "frontDensity": 4.800000190734863,
    "frontRadius": 0.6791735291481018,
    "frontOffset": 0.7964364886283875,
    "backDensity": 3.5,
    "backRadius": 0.5542291402816773,
    "backOffset": -1.2118251323699952,
    "score": 0,
    "maxDistance": 0,
    "maxTime": 1.7999999523162842,
    "speed": 0
}