{
    "ID": 25133,
    "genomaID": "CV3TD11",
    "color": {
        "x": 0.1805342584848404,
        "y": 0.25532034039497378,
        "z": 0.11323119699954987
    },
    "vertexNumber": 3,
    "colliderVertices": [
        {
            "x": -1.5219223499298096,
            "y": -0.2267734706401825
        },
        {
            "x": 1.29156494140625,
            "y": -0.0822649672627449
        },
        {
            "x": -1.457838535308838,
            "y": 0.26656633615493777
        }
    ],
    "triangles": [
        1,
        0,
        2
    ],
    "carDensity": 3.0,
    "suspension": 0.938720166683197,
    "motorSpeed": 851,
    "frontDensity": 4.800000190734863,
    "frontRadius": 0.6791735291481018,
    "frontOffset": 1.4795740842819214,
    "backDensity": 2.9000000953674318,
    "backRadius": 0.49475717544555666,
    "backOffset": -0.9898205995559692,
    "score": 911,
    "maxDistance": 834,
    "maxTime": 108.80000305175781,
    "speed": 8
}{
    "ID": 25057,
    "genomaID": "CV3TD10",
    "color": {
        "x": 0.8725746870040894,
        "y": 0.9586373567581177,
        "z": 0.8193961381912231
    },
    "vertexNumber": 3,
    "colliderVertices": [
        {
            "x": -1.7412893772125245,
            "y": -0.24600020051002503
        },
        {
            "x": 1.6365805864334107,
            "y": -0.11980439722537995
        },
        {
            "x": -1.7040982246398926,
            "y": 0.012483358383178711
        }
    ],
    "triangles": [
        1,
        0,
        2
    ],
    "carDensity": 3.0,
    "suspension": 0.4615184962749481,
    "motorSpeed": 696,
    "frontDensity": 4.099999904632568,
    "frontRadius": 0.6126639246940613,
    "frontOffset": 1.315703272819519,
    "backDensity": 3.0999999046325685,
    "backRadius": 0.5109738111495972,
    "backOffset": -1.4988545179367066,
    "score": 894,
    "maxDistance": 833,
    "maxTime": 135.89999389648438,
    "speed": 6
}{
    "ID": 25127,
    "genomaID": "CV3TD10",
    "color": {
        "x": 0.418354332447052,
        "y": 0.9232157468795776,
        "z": 0.7851275205612183
    },
    "vertexNumber": 3,
    "colliderVertices": [
        {
            "x": -1.2541747093200684,
            "y": -0.38386595249176028
        },
        {
            "x": 1.0193626880645753,
            "y": -0.271028071641922
        },
        {
            "x": 1.3762645721435547,
            "y": 0.10750925540924072
        }
    ],
    "triangles": [
        1,
        0,
        2
    ],
    "carDensity": 3.0,
    "suspension": 0.6047807931900024,
    "motorSpeed": 710,
    "frontDensity": 3.5999999046325685,
    "frontRadius": 0.5582157969474793,
    "frontOffset": 0.6439498662948608,
    "backDensity": 3.200000047683716,
    "backRadius": 0.5177872180938721,
    "backOffset": -0.5080081224441528,
    "score": 892,
    "maxDistance": 833,
    "maxTime": 140.10000610351563,
    "speed": 6
}{
    "ID": 25075,
    "genomaID": "CV3TD10",
    "color": {
        "x": 0.6410743594169617,
        "y": 0.9711371660232544,
        "z": 0.6748340725898743
    },
    "vertexNumber": 3,
    "colliderVertices": [
        {
            "x": -1.1032532453536988,
            "y": -0.49358516931533816
        },
        {
            "x": 1.832828164100647,
            "y": -0.2654899060726166
        },
        {
            "x": 1.4583029747009278,
            "y": 0.1334298849105835
        }
    ],
    "triangles": [
        1,
        0,
        2
    ],
    "carDensity": 3.0,
    "suspension": 0.9629421830177307,
    "motorSpeed": 858,
    "frontDensity": 4.099999904632568,
    "frontRadius": 0.6126639246940613,
    "frontOffset": 1.4874722957611085,
    "backDensity": 2.799999952316284,
    "backRadius": 0.48306673765182497,
    "backOffset": -1.1195117235183716,
    "score": 36,
    "maxDistance": 6,
    "maxTime": 2.0,
    "speed": 3
}{
    "ID": 25144,
    "genomaID": "CV3TD12",
    "color": {
        "x": 0.9064865112304688,
        "y": 0.7779922485351563,
        "z": 0.8559051752090454
    },
    "vertexNumber": 3,
    "colliderVertices": [
        {
            "x": -1.2541747093200684,
            "y": -0.38386595249176028
        },
        {
            "x": 1.0193626880645753,
            "y": -0.271028071641922
        },
        {
            "x": 1.3762645721435547,
            "y": 0.10750925540924072
        }
    ],
    "triangles": [
        1,
        0,
        2
    ],
    "carDensity": 3.0,
    "suspension": 0.7513610124588013,
    "motorSpeed": 1283,
    "frontDensity": 3.5999999046325685,
    "frontRadius": 0.5582157969474793,
    "frontOffset": 0.6439498662948608,
    "backDensity": 4.900000095367432,
    "backRadius": 0.686302125453949,
    "backOffset": -0.5975251197814941,
    "score": -11,
    "maxDistance": -1,
    "maxTime": 1.0,
    "speed": -1
}