{
    "ID": 46694,
    "genomaID": "CV3TD12",
    "color": {
        "x": 0.9743155241012573,
        "y": 0.7195313572883606,
        "z": 0.18392349779605866
    },
    "vertexNumber": 3,
    "colliderVertices": [
        {
            "x": -1.615149736404419,
            "y": -0.08056289702653885
        },
        {
            "x": 1.1510634422302247,
            "y": -0.4890420436859131
        },
        {
            "x": -0.87314772605896,
            "y": 0.506628692150116
        }
    ],
    "triangles": [
        1,
        0,
        2
    ],
    "carDensity": 3.0,
    "suspension": 0.6333056688308716,
    "motorSpeed": 851,
    "frontDensity": 4.800000190734863,
    "frontRadius": 0.6791735291481018,
    "frontOffset": 1.2018520832061768,
    "backDensity": 3.9000000953674318,
    "backRadius": 0.5935450196266174,
    "backOffset": -0.9744244813919067,
    "score": 915,
    "maxDistance": 834,
    "maxTime": 102.69999694824219,
    "speed": 8
}{
    "ID": 46799,
    "genomaID": "CV4TD13",
    "color": {
        "x": 0.20653727650642396,
        "y": 0.7379440665245056,
        "z": 0.5660251975059509
    },
    "vertexNumber": 4,
    "colliderVertices": [
        {
            "x": -1.8447999954223633,
            "y": -0.10730089247226715
        },
        {
            "x": 1.3016717433929444,
            "y": -0.28953269124031069
        },
        {
            "x": -0.26174378395080569,
            "y": 0.16528606414794923
        },
        {
            "x": -1.4357733726501465,
            "y": 0.27094918489456179
        }
    ],
    "triangles": [
        3,
        2,
        1,
        1,
        0,
        3
    ],
    "carDensity": 4.0,
    "suspension": 0.4408223032951355,
    "motorSpeed": 851,
    "frontDensity": 4.900000095367432,
    "frontRadius": 0.6937625408172607,
    "frontOffset": 1.2865971326828004,
    "backDensity": 3.700000047683716,
    "backRadius": 0.5727956295013428,
    "backOffset": -1.2795016765594483,
    "score": 914,
    "maxDistance": 834,
    "maxTime": 104.0,
    "speed": 8
}{
    "ID": 46690,
    "genomaID": "CV4TD12",
    "color": {
        "x": 0.32590678334236147,
        "y": 0.014507295563817025,
        "z": 0.20598354935646058
    },
    "vertexNumber": 4,
    "colliderVertices": [
        {
            "x": -1.0176777839660645,
            "y": -0.3384148180484772
        },
        {
            "x": 1.1553270816802979,
            "y": -0.03243929520249367
        },
        {
            "x": -0.48144078254699709,
            "y": 0.25916725397109988
        },
        {
            "x": -0.6601979732513428,
            "y": 0.4719155430793762
        }
    ],
    "triangles": [
        0,
        3,
        2,
        2,
        1,
        0
    ],
    "carDensity": 4.0,
    "suspension": 0.4090818166732788,
    "motorSpeed": 864,
    "frontDensity": 4.900000095367432,
    "frontRadius": 0.6877074241638184,
    "frontOffset": 0.5140306949615479,
    "backDensity": 3.4000000953674318,
    "backRadius": 0.5352407097816467,
    "backOffset": -1.196495771408081,
    "score": 912,
    "maxDistance": 833,
    "maxTime": 105.69999694824219,
    "speed": 8
}{
    "ID": 46766,
    "genomaID": "CV4TD12",
    "color": {
        "x": 0.6054989695549011,
        "y": 0.6117491126060486,
        "z": 0.5935098528862
    },
    "vertexNumber": 4,
    "colliderVertices": [
        {
            "x": -1.7367377281188965,
            "y": -0.043330732733011249
        },
        {
            "x": 1.017149806022644,
            "y": -0.012331904843449593
        },
        {
            "x": -0.5535194873809815,
            "y": 0.35333603620529177
        },
        {
            "x": -1.6496806144714356,
            "y": 0.751907467842102
        }
    ],
    "triangles": [
        0,
        3,
        2,
        2,
        1,
        0
    ],
    "carDensity": 4.0,
    "suspension": 0.622551679611206,
    "motorSpeed": 833,
    "frontDensity": 4.5,
    "frontRadius": 0.6492257118225098,
    "frontOffset": 1.20907723903656,
    "backDensity": 3.9000000953674318,
    "backRadius": 0.5884959697723389,
    "backOffset": -0.8927086591720581,
    "score": 20,
    "maxDistance": 3,
    "maxTime": 1.7999999523162842,
    "speed": 2
}{
    "ID": 46800,
    "genomaID": "CV3TD12",
    "color": {
        "x": 0.7157778143882752,
        "y": 0.7526435852050781,
        "z": 0.5779417157173157
    },
    "vertexNumber": 3,
    "colliderVertices": [
        {
            "x": -1.615149736404419,
            "y": -0.08056289702653885
        },
        {
            "x": 1.1510634422302247,
            "y": -0.4890420436859131
        },
        {
            "x": -0.87314772605896,
            "y": 0.506628692150116
        }
    ],
    "triangles": [
        1,
        0,
        2
    ],
    "carDensity": 3.0,
    "suspension": 0.49169063568115237,
    "motorSpeed": 1034,
    "frontDensity": 4.800000190734863,
    "frontRadius": 0.6791735291481018,
    "frontOffset": 0.7036070823669434,
    "backDensity": 3.9000000953674318,
    "backRadius": 0.5935450196266174,
    "backOffset": -0.9744244813919067,
    "score": 0,
    "maxDistance": 0,
    "maxTime": 0.800000011920929,
    "speed": 0
}