{
    "ID": 108580,
    "genomaID": "CV4TD13",
    "color": {
        "x": 0.4858422875404358,
        "y": 0.5531181693077087,
        "z": 0.6130606532096863
    },
    "vertexNumber": 4,
    "colliderVertices": [
        {
            "x": -1.450408697128296,
            "y": -0.06574697047472
        },
        {
            "x": 1.080062747001648,
            "y": -0.48543065786361697
        },
        {
            "x": -0.19033169746398927,
            "y": 0.8810619115829468
        },
        {
            "x": -0.20554184913635255,
            "y": 0.2114543914794922
        }
    ],
    "triangles": [
        3,
        2,
        1,
        1,
        0,
        3
    ],
    "carDensity": 4.0,
    "suspension": 0.8093948364257813,
    "motorSpeed": 851,
    "frontDensity": 4.900000095367432,
    "frontRadius": 0.6855190396308899,
    "frontOffset": 1.286424160003662,
    "backDensity": 3.9000000953674318,
    "backRadius": 0.5868172645568848,
    "backOffset": -1.2127349376678467,
    "score": 915,
    "maxDistance": 834,
    "maxTime": 102.9000015258789,
    "speed": 8
}{
    "ID": 108592,
    "genomaID": "CV3TD11",
    "color": {
        "x": 0.44061583280563357,
        "y": 0.84649658203125,
        "z": 0.2109551727771759
    },
    "vertexNumber": 3,
    "colliderVertices": [
        {
            "x": -1.615149736404419,
            "y": -0.08056289702653885
        },
        {
            "x": 1.1510634422302247,
            "y": -0.4890420436859131
        },
        {
            "x": -0.87314772605896,
            "y": 0.506628692150116
        }
    ],
    "triangles": [
        1,
        0,
        2
    ],
    "carDensity": 3.0,
    "suspension": 0.5745818614959717,
    "motorSpeed": 851,
    "frontDensity": 4.599999904632568,
    "frontRadius": 0.6609636545181274,
    "frontOffset": 0.6170886754989624,
    "backDensity": 3.4000000953674318,
    "backRadius": 0.5438003540039063,
    "backOffset": -1.0175236463546754,
    "score": 911,
    "maxDistance": 834,
    "maxTime": 108.80000305175781,
    "speed": 8
}{
    "ID": 108587,
    "genomaID": "CV3TD11",
    "color": {
        "x": 0.31324294209480288,
        "y": 0.07841325551271439,
        "z": 0.9491356611251831
    },
    "vertexNumber": 3,
    "colliderVertices": [
        {
            "x": -1.9273650646209717,
            "y": -0.024713221937417985
        },
        {
            "x": 1.0303418636322022,
            "y": -0.36294832825660708
        },
        {
            "x": -0.5955560207366943,
            "y": 0.42121678590774538
        }
    ],
    "triangles": [
        1,
        0,
        2
    ],
    "carDensity": 3.0,
    "suspension": 0.8632307648658752,
    "motorSpeed": 869,
    "frontDensity": 4.699999809265137,
    "frontRadius": 0.6709414720535278,
    "frontOffset": 1.2086732387542725,
    "backDensity": 3.299999952316284,
    "backRadius": 0.5260063409805298,
    "backOffset": -0.9652167558670044,
    "score": 908,
    "maxDistance": 830,
    "maxTime": 106.9000015258789,
    "speed": 8
}{
    "ID": 108451,
    "genomaID": "CV3TD10",
    "color": {
        "x": 0.560156524181366,
        "y": 0.9362970590591431,
        "z": 0.4048425555229187
    },
    "vertexNumber": 3,
    "colliderVertices": [
        {
            "x": -1.4903595447540284,
            "y": -0.07688982039690018
        },
        {
            "x": 1.6353117227554322,
            "y": -0.43294966220855715
        },
        {
            "x": -0.680962324142456,
            "y": 0.24219870567321778
        }
    ],
    "triangles": [
        1,
        0,
        2
    ],
    "carDensity": 3.0,
    "suspension": 0.41505685448646548,
    "motorSpeed": 869,
    "frontDensity": 3.799999952316284,
    "frontRadius": 0.5791261792182922,
    "frontOffset": 1.479064702987671,
    "backDensity": 3.200000047683716,
    "backRadius": 0.5170900821685791,
    "backOffset": -0.838891863822937,
    "score": 31,
    "maxDistance": 5,
    "maxTime": 1.899999976158142,
    "speed": 3
}{
    "ID": 108590,
    "genomaID": "CV3TD8",
    "color": {
        "x": 0.07470608502626419,
        "y": 0.5904449820518494,
        "z": 0.9264026880264282
    },
    "vertexNumber": 3,
    "colliderVertices": [
        {
            "x": -1.4903595447540284,
            "y": -0.07688982039690018
        },
        {
            "x": 1.6353117227554322,
            "y": -0.43294966220855715
        },
        {
            "x": -0.680962324142456,
            "y": 0.24219870567321778
        }
    ],
    "triangles": [
        1,
        0,
        2
    ],
    "carDensity": 3.0,
    "suspension": 0.45919865369796755,
    "motorSpeed": 869,
    "frontDensity": 2.4000000953674318,
    "frontRadius": 0.4397669732570648,
    "frontOffset": 1.0175625085830689,
    "backDensity": 3.0999999046325685,
    "backRadius": 0.512342095375061,
    "backOffset": -1.4552679061889649,
    "score": 0,
    "maxDistance": 0,
    "maxTime": 0.8999999761581421,
    "speed": 0
}