{
    "ID": 14609,
    "genomaID": "CV4TD12",
    "color": {
        "x": 0.43795162439346316,
        "y": 0.19413724541664124,
        "z": 0.2546187937259674
    },
    "vertexNumber": 4,
    "colliderVertices": [
        {
            "x": -1.4980177879333497,
            "y": -0.4272273778915405
        },
        {
            "x": 1.1730620861053467,
            "y": -0.43692779541015627
        },
        {
            "x": -1.814589023590088,
            "y": 0.21405422687530518
        },
        {
            "x": -1.962052345275879,
            "y": 0.4246276021003723
        }
    ],
    "triangles": [
        0,
        3,
        2,
        2,
        1,
        0
    ],
    "carDensity": 4.0,
    "suspension": 0.8273947238922119,
    "motorSpeed": 871,
    "frontDensity": 4.599999904632568,
    "frontRadius": 0.6598317623138428,
    "frontOffset": 1.445523977279663,
    "backDensity": 2.700000047683716,
    "backRadius": 0.4710909128189087,
    "backOffset": -1.2470252513885499,
    "score": 909,
    "maxDistance": 834,
    "maxTime": 111.4000015258789,
    "speed": 7
}{
    "ID": 14620,
    "genomaID": "CV3TD10",
    "color": {
        "x": 0.710654079914093,
        "y": 0.018615366891026498,
        "z": 0.12593068182468415
    },
    "vertexNumber": 3,
    "colliderVertices": [
        {
            "x": -1.7412893772125245,
            "y": -0.24600020051002503
        },
        {
            "x": 1.6365805864334107,
            "y": -0.11980439722537995
        },
        {
            "x": -1.7040982246398926,
            "y": 0.012483358383178711
        }
    ],
    "triangles": [
        1,
        0,
        2
    ],
    "carDensity": 3.0,
    "suspension": 0.8181980848312378,
    "motorSpeed": 696,
    "frontDensity": 4.099999904632568,
    "frontRadius": 0.6126639246940613,
    "frontOffset": 1.2648241519927979,
    "backDensity": 2.5999999046325685,
    "backRadius": 0.4603666067123413,
    "backOffset": -1.1504803895950318,
    "score": 893,
    "maxDistance": 833,
    "maxTime": 138.6999969482422,
    "speed": 6
}{
    "ID": 14737,
    "genomaID": "CV3TD8",
    "color": {
        "x": 0.35887065529823305,
        "y": 0.6983789801597595,
        "z": 0.3055068552494049
    },
    "vertexNumber": 3,
    "colliderVertices": [
        {
            "x": -1.6530086994171143,
            "y": -0.20500448346138
        },
        {
            "x": 1.0130809545516968,
            "y": -0.27738508582115176
        },
        {
            "x": 1.0394701957702637,
            "y": 0.09570145606994629
        }
    ],
    "triangles": [
        1,
        0,
        2
    ],
    "carDensity": 3.0,
    "suspension": 0.5109349489212036,
    "motorSpeed": 742,
    "frontDensity": 3.200000047683716,
    "frontRadius": 0.5158510208129883,
    "frontOffset": 1.4939134120941163,
    "backDensity": 2.5,
    "backRadius": 0.45481961965560915,
    "backOffset": -1.0633381605148316,
    "score": 891,
    "maxDistance": 834,
    "maxTime": 146.8000030517578,
    "speed": 6
}{
    "ID": 14647,
    "genomaID": "CV3TD10",
    "color": {
        "x": 0.27275899052619936,
        "y": 0.5958929657936096,
        "z": 0.6811581254005432
    },
    "vertexNumber": 3,
    "colliderVertices": [
        {
            "x": -1.82967209815979,
            "y": -0.2535070478916168
        },
        {
            "x": 1.4187955856323243,
            "y": -0.3673715889453888
        },
        {
            "x": 0.19264960289001466,
            "y": 0.2543463110923767
        }
    ],
    "triangles": [
        1,
        0,
        2
    ],
    "carDensity": 3.0,
    "suspension": 0.6118984222412109,
    "motorSpeed": 695,
    "frontDensity": 4.199999809265137,
    "frontRadius": 0.6175910830497742,
    "frontOffset": 1.353818655014038,
    "backDensity": 3.0,
    "backRadius": 0.495239794254303,
    "backOffset": -1.0249327421188355,
    "score": 30,
    "maxDistance": 5,
    "maxTime": 2.0,
    "speed": 3
}{
    "ID": 14794,
    "genomaID": "CV3TD10",
    "color": {
        "x": 0.6533638834953308,
        "y": 0.5734136700630188,
        "z": 0.5898723006248474
    },
    "vertexNumber": 3,
    "colliderVertices": [
        {
            "x": -1.7412893772125245,
            "y": -0.24600020051002503
        },
        {
            "x": 1.6365805864334107,
            "y": -0.11980439722537995
        },
        {
            "x": -1.7040982246398926,
            "y": 0.012483358383178711
        }
    ],
    "triangles": [
        1,
        0,
        2
    ],
    "carDensity": 3.0,
    "suspension": 0.5458749532699585,
    "motorSpeed": 1143,
    "frontDensity": 4.0,
    "frontRadius": 0.6022745370864868,
    "frontOffset": 1.1306625604629517,
    "backDensity": 2.5999999046325685,
    "backRadius": 0.4603666067123413,
    "backOffset": -1.1504803895950318,
    "score": 0,
    "maxDistance": 0,
    "maxTime": 1.0,
    "speed": 0
}