{
    "ID": 95657,
    "genomaID": "CV4TD13",
    "color": {
        "x": 0.8725746870040894,
        "y": 0.9586373567581177,
        "z": 0.8193961381912231
    },
    "vertexNumber": 4,
    "colliderVertices": [
        {
            "x": -1.116348385810852,
            "y": -0.20045021176338197
        },
        {
            "x": 1.0153383016586304,
            "y": -0.2563503086566925
        },
        {
            "x": -0.8977258205413818,
            "y": 0.41677325963974
        },
        {
            "x": -1.1383333206176758,
            "y": 0.5453508496284485
        }
    ],
    "triangles": [
        0,
        3,
        2,
        2,
        1,
        0
    ],
    "carDensity": 4.0,
    "suspension": 0.4631359279155731,
    "motorSpeed": 891,
    "frontDensity": 4.800000190734863,
    "frontRadius": 0.6801435947418213,
    "frontOffset": 1.3425453901290894,
    "backDensity": 3.5999999046325685,
    "backRadius": 0.5566180944442749,
    "backOffset": -0.5427994728088379,
    "score": 915,
    "maxDistance": 833,
    "maxTime": 101.69999694824219,
    "speed": 8
}{
    "ID": 95764,
    "genomaID": "CV3TD12",
    "color": {
        "x": 0.5360366702079773,
        "y": 0.385536253452301,
        "z": 0.09161461144685745
    },
    "vertexNumber": 3,
    "colliderVertices": [
        {
            "x": -1.4115111827850342,
            "y": -0.07266468554735184
        },
        {
            "x": 1.352006196975708,
            "y": -0.47213369607925417
        },
        {
            "x": -0.28396105766296389,
            "y": 0.5748470425605774
        }
    ],
    "triangles": [
        1,
        0,
        2
    ],
    "carDensity": 3.0,
    "suspension": 0.8833323121070862,
    "motorSpeed": 850,
    "frontDensity": 4.800000190734863,
    "frontRadius": 0.6815878748893738,
    "frontOffset": 0.5239136219024658,
    "backDensity": 3.5999999046325685,
    "backRadius": 0.5565154552459717,
    "backOffset": -1.1678298711776734,
    "score": 913,
    "maxDistance": 834,
    "maxTime": 106.0,
    "speed": 8
}{
    "ID": 95606,
    "genomaID": "CV3TD12",
    "color": {
        "x": 0.023887161165475847,
        "y": 0.4522629380226135,
        "z": 0.36236730217933657
    },
    "vertexNumber": 3,
    "colliderVertices": [
        {
            "x": -1.1364887952804566,
            "y": -0.19462057948112489
        },
        {
            "x": 1.122775912284851,
            "y": -0.11985655128955841
        },
        {
            "x": -1.2389373779296876,
            "y": 0.9109041690826416
        }
    ],
    "triangles": [
        1,
        0,
        2
    ],
    "carDensity": 3.0,
    "suspension": 0.7215734720230103,
    "motorSpeed": 851,
    "frontDensity": 4.800000190734863,
    "frontRadius": 0.678674578666687,
    "frontOffset": 1.1878662109375,
    "backDensity": 3.799999952316284,
    "backRadius": 0.5814912915229797,
    "backOffset": -1.085924506187439,
    "score": 910,
    "maxDistance": 830,
    "maxTime": 104.0,
    "speed": 8
}{
    "ID": 95798,
    "genomaID": "CV4TD13",
    "color": {
        "x": 0.8288270235061646,
        "y": 0.1767282634973526,
        "z": 0.6346012949943543
    },
    "vertexNumber": 4,
    "colliderVertices": [
        {
            "x": -1.4762589931488038,
            "y": -0.09505607187747956
        },
        {
            "x": 1.0258159637451172,
            "y": -0.39946794509887698
        },
        {
            "x": 0.7711600661277771,
            "y": 0.03925681114196777
        },
        {
            "x": 0.61422199010849,
            "y": 0.0485302209854126
        }
    ],
    "triangles": [
        3,
        2,
        1,
        1,
        0,
        3
    ],
    "carDensity": 4.0,
    "suspension": 0.5702135562896729,
    "motorSpeed": 762,
    "frontDensity": 4.599999904632568,
    "frontRadius": 0.6554690599441528,
    "frontOffset": 0.6160506010055542,
    "backDensity": 3.700000047683716,
    "backRadius": 0.565962016582489,
    "backOffset": -1.4741926193237305,
    "score": 19,
    "maxDistance": 3,
    "maxTime": 1.899999976158142,
    "speed": 2
}{
    "ID": 95797,
    "genomaID": "CV3TD9",
    "color": {
        "x": 0.4004287123680115,
        "y": 0.941399097442627,
        "z": 0.8905913829803467
    },
    "vertexNumber": 3,
    "colliderVertices": [
        {
            "x": -1.615149736404419,
            "y": -0.08056289702653885
        },
        {
            "x": 1.1510634422302247,
            "y": -0.4890420436859131
        },
        {
            "x": -0.87314772605896,
            "y": 0.506628692150116
        }
    ],
    "triangles": [
        1,
        0,
        2
    ],
    "carDensity": 3.0,
    "suspension": 0.7757046818733215,
    "motorSpeed": 851,
    "frontDensity": 3.200000047683716,
    "frontRadius": 0.5213048458099365,
    "frontOffset": 0.9172159433364868,
    "backDensity": 3.299999952316284,
    "backRadius": 0.5348392724990845,
    "backOffset": -1.02930748462677,
    "score": 0,
    "maxDistance": 0,
    "maxTime": 0.8999999761581421,
    "speed": 0
}