{
    "ID": 23662,
    "genomaID": "CV3TD12",
    "color": {
        "x": 0.13412870466709138,
        "y": 0.49022799730300906,
        "z": 0.5442808270454407
    },
    "vertexNumber": 3,
    "colliderVertices": [
        {
            "x": -1.5219223499298096,
            "y": -0.2267734706401825
        },
        {
            "x": 1.29156494140625,
            "y": -0.0822649672627449
        },
        {
            "x": -1.457838535308838,
            "y": 0.26656633615493777
        }
    ],
    "triangles": [
        1,
        0,
        2
    ],
    "carDensity": 3.0,
    "suspension": 0.9100974798202515,
    "motorSpeed": 851,
    "frontDensity": 4.800000190734863,
    "frontRadius": 0.6791735291481018,
    "frontOffset": 1.3200539350509644,
    "backDensity": 3.799999952316284,
    "backRadius": 0.5802501440048218,
    "backOffset": -1.252677321434021,
    "score": 912,
    "maxDistance": 832,
    "maxTime": 104.0,
    "speed": 8
}{
    "ID": 23660,
    "genomaID": "CV6TD13",
    "color": {
        "x": 0.06874633580446243,
        "y": 0.15198315680027009,
        "z": 0.8252511024475098
    },
    "vertexNumber": 6,
    "colliderVertices": [
        {
            "x": -1.0518062114715577,
            "y": -0.27210238575935366
        },
        {
            "x": 1.454038143157959,
            "y": -0.3893991708755493
        },
        {
            "x": 0.5394582152366638,
            "y": 0.12433052062988281
        },
        {
            "x": 0.45127129554748537,
            "y": 0.6118760704994202
        },
        {
            "x": -0.049459218978881839,
            "y": 0.11831402778625488
        },
        {
            "x": -0.2530858516693115,
            "y": 0.8987331390380859
        }
    ],
    "triangles": [
        4,
        2,
        0,
        0,
        5,
        4,
        4,
        3,
        2,
        2,
        1,
        0
    ],
    "carDensity": 6.0,
    "suspension": 0.7070988416671753,
    "motorSpeed": 741,
    "frontDensity": 3.9000000953674318,
    "frontRadius": 0.5896615982055664,
    "frontOffset": 1.4083621501922608,
    "backDensity": 2.9000000953674318,
    "backRadius": 0.49139314889907839,
    "backOffset": -1.1562297344207764,
    "score": 894,
    "maxDistance": 833,
    "maxTime": 135.5,
    "speed": 6
}{
    "ID": 23771,
    "genomaID": "CV4TD11",
    "color": {
        "x": 0.44894856214523318,
        "y": 0.6840866208076477,
        "z": 0.24672845005989076
    },
    "vertexNumber": 4,
    "colliderVertices": [
        {
            "x": -1.6287600994110108,
            "y": -0.008129478432238102
        },
        {
            "x": 1.5563569068908692,
            "y": -0.20361843705177308
        },
        {
            "x": 0.38948798179626467,
            "y": 0.11577785015106201
        },
        {
            "x": -0.7304794788360596,
            "y": 0.7429468631744385
        }
    ],
    "triangles": [
        0,
        3,
        2,
        2,
        1,
        0
    ],
    "carDensity": 4.0,
    "suspension": 0.9505947232246399,
    "motorSpeed": 696,
    "frontDensity": 4.0,
    "frontRadius": 0.6049970388412476,
    "frontOffset": 1.3779642581939698,
    "backDensity": 3.0999999046325685,
    "backRadius": 0.5109738111495972,
    "backOffset": -1.0949829816818238,
    "score": 892,
    "maxDistance": 833,
    "maxTime": 140.5,
    "speed": 6
}{
    "ID": 23735,
    "genomaID": "CV6TD13",
    "color": {
        "x": 0.8202186822891235,
        "y": 0.08997727185487747,
        "z": 0.484300434589386
    },
    "vertexNumber": 6,
    "colliderVertices": [
        {
            "x": -1.0518062114715577,
            "y": -0.27210238575935366
        },
        {
            "x": 1.454038143157959,
            "y": -0.3893991708755493
        },
        {
            "x": 0.5394582152366638,
            "y": 0.12433052062988281
        },
        {
            "x": 0.45127129554748537,
            "y": 0.6118760704994202
        },
        {
            "x": -0.049459218978881839,
            "y": 0.11831402778625488
        },
        {
            "x": -0.2530858516693115,
            "y": 0.8987331390380859
        }
    ],
    "triangles": [
        4,
        2,
        0,
        0,
        5,
        4,
        4,
        3,
        2,
        2,
        1,
        0
    ],
    "carDensity": 6.0,
    "suspension": 0.7070988416671753,
    "motorSpeed": 741,
    "frontDensity": 4.199999809265137,
    "frontRadius": 0.617969810962677,
    "frontOffset": 1.3450562953948975,
    "backDensity": 2.9000000953674318,
    "backRadius": 0.49139314889907839,
    "backOffset": -1.1562297344207764,
    "score": 30,
    "maxDistance": 5,
    "maxTime": 2.0,
    "speed": 2
}{
    "ID": 23711,
    "genomaID": "CV3TD12",
    "color": {
        "x": 0.3045879900455475,
        "y": 0.8878774642944336,
        "z": 0.1544487625360489
    },
    "vertexNumber": 3,
    "colliderVertices": [
        {
            "x": -1.7412893772125245,
            "y": -0.24600020051002503
        },
        {
            "x": 1.6365805864334107,
            "y": -0.11980439722537995
        },
        {
            "x": -1.7040982246398926,
            "y": 0.012483358383178711
        }
    ],
    "triangles": [
        1,
        0,
        2
    ],
    "carDensity": 3.0,
    "suspension": 0.40300872921943667,
    "motorSpeed": 696,
    "frontDensity": 3.700000047683716,
    "frontRadius": 0.5722579956054688,
    "frontOffset": 0.6173727512359619,
    "backDensity": 4.800000190734863,
    "backRadius": 0.6837061047554016,
    "backOffset": -1.3529285192489625,
    "score": -11,
    "maxDistance": -1,
    "maxTime": 1.0,
    "speed": -1
}