{
    "ID": 36541,
    "genomaID": "CV4TD13",
    "color": {
        "x": 0.1089494377374649,
        "y": 0.33543577790260317,
        "z": 0.5204598307609558
    },
    "vertexNumber": 4,
    "colliderVertices": [
        {
            "x": -1.6253166198730469,
            "y": -0.3372003138065338
        },
        {
            "x": 1.4561243057250977,
            "y": -0.47253841161727908
        },
        {
            "x": -0.18962311744689942,
            "y": 0.2976929545402527
        },
        {
            "x": -0.7036993503570557,
            "y": 0.49902552366256716
        }
    ],
    "triangles": [
        3,
        2,
        1,
        1,
        0,
        3
    ],
    "carDensity": 4.0,
    "suspension": 0.9881467223167419,
    "motorSpeed": 864,
    "frontDensity": 4.900000095367432,
    "frontRadius": 0.6877074241638184,
    "frontOffset": 1.3662527799606324,
    "backDensity": 3.9000000953674318,
    "backRadius": 0.5904344916343689,
    "backOffset": -0.9793123006820679,
    "score": 916,
    "maxDistance": 834,
    "maxTime": 101.80000305175781,
    "speed": 8
}{
    "ID": 36413,
    "genomaID": "CV3TD12",
    "color": {
        "x": 0.2999573051929474,
        "y": 0.8041330575942993,
        "z": 0.9977710247039795
    },
    "vertexNumber": 3,
    "colliderVertices": [
        {
            "x": -1.615149736404419,
            "y": -0.08056289702653885
        },
        {
            "x": 1.1510634422302247,
            "y": -0.4890420436859131
        },
        {
            "x": -0.87314772605896,
            "y": 0.506628692150116
        }
    ],
    "triangles": [
        1,
        0,
        2
    ],
    "carDensity": 3.0,
    "suspension": 0.9752981662750244,
    "motorSpeed": 851,
    "frontDensity": 4.800000190734863,
    "frontRadius": 0.6791735291481018,
    "frontOffset": 0.8567429780960083,
    "backDensity": 3.5999999046325685,
    "backRadius": 0.5558890104293823,
    "backOffset": -1.412567138671875,
    "score": 911,
    "maxDistance": 833,
    "maxTime": 106.4000015258789,
    "speed": 8
}{
    "ID": 36439,
    "genomaID": "CV3TD10",
    "color": {
        "x": 0.9107679128646851,
        "y": 0.2904328405857086,
        "z": 0.360495001077652
    },
    "vertexNumber": 3,
    "colliderVertices": [
        {
            "x": -1.615149736404419,
            "y": -0.08056289702653885
        },
        {
            "x": 1.1510634422302247,
            "y": -0.4890420436859131
        },
        {
            "x": -0.87314772605896,
            "y": 0.506628692150116
        }
    ],
    "triangles": [
        1,
        0,
        2
    ],
    "carDensity": 3.0,
    "suspension": 0.6987912654876709,
    "motorSpeed": 658,
    "frontDensity": 4.800000190734863,
    "frontRadius": 0.6791735291481018,
    "frontOffset": 0.8715575933456421,
    "backDensity": 2.5,
    "backRadius": 0.4463801383972168,
    "backOffset": -0.6730912923812866,
    "score": 892,
    "maxDistance": 833,
    "maxTime": 140.6999969482422,
    "speed": 6
}{
    "ID": 36446,
    "genomaID": "CV3TD11",
    "color": {
        "x": 0.832940936088562,
        "y": 0.48083454370498659,
        "z": 0.30451205372810366
    },
    "vertexNumber": 3,
    "colliderVertices": [
        {
            "x": -1.2415111064910889,
            "y": -0.332523912191391
        },
        {
            "x": 1.2988438606262208,
            "y": -0.2140497863292694
        },
        {
            "x": -1.6646909713745118,
            "y": 0.4260508418083191
        }
    ],
    "triangles": [
        1,
        0,
        2
    ],
    "carDensity": 3.0,
    "suspension": 0.905718982219696,
    "motorSpeed": 835,
    "frontDensity": 4.900000095367432,
    "frontRadius": 0.6877074241638184,
    "frontOffset": 0.8293820023536682,
    "backDensity": 3.0,
    "backRadius": 0.4971954822540283,
    "backOffset": -1.120463252067566,
    "score": 13,
    "maxDistance": 2,
    "maxTime": 1.899999976158142,
    "speed": 1
}{
    "ID": 36587,
    "genomaID": "CV4TD13",
    "color": {
        "x": 0.31324294209480288,
        "y": 0.07841325551271439,
        "z": 0.9491356611251831
    },
    "vertexNumber": 4,
    "colliderVertices": [
        {
            "x": -1.3750269412994385,
            "y": -0.4208946228027344
        },
        {
            "x": 1.3387415409088135,
            "y": -0.1996665894985199
        },
        {
            "x": 1.9925661087036133,
            "y": 0.144903302192688
        },
        {
            "x": 1.567122459411621,
            "y": 0.5130119919776917
        }
    ],
    "triangles": [
        3,
        2,
        1,
        1,
        0,
        3
    ],
    "carDensity": 4.0,
    "suspension": 0.6083019971847534,
    "motorSpeed": 864,
    "frontDensity": 4.900000095367432,
    "frontRadius": 0.6918750405311585,
    "frontOffset": 0.5704656839370728,
    "backDensity": 3.5999999046325685,
    "backRadius": 0.5644927620887756,
    "backOffset": -1.046420931816101,
    "score": 0,
    "maxDistance": 0,
    "maxTime": 0.8999999761581421,
    "speed": 0
}