{
    "ID": 63457,
    "genomaID": "CV3TD12",
    "color": {
        "x": 0.8725746870040894,
        "y": 0.9586373567581177,
        "z": 0.8193961381912231
    },
    "vertexNumber": 3,
    "colliderVertices": [
        {
            "x": -1.8275327682495118,
            "y": -0.2862608730792999
        },
        {
            "x": 1.4120464324951172,
            "y": -0.28827038407325747
        },
        {
            "x": -0.39328598976135256,
            "y": 0.5744979977607727
        }
    ],
    "triangles": [
        1,
        0,
        2
    ],
    "carDensity": 3.0,
    "suspension": 0.7902426719665527,
    "motorSpeed": 841,
    "frontDensity": 4.900000095367432,
    "frontRadius": 0.685295045375824,
    "frontOffset": 0.6849302053451538,
    "backDensity": 4.300000190734863,
    "backRadius": 0.6310582756996155,
    "backOffset": -0.9922066926956177,
    "score": 917,
    "maxDistance": 834,
    "maxTime": 100.30000305175781,
    "speed": 8
}{
    "ID": 63574,
    "genomaID": "CV3TD12",
    "color": {
        "x": 0.16558422148227693,
        "y": 0.6600871682167053,
        "z": 0.13062037527561189
    },
    "vertexNumber": 3,
    "colliderVertices": [
        {
            "x": -1.615149736404419,
            "y": -0.08056289702653885
        },
        {
            "x": 1.1510634422302247,
            "y": -0.4890420436859131
        },
        {
            "x": -0.87314772605896,
            "y": 0.506628692150116
        }
    ],
    "triangles": [
        1,
        0,
        2
    ],
    "carDensity": 3.0,
    "suspension": 0.7344108819961548,
    "motorSpeed": 851,
    "frontDensity": 4.900000095367432,
    "frontRadius": 0.6900220513343811,
    "frontOffset": 0.5603650808334351,
    "backDensity": 3.700000047683716,
    "backRadius": 0.5727956295013428,
    "backOffset": -0.7163357734680176,
    "score": 914,
    "maxDistance": 834,
    "maxTime": 104.0999984741211,
    "speed": 8
}{
    "ID": 63508,
    "genomaID": "CV3TD11",
    "color": {
        "x": 0.18889263272285462,
        "y": 0.6252102255821228,
        "z": 0.9272602796554565
    },
    "vertexNumber": 3,
    "colliderVertices": [
        {
            "x": -1.615149736404419,
            "y": -0.08056289702653885
        },
        {
            "x": 1.1510634422302247,
            "y": -0.4890420436859131
        },
        {
            "x": -0.87314772605896,
            "y": 0.506628692150116
        }
    ],
    "triangles": [
        1,
        0,
        2
    ],
    "carDensity": 3.0,
    "suspension": 0.5633247494697571,
    "motorSpeed": 851,
    "frontDensity": 4.900000095367432,
    "frontRadius": 0.6900220513343811,
    "frontOffset": 0.6927049160003662,
    "backDensity": 3.4000000953674318,
    "backRadius": 0.5380295515060425,
    "backOffset": -0.5655626058578491,
    "score": 912,
    "maxDistance": 834,
    "maxTime": 106.5999984741211,
    "speed": 8
}{
    "ID": 63583,
    "genomaID": "CV5TD14",
    "color": {
        "x": 0.6271914839744568,
        "y": 0.385389506816864,
        "z": 0.47247403860092165
    },
    "vertexNumber": 5,
    "colliderVertices": [
        {
            "x": -1.8992849588394166,
            "y": -0.21386370062828065
        },
        {
            "x": 1.8720515966415406,
            "y": -0.06013912707567215
        },
        {
            "x": 1.508432388305664,
            "y": 0.2984057068824768
        },
        {
            "x": 0.4461519718170166,
            "y": 0.7667720317840576
        },
        {
            "x": -0.8401763439178467,
            "y": 0.42029184103012087
        }
    ],
    "triangles": [
        1,
        4,
        3,
        3,
        2,
        1,
        1,
        0,
        4
    ],
    "carDensity": 5.0,
    "suspension": 0.4000338315963745,
    "motorSpeed": 851,
    "frontDensity": 4.599999904632568,
    "frontRadius": 0.6603994369506836,
    "frontOffset": 1.0097447633743287,
    "backDensity": 3.5999999046325685,
    "backRadius": 0.556148886680603,
    "backOffset": -0.9290453195571899,
    "score": 20,
    "maxDistance": 3,
    "maxTime": 1.7999999523162842,
    "speed": 2
}{
    "ID": 63598,
    "genomaID": "CV3TD12",
    "color": {
        "x": 0.8288270235061646,
        "y": 0.1767282634973526,
        "z": 0.6346012949943543
    },
    "vertexNumber": 3,
    "colliderVertices": [
        {
            "x": -1.615149736404419,
            "y": -0.08056289702653885
        },
        {
            "x": 1.1510634422302247,
            "y": -0.4890420436859131
        },
        {
            "x": -0.87314772605896,
            "y": 0.506628692150116
        }
    ],
    "triangles": [
        1,
        0,
        2
    ],
    "carDensity": 3.0,
    "suspension": 0.7344108819961548,
    "motorSpeed": 1370,
    "frontDensity": 4.900000095367432,
    "frontRadius": 0.6900220513343811,
    "frontOffset": 0.5603650808334351,
    "backDensity": 3.700000047683716,
    "backRadius": 0.5727956295013428,
    "backOffset": -1.4074642658233643,
    "score": 0,
    "maxDistance": 0,
    "maxTime": 0.800000011920929,
    "speed": 0
}