{
    "ID": 102236,
    "genomaID": "CV3TD12",
    "color": {
        "x": 0.8993514776229858,
        "y": 0.857460618019104,
        "z": 0.45774370431900027
    },
    "vertexNumber": 3,
    "colliderVertices": [
        {
            "x": -1.3377406597137452,
            "y": -0.48940151929855349
        },
        {
            "x": 1.0710296630859376,
            "y": -0.2538127601146698
        },
        {
            "x": -0.7197697162628174,
            "y": 0.5375171303749085
        }
    ],
    "triangles": [
        1,
        0,
        2
    ],
    "carDensity": 3.0,
    "suspension": 0.748268723487854,
    "motorSpeed": 841,
    "frontDensity": 4.900000095367432,
    "frontRadius": 0.6881775259971619,
    "frontOffset": 0.5643371343612671,
    "backDensity": 4.099999904632568,
    "backRadius": 0.6051174402236939,
    "backOffset": -1.1828012466430665,
    "score": 914,
    "maxDistance": 832,
    "maxTime": 101.9000015258789,
    "speed": 8
}{
    "ID": 102263,
    "genomaID": "CV3TD11",
    "color": {
        "x": 0.8644475936889648,
        "y": 0.6927585005760193,
        "z": 0.47708970308303835
    },
    "vertexNumber": 3,
    "colliderVertices": [
        {
            "x": -1.615149736404419,
            "y": -0.08056289702653885
        },
        {
            "x": 1.1510634422302247,
            "y": -0.4890420436859131
        },
        {
            "x": -0.87314772605896,
            "y": 0.506628692150116
        }
    ],
    "triangles": [
        1,
        0,
        2
    ],
    "carDensity": 3.0,
    "suspension": 0.8698969483375549,
    "motorSpeed": 851,
    "frontDensity": 4.800000190734863,
    "frontRadius": 0.678674578666687,
    "frontOffset": 1.1471030712127686,
    "backDensity": 3.0,
    "backRadius": 0.4966391921043396,
    "backOffset": -0.6232930421829224,
    "score": 910,
    "maxDistance": 834,
    "maxTime": 110.19999694824219,
    "speed": 8
}{
    "ID": 102303,
    "genomaID": "CV3TD12",
    "color": {
        "x": 0.1564124971628189,
        "y": 0.4464983344078064,
        "z": 0.09421814978122711
    },
    "vertexNumber": 3,
    "colliderVertices": [
        {
            "x": -1.615149736404419,
            "y": -0.08056289702653885
        },
        {
            "x": 1.1510634422302247,
            "y": -0.4890420436859131
        },
        {
            "x": -0.87314772605896,
            "y": 0.506628692150116
        }
    ],
    "triangles": [
        1,
        0,
        2
    ],
    "carDensity": 3.0,
    "suspension": 0.6204090118408203,
    "motorSpeed": 851,
    "frontDensity": 4.900000095367432,
    "frontRadius": 0.6855190396308899,
    "frontOffset": 0.880902886390686,
    "backDensity": 3.5,
    "backRadius": 0.5470849275588989,
    "backOffset": -1.0488008260726929,
    "score": 907,
    "maxDistance": 829,
    "maxTime": 105.9000015258789,
    "speed": 8
}{
    "ID": 102208,
    "genomaID": "CV3TD8",
    "color": {
        "x": 0.17345787584781648,
        "y": 0.17457963526248933,
        "z": 0.9269862174987793
    },
    "vertexNumber": 3,
    "colliderVertices": [
        {
            "x": -1.615149736404419,
            "y": -0.08056289702653885
        },
        {
            "x": 1.1510634422302247,
            "y": -0.4890420436859131
        },
        {
            "x": -0.87314772605896,
            "y": 0.506628692150116
        }
    ],
    "triangles": [
        1,
        0,
        2
    ],
    "carDensity": 3.0,
    "suspension": 0.5267808437347412,
    "motorSpeed": 851,
    "frontDensity": 2.0,
    "frontRadius": 0.404957115650177,
    "frontOffset": 1.2995758056640626,
    "backDensity": 3.299999952316284,
    "backRadius": 0.5272250175476074,
    "backOffset": -0.7450689077377319,
    "score": 0,
    "maxDistance": 0,
    "maxTime": 0.8999999761581421,
    "speed": 0
}{
    "ID": 102399,
    "genomaID": "CV3TD9",
    "color": {
        "x": 0.20653727650642396,
        "y": 0.7379440665245056,
        "z": 0.5660251975059509
    },
    "vertexNumber": 3,
    "colliderVertices": [
        {
            "x": -1.615149736404419,
            "y": -0.08056289702653885
        },
        {
            "x": 1.1510634422302247,
            "y": -0.4890420436859131
        },
        {
            "x": -0.87314772605896,
            "y": 0.506628692150116
        }
    ],
    "triangles": [
        1,
        0,
        2
    ],
    "carDensity": 3.0,
    "suspension": 0.7957962155342102,
    "motorSpeed": 851,
    "frontDensity": 2.4000000953674318,
    "frontRadius": 0.4414326548576355,
    "frontOffset": 1.4541981220245362,
    "backDensity": 3.5,
    "backRadius": 0.5470849275588989,
    "backOffset": -1.0319708585739136,
    "score": 0,
    "maxDistance": 0,
    "maxTime": 0.8999999761581421,
    "speed": 0
}