{
    "ID": 70694,
    "genomaID": "CV3TD12",
    "color": {
        "x": 0.9743155241012573,
        "y": 0.7195313572883606,
        "z": 0.18392349779605866
    },
    "vertexNumber": 3,
    "colliderVertices": [
        {
            "x": -1.3146932125091553,
            "y": -0.35629478096961977
        },
        {
            "x": 1.1096062660217286,
            "y": -0.44019651412963869
        },
        {
            "x": -1.8295903205871583,
            "y": 0.6733900308609009
        }
    ],
    "triangles": [
        1,
        0,
        2
    ],
    "carDensity": 3.0,
    "suspension": 0.9904362559318543,
    "motorSpeed": 851,
    "frontDensity": 4.800000190734863,
    "frontRadius": 0.6776076555252075,
    "frontOffset": 1.290727138519287,
    "backDensity": 4.0,
    "backRadius": 0.5986046195030212,
    "backOffset": -0.989035964012146,
    "score": 916,
    "maxDistance": 834,
    "maxTime": 102.0999984741211,
    "speed": 8
}{
    "ID": 70798,
    "genomaID": "CV3TD12",
    "color": {
        "x": 0.8288270235061646,
        "y": 0.1767282634973526,
        "z": 0.6346012949943543
    },
    "vertexNumber": 3,
    "colliderVertices": [
        {
            "x": -1.615149736404419,
            "y": -0.08056289702653885
        },
        {
            "x": 1.1510634422302247,
            "y": -0.4890420436859131
        },
        {
            "x": -0.87314772605896,
            "y": 0.506628692150116
        }
    ],
    "triangles": [
        1,
        0,
        2
    ],
    "carDensity": 3.0,
    "suspension": 0.6448377966880798,
    "motorSpeed": 851,
    "frontDensity": 4.900000095367432,
    "frontRadius": 0.6924603581428528,
    "frontOffset": 0.7362618446350098,
    "backDensity": 4.099999904632568,
    "backRadius": 0.6068185567855835,
    "backOffset": -1.053244948387146,
    "score": 914,
    "maxDistance": 834,
    "maxTime": 104.4000015258789,
    "speed": 8
}{
    "ID": 70790,
    "genomaID": "CV3TD11",
    "color": {
        "x": 0.07470608502626419,
        "y": 0.5904449820518494,
        "z": 0.9264026880264282
    },
    "vertexNumber": 3,
    "colliderVertices": [
        {
            "x": -1.615149736404419,
            "y": -0.08056289702653885
        },
        {
            "x": 1.1510634422302247,
            "y": -0.4890420436859131
        },
        {
            "x": -0.87314772605896,
            "y": 0.506628692150116
        }
    ],
    "triangles": [
        1,
        0,
        2
    ],
    "carDensity": 3.0,
    "suspension": 0.8212217092514038,
    "motorSpeed": 830,
    "frontDensity": 5.0,
    "frontRadius": 0.6950520277023315,
    "frontOffset": 0.930932879447937,
    "backDensity": 3.4000000953674318,
    "backRadius": 0.5422195196151733,
    "backOffset": -0.9130712747573853,
    "score": 911,
    "maxDistance": 834,
    "maxTime": 108.30000305175781,
    "speed": 8
}{
    "ID": 70732,
    "genomaID": "CV3TD11",
    "color": {
        "x": 0.6392239928245544,
        "y": 0.8724530935287476,
        "z": 0.24214902520179749
    },
    "vertexNumber": 3,
    "colliderVertices": [
        {
            "x": -1.615149736404419,
            "y": -0.08056289702653885
        },
        {
            "x": 1.1510634422302247,
            "y": -0.4890420436859131
        },
        {
            "x": -0.87314772605896,
            "y": 0.506628692150116
        }
    ],
    "triangles": [
        1,
        0,
        2
    ],
    "carDensity": 3.0,
    "suspension": 0.5246206521987915,
    "motorSpeed": 775,
    "frontDensity": 5.0,
    "frontRadius": 0.6950520277023315,
    "frontOffset": 1.3610767126083375,
    "backDensity": 3.4000000953674318,
    "backRadius": 0.5422195196151733,
    "backOffset": -0.9130712747573853,
    "score": 24,
    "maxDistance": 4,
    "maxTime": 2.0,
    "speed": 2
}{
    "ID": 70744,
    "genomaID": "CV3TD9",
    "color": {
        "x": 0.9064865112304688,
        "y": 0.7779922485351563,
        "z": 0.8559051752090454
    },
    "vertexNumber": 3,
    "colliderVertices": [
        {
            "x": -1.615149736404419,
            "y": -0.08056289702653885
        },
        {
            "x": 1.1510634422302247,
            "y": -0.4890420436859131
        },
        {
            "x": -0.87314772605896,
            "y": 0.506628692150116
        }
    ],
    "triangles": [
        1,
        0,
        2
    ],
    "carDensity": 3.0,
    "suspension": 0.5389990210533142,
    "motorSpeed": 851,
    "frontDensity": 2.299999952316284,
    "frontRadius": 0.4261518716812134,
    "frontOffset": 0.7515345215797424,
    "backDensity": 4.0,
    "backRadius": 0.6009561419487,
    "backOffset": -1.2804765701293946,
    "score": -11,
    "maxDistance": -1,
    "maxTime": 1.0,
    "speed": -1
}