{
    "ID": 126613,
    "genomaID": "CV3TD12",
    "color": {
        "x": 0.2999573051929474,
        "y": 0.8041330575942993,
        "z": 0.9977710247039795
    },
    "vertexNumber": 3,
    "colliderVertices": [
        {
            "x": -1.87174654006958,
            "y": -0.48871129751205447
        },
        {
            "x": 1.4022159576416016,
            "y": -0.3172537386417389
        },
        {
            "x": -1.1397089958190919,
            "y": 0.2695292830467224
        }
    ],
    "triangles": [
        1,
        0,
        2
    ],
    "carDensity": 3.0,
    "suspension": 0.921136736869812,
    "motorSpeed": 858,
    "frontDensity": 4.900000095367432,
    "frontRadius": 0.6900456547737122,
    "frontOffset": 1.3891046047210694,
    "backDensity": 3.799999952316284,
    "backRadius": 0.5790302753448486,
    "backOffset": -0.933210015296936,
    "score": 915,
    "maxDistance": 834,
    "maxTime": 103.0,
    "speed": 8
}{
    "ID": 126603,
    "genomaID": "CV3TD11",
    "color": {
        "x": 0.5271676182746887,
        "y": 0.45618098974227908,
        "z": 0.9300339221954346
    },
    "vertexNumber": 3,
    "colliderVertices": [
        {
            "x": -1.1010850667953492,
            "y": -0.4912911653518677
        },
        {
            "x": 1.2597887516021729,
            "y": -0.34690144658088686
        },
        {
            "x": -1.7964177131652833,
            "y": 0.40650898218154909
        }
    ],
    "triangles": [
        1,
        0,
        2
    ],
    "carDensity": 3.0,
    "suspension": 0.9284430742263794,
    "motorSpeed": 869,
    "frontDensity": 4.900000095367432,
    "frontRadius": 0.6857311129570007,
    "frontOffset": 0.9862853288650513,
    "backDensity": 3.4000000953674318,
    "backRadius": 0.543877124786377,
    "backOffset": -0.9085515737533569,
    "score": 913,
    "maxDistance": 834,
    "maxTime": 105.0999984741211,
    "speed": 8
}{
    "ID": 126781,
    "genomaID": "CV3TD11",
    "color": {
        "x": 0.12419749796390534,
        "y": 0.8185967206954956,
        "z": 0.42506641149520876
    },
    "vertexNumber": 3,
    "colliderVertices": [
        {
            "x": -1.1010850667953492,
            "y": -0.4912911653518677
        },
        {
            "x": 1.2597887516021729,
            "y": -0.34690144658088686
        },
        {
            "x": -1.7964177131652833,
            "y": 0.40650898218154909
        }
    ],
    "triangles": [
        1,
        0,
        2
    ],
    "carDensity": 3.0,
    "suspension": 0.892877995967865,
    "motorSpeed": 869,
    "frontDensity": 4.900000095367432,
    "frontRadius": 0.689996063709259,
    "frontOffset": 1.4733898639678956,
    "backDensity": 3.4000000953674318,
    "backRadius": 0.543877124786377,
    "backOffset": -1.2091615200042725,
    "score": 912,
    "maxDistance": 833,
    "maxTime": 104.9000015258789,
    "speed": 8
}{
    "ID": 126612,
    "genomaID": "CV3TD10",
    "color": {
        "x": 0.20122388005256654,
        "y": 0.23634174466133119,
        "z": 0.11499907076358795
    },
    "vertexNumber": 3,
    "colliderVertices": [
        {
            "x": -1.87174654006958,
            "y": -0.48871129751205447
        },
        {
            "x": 1.4022159576416016,
            "y": -0.3172537386417389
        },
        {
            "x": -1.1397089958190919,
            "y": 0.2695292830467224
        }
    ],
    "triangles": [
        1,
        0,
        2
    ],
    "carDensity": 3.0,
    "suspension": 0.6863870620727539,
    "motorSpeed": 855,
    "frontDensity": 4.900000095367432,
    "frontRadius": 0.6900456547737122,
    "frontOffset": 1.4261953830718995,
    "backDensity": 2.0999999046325685,
    "backRadius": 0.4111708402633667,
    "backOffset": -0.9554651975631714,
    "score": 0,
    "maxDistance": 0,
    "maxTime": 0.0,
    "speed": -2147483648
}{
    "ID": 126715,
    "genomaID": "CV6TD15",
    "color": {
        "x": 0.7853478193283081,
        "y": 0.6659738421440125,
        "z": 0.621863067150116
    },
    "vertexNumber": 6,
    "colliderVertices": [
        {
            "x": -1.1615312099456788,
            "y": -0.2678617537021637
        },
        {
            "x": 1.1876622438430787,
            "y": -0.05377960950136185
        },
        {
            "x": -0.6609866619110107,
            "y": 0.10695600509643555
        },
        {
            "x": -1.1832118034362794,
            "y": 0.31998366117477419
        },
        {
            "x": -1.2628493309020997,
            "y": 0.8709455728530884
        },
        {
            "x": -1.314624309539795,
            "y": 0.9225564002990723
        }
    ],
    "triangles": [
        0,
        5,
        3,
        3,
        2,
        0,
        5,
        4,
        3,
        2,
        1,
        0
    ],
    "carDensity": 6.0,
    "suspension": 0.5923489332199097,
    "motorSpeed": 855,
    "frontDensity": 4.699999809265137,
    "frontRadius": 0.6721326112747192,
    "frontOffset": 0.5716539621353149,
    "backDensity": 4.300000190734863,
    "backRadius": 0.6327526569366455,
    "backOffset": -1.1056994199752808,
    "score": -11,
    "maxDistance": -1,
    "maxTime": 1.0,
    "speed": -1
}