{
    "ID": 29852,
    "genomaID": "CV3TD12",
    "color": {
        "x": 0.07705188542604447,
        "y": 0.08956373482942581,
        "z": 0.3849671483039856
    },
    "vertexNumber": 3,
    "colliderVertices": [
        {
            "x": -1.2415111064910889,
            "y": -0.332523912191391
        },
        {
            "x": 1.2988438606262208,
            "y": -0.2140497863292694
        },
        {
            "x": -1.6646909713745118,
            "y": 0.4260508418083191
        }
    ],
    "triangles": [
        1,
        0,
        2
    ],
    "carDensity": 3.0,
    "suspension": 0.4547354578971863,
    "motorSpeed": 864,
    "frontDensity": 4.900000095367432,
    "frontRadius": 0.6877074241638184,
    "frontOffset": 1.0685821771621705,
    "backDensity": 3.700000047683716,
    "backRadius": 0.569911539554596,
    "backOffset": -0.8241822123527527,
    "score": 914,
    "maxDistance": 833,
    "maxTime": 103.0,
    "speed": 8
}{
    "ID": 29919,
    "genomaID": "CV3TD11",
    "color": {
        "x": 0.03547847643494606,
        "y": 0.4556052088737488,
        "z": 0.1441134363412857
    },
    "vertexNumber": 3,
    "colliderVertices": [
        {
            "x": -1.0078085660934449,
            "y": -0.22954782843589784
        },
        {
            "x": 1.37904691696167,
            "y": -0.03869170323014259
        },
        {
            "x": -1.1126532554626465,
            "y": 0.8647260665893555
        }
    ],
    "triangles": [
        1,
        0,
        2
    ],
    "carDensity": 3.0,
    "suspension": 0.8008025884628296,
    "motorSpeed": 864,
    "frontDensity": 4.800000190734863,
    "frontRadius": 0.6791735291481018,
    "frontOffset": 1.1784694194793702,
    "backDensity": 3.299999952316284,
    "backRadius": 0.5320661067962647,
    "backOffset": -1.1073518991470338,
    "score": 910,
    "maxDistance": 832,
    "maxTime": 106.0,
    "speed": 8
}{
    "ID": 29841,
    "genomaID": "CV3TD12",
    "color": {
        "x": 0.1794232279062271,
        "y": 0.7169793248176575,
        "z": 0.4818674921989441
    },
    "vertexNumber": 3,
    "colliderVertices": [
        {
            "x": -1.2415111064910889,
            "y": -0.332523912191391
        },
        {
            "x": 1.2988438606262208,
            "y": -0.2140497863292694
        },
        {
            "x": -1.6646909713745118,
            "y": 0.4260508418083191
        }
    ],
    "triangles": [
        1,
        0,
        2
    ],
    "carDensity": 3.0,
    "suspension": 0.6748673319816589,
    "motorSpeed": 864,
    "frontDensity": 4.800000190734863,
    "frontRadius": 0.6791735291481018,
    "frontOffset": 1.296966791152954,
    "backDensity": 3.700000047683716,
    "backRadius": 0.5672652721405029,
    "backOffset": -0.6510964632034302,
    "score": 907,
    "maxDistance": 827,
    "maxTime": 103.0,
    "speed": 8
}{
    "ID": 29833,
    "genomaID": "CV3TD12",
    "color": {
        "x": 0.2025337517261505,
        "y": 0.5234045386314392,
        "z": 0.5499987006187439
    },
    "vertexNumber": 3,
    "colliderVertices": [
        {
            "x": -1.2415111064910889,
            "y": -0.332523912191391
        },
        {
            "x": 1.2988438606262208,
            "y": -0.2140497863292694
        },
        {
            "x": -1.6646909713745118,
            "y": 0.4260508418083191
        }
    ],
    "triangles": [
        1,
        0,
        2
    ],
    "carDensity": 3.0,
    "suspension": 0.8299314975738525,
    "motorSpeed": 1354,
    "frontDensity": 4.800000190734863,
    "frontRadius": 0.6791735291481018,
    "frontOffset": 1.296966791152954,
    "backDensity": 3.5,
    "backRadius": 0.5521376132965088,
    "backOffset": -1.2635568380355836,
    "score": 0,
    "maxDistance": 0,
    "maxTime": 0.0,
    "speed": -2147483648
}{
    "ID": 29960,
    "genomaID": "CV4TD10",
    "color": {
        "x": 0.2401660978794098,
        "y": 0.12440158426761627,
        "z": 0.483070433139801
    },
    "vertexNumber": 4,
    "colliderVertices": [
        {
            "x": -1.7396159172058106,
            "y": -0.16564948856830598
        },
        {
            "x": 1.466109275817871,
            "y": -0.1006716638803482
        },
        {
            "x": -1.6929426193237305,
            "y": 0.057047486305236819
        },
        {
            "x": -1.7720398902893067,
            "y": 0.39346593618392947
        }
    ],
    "triangles": [
        0,
        3,
        2,
        2,
        1,
        0
    ],
    "carDensity": 4.0,
    "suspension": 0.4353143274784088,
    "motorSpeed": 864,
    "frontDensity": 3.4000000953674318,
    "frontRadius": 0.5436445474624634,
    "frontOffset": 0.6446861028671265,
    "backDensity": 3.200000047683716,
    "backRadius": 0.5154522657394409,
    "backOffset": -1.4695584774017335,
    "score": -11,
    "maxDistance": -1,
    "maxTime": 1.0,
    "speed": -1
}