{
    "ID": 116606,
    "genomaID": "CV4TD13",
    "color": {
        "x": 0.023887161165475847,
        "y": 0.4522629380226135,
        "z": 0.36236730217933657
    },
    "vertexNumber": 4,
    "colliderVertices": [
        {
            "x": -1.5393238067626954,
            "y": -0.44872111082077029
        },
        {
            "x": 1.5920026302337647,
            "y": -0.14023549854755402
        },
        {
            "x": 0.21894574165344239,
            "y": 0.17838668823242188
        },
        {
            "x": -1.0279130935668946,
            "y": 0.18904650211334229
        }
    ],
    "triangles": [
        3,
        2,
        1,
        1,
        0,
        3
    ],
    "carDensity": 4.0,
    "suspension": 0.6261820793151856,
    "motorSpeed": 875,
    "frontDensity": 5.0,
    "frontRadius": 0.6977106332778931,
    "frontOffset": 1.4846665859222413,
    "backDensity": 3.799999952316284,
    "backRadius": 0.5839862823486328,
    "backOffset": -0.8446875810623169,
    "score": 917,
    "maxDistance": 834,
    "maxTime": 100.19999694824219,
    "speed": 8
}{
    "ID": 116663,
    "genomaID": "CV3TD11",
    "color": {
        "x": 0.8644475936889648,
        "y": 0.6927585005760193,
        "z": 0.47708970308303835
    },
    "vertexNumber": 3,
    "colliderVertices": [
        {
            "x": -1.1010850667953492,
            "y": -0.4912911653518677
        },
        {
            "x": 1.2597887516021729,
            "y": -0.34690144658088686
        },
        {
            "x": -1.7964177131652833,
            "y": 0.40650898218154909
        }
    ],
    "triangles": [
        1,
        0,
        2
    ],
    "carDensity": 3.0,
    "suspension": 0.7504119873046875,
    "motorSpeed": 869,
    "frontDensity": 4.900000095367432,
    "frontRadius": 0.689996063709259,
    "frontOffset": 0.9915570020675659,
    "backDensity": 3.4000000953674318,
    "backRadius": 0.543877124786377,
    "backOffset": -0.623360276222229,
    "score": 913,
    "maxDistance": 833,
    "maxTime": 104.4000015258789,
    "speed": 8
}{
    "ID": 116723,
    "genomaID": "CV3TD12",
    "color": {
        "x": 0.7486791014671326,
        "y": 0.47938281297683718,
        "z": 0.7399960160255432
    },
    "vertexNumber": 3,
    "colliderVertices": [
        {
            "x": -1.7288684844970704,
            "y": -0.08660519868135452
        },
        {
            "x": 1.5282611846923829,
            "y": -0.49080270528793337
        },
        {
            "x": 0.4100825786590576,
            "y": 0.3118508458137512
        }
    ],
    "triangles": [
        1,
        0,
        2
    ],
    "carDensity": 3.0,
    "suspension": 0.9308912754058838,
    "motorSpeed": 851,
    "frontDensity": 4.599999904632568,
    "frontRadius": 0.6565150618553162,
    "frontOffset": 0.7063300609588623,
    "backDensity": 3.700000047683716,
    "backRadius": 0.5688877701759338,
    "backOffset": -1.1103743314743043,
    "score": 912,
    "maxDistance": 833,
    "maxTime": 106.0999984741211,
    "speed": 8
}{
    "ID": 116703,
    "genomaID": "CV5TD13",
    "color": {
        "x": 0.1564124971628189,
        "y": 0.4464983344078064,
        "z": 0.09421814978122711
    },
    "vertexNumber": 5,
    "colliderVertices": [
        {
            "x": -1.8639376163482667,
            "y": -0.017685534432530404
        },
        {
            "x": 1.0736161470413209,
            "y": -0.41896480321884158
        },
        {
            "x": -1.0619754791259766,
            "y": 0.7726501226425171
        },
        {
            "x": -1.3314170837402344,
            "y": 0.464907705783844
        },
        {
            "x": -1.5151000022888184,
            "y": 0.13723993301391602
        }
    ],
    "triangles": [
        1,
        4,
        3,
        3,
        2,
        1,
        1,
        0,
        4
    ],
    "carDensity": 5.0,
    "suspension": 0.64911949634552,
    "motorSpeed": 858,
    "frontDensity": 4.900000095367432,
    "frontRadius": 0.6920121908187866,
    "frontOffset": 0.9136332273483276,
    "backDensity": 3.4000000953674318,
    "backRadius": 0.544257640838623,
    "backOffset": -1.1665918827056885,
    "score": 18,
    "maxDistance": 3,
    "maxTime": 2.0,
    "speed": 2
}{
    "ID": 116669,
    "genomaID": "CV3TD10",
    "color": {
        "x": 0.20531001687049867,
        "y": 0.39767926931381228,
        "z": 0.92059326171875
    },
    "vertexNumber": 3,
    "colliderVertices": [
        {
            "x": -1.87174654006958,
            "y": -0.48871129751205447
        },
        {
            "x": 1.4022159576416016,
            "y": -0.3172537386417389
        },
        {
            "x": -1.1397089958190919,
            "y": 0.2695292830467224
        }
    ],
    "triangles": [
        1,
        0,
        2
    ],
    "carDensity": 3.0,
    "suspension": 0.7332459688186646,
    "motorSpeed": 862,
    "frontDensity": 2.5999999046325685,
    "frontRadius": 0.46470338106155398,
    "frontOffset": 0.6184830665588379,
    "backDensity": 3.5,
    "backRadius": 0.5482544898986816,
    "backOffset": -1.092384696006775,
    "score": -11,
    "maxDistance": -1,
    "maxTime": 1.0,
    "speed": -1
}