{
    "ID": 57602,
    "genomaID": "CV3TD12",
    "color": {
        "x": 0.9623392820358276,
        "y": 0.11472178995609284,
        "z": 0.9211682081222534
    },
    "vertexNumber": 3,
    "colliderVertices": [
        {
            "x": -1.615149736404419,
            "y": -0.08056289702653885
        },
        {
            "x": 1.1510634422302247,
            "y": -0.4890420436859131
        },
        {
            "x": -0.87314772605896,
            "y": 0.506628692150116
        }
    ],
    "triangles": [
        1,
        0,
        2
    ],
    "carDensity": 3.0,
    "suspension": 0.5449179410934448,
    "motorSpeed": 851,
    "frontDensity": 4.900000095367432,
    "frontRadius": 0.6937325596809387,
    "frontOffset": 0.7788261771202087,
    "backDensity": 3.799999952316284,
    "backRadius": 0.5808402299880981,
    "backOffset": -0.7210626602172852,
    "score": 915,
    "maxDistance": 834,
    "maxTime": 102.9000015258789,
    "speed": 8
}{
    "ID": 57651,
    "genomaID": "CV3TD12",
    "color": {
        "x": 0.560156524181366,
        "y": 0.9362970590591431,
        "z": 0.4048425555229187
    },
    "vertexNumber": 3,
    "colliderVertices": [
        {
            "x": -1.615149736404419,
            "y": -0.08056289702653885
        },
        {
            "x": 1.1510634422302247,
            "y": -0.4890420436859131
        },
        {
            "x": -0.87314772605896,
            "y": 0.506628692150116
        }
    ],
    "triangles": [
        1,
        0,
        2
    ],
    "carDensity": 3.0,
    "suspension": 0.7192128300666809,
    "motorSpeed": 851,
    "frontDensity": 4.699999809265137,
    "frontRadius": 0.6693497896194458,
    "frontOffset": 1.1007071733474732,
    "backDensity": 3.700000047683716,
    "backRadius": 0.5727956295013428,
    "backOffset": -0.5394152402877808,
    "score": 913,
    "maxDistance": 834,
    "maxTime": 104.9000015258789,
    "speed": 8
}{
    "ID": 57797,
    "genomaID": "CV4TD13",
    "color": {
        "x": 0.4004287123680115,
        "y": 0.941399097442627,
        "z": 0.8905913829803467
    },
    "vertexNumber": 4,
    "colliderVertices": [
        {
            "x": -1.722783088684082,
            "y": -0.4412907361984253
        },
        {
            "x": 1.6248488426208497,
            "y": -0.19015339016914369
        },
        {
            "x": 0.1804821491241455,
            "y": 0.0672755241394043
        },
        {
            "x": -1.9871821403503419,
            "y": 0.08832776546478272
        }
    ],
    "triangles": [
        3,
        2,
        1,
        1,
        0,
        3
    ],
    "carDensity": 4.0,
    "suspension": 0.8605685830116272,
    "motorSpeed": 851,
    "frontDensity": 4.800000190734863,
    "frontRadius": 0.6771788597106934,
    "frontOffset": 1.2321817874908448,
    "backDensity": 3.5999999046325685,
    "backRadius": 0.5565199851989746,
    "backOffset": -0.7760162949562073,
    "score": 912,
    "maxDistance": 834,
    "maxTime": 107.19999694824219,
    "speed": 8
}{
    "ID": 57723,
    "genomaID": "CV3TD11",
    "color": {
        "x": 0.7486791014671326,
        "y": 0.47938281297683718,
        "z": 0.7399960160255432
    },
    "vertexNumber": 3,
    "colliderVertices": [
        {
            "x": -1.7747143507003785,
            "y": -0.17362596094608308
        },
        {
            "x": 1.3522086143493653,
            "y": -0.36662623286247256
        },
        {
            "x": 1.4388184547424317,
            "y": 0.998172402381897
        }
    ],
    "triangles": [
        1,
        0,
        2
    ],
    "carDensity": 3.0,
    "suspension": 0.8542616367340088,
    "motorSpeed": 851,
    "frontDensity": 4.900000095367432,
    "frontRadius": 0.6900220513343811,
    "frontOffset": 1.2180917263031006,
    "backDensity": 3.0,
    "backRadius": 0.49859386682510378,
    "backOffset": -1.0093480348587037,
    "score": 13,
    "maxDistance": 2,
    "maxTime": 1.7999999523162842,
    "speed": 1
}{
    "ID": 57800,
    "genomaID": "CV5TD14",
    "color": {
        "x": 0.7157778143882752,
        "y": 0.7526435852050781,
        "z": 0.5779417157173157
    },
    "vertexNumber": 5,
    "colliderVertices": [
        {
            "x": -1.6780564785003663,
            "y": -0.39201897382736208
        },
        {
            "x": 1.9940823316574097,
            "y": -0.2433939278125763
        },
        {
            "x": 0.7537016272544861,
            "y": 0.5973216891288757
        },
        {
            "x": -0.3691294193267822,
            "y": 0.3957292437553406
        },
        {
            "x": -0.9337632656097412,
            "y": 0.9194687604904175
        }
    ],
    "triangles": [
        3,
        2,
        0,
        0,
        4,
        3,
        2,
        1,
        0
    ],
    "carDensity": 5.0,
    "suspension": 0.5411882400512695,
    "motorSpeed": 851,
    "frontDensity": 4.900000095367432,
    "frontRadius": 0.6937325596809387,
    "frontOffset": 0.736964225769043,
    "backDensity": 3.700000047683716,
    "backRadius": 0.5727956295013428,
    "backOffset": -0.8222519755363464,
    "score": 0,
    "maxDistance": 0,
    "maxTime": 0.800000011920929,
    "speed": 0
}