{
    "ID": 11085,
    "genomaID": "CV3TD9",
    "color": {
        "x": 0.4745785593986511,
        "y": 0.1451893001794815,
        "z": 0.3153058588504791
    },
    "vertexNumber": 3,
    "colliderVertices": [
        {
            "x": -1.6530086994171143,
            "y": -0.20500448346138
        },
        {
            "x": 1.0130809545516968,
            "y": -0.27738508582115176
        },
        {
            "x": 1.0394701957702637,
            "y": 0.09570145606994629
        }
    ],
    "triangles": [
        1,
        0,
        2
    ],
    "carDensity": 3.0,
    "suspension": 0.7397447228431702,
    "motorSpeed": 1442,
    "frontDensity": 3.5999999046325685,
    "frontRadius": 0.5635712742805481,
    "frontOffset": 1.4939134120941163,
    "backDensity": 2.0,
    "backRadius": 0.400760680437088,
    "backOffset": -1.478249430656433,
    "score": 928,
    "maxDistance": 833,
    "maxTime": 87.9000015258789,
    "speed": 9
}{
    "ID": 11155,
    "genomaID": "CV3TD10",
    "color": {
        "x": 0.9965580701828003,
        "y": 0.38778823614120486,
        "z": 0.8982207775115967
    },
    "vertexNumber": 3,
    "colliderVertices": [
        {
            "x": -1.2541747093200684,
            "y": -0.38386595249176028
        },
        {
            "x": 1.0193626880645753,
            "y": -0.271028071641922
        },
        {
            "x": 1.3762645721435547,
            "y": 0.10750925540924072
        }
    ],
    "triangles": [
        1,
        0,
        2
    ],
    "carDensity": 3.0,
    "suspension": 0.5070986151695252,
    "motorSpeed": 708,
    "frontDensity": 4.0,
    "frontRadius": 0.6018048524856567,
    "frontOffset": 0.7406325340270996,
    "backDensity": 3.0999999046325685,
    "backRadius": 0.5140807628631592,
    "backOffset": -1.4989898204803467,
    "score": 894,
    "maxDistance": 832,
    "maxTime": 134.5,
    "speed": 6
}{
    "ID": 11195,
    "genomaID": "CV3TD9",
    "color": {
        "x": 0.1332085281610489,
        "y": 0.55067378282547,
        "z": 0.17289210855960847
    },
    "vertexNumber": 3,
    "colliderVertices": [
        {
            "x": -1.2541747093200684,
            "y": -0.38386595249176028
        },
        {
            "x": 1.0193626880645753,
            "y": -0.271028071641922
        },
        {
            "x": 1.3762645721435547,
            "y": 0.10750925540924072
        }
    ],
    "triangles": [
        1,
        0,
        2
    ],
    "carDensity": 3.0,
    "suspension": 0.9228852987289429,
    "motorSpeed": 710,
    "frontDensity": 3.200000047683716,
    "frontRadius": 0.5217618942260742,
    "frontOffset": 1.310896635055542,
    "backDensity": 3.4000000953674318,
    "backRadius": 0.5419475436210632,
    "backOffset": -1.0824936628341675,
    "score": 891,
    "maxDistance": 833,
    "maxTime": 142.6999969482422,
    "speed": 6
}{
    "ID": 11116,
    "genomaID": "CV4TD11",
    "color": {
        "x": 0.8776618242263794,
        "y": 0.4380832314491272,
        "z": 0.35584500432014468
    },
    "vertexNumber": 4,
    "colliderVertices": [
        {
            "x": -1.363208293914795,
            "y": -0.2780962884426117
        },
        {
            "x": 1.482910394668579,
            "y": -0.27115973830223086
        },
        {
            "x": -1.3357701301574708,
            "y": 0.6963838338851929
        },
        {
            "x": -1.7090206146240235,
            "y": 0.8317434787750244
        }
    ],
    "triangles": [
        0,
        3,
        2,
        2,
        1,
        0
    ],
    "carDensity": 4.0,
    "suspension": 0.5597103834152222,
    "motorSpeed": 696,
    "frontDensity": 4.099999904632568,
    "frontRadius": 0.6126639246940613,
    "frontOffset": 1.1754201650619507,
    "backDensity": 3.299999952316284,
    "backRadius": 0.5278278589248657,
    "backOffset": -1.0272842645645142,
    "score": 25,
    "maxDistance": 4,
    "maxTime": 1.899999976158142,
    "speed": 2
}{
    "ID": 11198,
    "genomaID": "CV4TD11",
    "color": {
        "x": 0.8288270235061646,
        "y": 0.1767282634973526,
        "z": 0.6346012949943543
    },
    "vertexNumber": 4,
    "colliderVertices": [
        {
            "x": -1.7275192737579346,
            "y": -0.3853122591972351
        },
        {
            "x": 1.9908555746078492,
            "y": -0.2963818609714508
        },
        {
            "x": 0.5882906317710877,
            "y": 0.5124228596687317
        },
        {
            "x": -1.193495273590088,
            "y": 0.8540419340133667
        }
    ],
    "triangles": [
        3,
        2,
        1,
        1,
        0,
        3
    ],
    "carDensity": 4.0,
    "suspension": 0.4307992160320282,
    "motorSpeed": 710,
    "frontDensity": 4.400000095367432,
    "frontRadius": 0.6369843482971191,
    "frontOffset": 1.4081957340240479,
    "backDensity": 3.299999952316284,
    "backRadius": 0.5256638526916504,
    "backOffset": -1.3129924535751343,
    "score": 0,
    "maxDistance": 0,
    "maxTime": 0.0,
    "speed": 0
}