{
    "ID": 1358,
    "genomaID": "CV3TD12",
    "color": {
        "x": 0.6495806574821472,
        "y": 0.11240507662296295,
        "z": 0.5328342318534851
    },
    "vertexNumber": 3,
    "colliderVertices": [
        {
            "x": -1.6230437755584717,
            "y": -0.25080981850624087
        },
        {
            "x": 1.0400066375732422,
            "y": -0.41160649061203005
        },
        {
            "x": -1.309241771697998,
            "y": 0.0684884786605835
        }
    ],
    "triangles": [
        1,
        0,
        2
    ],
    "carDensity": 3.0,
    "suspension": 0.9315811395645142,
    "motorSpeed": 1096,
    "frontDensity": 4.699999809265137,
    "frontRadius": 0.6716451048851013,
    "frontOffset": 0.6187325716018677,
    "backDensity": 4.0,
    "backRadius": 0.6002939939498901,
    "backOffset": -1.4415342807769776,
    "score": 920,
    "maxDistance": 832,
    "maxTime": 94.19999694824219,
    "speed": 9
}{
    "ID": 1300,
    "genomaID": "CV3TD10",
    "color": {
        "x": 0.2999170124530792,
        "y": 0.7223097681999207,
        "z": 0.851524829864502
    },
    "vertexNumber": 3,
    "colliderVertices": [
        {
            "x": -1.6908864974975587,
            "y": -0.4902547597885132
        },
        {
            "x": 1.0964771509170533,
            "y": -0.2757904827594757
        },
        {
            "x": -0.5471775531768799,
            "y": 0.3217129111289978
        }
    ],
    "triangles": [
        1,
        0,
        2
    ],
    "carDensity": 3.0,
    "suspension": 0.6383125185966492,
    "motorSpeed": 1484,
    "frontDensity": 3.9000000953674318,
    "frontRadius": 0.5873469114303589,
    "frontOffset": 0.9928549528121948,
    "backDensity": 2.799999952316284,
    "backRadius": 0.4792734980583191,
    "backOffset": -1.3504441976547242,
    "score": 374,
    "maxDistance": 274,
    "maxTime": 27.5,
    "speed": 10
}{
    "ID": 1342,
    "genomaID": "CV5TD10",
    "color": {
        "x": 0.307130366563797,
        "y": 0.7006434798240662,
        "z": 0.8399001359939575
    },
    "vertexNumber": 5,
    "colliderVertices": [
        {
            "x": -1.9307358264923096,
            "y": -0.314557284116745
        },
        {
            "x": 1.5355615615844727,
            "y": -0.1771932989358902
        },
        {
            "x": 1.947800636291504,
            "y": 0.8795289993286133
        },
        {
            "x": 1.1234421730041505,
            "y": 0.23459196090698243
        },
        {
            "x": -1.258619785308838,
            "y": 0.49853748083114626
        }
    ],
    "triangles": [
        1,
        4,
        3,
        3,
        2,
        1,
        1,
        0,
        4
    ],
    "carDensity": 5.0,
    "suspension": 0.5697425603866577,
    "motorSpeed": 807,
    "frontDensity": 2.9000000953674318,
    "frontRadius": 0.4910629391670227,
    "frontOffset": 0.7064573764801025,
    "backDensity": 2.4000000953674318,
    "backRadius": 0.4370718002319336,
    "backOffset": -0.7678222060203552,
    "score": 198,
    "maxDistance": 140,
    "maxTime": 23.899999618530275,
    "speed": 6
}{
    "ID": 1389,
    "genomaID": "CV6TD11",
    "color": {
        "x": 0.2850213348865509,
        "y": 0.19931009411811829,
        "z": 0.833501935005188
    },
    "vertexNumber": 6,
    "colliderVertices": [
        {
            "x": -1.5526208877563477,
            "y": -0.38732296228408816
        },
        {
            "x": 1.949545979499817,
            "y": -0.15619410574436189
        },
        {
            "x": 0.544461190700531,
            "y": 0.6865662336349487
        },
        {
            "x": 0.21290278434753419,
            "y": 0.7116676568984985
        },
        {
            "x": -0.09336209297180176,
            "y": 0.5040314793586731
        },
        {
            "x": -1.9632654190063477,
            "y": 0.14906859397888184
        }
    ],
    "triangles": [
        4,
        3,
        1,
        1,
        5,
        4,
        3,
        2,
        1,
        1,
        0,
        5
    ],
    "carDensity": 6.0,
    "suspension": 0.9648198485374451,
    "motorSpeed": 1165,
    "frontDensity": 2.5999999046325685,
    "frontRadius": 0.4629560112953186,
    "frontOffset": 1.2118358612060547,
    "backDensity": 2.299999952316284,
    "backRadius": 0.43006598949432375,
    "backOffset": -0.8935195207595825,
    "score": 37,
    "maxDistance": 6,
    "maxTime": 1.899999976158142,
    "speed": 3
}{
    "ID": 1395,
    "genomaID": "CV5TD12",
    "color": {
        "x": 0.1332085281610489,
        "y": 0.55067378282547,
        "z": 0.17289210855960847
    },
    "vertexNumber": 5,
    "colliderVertices": [
        {
            "x": -1.9307358264923096,
            "y": -0.314557284116745
        },
        {
            "x": 1.5355615615844727,
            "y": -0.1771932989358902
        },
        {
            "x": 1.947800636291504,
            "y": 0.8795289993286133
        },
        {
            "x": 1.1234421730041505,
            "y": 0.23459196090698243
        },
        {
            "x": -1.258619785308838,
            "y": 0.49853748083114626
        }
    ],
    "triangles": [
        1,
        4,
        3,
        3,
        2,
        1,
        1,
        0,
        4
    ],
    "carDensity": 5.0,
    "suspension": 0.7913786172866821,
    "motorSpeed": 807,
    "frontDensity": 2.9000000953674318,
    "frontRadius": 0.4910629391670227,
    "frontOffset": 0.9540668725967407,
    "backDensity": 3.5999999046325685,
    "backRadius": 0.5566474795341492,
    "backOffset": -0.9180794954299927,
    "score": 0,
    "maxDistance": 0,
    "maxTime": 0.8999999761581421,
    "speed": 0
}