{
    "ID": 64528,
    "genomaID": "CV3TD12",
    "color": {
        "x": 0.41994935274124148,
        "y": 0.1704275757074356,
        "z": 0.1830092817544937
    },
    "vertexNumber": 3,
    "colliderVertices": [
        {
            "x": -1.615149736404419,
            "y": -0.08056289702653885
        },
        {
            "x": 1.1510634422302247,
            "y": -0.4890420436859131
        },
        {
            "x": -0.87314772605896,
            "y": 0.506628692150116
        }
    ],
    "triangles": [
        1,
        0,
        2
    ],
    "carDensity": 3.0,
    "suspension": 0.42672890424728396,
    "motorSpeed": 1112,
    "frontDensity": 4.900000095367432,
    "frontRadius": 0.6923644542694092,
    "frontOffset": 1.4585469961166382,
    "backDensity": 3.9000000953674318,
    "backRadius": 0.5895581841468811,
    "backOffset": -1.245445966720581,
    "score": 919,
    "maxDistance": 833,
    "maxTime": 97.0,
    "speed": 9
}{
    "ID": 64502,
    "genomaID": "CV3TD12",
    "color": {
        "x": 0.9907965660095215,
        "y": 0.6384530663490295,
        "z": 0.3951743245124817
    },
    "vertexNumber": 3,
    "colliderVertices": [
        {
            "x": -1.6967082023620606,
            "y": -0.4183594584465027
        },
        {
            "x": 1.6215009689331055,
            "y": -0.4354392886161804
        },
        {
            "x": 0.29096150398254397,
            "y": 0.040700316429138187
        }
    ],
    "triangles": [
        1,
        0,
        2
    ],
    "carDensity": 3.0,
    "suspension": 0.9326500296592712,
    "motorSpeed": 851,
    "frontDensity": 4.900000095367432,
    "frontRadius": 0.6900220513343811,
    "frontOffset": 0.6957441568374634,
    "backDensity": 3.700000047683716,
    "backRadius": 0.5727956295013428,
    "backOffset": -1.3006441593170167,
    "score": 914,
    "maxDistance": 833,
    "maxTime": 103.30000305175781,
    "speed": 8
}{
    "ID": 64519,
    "genomaID": "CV3TD11",
    "color": {
        "x": 0.03547847643494606,
        "y": 0.4556052088737488,
        "z": 0.1441134363412857
    },
    "vertexNumber": 3,
    "colliderVertices": [
        {
            "x": -1.615149736404419,
            "y": -0.08056289702653885
        },
        {
            "x": 1.1510634422302247,
            "y": -0.4890420436859131
        },
        {
            "x": -0.87314772605896,
            "y": 0.506628692150116
        }
    ],
    "triangles": [
        1,
        0,
        2
    ],
    "carDensity": 3.0,
    "suspension": 0.8420643210411072,
    "motorSpeed": 853,
    "frontDensity": 4.900000095367432,
    "frontRadius": 0.6903581619262695,
    "frontOffset": 1.4926185607910157,
    "backDensity": 3.4000000953674318,
    "backRadius": 0.5407242774963379,
    "backOffset": -0.548363208770752,
    "score": 912,
    "maxDistance": 834,
    "maxTime": 106.30000305175781,
    "speed": 8
}{
    "ID": 64578,
    "genomaID": "CV6TD15",
    "color": {
        "x": 0.9642459154129028,
        "y": 0.7943227291107178,
        "z": 0.8144594430923462
    },
    "vertexNumber": 6,
    "colliderVertices": [
        {
            "x": -1.0279316902160645,
            "y": -0.43629705905914309
        },
        {
            "x": 1.495920181274414,
            "y": -0.4372740387916565
        },
        {
            "x": 1.7616004943847657,
            "y": 0.9429216384887695
        },
        {
            "x": 1.4285225868225098,
            "y": 0.8026914596557617
        },
        {
            "x": 0.3097217082977295,
            "y": 0.014669656753540039
        },
        {
            "x": 0.2859370708465576,
            "y": 0.6539292335510254
        }
    ],
    "triangles": [
        1,
        0,
        4,
        4,
        3,
        1,
        0,
        5,
        4,
        3,
        2,
        1
    ],
    "carDensity": 6.0,
    "suspension": 0.4166668951511383,
    "motorSpeed": 851,
    "frontDensity": 4.900000095367432,
    "frontRadius": 0.6900220513343811,
    "frontOffset": 1.2111462354660035,
    "backDensity": 3.700000047683716,
    "backRadius": 0.5727956295013428,
    "backOffset": -1.1722307205200196,
    "score": 19,
    "maxDistance": 3,
    "maxTime": 1.7999999523162842,
    "speed": 2
}{
    "ID": 64600,
    "genomaID": "CV3TD9",
    "color": {
        "x": 0.7157778143882752,
        "y": 0.7526435852050781,
        "z": 0.5779417157173157
    },
    "vertexNumber": 3,
    "colliderVertices": [
        {
            "x": -1.615149736404419,
            "y": -0.08056289702653885
        },
        {
            "x": 1.1510634422302247,
            "y": -0.4890420436859131
        },
        {
            "x": -0.87314772605896,
            "y": 0.506628692150116
        }
    ],
    "triangles": [
        1,
        0,
        2
    ],
    "carDensity": 3.0,
    "suspension": 0.6205732822418213,
    "motorSpeed": 841,
    "frontDensity": 3.0,
    "frontRadius": 0.4968494176864624,
    "frontOffset": 0.5440384149551392,
    "backDensity": 2.9000000953674318,
    "backRadius": 0.48872092366218569,
    "backOffset": -1.0851060152053834,
    "score": 0,
    "maxDistance": 0,
    "maxTime": 0.800000011920929,
    "speed": 0
}