{
    "ID": 79070,
    "genomaID": "CV3TD12",
    "color": {
        "x": 0.550239622592926,
        "y": 0.43062347173690798,
        "z": 0.6933954358100891
    },
    "vertexNumber": 3,
    "colliderVertices": [
        {
            "x": -1.3146932125091553,
            "y": -0.35629478096961977
        },
        {
            "x": 1.1096062660217286,
            "y": -0.44019651412963869
        },
        {
            "x": -1.8295903205871583,
            "y": 0.6733900308609009
        }
    ],
    "triangles": [
        1,
        0,
        2
    ],
    "carDensity": 3.0,
    "suspension": 0.5773880481719971,
    "motorSpeed": 851,
    "frontDensity": 4.800000190734863,
    "frontRadius": 0.6810335516929627,
    "frontOffset": 1.1682922840118409,
    "backDensity": 3.9000000953674318,
    "backRadius": 0.591224193572998,
    "backOffset": -1.0862847566604615,
    "score": 915,
    "maxDistance": 834,
    "maxTime": 102.69999694824219,
    "speed": 8
}{
    "ID": 79140,
    "genomaID": "CV3TD12",
    "color": {
        "x": 0.9411646127700806,
        "y": 0.6429696679115295,
        "z": 0.7897521257400513
    },
    "vertexNumber": 3,
    "colliderVertices": [
        {
            "x": -1.3146932125091553,
            "y": -0.35629478096961977
        },
        {
            "x": 1.1096062660217286,
            "y": -0.44019651412963869
        },
        {
            "x": -1.8295903205871583,
            "y": 0.6733900308609009
        }
    ],
    "triangles": [
        1,
        0,
        2
    ],
    "carDensity": 3.0,
    "suspension": 0.5512428283691406,
    "motorSpeed": 851,
    "frontDensity": 4.800000190734863,
    "frontRadius": 0.6810335516929627,
    "frontOffset": 1.3143188953399659,
    "backDensity": 3.700000047683716,
    "backRadius": 0.5738779306411743,
    "backOffset": -1.0862847566604615,
    "score": 913,
    "maxDistance": 833,
    "maxTime": 104.69999694824219,
    "speed": 8
}{
    "ID": 79068,
    "genomaID": "CV3TD11",
    "color": {
        "x": 0.779715895652771,
        "y": 0.1597966104745865,
        "z": 0.1659081131219864
    },
    "vertexNumber": 3,
    "colliderVertices": [
        {
            "x": -1.010199785232544,
            "y": -0.39424949884414675
        },
        {
            "x": 1.5240943431854249,
            "y": -0.3255944550037384
        },
        {
            "x": -1.7875475883483887,
            "y": 0.28482288122177126
        }
    ],
    "triangles": [
        1,
        0,
        2
    ],
    "carDensity": 3.0,
    "suspension": 0.96388840675354,
    "motorSpeed": 851,
    "frontDensity": 4.800000190734863,
    "frontRadius": 0.6769694685935974,
    "frontOffset": 0.9690307378768921,
    "backDensity": 3.200000047683716,
    "backRadius": 0.5231643319129944,
    "backOffset": -0.7794038653373718,
    "score": 911,
    "maxDistance": 834,
    "maxTime": 108.5,
    "speed": 8
}{
    "ID": 79065,
    "genomaID": "CV6TD15",
    "color": {
        "x": 0.7932404279708862,
        "y": 0.4070221781730652,
        "z": 0.7800842523574829
    },
    "vertexNumber": 6,
    "colliderVertices": [
        {
            "x": -1.3981120586395264,
            "y": -0.0234832800924778
        },
        {
            "x": 1.6604762077331544,
            "y": -0.054026372730731967
        },
        {
            "x": 1.1528067588806153,
            "y": 0.8545717000961304
        },
        {
            "x": 0.6069516539573669,
            "y": 0.5909157395362854
        },
        {
            "x": -0.21106266975402833,
            "y": 0.1535102128982544
        },
        {
            "x": -1.327735424041748,
            "y": 0.8893246650695801
        }
    ],
    "triangles": [
        1,
        0,
        4,
        4,
        3,
        1,
        0,
        5,
        4,
        3,
        2,
        1
    ],
    "carDensity": 6.0,
    "suspension": 0.44419729709625246,
    "motorSpeed": 851,
    "frontDensity": 4.800000190734863,
    "frontRadius": 0.6819571256637573,
    "frontOffset": 1.053691029548645,
    "backDensity": 3.5999999046325685,
    "backRadius": 0.5622896552085877,
    "backOffset": -1.0843068361282349,
    "score": 19,
    "maxDistance": 3,
    "maxTime": 1.7999999523162842,
    "speed": 2
}{
    "ID": 79197,
    "genomaID": "CV4TD12",
    "color": {
        "x": 0.4004287123680115,
        "y": 0.941399097442627,
        "z": 0.8905913829803467
    },
    "vertexNumber": 4,
    "colliderVertices": [
        {
            "x": -1.1266533136367798,
            "y": -0.4810187816619873
        },
        {
            "x": 1.6865384578704835,
            "y": -0.3460839092731476
        },
        {
            "x": -0.5343058109283447,
            "y": 0.5762426257133484
        },
        {
            "x": -1.199232578277588,
            "y": 0.8568392992019653
        }
    ],
    "triangles": [
        0,
        3,
        2,
        2,
        1,
        0
    ],
    "carDensity": 4.0,
    "suspension": 0.5859755277633667,
    "motorSpeed": 851,
    "frontDensity": 4.900000095367432,
    "frontRadius": 0.6938021779060364,
    "frontOffset": 0.5311203002929688,
    "backDensity": 3.4000000953674318,
    "backRadius": 0.5407311916351318,
    "backOffset": -0.5308265686035156,
    "score": 0,
    "maxDistance": 0,
    "maxTime": 0.800000011920929,
    "speed": 0
}