{
    "ID": 73622,
    "genomaID": "CV3TD12",
    "color": {
        "x": 0.5026044249534607,
        "y": 0.922662615776062,
        "z": 0.00423324154689908
    },
    "vertexNumber": 3,
    "colliderVertices": [
        {
            "x": -1.615149736404419,
            "y": -0.08056289702653885
        },
        {
            "x": 1.1510634422302247,
            "y": -0.4890420436859131
        },
        {
            "x": -0.87314772605896,
            "y": 0.506628692150116
        }
    ],
    "triangles": [
        1,
        0,
        2
    ],
    "carDensity": 3.0,
    "suspension": 0.6804773807525635,
    "motorSpeed": 870,
    "frontDensity": 4.599999904632568,
    "frontRadius": 0.6643805503845215,
    "frontOffset": 1.1086808443069459,
    "backDensity": 3.799999952316284,
    "backRadius": 0.5831201076507568,
    "backOffset": -1.4944214820861817,
    "score": 916,
    "maxDistance": 834,
    "maxTime": 102.30000305175781,
    "speed": 8
}{
    "ID": 73732,
    "genomaID": "CV3TD12",
    "color": {
        "x": 0.6392239928245544,
        "y": 0.8724530935287476,
        "z": 0.24214902520179749
    },
    "vertexNumber": 3,
    "colliderVertices": [
        {
            "x": -1.615149736404419,
            "y": -0.08056289702653885
        },
        {
            "x": 1.1510634422302247,
            "y": -0.4890420436859131
        },
        {
            "x": -0.87314772605896,
            "y": 0.506628692150116
        }
    ],
    "triangles": [
        1,
        0,
        2
    ],
    "carDensity": 3.0,
    "suspension": 0.5820572972297669,
    "motorSpeed": 851,
    "frontDensity": 4.800000190734863,
    "frontRadius": 0.6819571256637573,
    "frontOffset": 1.275874137878418,
    "backDensity": 3.799999952316284,
    "backRadius": 0.5767271518707275,
    "backOffset": -0.8016687035560608,
    "score": 914,
    "maxDistance": 834,
    "maxTime": 104.80000305175781,
    "speed": 8
}{
    "ID": 73641,
    "genomaID": "CV3TD11",
    "color": {
        "x": 0.1794232279062271,
        "y": 0.7169793248176575,
        "z": 0.4818674921989441
    },
    "vertexNumber": 3,
    "colliderVertices": [
        {
            "x": -1.8204954862594605,
            "y": -0.28887632489204409
        },
        {
            "x": 1.4817984104156495,
            "y": -0.02029133029282093
        },
        {
            "x": -0.5799462795257568,
            "y": 0.0911637544631958
        }
    ],
    "triangles": [
        1,
        0,
        2
    ],
    "carDensity": 3.0,
    "suspension": 0.5828735828399658,
    "motorSpeed": 851,
    "frontDensity": 4.400000095367432,
    "frontRadius": 0.6446075439453125,
    "frontOffset": 0.9816282987594605,
    "backDensity": 3.5,
    "backRadius": 0.5476948022842407,
    "backOffset": -0.9333268404006958,
    "score": 910,
    "maxDistance": 833,
    "maxTime": 108.9000015258789,
    "speed": 8
}{
    "ID": 73779,
    "genomaID": "CV3TD10",
    "color": {
        "x": 0.5564845204353333,
        "y": 0.10687769949436188,
        "z": 0.8510869741439819
    },
    "vertexNumber": 3,
    "colliderVertices": [
        {
            "x": -1.615149736404419,
            "y": -0.08056289702653885
        },
        {
            "x": 1.1510634422302247,
            "y": -0.4890420436859131
        },
        {
            "x": -0.87314772605896,
            "y": 0.506628692150116
        }
    ],
    "triangles": [
        1,
        0,
        2
    ],
    "carDensity": 3.0,
    "suspension": 0.8212217092514038,
    "motorSpeed": 851,
    "frontDensity": 3.9000000953674318,
    "frontRadius": 0.5901876091957092,
    "frontOffset": 0.6598085165023804,
    "backDensity": 3.4000000953674318,
    "backRadius": 0.5422195196151733,
    "backOffset": -0.5776540040969849,
    "score": 19,
    "maxDistance": 3,
    "maxTime": 1.7999999523162842,
    "speed": 2
}{
    "ID": 73795,
    "genomaID": "CV4TD13",
    "color": {
        "x": 0.1332085281610489,
        "y": 0.55067378282547,
        "z": 0.17289210855960847
    },
    "vertexNumber": 4,
    "colliderVertices": [
        {
            "x": -1.2282812595367432,
            "y": -0.24515709280967713
        },
        {
            "x": 1.4606101512908936,
            "y": -0.3942147493362427
        },
        {
            "x": -1.5872974395751954,
            "y": 0.6048641800880432
        },
        {
            "x": -1.738234043121338,
            "y": 0.13972210884094239
        }
    ],
    "triangles": [
        3,
        2,
        1,
        1,
        0,
        3
    ],
    "carDensity": 4.0,
    "suspension": 0.6901644468307495,
    "motorSpeed": 1309,
    "frontDensity": 5.0,
    "frontRadius": 0.6950520277023315,
    "frontOffset": 1.4307582378387452,
    "backDensity": 3.799999952316284,
    "backRadius": 0.581800103187561,
    "backOffset": -0.6182733774185181,
    "score": 0,
    "maxDistance": 0,
    "maxTime": 0.800000011920929,
    "speed": 0
}