{
    "ID": 72789,
    "genomaID": "CV4TD12",
    "color": {
        "x": 0.2850213348865509,
        "y": 0.19931009411811829,
        "z": 0.833501935005188
    },
    "vertexNumber": 4,
    "colliderVertices": [
        {
            "x": -1.1342829465866089,
            "y": -0.3243936002254486
        },
        {
            "x": 1.2731690406799317,
            "y": -0.4479265809059143
        },
        {
            "x": -0.4207122325897217,
            "y": 0.8096592426300049
        },
        {
            "x": -1.350296974182129,
            "y": 0.02975940704345703
        }
    ],
    "triangles": [
        3,
        2,
        1,
        1,
        0,
        3
    ],
    "carDensity": 4.0,
    "suspension": 0.9779536128044128,
    "motorSpeed": 1001,
    "frontDensity": 4.599999904632568,
    "frontRadius": 0.6643805503845215,
    "frontOffset": 1.2720143795013428,
    "backDensity": 3.200000047683716,
    "backRadius": 0.5215529203414917,
    "backOffset": -1.1746777296066285,
    "score": 920,
    "maxDistance": 834,
    "maxTime": 97.0,
    "speed": 9
}{
    "ID": 72616,
    "genomaID": "CV3TD12",
    "color": {
        "x": 0.5844923853874207,
        "y": 0.5197818875312805,
        "z": 0.2364385426044464
    },
    "vertexNumber": 3,
    "colliderVertices": [
        {
            "x": -1.615149736404419,
            "y": -0.08056289702653885
        },
        {
            "x": 1.1510634422302247,
            "y": -0.4890420436859131
        },
        {
            "x": -0.87314772605896,
            "y": 0.506628692150116
        }
    ],
    "triangles": [
        1,
        0,
        2
    ],
    "carDensity": 3.0,
    "suspension": 0.4254046082496643,
    "motorSpeed": 851,
    "frontDensity": 4.599999904632568,
    "frontRadius": 0.6596128940582275,
    "frontOffset": 1.383947730064392,
    "backDensity": 3.700000047683716,
    "backRadius": 0.5727956295013428,
    "backOffset": -0.927115797996521,
    "score": 913,
    "maxDistance": 834,
    "maxTime": 105.5999984741211,
    "speed": 8
}{
    "ID": 72755,
    "genomaID": "CV3TD12",
    "color": {
        "x": 0.9965580701828003,
        "y": 0.38778823614120486,
        "z": 0.8982207775115967
    },
    "vertexNumber": 3,
    "colliderVertices": [
        {
            "x": -1.3146932125091553,
            "y": -0.35629478096961977
        },
        {
            "x": 1.1096062660217286,
            "y": -0.44019651412963869
        },
        {
            "x": -1.8295903205871583,
            "y": 0.6733900308609009
        }
    ],
    "triangles": [
        1,
        0,
        2
    ],
    "carDensity": 3.0,
    "suspension": 0.5828735828399658,
    "motorSpeed": 851,
    "frontDensity": 4.800000190734863,
    "frontRadius": 0.6810335516929627,
    "frontOffset": 0.9816282987594605,
    "backDensity": 3.5,
    "backRadius": 0.5476948022842407,
    "backOffset": -1.208482265472412,
    "score": 911,
    "maxDistance": 834,
    "maxTime": 107.69999694824219,
    "speed": 8
}{
    "ID": 72796,
    "genomaID": "CV3TD12",
    "color": {
        "x": 0.2718107998371124,
        "y": 0.8708093166351318,
        "z": 0.932330846786499
    },
    "vertexNumber": 3,
    "colliderVertices": [
        {
            "x": -1.615149736404419,
            "y": -0.08056289702653885
        },
        {
            "x": 1.1510634422302247,
            "y": -0.4890420436859131
        },
        {
            "x": -0.87314772605896,
            "y": 0.506628692150116
        }
    ],
    "triangles": [
        1,
        0,
        2
    ],
    "carDensity": 3.0,
    "suspension": 0.8987777233123779,
    "motorSpeed": 788,
    "frontDensity": 4.599999904632568,
    "frontRadius": 0.660163938999176,
    "frontOffset": 0.5798326730728149,
    "backDensity": 3.9000000953674318,
    "backRadius": 0.5936185121536255,
    "backOffset": -1.2363981008529664,
    "score": 18,
    "maxDistance": 3,
    "maxTime": 2.0,
    "speed": 2
}{
    "ID": 72725,
    "genomaID": "CV3TD9",
    "color": {
        "x": 0.7847917079925537,
        "y": 0.07349026948213577,
        "z": 0.18195666372776032
    },
    "vertexNumber": 3,
    "colliderVertices": [
        {
            "x": -1.615149736404419,
            "y": -0.08056289702653885
        },
        {
            "x": 1.1510634422302247,
            "y": -0.4890420436859131
        },
        {
            "x": -0.87314772605896,
            "y": 0.506628692150116
        }
    ],
    "triangles": [
        1,
        0,
        2
    ],
    "carDensity": 3.0,
    "suspension": 0.7457545399665833,
    "motorSpeed": 911,
    "frontDensity": 2.0,
    "frontRadius": 0.4007325768470764,
    "frontOffset": 1.3681645393371583,
    "backDensity": 3.700000047683716,
    "backRadius": 0.5727956295013428,
    "backOffset": -0.7083454132080078,
    "score": -11,
    "maxDistance": -1,
    "maxTime": 1.0,
    "speed": -1
}