{
    "ID": 35122,
    "genomaID": "CV3TD11",
    "color": {
        "x": 0.3380949795246124,
        "y": 0.903610348701477,
        "z": 0.08308065682649613
    },
    "vertexNumber": 3,
    "colliderVertices": [
        {
            "x": -1.615149736404419,
            "y": -0.08056289702653885
        },
        {
            "x": 1.1510634422302247,
            "y": -0.4890420436859131
        },
        {
            "x": -0.87314772605896,
            "y": 0.506628692150116
        }
    ],
    "triangles": [
        1,
        0,
        2
    ],
    "carDensity": 3.0,
    "suspension": 0.5135197639465332,
    "motorSpeed": 936,
    "frontDensity": 4.800000190734863,
    "frontRadius": 0.6791735291481018,
    "frontOffset": 0.7839283347129822,
    "backDensity": 3.299999952316284,
    "backRadius": 0.5263765454292297,
    "backOffset": -1.2308920621871949,
    "score": 916,
    "maxDistance": 833,
    "maxTime": 100.19999694824219,
    "speed": 8
}{
    "ID": 35068,
    "genomaID": "CV3TD11",
    "color": {
        "x": 0.779715895652771,
        "y": 0.1597966104745865,
        "z": 0.1659081131219864
    },
    "vertexNumber": 3,
    "colliderVertices": [
        {
            "x": -1.615149736404419,
            "y": -0.08056289702653885
        },
        {
            "x": 1.1510634422302247,
            "y": -0.4890420436859131
        },
        {
            "x": -0.87314772605896,
            "y": 0.506628692150116
        }
    ],
    "triangles": [
        1,
        0,
        2
    ],
    "carDensity": 3.0,
    "suspension": 0.5135197639465332,
    "motorSpeed": 851,
    "frontDensity": 4.800000190734863,
    "frontRadius": 0.6791735291481018,
    "frontOffset": 0.7839283347129822,
    "backDensity": 3.299999952316284,
    "backRadius": 0.5263765454292297,
    "backOffset": -1.075654149055481,
    "score": 911,
    "maxDistance": 834,
    "maxTime": 108.5999984741211,
    "speed": 8
}{
    "ID": 35186,
    "genomaID": "CV3TD11",
    "color": {
        "x": 0.8823857307434082,
        "y": 0.36269453167915347,
        "z": 0.5490991473197937
    },
    "vertexNumber": 3,
    "colliderVertices": [
        {
            "x": -1.3214707374572755,
            "y": -0.17451073229312898
        },
        {
            "x": 1.5323352813720704,
            "y": -0.06335759907960892
        },
        {
            "x": -1.5806546211242676,
            "y": 0.5031101107597351
        }
    ],
    "triangles": [
        1,
        0,
        2
    ],
    "carDensity": 3.0,
    "suspension": 0.9880106449127197,
    "motorSpeed": 864,
    "frontDensity": 4.699999809265137,
    "frontRadius": 0.6739943027496338,
    "frontOffset": 1.0849932432174683,
    "backDensity": 3.0,
    "backRadius": 0.5017982721328735,
    "backOffset": -1.0644861459732056,
    "score": 909,
    "maxDistance": 833,
    "maxTime": 108.9000015258789,
    "speed": 8
}{
    "ID": 35012,
    "genomaID": "CV5TD13",
    "color": {
        "x": 0.20122388005256654,
        "y": 0.23634174466133119,
        "z": 0.11499907076358795
    },
    "vertexNumber": 5,
    "colliderVertices": [
        {
            "x": -1.752845287322998,
            "y": -0.036976639181375507
        },
        {
            "x": 1.3037660121917725,
            "y": -0.43641704320907595
        },
        {
            "x": 1.766228199005127,
            "y": 0.19641327857971192
        },
        {
            "x": -1.3324384689331055,
            "y": 0.6867530345916748
        },
        {
            "x": -1.647409439086914,
            "y": 0.7998425960540772
        }
    ],
    "triangles": [
        1,
        4,
        3,
        3,
        2,
        1,
        1,
        0,
        4
    ],
    "carDensity": 5.0,
    "suspension": 0.771769106388092,
    "motorSpeed": 864,
    "frontDensity": 4.900000095367432,
    "frontRadius": 0.6877074241638184,
    "frontOffset": 1.2426632642745972,
    "backDensity": 2.700000047683716,
    "backRadius": 0.4688933491706848,
    "backOffset": -0.7446674108505249,
    "score": 0,
    "maxDistance": 0,
    "maxTime": 0.8999999761581421,
    "speed": 0
}{
    "ID": 35197,
    "genomaID": "CV6TD14",
    "color": {
        "x": 0.4004287123680115,
        "y": 0.941399097442627,
        "z": 0.8905913829803467
    },
    "vertexNumber": 6,
    "colliderVertices": [
        {
            "x": -1.4162366390228272,
            "y": -0.09020376950502396
        },
        {
            "x": 1.663184642791748,
            "y": -0.30331024527549746
        },
        {
            "x": 1.6025261878967286,
            "y": 0.29698723554611208
        },
        {
            "x": 1.0458636283874512,
            "y": 0.8040553331375122
        },
        {
            "x": 0.950011670589447,
            "y": 0.9013456106185913
        },
        {
            "x": 0.8112501502037048,
            "y": 0.019576191902160646
        }
    ],
    "triangles": [
        3,
        1,
        5,
        5,
        4,
        3,
        3,
        2,
        1,
        1,
        0,
        5
    ],
    "carDensity": 6.0,
    "suspension": 0.7015826106071472,
    "motorSpeed": 864,
    "frontDensity": 4.900000095367432,
    "frontRadius": 0.6877074241638184,
    "frontOffset": 1.3662527799606324,
    "backDensity": 2.9000000953674318,
    "backRadius": 0.4870791435241699,
    "backOffset": -0.9498037099838257,
    "score": 0,
    "maxDistance": 0,
    "maxTime": 0.8999999761581421,
    "speed": 0
}