{
    "ID": 93268,
    "genomaID": "CV3TD12",
    "color": {
        "x": 0.779715895652771,
        "y": 0.1597966104745865,
        "z": 0.1659081131219864
    },
    "vertexNumber": 3,
    "colliderVertices": [
        {
            "x": -1.615149736404419,
            "y": -0.08056289702653885
        },
        {
            "x": 1.1510634422302247,
            "y": -0.4890420436859131
        },
        {
            "x": -0.87314772605896,
            "y": 0.506628692150116
        }
    ],
    "triangles": [
        1,
        0,
        2
    ],
    "carDensity": 3.0,
    "suspension": 0.5400516986846924,
    "motorSpeed": 851,
    "frontDensity": 5.0,
    "frontRadius": 0.6957739591598511,
    "frontOffset": 1.3862545490264893,
    "backDensity": 3.700000047683716,
    "backRadius": 0.5705000162124634,
    "backOffset": -1.2700865268707276,
    "score": 915,
    "maxDistance": 834,
    "maxTime": 103.5999984741211,
    "speed": 8
}{
    "ID": 93276,
    "genomaID": "CV4TD13",
    "color": {
        "x": 0.9425121545791626,
        "y": 0.4197102189064026,
        "z": 0.0821993425488472
    },
    "vertexNumber": 4,
    "colliderVertices": [
        {
            "x": -1.5850276947021485,
            "y": -0.40719377994537356
        },
        {
            "x": 1.1964106559753419,
            "y": -0.08171398192644119
        },
        {
            "x": -1.2208147048950196,
            "y": 0.37499576807022097
        },
        {
            "x": -1.254045009613037,
            "y": 0.12606000900268556
        }
    ],
    "triangles": [
        3,
        2,
        1,
        1,
        0,
        3
    ],
    "carDensity": 4.0,
    "suspension": 0.7269346714019775,
    "motorSpeed": 851,
    "frontDensity": 4.800000190734863,
    "frontRadius": 0.6801435947418213,
    "frontOffset": 0.9591985940933228,
    "backDensity": 3.700000047683716,
    "backRadius": 0.565962016582489,
    "backOffset": -1.1416001319885255,
    "score": 913,
    "maxDistance": 834,
    "maxTime": 106.0,
    "speed": 8
}{
    "ID": 93365,
    "genomaID": "CV3TD10",
    "color": {
        "x": 0.042122844606637958,
        "y": 0.8611741065979004,
        "z": 0.4444999098777771
    },
    "vertexNumber": 3,
    "colliderVertices": [
        {
            "x": -1.615149736404419,
            "y": -0.08056289702653885
        },
        {
            "x": 1.1510634422302247,
            "y": -0.4890420436859131
        },
        {
            "x": -0.87314772605896,
            "y": 0.506628692150116
        }
    ],
    "triangles": [
        1,
        0,
        2
    ],
    "carDensity": 3.0,
    "suspension": 0.46975311636924746,
    "motorSpeed": 851,
    "frontDensity": 4.800000190734863,
    "frontRadius": 0.6801435947418213,
    "frontOffset": 1.3337821960449219,
    "backDensity": 2.0999999046325685,
    "backRadius": 0.4135427474975586,
    "backOffset": -0.6657637357711792,
    "score": 908,
    "maxDistance": 834,
    "maxTime": 112.0999984741211,
    "speed": 7
}{
    "ID": 93214,
    "genomaID": "CV3TD13",
    "color": {
        "x": 0.8415801525115967,
        "y": 0.888700008392334,
        "z": 0.6227731108665466
    },
    "vertexNumber": 3,
    "colliderVertices": [
        {
            "x": -1.615149736404419,
            "y": -0.08056289702653885
        },
        {
            "x": 1.1510634422302247,
            "y": -0.4890420436859131
        },
        {
            "x": -0.87314772605896,
            "y": 0.506628692150116
        }
    ],
    "triangles": [
        1,
        0,
        2
    ],
    "carDensity": 3.0,
    "suspension": 0.8941417336463928,
    "motorSpeed": 851,
    "frontDensity": 4.800000190734863,
    "frontRadius": 0.678674578666687,
    "frontOffset": 0.747327446937561,
    "backDensity": 4.599999904632568,
    "backRadius": 0.6612493991851807,
    "backOffset": -0.6326993703842163,
    "score": 0,
    "maxDistance": 0,
    "maxTime": 0.8999999761581421,
    "speed": 0
}{
    "ID": 93389,
    "genomaID": "CV3TD10",
    "color": {
        "x": 0.2850213348865509,
        "y": 0.19931009411811829,
        "z": 0.833501935005188
    },
    "vertexNumber": 3,
    "colliderVertices": [
        {
            "x": -1.615149736404419,
            "y": -0.08056289702653885
        },
        {
            "x": 1.1510634422302247,
            "y": -0.4890420436859131
        },
        {
            "x": -0.87314772605896,
            "y": 0.506628692150116
        }
    ],
    "triangles": [
        1,
        0,
        2
    ],
    "carDensity": 3.0,
    "suspension": 0.5592864751815796,
    "motorSpeed": 865,
    "frontDensity": 4.800000190734863,
    "frontRadius": 0.6787758469581604,
    "frontOffset": 0.9435817003250122,
    "backDensity": 2.0999999046325685,
    "backRadius": 0.4072290062904358,
    "backOffset": -1.018170952796936,
    "score": 0,
    "maxDistance": 0,
    "maxTime": 0.8999999761581421,
    "speed": 0
}