{
    "ID": 78209,
    "genomaID": "CV3TD12",
    "color": {
        "x": 0.43795162439346316,
        "y": 0.19413724541664124,
        "z": 0.2546187937259674
    },
    "vertexNumber": 3,
    "colliderVertices": [
        {
            "x": -1.615149736404419,
            "y": -0.08056289702653885
        },
        {
            "x": 1.1510634422302247,
            "y": -0.4890420436859131
        },
        {
            "x": -0.87314772605896,
            "y": 0.506628692150116
        }
    ],
    "triangles": [
        1,
        0,
        2
    ],
    "carDensity": 3.0,
    "suspension": 0.9987465143203735,
    "motorSpeed": 851,
    "frontDensity": 4.599999904632568,
    "frontRadius": 0.660163938999176,
    "frontOffset": 0.6859105825424194,
    "backDensity": 3.9000000953674318,
    "backRadius": 0.5936185121536255,
    "backOffset": -1.1968622207641602,
    "score": 915,
    "maxDistance": 834,
    "maxTime": 103.30000305175781,
    "speed": 8
}{
    "ID": 78246,
    "genomaID": "CV3TD11",
    "color": {
        "x": 0.832940936088562,
        "y": 0.48083454370498659,
        "z": 0.30451205372810366
    },
    "vertexNumber": 3,
    "colliderVertices": [
        {
            "x": -1.615149736404419,
            "y": -0.08056289702653885
        },
        {
            "x": 1.1510634422302247,
            "y": -0.4890420436859131
        },
        {
            "x": -0.87314772605896,
            "y": 0.506628692150116
        }
    ],
    "triangles": [
        1,
        0,
        2
    ],
    "carDensity": 3.0,
    "suspension": 0.5859755277633667,
    "motorSpeed": 851,
    "frontDensity": 4.900000095367432,
    "frontRadius": 0.6938021779060364,
    "frontOffset": 0.8264396786689758,
    "backDensity": 3.4000000953674318,
    "backRadius": 0.5407311916351318,
    "backOffset": -1.1647059917449952,
    "score": 913,
    "maxDistance": 834,
    "maxTime": 106.19999694824219,
    "speed": 8
}{
    "ID": 78267,
    "genomaID": "CV3TD11",
    "color": {
        "x": 0.9465456008911133,
        "y": 0.2535231411457062,
        "z": 0.658656656742096
    },
    "vertexNumber": 3,
    "colliderVertices": [
        {
            "x": -1.615149736404419,
            "y": -0.08056289702653885
        },
        {
            "x": 1.1510634422302247,
            "y": -0.4890420436859131
        },
        {
            "x": -0.87314772605896,
            "y": 0.506628692150116
        }
    ],
    "triangles": [
        1,
        0,
        2
    ],
    "carDensity": 3.0,
    "suspension": 0.5944325923919678,
    "motorSpeed": 875,
    "frontDensity": 4.599999904632568,
    "frontRadius": 0.660163938999176,
    "frontOffset": 1.152295470237732,
    "backDensity": 3.0999999046325685,
    "backRadius": 0.509256899356842,
    "backOffset": -0.8888458013534546,
    "score": 911,
    "maxDistance": 834,
    "maxTime": 108.80000305175781,
    "speed": 8
}{
    "ID": 78391,
    "genomaID": "CV3TD11",
    "color": {
        "x": 0.6679555773735046,
        "y": 0.2269156277179718,
        "z": 0.9616402387619019
    },
    "vertexNumber": 3,
    "colliderVertices": [
        {
            "x": -1.615149736404419,
            "y": -0.08056289702653885
        },
        {
            "x": 1.1510634422302247,
            "y": -0.4890420436859131
        },
        {
            "x": -0.87314772605896,
            "y": 0.506628692150116
        }
    ],
    "triangles": [
        1,
        0,
        2
    ],
    "carDensity": 3.0,
    "suspension": 0.7808594107627869,
    "motorSpeed": 851,
    "frontDensity": 4.300000190734863,
    "frontRadius": 0.629614531993866,
    "frontOffset": 1.1264252662658692,
    "backDensity": 3.5999999046325685,
    "backRadius": 0.5611166954040527,
    "backOffset": -0.5113115310668945,
    "score": 19,
    "maxDistance": 3,
    "maxTime": 1.899999976158142,
    "speed": 2
}{
    "ID": 78386,
    "genomaID": "CV3TD12",
    "color": {
        "x": 0.8823857307434082,
        "y": 0.36269453167915347,
        "z": 0.5490991473197937
    },
    "vertexNumber": 3,
    "colliderVertices": [
        {
            "x": -1.0591843128204346,
            "y": -0.4098494052886963
        },
        {
            "x": 1.315835952758789,
            "y": -0.15866227447986604
        },
        {
            "x": 0.12981629371643067,
            "y": 0.08185231685638428
        }
    ],
    "triangles": [
        1,
        0,
        2
    ],
    "carDensity": 3.0,
    "suspension": 0.5676295161247253,
    "motorSpeed": 851,
    "frontDensity": 4.800000190734863,
    "frontRadius": 0.677672266960144,
    "frontOffset": 0.5805530548095703,
    "backDensity": 3.799999952316284,
    "backRadius": 0.5767271518707275,
    "backOffset": -1.3660306930541993,
    "score": 0,
    "maxDistance": -1,
    "maxTime": 0.8999999761581421,
    "speed": -1
}