{
    "ID": 4296,
    "genomaID": "CV3TD9",
    "color": {
        "x": 0.5878106951713562,
        "y": 0.5455228686332703,
        "z": 0.34203508496284487
    },
    "vertexNumber": 3,
    "colliderVertices": [
        {
            "x": -1.1211835145950318,
            "y": -0.24947848916053773
        },
        {
            "x": 1.660989761352539,
            "y": -0.1924772560596466
        },
        {
            "x": 1.0536818504333497,
            "y": 0.26712971925735476
        }
    ],
    "triangles": [
        1,
        0,
        2
    ],
    "carDensity": 3.0,
    "suspension": 0.8686789870262146,
    "motorSpeed": 768,
    "frontDensity": 3.299999952316284,
    "frontRadius": 0.5312578082084656,
    "frontOffset": 1.3349754810333253,
    "backDensity": 3.0999999046325685,
    "backRadius": 0.5140807628631592,
    "backOffset": -0.6650424003601074,
    "score": 895,
    "maxDistance": 833,
    "maxTime": 133.89999389648438,
    "speed": 6
}{
    "ID": 4265,
    "genomaID": "CV3TD10",
    "color": {
        "x": 0.7932404279708862,
        "y": 0.4070221781730652,
        "z": 0.7800842523574829
    },
    "vertexNumber": 3,
    "colliderVertices": [
        {
            "x": -1.1297260522842408,
            "y": -0.06047988682985306
        },
        {
            "x": 1.1289595365524293,
            "y": -0.3344869315624237
        },
        {
            "x": 0.8255490660667419,
            "y": 0.42741090059280398
        }
    ],
    "triangles": [
        1,
        0,
        2
    ],
    "carDensity": 3.0,
    "suspension": 0.8238489031791687,
    "motorSpeed": 607,
    "frontDensity": 4.099999904632568,
    "frontRadius": 0.6086437106132507,
    "frontOffset": 1.3582680225372315,
    "backDensity": 3.200000047683716,
    "backRadius": 0.523668646812439,
    "backOffset": -0.7955098748207092,
    "score": 887,
    "maxDistance": 833,
    "maxTime": 155.10000610351563,
    "speed": 5
}{
    "ID": 4397,
    "genomaID": "CV3TD10",
    "color": {
        "x": 0.4004287123680115,
        "y": 0.941399097442627,
        "z": 0.8905913829803467
    },
    "vertexNumber": 3,
    "colliderVertices": [
        {
            "x": -1.7412893772125245,
            "y": -0.24600020051002503
        },
        {
            "x": 1.6365805864334107,
            "y": -0.11980439722537995
        },
        {
            "x": -1.7040982246398926,
            "y": 0.012483358383178711
        }
    ],
    "triangles": [
        1,
        0,
        2
    ],
    "carDensity": 3.0,
    "suspension": 0.566939115524292,
    "motorSpeed": 573,
    "frontDensity": 4.0,
    "frontRadius": 0.6009075045585632,
    "frontOffset": 1.0045362710952759,
    "backDensity": 3.0,
    "backRadius": 0.502479612827301,
    "backOffset": -0.5376685857772827,
    "score": 884,
    "maxDistance": 833,
    "maxTime": 164.60000610351563,
    "speed": 5
}{
    "ID": 4213,
    "genomaID": "CV6TD11",
    "color": {
        "x": 0.2999573051929474,
        "y": 0.8041330575942993,
        "z": 0.9977710247039795
    },
    "vertexNumber": 6,
    "colliderVertices": [
        {
            "x": -1.012852668762207,
            "y": -0.4456886053085327
        },
        {
            "x": 1.3303594589233399,
            "y": -0.20659372210502625
        },
        {
            "x": 1.1951923370361329,
            "y": 0.47590547800064089
        },
        {
            "x": 0.5321869254112244,
            "y": 0.5031669735908508
        },
        {
            "x": 0.4798696041107178,
            "y": 0.11191987991333008
        },
        {
            "x": -1.4130797386169434,
            "y": 0.15241169929504395
        }
    ],
    "triangles": [
        4,
        3,
        1,
        1,
        5,
        4,
        3,
        2,
        1,
        1,
        0,
        5
    ],
    "carDensity": 6.0,
    "suspension": 0.9743602871894836,
    "motorSpeed": 807,
    "frontDensity": 3.4000000953674318,
    "frontRadius": 0.5360150337219238,
    "frontOffset": 0.7513176798820496,
    "backDensity": 2.4000000953674318,
    "backRadius": 0.4370718002319336,
    "backOffset": -1.4807851314544678,
    "score": 24,
    "maxDistance": 4,
    "maxTime": 2.0,
    "speed": 2
}{
    "ID": 4373,
    "genomaID": "CV3TD11",
    "color": {
        "x": 0.8770337104797363,
        "y": 0.6029910445213318,
        "z": 0.7983345985412598
    },
    "vertexNumber": 3,
    "colliderVertices": [
        {
            "x": -1.7412893772125245,
            "y": -0.24600020051002503
        },
        {
            "x": 1.6365805864334107,
            "y": -0.11980439722537995
        },
        {
            "x": -1.7040982246398926,
            "y": 0.012483358383178711
        }
    ],
    "triangles": [
        1,
        0,
        2
    ],
    "carDensity": 3.0,
    "suspension": 0.407518208026886,
    "motorSpeed": 674,
    "frontDensity": 2.700000047683716,
    "frontRadius": 0.46627122163772585,
    "frontOffset": 1.1537492275238038,
    "backDensity": 4.900000095367432,
    "backRadius": 0.6942960619926453,
    "backOffset": -1.137271523475647,
    "score": -11,
    "maxDistance": -1,
    "maxTime": 1.0,
    "speed": -1
}