{
    "ID": 100803,
    "genomaID": "CV6TD15",
    "color": {
        "x": 0.5271676182746887,
        "y": 0.45618098974227908,
        "z": 0.9300339221954346
    },
    "vertexNumber": 6,
    "colliderVertices": [
        {
            "x": -1.0019563436508179,
            "y": -0.1774318367242813
        },
        {
            "x": 1.7236748933792115,
            "y": -0.2016870081424713
        },
        {
            "x": 1.4316248893737794,
            "y": 0.4384055733680725
        },
        {
            "x": 1.43070650100708,
            "y": 0.19539570808410645
        },
        {
            "x": 0.5935515761375427,
            "y": 0.042861104011535647
        },
        {
            "x": -1.914456844329834,
            "y": 0.3157481551170349
        }
    ],
    "triangles": [
        4,
        3,
        1,
        1,
        5,
        4,
        3,
        2,
        1,
        1,
        0,
        5
    ],
    "carDensity": 6.0,
    "suspension": 0.5217207670211792,
    "motorSpeed": 863,
    "frontDensity": 4.900000095367432,
    "frontRadius": 0.6921337842941284,
    "frontOffset": 1.4430618286132813,
    "backDensity": 3.9000000953674318,
    "backRadius": 0.5866074562072754,
    "backOffset": -1.0606337785720826,
    "score": 915,
    "maxDistance": 833,
    "maxTime": 101.0999984741211,
    "speed": 8
}{
    "ID": 100919,
    "genomaID": "CV3TD12",
    "color": {
        "x": 0.03547847643494606,
        "y": 0.4556052088737488,
        "z": 0.1441134363412857
    },
    "vertexNumber": 3,
    "colliderVertices": [
        {
            "x": -1.615149736404419,
            "y": -0.08056289702653885
        },
        {
            "x": 1.1510634422302247,
            "y": -0.4890420436859131
        },
        {
            "x": -0.87314772605896,
            "y": 0.506628692150116
        }
    ],
    "triangles": [
        1,
        0,
        2
    ],
    "carDensity": 3.0,
    "suspension": 0.764904797077179,
    "motorSpeed": 851,
    "frontDensity": 4.900000095367432,
    "frontRadius": 0.6855190396308899,
    "frontOffset": 0.7060211896896362,
    "backDensity": 3.5,
    "backRadius": 0.5470849275588989,
    "backOffset": -0.7640337347984314,
    "score": 912,
    "maxDistance": 834,
    "maxTime": 106.69999694824219,
    "speed": 8
}{
    "ID": 100915,
    "genomaID": "CV3TD11",
    "color": {
        "x": 0.7853478193283081,
        "y": 0.6659738421440125,
        "z": 0.621863067150116
    },
    "vertexNumber": 3,
    "colliderVertices": [
        {
            "x": -1.615149736404419,
            "y": -0.08056289702653885
        },
        {
            "x": 1.1510634422302247,
            "y": -0.4890420436859131
        },
        {
            "x": -0.87314772605896,
            "y": 0.506628692150116
        }
    ],
    "triangles": [
        1,
        0,
        2
    ],
    "carDensity": 3.0,
    "suspension": 0.4466472566127777,
    "motorSpeed": 851,
    "frontDensity": 4.800000190734863,
    "frontRadius": 0.6801435947418213,
    "frontOffset": 1.1180697679519654,
    "backDensity": 3.299999952316284,
    "backRadius": 0.529541015625,
    "backOffset": -1.313150405883789,
    "score": 910,
    "maxDistance": 833,
    "maxTime": 107.9000015258789,
    "speed": 8
}{
    "ID": 100963,
    "genomaID": "CV3TD12",
    "color": {
        "x": 0.876664400100708,
        "y": 0.6546191573143005,
        "z": 0.03237474337220192
    },
    "vertexNumber": 3,
    "colliderVertices": [
        {
            "x": -1.615149736404419,
            "y": -0.08056289702653885
        },
        {
            "x": 1.1510634422302247,
            "y": -0.4890420436859131
        },
        {
            "x": -0.87314772605896,
            "y": 0.506628692150116
        }
    ],
    "triangles": [
        1,
        0,
        2
    ],
    "carDensity": 3.0,
    "suspension": 0.8058562278747559,
    "motorSpeed": 684,
    "frontDensity": 4.900000095367432,
    "frontRadius": 0.6855190396308899,
    "frontOffset": 1.4053720235824586,
    "backDensity": 3.5,
    "backRadius": 0.5470849275588989,
    "backOffset": -0.5968209505081177,
    "score": 19,
    "maxDistance": 3,
    "maxTime": 1.899999976158142,
    "speed": 2
}{
    "ID": 101000,
    "genomaID": "CV5TD11",
    "color": {
        "x": 0.7157778143882752,
        "y": 0.7526435852050781,
        "z": 0.5779417157173157
    },
    "vertexNumber": 5,
    "colliderVertices": [
        {
            "x": -1.3742320537567139,
            "y": -0.05346757918596268
        },
        {
            "x": 1.1097227334976197,
            "y": -0.10616894066333771
        },
        {
            "x": 0.3016774654388428,
            "y": 0.027098536491394044
        },
        {
            "x": -1.0291218757629395,
            "y": 0.006470441818237305
        },
        {
            "x": -1.326695442199707,
            "y": 0.7138159275054932
        }
    ],
    "triangles": [
        3,
        2,
        0,
        0,
        4,
        3,
        2,
        1,
        0
    ],
    "carDensity": 5.0,
    "suspension": 0.40579184889793398,
    "motorSpeed": 886,
    "frontDensity": 3.799999952316284,
    "frontRadius": 0.5847393274307251,
    "frontOffset": 1.3661699295043946,
    "backDensity": 2.0999999046325685,
    "backRadius": 0.4086272716522217,
    "backOffset": -1.2443315982818604,
    "score": 0,
    "maxDistance": 0,
    "maxTime": 0.8999999761581421,
    "speed": 0
}