{
    "ID": 57419,
    "genomaID": "CV3TD12",
    "color": {
        "x": 0.48973435163497927,
        "y": 0.49011415243148806,
        "z": 0.8330620527267456
    },
    "vertexNumber": 3,
    "colliderVertices": [
        {
            "x": -1.615149736404419,
            "y": -0.08056289702653885
        },
        {
            "x": 1.1510634422302247,
            "y": -0.4890420436859131
        },
        {
            "x": -0.87314772605896,
            "y": 0.506628692150116
        }
    ],
    "triangles": [
        1,
        0,
        2
    ],
    "carDensity": 3.0,
    "suspension": 0.7266157865524292,
    "motorSpeed": 851,
    "frontDensity": 4.599999904632568,
    "frontRadius": 0.6619943380355835,
    "frontOffset": 1.3091697692871094,
    "backDensity": 4.0,
    "backRadius": 0.6046082377433777,
    "backOffset": -1.1997168064117432,
    "score": 915,
    "maxDistance": 834,
    "maxTime": 103.30000305175781,
    "speed": 8
}{
    "ID": 57433,
    "genomaID": "CV5TD14",
    "color": {
        "x": 0.2025337517261505,
        "y": 0.5234045386314392,
        "z": 0.5499987006187439
    },
    "vertexNumber": 5,
    "colliderVertices": [
        {
            "x": -1.4395458698272706,
            "y": -0.2419780194759369
        },
        {
            "x": 1.3570497035980225,
            "y": -0.08403981477022171
        },
        {
            "x": 0.9890727400779724,
            "y": 0.14171993732452393
        },
        {
            "x": 0.8988103270530701,
            "y": 0.2397468090057373
        },
        {
            "x": -0.4896523952484131,
            "y": 0.42454296350479128
        }
    ],
    "triangles": [
        2,
        1,
        4,
        4,
        3,
        2,
        1,
        0,
        4
    ],
    "carDensity": 5.0,
    "suspension": 0.6666815876960754,
    "motorSpeed": 851,
    "frontDensity": 4.900000095367432,
    "frontRadius": 0.6900220513343811,
    "frontOffset": 1.194711685180664,
    "backDensity": 3.700000047683716,
    "backRadius": 0.5727956295013428,
    "backOffset": -0.5185070037841797,
    "score": 913,
    "maxDistance": 833,
    "maxTime": 103.80000305175781,
    "speed": 8
}{
    "ID": 57491,
    "genomaID": "CV3TD11",
    "color": {
        "x": 0.610786497592926,
        "y": 0.21976199746131898,
        "z": 0.07008791714906693
    },
    "vertexNumber": 3,
    "colliderVertices": [
        {
            "x": -1.615149736404419,
            "y": -0.08056289702653885
        },
        {
            "x": 1.1510634422302247,
            "y": -0.4890420436859131
        },
        {
            "x": -0.87314772605896,
            "y": 0.506628692150116
        }
    ],
    "triangles": [
        1,
        0,
        2
    ],
    "carDensity": 3.0,
    "suspension": 0.9171354174613953,
    "motorSpeed": 851,
    "frontDensity": 4.900000095367432,
    "frontRadius": 0.6937325596809387,
    "frontOffset": 0.7010633945465088,
    "backDensity": 3.0,
    "backRadius": 0.49641960859298708,
    "backOffset": -1.2185873985290528,
    "score": 911,
    "maxDistance": 834,
    "maxTime": 108.0,
    "speed": 8
}{
    "ID": 57599,
    "genomaID": "CV3TD12",
    "color": {
        "x": 0.20653727650642396,
        "y": 0.7379440665245056,
        "z": 0.5660251975059509
    },
    "vertexNumber": 3,
    "colliderVertices": [
        {
            "x": -1.615149736404419,
            "y": -0.08056289702653885
        },
        {
            "x": 1.1510634422302247,
            "y": -0.4890420436859131
        },
        {
            "x": -0.87314772605896,
            "y": 0.506628692150116
        }
    ],
    "triangles": [
        1,
        0,
        2
    ],
    "carDensity": 3.0,
    "suspension": 0.5411882400512695,
    "motorSpeed": 851,
    "frontDensity": 4.900000095367432,
    "frontRadius": 0.6937325596809387,
    "frontOffset": 0.7032070159912109,
    "backDensity": 3.5999999046325685,
    "backRadius": 0.5647456645965576,
    "backOffset": -0.7021017074584961,
    "score": 9,
    "maxDistance": 2,
    "maxTime": 2.799999952316284,
    "speed": 1
}{
    "ID": 57593,
    "genomaID": "CV3TD11",
    "color": {
        "x": 0.23507264256477357,
        "y": 0.5300777554512024,
        "z": 0.8182836771011353
    },
    "vertexNumber": 3,
    "colliderVertices": [
        {
            "x": -1.615149736404419,
            "y": -0.08056289702653885
        },
        {
            "x": 1.1510634422302247,
            "y": -0.4890420436859131
        },
        {
            "x": -0.87314772605896,
            "y": 0.506628692150116
        }
    ],
    "triangles": [
        1,
        0,
        2
    ],
    "carDensity": 3.0,
    "suspension": 0.5866045951843262,
    "motorSpeed": 1367,
    "frontDensity": 4.900000095367432,
    "frontRadius": 0.6937325596809387,
    "frontOffset": 1.4055185317993165,
    "backDensity": 3.0999999046325685,
    "backRadius": 0.512939453125,
    "backOffset": -1.0929630994796754,
    "score": 0,
    "maxDistance": 0,
    "maxTime": 0.800000011920929,
    "speed": 0
}