{
    "ID": 75806,
    "genomaID": "CV3TD12",
    "color": {
        "x": 0.023887161165475847,
        "y": 0.4522629380226135,
        "z": 0.36236730217933657
    },
    "vertexNumber": 3,
    "colliderVertices": [
        {
            "x": -1.615149736404419,
            "y": -0.08056289702653885
        },
        {
            "x": 1.1510634422302247,
            "y": -0.4890420436859131
        },
        {
            "x": -0.87314772605896,
            "y": 0.506628692150116
        }
    ],
    "triangles": [
        1,
        0,
        2
    ],
    "carDensity": 3.0,
    "suspension": 0.9489073753356934,
    "motorSpeed": 851,
    "frontDensity": 4.900000095367432,
    "frontRadius": 0.6938021779060364,
    "frontOffset": 1.4686365127563477,
    "backDensity": 4.0,
    "backRadius": 0.6038332581520081,
    "backOffset": -1.0219305753707886,
    "score": 915,
    "maxDistance": 833,
    "maxTime": 102.0999984741211,
    "speed": 8
}{
    "ID": 75917,
    "genomaID": "CV5TD14",
    "color": {
        "x": 0.21057823300361634,
        "y": 0.03984392061829567,
        "z": 0.7053022980690002
    },
    "vertexNumber": 5,
    "colliderVertices": [
        {
            "x": -1.358903169631958,
            "y": -0.030087534338235856
        },
        {
            "x": 1.280360221862793,
            "y": -0.22655203938484193
        },
        {
            "x": -0.715101957321167,
            "y": 0.439075767993927
        },
        {
            "x": -0.9292347431182861,
            "y": 0.6629095077514648
        },
        {
            "x": -1.1955451965332032,
            "y": 0.42227309942245486
        }
    ],
    "triangles": [
        2,
        1,
        4,
        4,
        3,
        2,
        1,
        0,
        4
    ],
    "carDensity": 5.0,
    "suspension": 0.9394285678863525,
    "motorSpeed": 851,
    "frontDensity": 4.800000190734863,
    "frontRadius": 0.6810335516929627,
    "frontOffset": 1.1779520511627198,
    "backDensity": 4.0,
    "backRadius": 0.5996769070625305,
    "backOffset": -0.7277697324752808,
    "score": 914,
    "maxDistance": 833,
    "maxTime": 102.69999694824219,
    "speed": 8
}{
    "ID": 75985,
    "genomaID": "CV3TD12",
    "color": {
        "x": 0.8011007308959961,
        "y": 0.07880652695894242,
        "z": 0.9284113645553589
    },
    "vertexNumber": 3,
    "colliderVertices": [
        {
            "x": -1.615149736404419,
            "y": -0.08056289702653885
        },
        {
            "x": 1.1510634422302247,
            "y": -0.4890420436859131
        },
        {
            "x": -0.87314772605896,
            "y": 0.506628692150116
        }
    ],
    "triangles": [
        1,
        0,
        2
    ],
    "carDensity": 3.0,
    "suspension": 0.7015989422798157,
    "motorSpeed": 851,
    "frontDensity": 4.599999904632568,
    "frontRadius": 0.660163938999176,
    "frontOffset": 1.3944182395935059,
    "backDensity": 3.5999999046325685,
    "backRadius": 0.5611166954040527,
    "backOffset": -1.3653873205184937,
    "score": 912,
    "maxDistance": 834,
    "maxTime": 106.80000305175781,
    "speed": 8
}{
    "ID": 75987,
    "genomaID": "CV3TD11",
    "color": {
        "x": 0.31324294209480288,
        "y": 0.07841325551271439,
        "z": 0.9491356611251831
    },
    "vertexNumber": 3,
    "colliderVertices": [
        {
            "x": -1.615149736404419,
            "y": -0.08056289702653885
        },
        {
            "x": 1.1510634422302247,
            "y": -0.4890420436859131
        },
        {
            "x": -0.87314772605896,
            "y": 0.506628692150116
        }
    ],
    "triangles": [
        1,
        0,
        2
    ],
    "carDensity": 3.0,
    "suspension": 0.8622271418571472,
    "motorSpeed": 851,
    "frontDensity": 3.5999999046325685,
    "frontRadius": 0.5569078922271729,
    "frontOffset": 0.5992535352706909,
    "backDensity": 3.799999952316284,
    "backRadius": 0.5767271518707275,
    "backOffset": -1.3731582164764405,
    "score": 19,
    "maxDistance": 3,
    "maxTime": 1.7999999523162842,
    "speed": 2
}{
    "ID": 75999,
    "genomaID": "CV3TD9",
    "color": {
        "x": 0.20653727650642396,
        "y": 0.7379440665245056,
        "z": 0.5660251975059509
    },
    "vertexNumber": 3,
    "colliderVertices": [
        {
            "x": -1.615149736404419,
            "y": -0.08056289702653885
        },
        {
            "x": 1.1510634422302247,
            "y": -0.4890420436859131
        },
        {
            "x": -0.87314772605896,
            "y": 0.506628692150116
        }
    ],
    "triangles": [
        1,
        0,
        2
    ],
    "carDensity": 3.0,
    "suspension": 0.8189470171928406,
    "motorSpeed": 851,
    "frontDensity": 2.299999952316284,
    "frontRadius": 0.4314075708389282,
    "frontOffset": 1.2174547910690308,
    "backDensity": 3.799999952316284,
    "backRadius": 0.5767271518707275,
    "backOffset": -0.8016687035560608,
    "score": 0,
    "maxDistance": 0,
    "maxTime": 0.800000011920929,
    "speed": 0
}