{
    "ID": 99610,
    "genomaID": "CV6TD15",
    "color": {
        "x": 0.09728159010410309,
        "y": 0.6680589318275452,
        "z": 0.12447048723697663
    },
    "vertexNumber": 6,
    "colliderVertices": [
        {
            "x": -1.0019563436508179,
            "y": -0.1774318367242813
        },
        {
            "x": 1.7236748933792115,
            "y": -0.2016870081424713
        },
        {
            "x": 1.4316248893737794,
            "y": 0.4384055733680725
        },
        {
            "x": 1.43070650100708,
            "y": 0.19539570808410645
        },
        {
            "x": 0.5935515761375427,
            "y": 0.042861104011535647
        },
        {
            "x": -1.914456844329834,
            "y": 0.3157481551170349
        }
    ],
    "triangles": [
        4,
        3,
        1,
        1,
        5,
        4,
        3,
        2,
        1,
        1,
        0,
        5
    ],
    "carDensity": 6.0,
    "suspension": 0.5217207670211792,
    "motorSpeed": 863,
    "frontDensity": 4.900000095367432,
    "frontRadius": 0.6921337842941284,
    "frontOffset": 1.4430618286132813,
    "backDensity": 3.9000000953674318,
    "backRadius": 0.5866074562072754,
    "backOffset": -1.0606337785720826,
    "score": 915,
    "maxDistance": 833,
    "maxTime": 101.0999984741211,
    "speed": 8
}{
    "ID": 99739,
    "genomaID": "CV3TD12",
    "color": {
        "x": 0.7111497521400452,
        "y": 0.07223165780305863,
        "z": 0.6428661942481995
    },
    "vertexNumber": 3,
    "colliderVertices": [
        {
            "x": -1.1281403303146363,
            "y": -0.07347846776247025
        },
        {
            "x": 1.2721686363220215,
            "y": -0.205673485994339
        },
        {
            "x": 0.4101889133453369,
            "y": 0.35068339109420779
        }
    ],
    "triangles": [
        1,
        0,
        2
    ],
    "carDensity": 3.0,
    "suspension": 0.8211706280708313,
    "motorSpeed": 851,
    "frontDensity": 4.800000190734863,
    "frontRadius": 0.6831303238868713,
    "frontOffset": 1.3807328939437867,
    "backDensity": 3.5,
    "backRadius": 0.5470849275588989,
    "backOffset": -0.6304410696029663,
    "score": 912,
    "maxDistance": 834,
    "maxTime": 106.9000015258789,
    "speed": 8
}{
    "ID": 99742,
    "genomaID": "CV3TD11",
    "color": {
        "x": 0.307130366563797,
        "y": 0.7006434798240662,
        "z": 0.8399001359939575
    },
    "vertexNumber": 3,
    "colliderVertices": [
        {
            "x": -1.615149736404419,
            "y": -0.08056289702653885
        },
        {
            "x": 1.1510634422302247,
            "y": -0.4890420436859131
        },
        {
            "x": -0.87314772605896,
            "y": 0.506628692150116
        }
    ],
    "triangles": [
        1,
        0,
        2
    ],
    "carDensity": 3.0,
    "suspension": 0.8863468170166016,
    "motorSpeed": 851,
    "frontDensity": 4.800000190734863,
    "frontRadius": 0.6801435947418213,
    "frontOffset": 1.1180697679519654,
    "backDensity": 3.0,
    "backRadius": 0.49649614095687868,
    "backOffset": -0.7959205508232117,
    "score": 910,
    "maxDistance": 834,
    "maxTime": 110.0,
    "speed": 8
}{
    "ID": 99635,
    "genomaID": "CV3TD11",
    "color": {
        "x": 0.5232427716255188,
        "y": 0.3716043531894684,
        "z": 0.0048233275301754478
    },
    "vertexNumber": 3,
    "colliderVertices": [
        {
            "x": -1.615149736404419,
            "y": -0.08056289702653885
        },
        {
            "x": 1.1510634422302247,
            "y": -0.4890420436859131
        },
        {
            "x": -0.87314772605896,
            "y": 0.506628692150116
        }
    ],
    "triangles": [
        1,
        0,
        2
    ],
    "carDensity": 3.0,
    "suspension": 0.5877779722213745,
    "motorSpeed": 851,
    "frontDensity": 4.400000095367432,
    "frontRadius": 0.6375277638435364,
    "frontOffset": 0.6308242082595825,
    "backDensity": 3.799999952316284,
    "backRadius": 0.5826635360717773,
    "backOffset": -1.1886982917785645,
    "score": 45,
    "maxDistance": 10,
    "maxTime": 2.9000000953674318,
    "speed": 4
}{
    "ID": 99795,
    "genomaID": "CV3TD9",
    "color": {
        "x": 0.1332085281610489,
        "y": 0.55067378282547,
        "z": 0.17289210855960847
    },
    "vertexNumber": 3,
    "colliderVertices": [
        {
            "x": -1.615149736404419,
            "y": -0.08056289702653885
        },
        {
            "x": 1.1510634422302247,
            "y": -0.4890420436859131
        },
        {
            "x": -0.87314772605896,
            "y": 0.506628692150116
        }
    ],
    "triangles": [
        1,
        0,
        2
    ],
    "carDensity": 3.0,
    "suspension": 0.4565008580684662,
    "motorSpeed": 851,
    "frontDensity": 2.4000000953674318,
    "frontRadius": 0.4370339810848236,
    "frontOffset": 0.6160506010055542,
    "backDensity": 3.799999952316284,
    "backRadius": 0.5826635360717773,
    "backOffset": -1.2366774082183838,
    "score": 0,
    "maxDistance": 0,
    "maxTime": 0.8999999761581421,
    "speed": 0
}