{
    "ID": 48621,
    "genomaID": "CV3TD12",
    "color": {
        "x": 0.40347129106521609,
        "y": 0.9957618713378906,
        "z": 0.7073728442192078
    },
    "vertexNumber": 3,
    "colliderVertices": [
        {
            "x": -1.615149736404419,
            "y": -0.08056289702653885
        },
        {
            "x": 1.1510634422302247,
            "y": -0.4890420436859131
        },
        {
            "x": -0.87314772605896,
            "y": 0.506628692150116
        }
    ],
    "triangles": [
        1,
        0,
        2
    ],
    "carDensity": 3.0,
    "suspension": 0.8386543393135071,
    "motorSpeed": 851,
    "frontDensity": 5.0,
    "frontRadius": 0.6976302862167358,
    "frontOffset": 0.9436758756637573,
    "backDensity": 3.700000047683716,
    "backRadius": 0.5727956295013428,
    "backOffset": -1.1702311038970948,
    "score": 915,
    "maxDistance": 834,
    "maxTime": 103.19999694824219,
    "speed": 8
}{
    "ID": 48670,
    "genomaID": "CV4TD12",
    "color": {
        "x": 0.550239622592926,
        "y": 0.43062347173690798,
        "z": 0.6933954358100891
    },
    "vertexNumber": 4,
    "colliderVertices": [
        {
            "x": -1.0176777839660645,
            "y": -0.3384148180484772
        },
        {
            "x": 1.1553270816802979,
            "y": -0.03243929520249367
        },
        {
            "x": -0.48144078254699709,
            "y": 0.25916725397109988
        },
        {
            "x": -0.6601979732513428,
            "y": 0.4719155430793762
        }
    ],
    "triangles": [
        0,
        3,
        2,
        2,
        1,
        0
    ],
    "carDensity": 4.0,
    "suspension": 0.6019984483718872,
    "motorSpeed": 864,
    "frontDensity": 4.900000095367432,
    "frontRadius": 0.6877074241638184,
    "frontOffset": 0.9462383985519409,
    "backDensity": 3.4000000953674318,
    "backRadius": 0.5378674268722534,
    "backOffset": -1.1753928661346436,
    "score": 913,
    "maxDistance": 834,
    "maxTime": 105.5999984741211,
    "speed": 8
}{
    "ID": 48785,
    "genomaID": "CV3TD12",
    "color": {
        "x": 0.8011007308959961,
        "y": 0.07880652695894242,
        "z": 0.9284113645553589
    },
    "vertexNumber": 3,
    "colliderVertices": [
        {
            "x": -1.615149736404419,
            "y": -0.08056289702653885
        },
        {
            "x": 1.1510634422302247,
            "y": -0.4890420436859131
        },
        {
            "x": -0.87314772605896,
            "y": 0.506628692150116
        }
    ],
    "triangles": [
        1,
        0,
        2
    ],
    "carDensity": 3.0,
    "suspension": 0.5673446655273438,
    "motorSpeed": 851,
    "frontDensity": 4.699999809265137,
    "frontRadius": 0.665350079536438,
    "frontOffset": 1.242598533630371,
    "backDensity": 3.700000047683716,
    "backRadius": 0.5727956295013428,
    "backOffset": -1.2710694074630738,
    "score": 912,
    "maxDistance": 833,
    "maxTime": 104.80000305175781,
    "speed": 8
}{
    "ID": 48739,
    "genomaID": "CV3TD12",
    "color": {
        "x": 0.7111497521400452,
        "y": 0.07223165780305863,
        "z": 0.6428661942481995
    },
    "vertexNumber": 3,
    "colliderVertices": [
        {
            "x": -1.615149736404419,
            "y": -0.08056289702653885
        },
        {
            "x": 1.1510634422302247,
            "y": -0.4890420436859131
        },
        {
            "x": -0.87314772605896,
            "y": 0.506628692150116
        }
    ],
    "triangles": [
        1,
        0,
        2
    ],
    "carDensity": 3.0,
    "suspension": 0.7975027561187744,
    "motorSpeed": 672,
    "frontDensity": 4.800000190734863,
    "frontRadius": 0.6779978275299072,
    "frontOffset": 1.057073712348938,
    "backDensity": 3.700000047683716,
    "backRadius": 0.5727956295013428,
    "backOffset": -1.1702311038970948,
    "score": 32,
    "maxDistance": 5,
    "maxTime": 1.899999976158142,
    "speed": 3
}{
    "ID": 48789,
    "genomaID": "CV5TD14",
    "color": {
        "x": 0.2850213348865509,
        "y": 0.19931009411811829,
        "z": 0.833501935005188
    },
    "vertexNumber": 5,
    "colliderVertices": [
        {
            "x": -1.079008936882019,
            "y": -0.19697347283363343
        },
        {
            "x": 1.0687165260314942,
            "y": -0.40406036376953127
        },
        {
            "x": 1.436049461364746,
            "y": 0.36229151487350466
        },
        {
            "x": -0.07714438438415528,
            "y": 0.9960470199584961
        },
        {
            "x": -1.8196492195129395,
            "y": 0.380392849445343
        }
    ],
    "triangles": [
        1,
        4,
        3,
        3,
        2,
        1,
        1,
        0,
        4
    ],
    "carDensity": 5.0,
    "suspension": 0.7530788779258728,
    "motorSpeed": 1047,
    "frontDensity": 4.800000190734863,
    "frontRadius": 0.6791735291481018,
    "frontOffset": 0.947604775428772,
    "backDensity": 4.0,
    "backRadius": 0.6002272963523865,
    "backOffset": -0.5527780055999756,
    "score": 0,
    "maxDistance": 0,
    "maxTime": 0.8999999761581421,
    "speed": 0
}