{
    "ID": 40483,
    "genomaID": "CV6TD15",
    "color": {
        "x": 0.15972353518009187,
        "y": 0.53553706407547,
        "z": 0.18321241438388825
    },
    "vertexNumber": 6,
    "colliderVertices": [
        {
            "x": -1.8762176036834717,
            "y": -0.1672089844942093
        },
        {
            "x": 1.4605193138122559,
            "y": -0.44895946979522707
        },
        {
            "x": 1.004605770111084,
            "y": 0.16312146186828614
        },
        {
            "x": 0.9939321875572205,
            "y": 0.3979184031486511
        },
        {
            "x": 0.4261143207550049,
            "y": 0.0434643030166626
        },
        {
            "x": 0.38876986503601076,
            "y": 0.2738282084465027
        }
    ],
    "triangles": [
        1,
        0,
        4,
        4,
        2,
        1,
        0,
        5,
        4,
        4,
        3,
        2
    ],
    "carDensity": 6.0,
    "suspension": 0.6129132509231567,
    "motorSpeed": 892,
    "frontDensity": 4.900000095367432,
    "frontRadius": 0.6888914704322815,
    "frontOffset": 0.8826004266738892,
    "backDensity": 3.799999952316284,
    "backRadius": 0.582634449005127,
    "backOffset": -1.2850620746612549,
    "score": 918,
    "maxDistance": 834,
    "maxTime": 99.5999984741211,
    "speed": 8
}{
    "ID": 40505,
    "genomaID": "CV3TD11",
    "color": {
        "x": 0.9370694160461426,
        "y": 0.9634641408920288,
        "z": 0.2424352467060089
    },
    "vertexNumber": 3,
    "colliderVertices": [
        {
            "x": -1.1083054542541505,
            "y": -0.1720367819070816
        },
        {
            "x": 1.346339225769043,
            "y": -0.4745701551437378
        },
        {
            "x": -1.027707576751709,
            "y": 0.8259327411651611
        }
    ],
    "triangles": [
        1,
        0,
        2
    ],
    "carDensity": 3.0,
    "suspension": 0.8989362120628357,
    "motorSpeed": 851,
    "frontDensity": 4.5,
    "frontRadius": 0.653480589389801,
    "frontOffset": 1.0146011114120484,
    "backDensity": 3.700000047683716,
    "backRadius": 0.5727956295013428,
    "backOffset": -1.2137205600738526,
    "score": 913,
    "maxDistance": 834,
    "maxTime": 105.80000305175781,
    "speed": 8
}{
    "ID": 40577,
    "genomaID": "CV3TD10",
    "color": {
        "x": 0.8133928775787354,
        "y": 0.2525545656681061,
        "z": 0.7479514479637146
    },
    "vertexNumber": 3,
    "colliderVertices": [
        {
            "x": -1.615149736404419,
            "y": -0.08056289702653885
        },
        {
            "x": 1.1510634422302247,
            "y": -0.4890420436859131
        },
        {
            "x": -0.87314772605896,
            "y": 0.506628692150116
        }
    ],
    "triangles": [
        1,
        0,
        2
    ],
    "carDensity": 3.0,
    "suspension": 0.6871623992919922,
    "motorSpeed": 851,
    "frontDensity": 4.800000190734863,
    "frontRadius": 0.6778179407119751,
    "frontOffset": 1.396719217300415,
    "backDensity": 2.4000000953674318,
    "backRadius": 0.435958594083786,
    "backOffset": -0.7475422620773315,
    "score": 909,
    "maxDistance": 834,
    "maxTime": 111.5,
    "speed": 7
}{
    "ID": 40415,
    "genomaID": "CV4TD12",
    "color": {
        "x": 0.6324389576911926,
        "y": 0.4681466221809387,
        "z": 0.2554509937763214
    },
    "vertexNumber": 4,
    "colliderVertices": [
        {
            "x": -1.2270400524139405,
            "y": -0.3221227824687958
        },
        {
            "x": 1.3809821605682374,
            "y": -0.46445173025131228
        },
        {
            "x": -0.36690211296081545,
            "y": 0.21692681312561036
        },
        {
            "x": -0.9783227443695068,
            "y": 0.8823518753051758
        }
    ],
    "triangles": [
        0,
        3,
        2,
        2,
        1,
        0
    ],
    "carDensity": 4.0,
    "suspension": 0.830329179763794,
    "motorSpeed": 851,
    "frontDensity": 3.9000000953674318,
    "frontRadius": 0.586931049823761,
    "frontOffset": 1.1524453163146973,
    "backDensity": 3.9000000953674318,
    "backRadius": 0.5876696109771729,
    "backOffset": -0.8435078859329224,
    "score": 0,
    "maxDistance": 0,
    "maxTime": 0.8999999761581421,
    "speed": 0
}{
    "ID": 40595,
    "genomaID": "CV6TD13",
    "color": {
        "x": 0.1332085281610489,
        "y": 0.55067378282547,
        "z": 0.17289210855960847
    },
    "vertexNumber": 6,
    "colliderVertices": [
        {
            "x": -1.8762176036834717,
            "y": -0.1672089844942093
        },
        {
            "x": 1.4605193138122559,
            "y": -0.44895946979522707
        },
        {
            "x": 1.004605770111084,
            "y": 0.16312146186828614
        },
        {
            "x": 0.9939321875572205,
            "y": 0.3979184031486511
        },
        {
            "x": 0.4261143207550049,
            "y": 0.0434643030166626
        },
        {
            "x": 0.38876986503601076,
            "y": 0.2738282084465027
        }
    ],
    "triangles": [
        1,
        0,
        4,
        4,
        2,
        1,
        0,
        5,
        4,
        4,
        3,
        2
    ],
    "carDensity": 6.0,
    "suspension": 0.48706021904945376,
    "motorSpeed": 892,
    "frontDensity": 3.0,
    "frontRadius": 0.5023750066757202,
    "frontOffset": 1.1586257219314576,
    "backDensity": 3.799999952316284,
    "backRadius": 0.582634449005127,
    "backOffset": -1.2850620746612549,
    "score": 0,
    "maxDistance": 0,
    "maxTime": 0.8999999761581421,
    "speed": 0
}