{
    "ID": 25603,
    "genomaID": "CV3TD12",
    "color": {
        "x": 0.5271676182746887,
        "y": 0.45618098974227908,
        "z": 0.9300339221954346
    },
    "vertexNumber": 3,
    "colliderVertices": [
        {
            "x": -1.5219223499298096,
            "y": -0.2267734706401825
        },
        {
            "x": 1.29156494140625,
            "y": -0.0822649672627449
        },
        {
            "x": -1.457838535308838,
            "y": 0.26656633615493777
        }
    ],
    "triangles": [
        1,
        0,
        2
    ],
    "carDensity": 3.0,
    "suspension": 0.938720166683197,
    "motorSpeed": 851,
    "frontDensity": 4.800000190734863,
    "frontRadius": 0.6791735291481018,
    "frontOffset": 1.2448261976242066,
    "backDensity": 3.5,
    "backRadius": 0.5487524271011353,
    "backOffset": -0.5356391668319702,
    "score": 911,
    "maxDistance": 833,
    "maxTime": 107.0,
    "speed": 8
}{
    "ID": 25799,
    "genomaID": "CV3TD10",
    "color": {
        "x": 0.20653727650642396,
        "y": 0.7379440665245056,
        "z": 0.5660251975059509
    },
    "vertexNumber": 3,
    "colliderVertices": [
        {
            "x": -1.5219223499298096,
            "y": -0.2267734706401825
        },
        {
            "x": 1.29156494140625,
            "y": -0.0822649672627449
        },
        {
            "x": -1.457838535308838,
            "y": 0.26656633615493777
        }
    ],
    "triangles": [
        1,
        0,
        2
    ],
    "carDensity": 3.0,
    "suspension": 0.9360387325286865,
    "motorSpeed": 851,
    "frontDensity": 4.800000190734863,
    "frontRadius": 0.6791735291481018,
    "frontOffset": 0.8649109601974487,
    "backDensity": 2.299999952316284,
    "backRadius": 0.43482545018196108,
    "backOffset": -1.2612847089767457,
    "score": 904,
    "maxDistance": 829,
    "maxTime": 110.0,
    "speed": 8
}{
    "ID": 25746,
    "genomaID": "CV3TD10",
    "color": {
        "x": 0.09030605107545853,
        "y": 0.587245762348175,
        "z": 0.2169661819934845
    },
    "vertexNumber": 3,
    "colliderVertices": [
        {
            "x": -1.6818172931671143,
            "y": -0.499897301197052
        },
        {
            "x": 1.8075673580169678,
            "y": -0.38480132818222048
        },
        {
            "x": 1.0016226768493653,
            "y": 0.8314653635025024
        }
    ],
    "triangles": [
        1,
        0,
        2
    ],
    "carDensity": 3.0,
    "suspension": 0.6818922162055969,
    "motorSpeed": 710,
    "frontDensity": 3.9000000953674318,
    "frontRadius": 0.5862852334976196,
    "frontOffset": 1.282057285308838,
    "backDensity": 3.0999999046325685,
    "backRadius": 0.5140538811683655,
    "backOffset": -1.426335334777832,
    "score": 894,
    "maxDistance": 833,
    "maxTime": 136.10000610351563,
    "speed": 6
}{
    "ID": 25737,
    "genomaID": "CV3TD11",
    "color": {
        "x": 0.35887065529823305,
        "y": 0.6983789801597595,
        "z": 0.3055068552494049
    },
    "vertexNumber": 3,
    "colliderVertices": [
        {
            "x": -1.2481741905212403,
            "y": -0.4140636920928955
        },
        {
            "x": 1.7914267778396607,
            "y": -0.4415416717529297
        },
        {
            "x": 0.01490330696105957,
            "y": 0.12503743171691895
        }
    ],
    "triangles": [
        1,
        0,
        2
    ],
    "carDensity": 3.0,
    "suspension": 0.9843058586120606,
    "motorSpeed": 710,
    "frontDensity": 3.5999999046325685,
    "frontRadius": 0.5609493255615234,
    "frontOffset": 1.0553072690963746,
    "backDensity": 3.5,
    "backRadius": 0.5454877614974976,
    "backOffset": -1.0126127004623414,
    "score": 30,
    "maxDistance": 5,
    "maxTime": 2.0,
    "speed": 2
}{
    "ID": 25760,
    "genomaID": "CV3TD11",
    "color": {
        "x": 0.2401660978794098,
        "y": 0.12440158426761627,
        "z": 0.483070433139801
    },
    "vertexNumber": 3,
    "colliderVertices": [
        {
            "x": -1.2415111064910889,
            "y": -0.332523912191391
        },
        {
            "x": 1.2988438606262208,
            "y": -0.2140497863292694
        },
        {
            "x": -1.6646909713745118,
            "y": 0.4260508418083191
        }
    ],
    "triangles": [
        1,
        0,
        2
    ],
    "carDensity": 3.0,
    "suspension": 0.7610203623771668,
    "motorSpeed": 864,
    "frontDensity": 2.9000000953674318,
    "frontRadius": 0.4897676706314087,
    "frontOffset": 1.3634498119354249,
    "backDensity": 4.699999809265137,
    "backRadius": 0.6730387806892395,
    "backOffset": -1.0148977041244507,
    "score": -11,
    "maxDistance": -1,
    "maxTime": 1.0,
    "speed": -1
}