{
    "ID": 70376,
    "genomaID": "CV3TD12",
    "color": {
        "x": 0.5646211504936218,
        "y": 0.5388018488883972,
        "z": 0.891024112701416
    },
    "vertexNumber": 3,
    "colliderVertices": [
        {
            "x": -1.615149736404419,
            "y": -0.08056289702653885
        },
        {
            "x": 1.1510634422302247,
            "y": -0.4890420436859131
        },
        {
            "x": -0.87314772605896,
            "y": 0.506628692150116
        }
    ],
    "triangles": [
        1,
        0,
        2
    ],
    "carDensity": 3.0,
    "suspension": 0.755297064781189,
    "motorSpeed": 851,
    "frontDensity": 4.800000190734863,
    "frontRadius": 0.6842658519744873,
    "frontOffset": 1.1862725019454957,
    "backDensity": 4.0,
    "backRadius": 0.6003379821777344,
    "backOffset": -1.054949164390564,
    "score": 916,
    "maxDistance": 834,
    "maxTime": 101.9000015258789,
    "speed": 8
}{
    "ID": 70204,
    "genomaID": "CV3TD12",
    "color": {
        "x": 0.01801169104874134,
        "y": 0.5105918049812317,
        "z": 0.7415900826454163
    },
    "vertexNumber": 3,
    "colliderVertices": [
        {
            "x": -1.615149736404419,
            "y": -0.08056289702653885
        },
        {
            "x": 1.1510634422302247,
            "y": -0.4890420436859131
        },
        {
            "x": -0.87314772605896,
            "y": 0.506628692150116
        }
    ],
    "triangles": [
        1,
        0,
        2
    ],
    "carDensity": 3.0,
    "suspension": 0.7817584276199341,
    "motorSpeed": 851,
    "frontDensity": 4.800000190734863,
    "frontRadius": 0.6776076555252075,
    "frontOffset": 0.71628737449646,
    "backDensity": 3.700000047683716,
    "backRadius": 0.5727956295013428,
    "backOffset": -1.3664262294769288,
    "score": 913,
    "maxDistance": 834,
    "maxTime": 105.19999694824219,
    "speed": 8
}{
    "ID": 70296,
    "genomaID": "CV3TD10",
    "color": {
        "x": 0.5878106951713562,
        "y": 0.5455228686332703,
        "z": 0.34203508496284487
    },
    "vertexNumber": 3,
    "colliderVertices": [
        {
            "x": -1.615149736404419,
            "y": -0.08056289702653885
        },
        {
            "x": 1.1510634422302247,
            "y": -0.4890420436859131
        },
        {
            "x": -0.87314772605896,
            "y": 0.506628692150116
        }
    ],
    "triangles": [
        1,
        0,
        2
    ],
    "carDensity": 3.0,
    "suspension": 0.47308969497680666,
    "motorSpeed": 851,
    "frontDensity": 4.800000190734863,
    "frontRadius": 0.6776076555252075,
    "frontOffset": 1.1862725019454957,
    "backDensity": 2.4000000953674318,
    "backRadius": 0.43701398372650149,
    "backOffset": -0.8882426023483276,
    "score": 909,
    "maxDistance": 834,
    "maxTime": 111.80000305175781,
    "speed": 7
}{
    "ID": 70310,
    "genomaID": "CV3TD12",
    "color": {
        "x": 0.43831032514572146,
        "y": 0.6220983862876892,
        "z": 0.829938530921936
    },
    "vertexNumber": 3,
    "colliderVertices": [
        {
            "x": -1.615149736404419,
            "y": -0.08056289702653885
        },
        {
            "x": 1.1510634422302247,
            "y": -0.4890420436859131
        },
        {
            "x": -0.87314772605896,
            "y": 0.506628692150116
        }
    ],
    "triangles": [
        1,
        0,
        2
    ],
    "carDensity": 3.0,
    "suspension": 0.755297064781189,
    "motorSpeed": 1083,
    "frontDensity": 4.800000190734863,
    "frontRadius": 0.6842658519744873,
    "frontOffset": 1.1862725019454957,
    "backDensity": 3.700000047683716,
    "backRadius": 0.5727956295013428,
    "backOffset": -1.313624620437622,
    "score": 18,
    "maxDistance": 4,
    "maxTime": 2.799999952316284,
    "speed": 1
}{
    "ID": 70400,
    "genomaID": "CV3TD12",
    "color": {
        "x": 0.7157778143882752,
        "y": 0.7526435852050781,
        "z": 0.5779417157173157
    },
    "vertexNumber": 3,
    "colliderVertices": [
        {
            "x": -1.0724055767059327,
            "y": -0.4067058563232422
        },
        {
            "x": 1.2628915309906006,
            "y": -0.313838928937912
        },
        {
            "x": 0.24731087684631349,
            "y": 0.9417331218719482
        }
    ],
    "triangles": [
        1,
        0,
        2
    ],
    "carDensity": 3.0,
    "suspension": 0.898044228553772,
    "motorSpeed": 793,
    "frontDensity": 4.599999904632568,
    "frontRadius": 0.6643805503845215,
    "frontOffset": 0.8680652379989624,
    "backDensity": 3.799999952316284,
    "backRadius": 0.5831201076507568,
    "backOffset": -1.2264153957366944,
    "score": 0,
    "maxDistance": 0,
    "maxTime": 0.800000011920929,
    "speed": 0
}