{
    "ID": 1614,
    "genomaID": "CV6TD12",
    "color": {
        "x": 0.8415801525115967,
        "y": 0.888700008392334,
        "z": 0.6227731108665466
    },
    "vertexNumber": 6,
    "colliderVertices": [
        {
            "x": -1.1382941007614136,
            "y": -0.30458900332450869
        },
        {
            "x": 1.6089348793029786,
            "y": -0.06495518237352371
        },
        {
            "x": 1.7663826942443848,
            "y": 0.9794121980667114
        },
        {
            "x": 1.7566518783569337,
            "y": 0.09174752235412598
        },
        {
            "x": 0.15569281578063966,
            "y": 0.4228103756904602
        },
        {
            "x": -1.3899011611938477,
            "y": 0.4230892062187195
        }
    ],
    "triangles": [
        5,
        0,
        1,
        3,
        4,
        5,
        5,
        1,
        2
    ],
    "carDensity": 6.0,
    "suspension": 0.5432826280593872,
    "motorSpeed": 921,
    "frontDensity": 3.5,
    "frontRadius": 0.5502535700798035,
    "frontOffset": 1.1367522478103638,
    "backDensity": 2.0999999046325685,
    "backRadius": 0.40550148487091067,
    "backOffset": -1.043742060661316,
    "score": 898,
    "maxDistance": 832,
    "maxTime": 126.0999984741211,
    "speed": 7
}{
    "ID": 1678,
    "genomaID": "CV3TD9",
    "color": {
        "x": 0.7106577754020691,
        "y": 0.4553489089012146,
        "z": 0.9418917894363403
    },
    "vertexNumber": 3,
    "colliderVertices": [
        {
            "x": -1.6908864974975587,
            "y": -0.4902547597885132
        },
        {
            "x": 1.0964771509170533,
            "y": -0.2757904827594757
        },
        {
            "x": -0.5471775531768799,
            "y": 0.3217129111289978
        }
    ],
    "triangles": [
        1,
        0,
        2
    ],
    "carDensity": 3.0,
    "suspension": 0.5233030319213867,
    "motorSpeed": 1484,
    "frontDensity": 3.299999952316284,
    "frontRadius": 0.5263755917549133,
    "frontOffset": 0.9928549528121948,
    "backDensity": 2.5999999046325685,
    "backRadius": 0.4636486768722534,
    "backOffset": -1.405806541442871,
    "score": 612,
    "maxDistance": 523,
    "maxTime": 58.5,
    "speed": 9
}{
    "ID": 1698,
    "genomaID": "CV6TD12",
    "color": {
        "x": 0.9387993812561035,
        "y": 0.08747292309999466,
        "z": 0.9844425916671753
    },
    "vertexNumber": 6,
    "colliderVertices": [
        {
            "x": -1.5973584651947022,
            "y": -0.2946224510669708
        },
        {
            "x": 1.8185057640075684,
            "y": -0.25132617354393008
        },
        {
            "x": 1.3373632431030274,
            "y": 0.49254268407821658
        },
        {
            "x": 1.3366265296936036,
            "y": 0.18470776081085206
        },
        {
            "x": -0.1886765956878662,
            "y": 0.03468334674835205
        },
        {
            "x": -0.6954448223114014,
            "y": 0.13525676727294923
        }
    ],
    "triangles": [
        0,
        4,
        3,
        3,
        1,
        0,
        0,
        5,
        4,
        3,
        2,
        1
    ],
    "carDensity": 6.0,
    "suspension": 0.9331590533256531,
    "motorSpeed": 921,
    "frontDensity": 3.5,
    "frontRadius": 0.5502535700798035,
    "frontOffset": 1.1919076442718506,
    "backDensity": 2.0999999046325685,
    "backRadius": 0.40550148487091067,
    "backOffset": -1.043742060661316,
    "score": 210,
    "maxDistance": 140,
    "maxTime": 20.0,
    "speed": 7
}{
    "ID": 1742,
    "genomaID": "CV4TD9",
    "color": {
        "x": 0.307130366563797,
        "y": 0.7006434798240662,
        "z": 0.8399001359939575
    },
    "vertexNumber": 4,
    "colliderVertices": [
        {
            "x": -1.765107274055481,
            "y": -0.3836790919303894
        },
        {
            "x": 1.1698286533355713,
            "y": -0.06687075644731522
        },
        {
            "x": 1.6364192962646485,
            "y": 0.8988028764724731
        },
        {
            "x": 0.524955689907074,
            "y": 0.8724381923675537
        }
    ],
    "triangles": [
        3,
        2,
        1,
        1,
        0,
        3
    ],
    "carDensity": 4.0,
    "suspension": 0.9823001623153687,
    "motorSpeed": 1474,
    "frontDensity": 3.0,
    "frontRadius": 0.5049917697906494,
    "frontOffset": 1.1919076442718506,
    "backDensity": 2.0999999046325685,
    "backRadius": 0.40550148487091067,
    "backOffset": -0.7776314616203308,
    "score": 39,
    "maxDistance": 9,
    "maxTime": 3.0,
    "speed": 3
}{
    "ID": 1798,
    "genomaID": "CV3TD10",
    "color": {
        "x": 0.8288270235061646,
        "y": 0.1767282634973526,
        "z": 0.6346012949943543
    },
    "vertexNumber": 3,
    "colliderVertices": [
        {
            "x": -1.6908864974975587,
            "y": -0.4902547597885132
        },
        {
            "x": 1.0964771509170533,
            "y": -0.2757904827594757
        },
        {
            "x": -0.5471775531768799,
            "y": 0.3217129111289978
        }
    ],
    "triangles": [
        1,
        0,
        2
    ],
    "carDensity": 3.0,
    "suspension": 0.5233030319213867,
    "motorSpeed": 1156,
    "frontDensity": 3.299999952316284,
    "frontRadius": 0.5263755917549133,
    "frontOffset": 1.4755901098251343,
    "backDensity": 4.300000190734863,
    "backRadius": 0.6334294676780701,
    "backOffset": -1.405806541442871,
    "score": -11,
    "maxDistance": -1,
    "maxTime": 1.0,
    "speed": -1
}