{
    "ID": 3651,
    "genomaID": "CV4TD10",
    "color": {
        "x": 0.560156524181366,
        "y": 0.9362970590591431,
        "z": 0.4048425555229187
    },
    "vertexNumber": 4,
    "colliderVertices": [
        {
            "x": -1.3097517490386963,
            "y": -0.2664778530597687
        },
        {
            "x": 1.213698387145996,
            "y": -0.41457319259643557
        },
        {
            "x": 0.44774794578552248,
            "y": 0.10722100734710694
        },
        {
            "x": -1.939803123474121,
            "y": 0.5242975354194641
        }
    ],
    "triangles": [
        3,
        2,
        1,
        1,
        0,
        3
    ],
    "carDensity": 4.0,
    "suspension": 0.44044020771980288,
    "motorSpeed": 1013,
    "frontDensity": 4.5,
    "frontRadius": 0.6521641612052918,
    "frontOffset": 1.453479528427124,
    "backDensity": 2.5,
    "backRadius": 0.44847947359085085,
    "backOffset": -0.9059170484542847,
    "score": 914,
    "maxDistance": 834,
    "maxTime": 103.69999694824219,
    "speed": 8
}{
    "ID": 3790,
    "genomaID": "CV3TD10",
    "color": {
        "x": 0.07470608502626419,
        "y": 0.5904449820518494,
        "z": 0.9264026880264282
    },
    "vertexNumber": 3,
    "colliderVertices": [
        {
            "x": -1.6145882606506348,
            "y": -0.047488220036029819
        },
        {
            "x": 1.7484352588653565,
            "y": -0.44745248556137087
        },
        {
            "x": 1.0586328506469727,
            "y": 0.5086072087287903
        }
    ],
    "triangles": [
        1,
        0,
        2
    ],
    "carDensity": 3.0,
    "suspension": 0.7216514945030212,
    "motorSpeed": 607,
    "frontDensity": 4.099999904632568,
    "frontRadius": 0.6086437106132507,
    "frontOffset": 1.3582680225372315,
    "backDensity": 2.9000000953674318,
    "backRadius": 0.4885839819908142,
    "backOffset": -0.7955098748207092,
    "score": 887,
    "maxDistance": 833,
    "maxTime": 154.5,
    "speed": 5
}{
    "ID": 3770,
    "genomaID": "CV3TD10",
    "color": {
        "x": 0.09569336473941803,
        "y": 0.6536408066749573,
        "z": 0.3564881384372711
    },
    "vertexNumber": 3,
    "colliderVertices": [
        {
            "x": -1.7412893772125245,
            "y": -0.24600020051002503
        },
        {
            "x": 1.6365805864334107,
            "y": -0.11980439722537995
        },
        {
            "x": -1.7040982246398926,
            "y": 0.012483358383178711
        }
    ],
    "triangles": [
        1,
        0,
        2
    ],
    "carDensity": 3.0,
    "suspension": 0.7365502715110779,
    "motorSpeed": 568,
    "frontDensity": 4.0,
    "frontRadius": 0.6009075045585632,
    "frontOffset": 0.7932222485542297,
    "backDensity": 2.9000000953674318,
    "backRadius": 0.4898732304573059,
    "backOffset": -1.3950252532958985,
    "score": 883,
    "maxDistance": 833,
    "maxTime": 167.1999969482422,
    "speed": 5
}{
    "ID": 3772,
    "genomaID": "CV4TD9",
    "color": {
        "x": 0.29463282227516177,
        "y": 0.29146578907966616,
        "z": 0.1327604204416275
    },
    "vertexNumber": 4,
    "colliderVertices": [
        {
            "x": -1.3097517490386963,
            "y": -0.2664778530597687
        },
        {
            "x": 1.213698387145996,
            "y": -0.41457319259643557
        },
        {
            "x": 0.44774794578552248,
            "y": 0.10722100734710694
        },
        {
            "x": -1.939803123474121,
            "y": 0.5242975354194641
        }
    ],
    "triangles": [
        3,
        2,
        1,
        1,
        0,
        3
    ],
    "carDensity": 4.0,
    "suspension": 0.6196669340133667,
    "motorSpeed": 589,
    "frontDensity": 2.5,
    "frontRadius": 0.4517273008823395,
    "frontOffset": 1.4189207553863526,
    "backDensity": 3.0,
    "backRadius": 0.4983479082584381,
    "backOffset": -0.9309300184249878,
    "score": 39,
    "maxDistance": 9,
    "maxTime": 3.0,
    "speed": 3
}{
    "ID": 3800,
    "genomaID": "CV3TD9",
    "color": {
        "x": 0.7157778143882752,
        "y": 0.7526435852050781,
        "z": 0.5779417157173157
    },
    "vertexNumber": 3,
    "colliderVertices": [
        {
            "x": -1.7412893772125245,
            "y": -0.24600020051002503
        },
        {
            "x": 1.6365805864334107,
            "y": -0.11980439722537995
        },
        {
            "x": -1.7040982246398926,
            "y": 0.012483358383178711
        }
    ],
    "triangles": [
        1,
        0,
        2
    ],
    "carDensity": 3.0,
    "suspension": 0.407518208026886,
    "motorSpeed": 1405,
    "frontDensity": 4.0,
    "frontRadius": 0.6009075045585632,
    "frontOffset": 1.0045362710952759,
    "backDensity": 2.5,
    "backRadius": 0.44976651668548586,
    "backOffset": -0.5376685857772827,
    "score": 0,
    "maxDistance": 0,
    "maxTime": 0.0,
    "speed": -2147483648
}