{
    "ID": 62490,
    "genomaID": "CV3TD12",
    "color": {
        "x": 0.32590678334236147,
        "y": 0.014507295563817025,
        "z": 0.20598354935646058
    },
    "vertexNumber": 3,
    "colliderVertices": [
        {
            "x": -1.8275327682495118,
            "y": -0.2862608730792999
        },
        {
            "x": 1.4120464324951172,
            "y": -0.28827038407325747
        },
        {
            "x": -0.39328598976135256,
            "y": 0.5744979977607727
        }
    ],
    "triangles": [
        1,
        0,
        2
    ],
    "carDensity": 3.0,
    "suspension": 0.9867137670516968,
    "motorSpeed": 841,
    "frontDensity": 4.900000095367432,
    "frontRadius": 0.685295045375824,
    "frontOffset": 0.9973961114883423,
    "backDensity": 4.400000095367432,
    "backRadius": 0.6380430459976196,
    "backOffset": -0.9922066926956177,
    "score": 916,
    "maxDistance": 833,
    "maxTime": 100.30000305175781,
    "speed": 8
}{
    "ID": 62570,
    "genomaID": "CV3TD12",
    "color": {
        "x": 0.09569336473941803,
        "y": 0.6536408066749573,
        "z": 0.3564881384372711
    },
    "vertexNumber": 3,
    "colliderVertices": [
        {
            "x": -1.615149736404419,
            "y": -0.08056289702653885
        },
        {
            "x": 1.1510634422302247,
            "y": -0.4890420436859131
        },
        {
            "x": -0.87314772605896,
            "y": 0.506628692150116
        }
    ],
    "triangles": [
        1,
        0,
        2
    ],
    "carDensity": 3.0,
    "suspension": 0.5730992555618286,
    "motorSpeed": 851,
    "frontDensity": 4.900000095367432,
    "frontRadius": 0.6900220513343811,
    "frontOffset": 0.8399358987808228,
    "backDensity": 3.700000047683716,
    "backRadius": 0.5727956295013428,
    "backOffset": -1.0093480348587037,
    "score": 914,
    "maxDistance": 834,
    "maxTime": 104.69999694824219,
    "speed": 8
}{
    "ID": 62410,
    "genomaID": "CV3TD11",
    "color": {
        "x": 0.09728159010410309,
        "y": 0.6680589318275452,
        "z": 0.12447048723697663
    },
    "vertexNumber": 3,
    "colliderVertices": [
        {
            "x": -1.615149736404419,
            "y": -0.08056289702653885
        },
        {
            "x": 1.1510634422302247,
            "y": -0.4890420436859131
        },
        {
            "x": -0.87314772605896,
            "y": 0.506628692150116
        }
    ],
    "triangles": [
        1,
        0,
        2
    ],
    "carDensity": 3.0,
    "suspension": 0.7344108819961548,
    "motorSpeed": 851,
    "frontDensity": 4.400000095367432,
    "frontRadius": 0.6392473578453064,
    "frontOffset": 1.2246159315109254,
    "backDensity": 3.5999999046325685,
    "backRadius": 0.5609624981880188,
    "backOffset": -1.0077823400497437,
    "score": 911,
    "maxDistance": 834,
    "maxTime": 107.80000305175781,
    "speed": 8
}{
    "ID": 62415,
    "genomaID": "CV6TD15",
    "color": {
        "x": 0.6324389576911926,
        "y": 0.4681466221809387,
        "z": 0.2554509937763214
    },
    "vertexNumber": 6,
    "colliderVertices": [
        {
            "x": -1.9250497817993165,
            "y": -0.4621809124946594
        },
        {
            "x": 1.0020556449890137,
            "y": -0.22294208407402039
        },
        {
            "x": 1.3051252365112305,
            "y": 0.47063642740249636
        },
        {
            "x": 0.18843293190002442,
            "y": 0.5722978711128235
        },
        {
            "x": -1.2513980865478516,
            "y": 0.636603832244873
        },
        {
            "x": -1.5025410652160645,
            "y": 0.10946273803710938
        }
    ],
    "triangles": [
        3,
        1,
        5,
        5,
        4,
        3,
        3,
        2,
        1,
        1,
        0,
        5
    ],
    "carDensity": 6.0,
    "suspension": 0.47667384147644045,
    "motorSpeed": 851,
    "frontDensity": 4.900000095367432,
    "frontRadius": 0.6900220513343811,
    "frontOffset": 0.8477860689163208,
    "backDensity": 3.799999952316284,
    "backRadius": 0.5751302242279053,
    "backOffset": -0.6428687572479248,
    "score": 0,
    "maxDistance": 0,
    "maxTime": 0.800000011920929,
    "speed": 0
}{
    "ID": 62593,
    "genomaID": "CV4TD13",
    "color": {
        "x": 0.23507264256477357,
        "y": 0.5300777554512024,
        "z": 0.8182836771011353
    },
    "vertexNumber": 4,
    "colliderVertices": [
        {
            "x": -1.26289963722229,
            "y": -0.3148942291736603
        },
        {
            "x": 1.485825538635254,
            "y": -0.04727644473314285
        },
        {
            "x": 1.008143424987793,
            "y": 0.5560591816902161
        },
        {
            "x": 0.3430163860321045,
            "y": 0.6897972822189331
        }
    ],
    "triangles": [
        3,
        2,
        1,
        1,
        0,
        3
    ],
    "carDensity": 4.0,
    "suspension": 0.5819796323776245,
    "motorSpeed": 1218,
    "frontDensity": 4.900000095367432,
    "frontRadius": 0.6900220513343811,
    "frontOffset": 1.092474102973938,
    "backDensity": 3.700000047683716,
    "backRadius": 0.5727956295013428,
    "backOffset": -1.2612946033477784,
    "score": 0,
    "maxDistance": 0,
    "maxTime": 0.800000011920929,
    "speed": 0
}