{
    "ID": 119487,
    "genomaID": "CV3TD10",
    "color": {
        "x": 0.6230459809303284,
        "y": 0.18502236902713777,
        "z": 0.48213261365890505
    },
    "vertexNumber": 3,
    "colliderVertices": [
        {
            "x": -1.1010850667953492,
            "y": -0.4912911653518677
        },
        {
            "x": 1.2597887516021729,
            "y": -0.34690144658088686
        },
        {
            "x": -1.7964177131652833,
            "y": 0.40650898218154909
        }
    ],
    "triangles": [
        1,
        0,
        2
    ],
    "carDensity": 3.0,
    "suspension": 0.9780635833740234,
    "motorSpeed": 941,
    "frontDensity": 4.400000095367432,
    "frontRadius": 0.6410741209983826,
    "frontOffset": 1.2659286260604859,
    "backDensity": 3.4000000953674318,
    "backRadius": 0.543877124786377,
    "backOffset": -0.9719885587692261,
    "score": 917,
    "maxDistance": 834,
    "maxTime": 100.19999694824219,
    "speed": 8
}{
    "ID": 119521,
    "genomaID": "CV3TD12",
    "color": {
        "x": 0.18041671812534333,
        "y": 0.051729924976825717,
        "z": 0.21896246075630189
    },
    "vertexNumber": 3,
    "colliderVertices": [
        {
            "x": -1.87174654006958,
            "y": -0.48871129751205447
        },
        {
            "x": 1.4022159576416016,
            "y": -0.3172537386417389
        },
        {
            "x": -1.1397089958190919,
            "y": 0.2695292830467224
        }
    ],
    "triangles": [
        1,
        0,
        2
    ],
    "carDensity": 3.0,
    "suspension": 0.42017900943756106,
    "motorSpeed": 862,
    "frontDensity": 4.699999809265137,
    "frontRadius": 0.6697757840156555,
    "frontOffset": 0.6184830665588379,
    "backDensity": 3.5,
    "backRadius": 0.5482544898986816,
    "backOffset": -0.648322343826294,
    "score": 913,
    "maxDistance": 834,
    "maxTime": 105.9000015258789,
    "speed": 8
}{
    "ID": 119432,
    "genomaID": "CV3TD11",
    "color": {
        "x": 0.6784065365791321,
        "y": 0.0615776851773262,
        "z": 0.45114654302597048
    },
    "vertexNumber": 3,
    "colliderVertices": [
        {
            "x": -1.1010850667953492,
            "y": -0.4912911653518677
        },
        {
            "x": 1.2597887516021729,
            "y": -0.34690144658088686
        },
        {
            "x": -1.7964177131652833,
            "y": 0.40650898218154909
        }
    ],
    "triangles": [
        1,
        0,
        2
    ],
    "carDensity": 3.0,
    "suspension": 0.6319212913513184,
    "motorSpeed": 869,
    "frontDensity": 4.900000095367432,
    "frontRadius": 0.689996063709259,
    "frontOffset": 0.8080855011940002,
    "backDensity": 3.200000047683716,
    "backRadius": 0.5236625671386719,
    "backOffset": -1.2785756587982178,
    "score": 911,
    "maxDistance": 833,
    "maxTime": 106.19999694824219,
    "speed": 8
}{
    "ID": 119401,
    "genomaID": "CV3TD11",
    "color": {
        "x": 0.7041706442832947,
        "y": 0.1758122593164444,
        "z": 0.6612265706062317
    },
    "vertexNumber": 3,
    "colliderVertices": [
        {
            "x": -1.1010850667953492,
            "y": -0.4912911653518677
        },
        {
            "x": 1.2597887516021729,
            "y": -0.34690144658088686
        },
        {
            "x": -1.7964177131652833,
            "y": 0.40650898218154909
        }
    ],
    "triangles": [
        1,
        0,
        2
    ],
    "carDensity": 3.0,
    "suspension": 0.7526510953903198,
    "motorSpeed": 653,
    "frontDensity": 4.900000095367432,
    "frontRadius": 0.689996063709259,
    "frontOffset": 1.3115417957305909,
    "backDensity": 3.4000000953674318,
    "backRadius": 0.543877124786377,
    "backOffset": -0.9489911794662476,
    "score": 0,
    "maxDistance": 0,
    "maxTime": 0.8999999761581421,
    "speed": 0
}{
    "ID": 119587,
    "genomaID": "CV3TD9",
    "color": {
        "x": 0.31324294209480288,
        "y": 0.07841325551271439,
        "z": 0.9491356611251831
    },
    "vertexNumber": 3,
    "colliderVertices": [
        {
            "x": -1.87174654006958,
            "y": -0.48871129751205447
        },
        {
            "x": 1.4022159576416016,
            "y": -0.3172537386417389
        },
        {
            "x": -1.1397089958190919,
            "y": 0.2695292830467224
        }
    ],
    "triangles": [
        1,
        0,
        2
    ],
    "carDensity": 3.0,
    "suspension": 0.7108128666877747,
    "motorSpeed": 858,
    "frontDensity": 2.200000047683716,
    "frontRadius": 0.4165010452270508,
    "frontOffset": 0.9261027574539185,
    "backDensity": 3.799999952316284,
    "backRadius": 0.5782021880149841,
    "backOffset": -1.429948329925537,
    "score": 0,
    "maxDistance": 0,
    "maxTime": 0.8999999761581421,
    "speed": 0
}