{
    "ID": 60350,
    "genomaID": "CV3TD12",
    "color": {
        "x": 0.1806507259607315,
        "y": 0.9725886583328247,
        "z": 0.14072836935520173
    },
    "vertexNumber": 3,
    "colliderVertices": [
        {
            "x": -1.615149736404419,
            "y": -0.08056289702653885
        },
        {
            "x": 1.1510634422302247,
            "y": -0.4890420436859131
        },
        {
            "x": -0.87314772605896,
            "y": 0.506628692150116
        }
    ],
    "triangles": [
        1,
        0,
        2
    ],
    "carDensity": 3.0,
    "suspension": 0.8552060723304749,
    "motorSpeed": 851,
    "frontDensity": 4.900000095367432,
    "frontRadius": 0.6923644542694092,
    "frontOffset": 0.8477493524551392,
    "backDensity": 3.799999952316284,
    "backRadius": 0.5848822593688965,
    "backOffset": -0.6291773319244385,
    "score": 915,
    "maxDistance": 834,
    "maxTime": 103.0,
    "speed": 8
}{
    "ID": 60264,
    "genomaID": "CV3TD12",
    "color": {
        "x": 0.7446132302284241,
        "y": 0.4693710207939148,
        "z": 0.9633924961090088
    },
    "vertexNumber": 3,
    "colliderVertices": [
        {
            "x": -1.615149736404419,
            "y": -0.08056289702653885
        },
        {
            "x": 1.1510634422302247,
            "y": -0.4890420436859131
        },
        {
            "x": -0.87314772605896,
            "y": 0.506628692150116
        }
    ],
    "triangles": [
        1,
        0,
        2
    ],
    "carDensity": 3.0,
    "suspension": 0.7952643036842346,
    "motorSpeed": 851,
    "frontDensity": 4.900000095367432,
    "frontRadius": 0.6900220513343811,
    "frontOffset": 0.885147213935852,
    "backDensity": 3.700000047683716,
    "backRadius": 0.5727956295013428,
    "backOffset": -0.5160650014877319,
    "score": 912,
    "maxDistance": 832,
    "maxTime": 103.9000015258789,
    "speed": 8
}{
    "ID": 60351,
    "genomaID": "CV3TD12",
    "color": {
        "x": 0.18824484944343568,
        "y": 0.8331466913223267,
        "z": 0.9184892177581787
    },
    "vertexNumber": 3,
    "colliderVertices": [
        {
            "x": -1.615149736404419,
            "y": -0.08056289702653885
        },
        {
            "x": 1.1510634422302247,
            "y": -0.4890420436859131
        },
        {
            "x": -0.87314772605896,
            "y": 0.506628692150116
        }
    ],
    "triangles": [
        1,
        0,
        2
    ],
    "carDensity": 3.0,
    "suspension": 0.6907399892807007,
    "motorSpeed": 851,
    "frontDensity": 4.900000095367432,
    "frontRadius": 0.6937325596809387,
    "frontOffset": 1.0445948839187623,
    "backDensity": 3.700000047683716,
    "backRadius": 0.5727956295013428,
    "backOffset": -0.8857160806655884,
    "score": 909,
    "maxDistance": 829,
    "maxTime": 103.0,
    "speed": 8
}{
    "ID": 60306,
    "genomaID": "CV3TD10",
    "color": {
        "x": 0.269398957490921,
        "y": 0.5939590334892273,
        "z": 0.28953316807746889
    },
    "vertexNumber": 3,
    "colliderVertices": [
        {
            "x": -1.615149736404419,
            "y": -0.08056289702653885
        },
        {
            "x": 1.1510634422302247,
            "y": -0.4890420436859131
        },
        {
            "x": -0.87314772605896,
            "y": 0.506628692150116
        }
    ],
    "triangles": [
        1,
        0,
        2
    ],
    "carDensity": 3.0,
    "suspension": 0.5186256170272827,
    "motorSpeed": 984,
    "frontDensity": 2.700000047683716,
    "frontRadius": 0.4701298475265503,
    "frontOffset": 0.8188396096229553,
    "backDensity": 3.700000047683716,
    "backRadius": 0.5727956295013428,
    "backOffset": -1.228493571281433,
    "score": 13,
    "maxDistance": 2,
    "maxTime": 1.899999976158142,
    "speed": 1
}{
    "ID": 60392,
    "genomaID": "CV3TD12",
    "color": {
        "x": 0.44061583280563357,
        "y": 0.84649658203125,
        "z": 0.2109551727771759
    },
    "vertexNumber": 3,
    "colliderVertices": [
        {
            "x": -1.615149736404419,
            "y": -0.08056289702653885
        },
        {
            "x": 1.1510634422302247,
            "y": -0.4890420436859131
        },
        {
            "x": -0.87314772605896,
            "y": 0.506628692150116
        }
    ],
    "triangles": [
        1,
        0,
        2
    ],
    "carDensity": 3.0,
    "suspension": 0.7101448774337769,
    "motorSpeed": 1266,
    "frontDensity": 4.900000095367432,
    "frontRadius": 0.6900220513343811,
    "frontOffset": 1.4648517370224,
    "backDensity": 3.700000047683716,
    "backRadius": 0.5727956295013428,
    "backOffset": -0.8233781456947327,
    "score": 0,
    "maxDistance": 0,
    "maxTime": 0.8999999761581421,
    "speed": 0
}