{
    "ID": 121940,
    "genomaID": "CV3TD12",
    "color": {
        "x": 0.9411646127700806,
        "y": 0.6429696679115295,
        "z": 0.7897521257400513
    },
    "vertexNumber": 3,
    "colliderVertices": [
        {
            "x": -1.1010850667953492,
            "y": -0.4912911653518677
        },
        {
            "x": 1.2597887516021729,
            "y": -0.34690144658088686
        },
        {
            "x": -1.7964177131652833,
            "y": 0.40650898218154909
        }
    ],
    "triangles": [
        1,
        0,
        2
    ],
    "carDensity": 3.0,
    "suspension": 0.7720982432365418,
    "motorSpeed": 869,
    "frontDensity": 4.900000095367432,
    "frontRadius": 0.689996063709259,
    "frontOffset": 0.8489347696304321,
    "backDensity": 3.799999952316284,
    "backRadius": 0.5797247886657715,
    "backOffset": -1.2097787857055665,
    "score": 916,
    "maxDistance": 834,
    "maxTime": 102.19999694824219,
    "speed": 8
}{
    "ID": 121913,
    "genomaID": "CV3TD11",
    "color": {
        "x": 0.28870442509651186,
        "y": 0.7211344838142395,
        "z": 0.6233711838722229
    },
    "vertexNumber": 3,
    "colliderVertices": [
        {
            "x": -1.1010850667953492,
            "y": -0.4912911653518677
        },
        {
            "x": 1.2597887516021729,
            "y": -0.34690144658088686
        },
        {
            "x": -1.7964177131652833,
            "y": 0.40650898218154909
        }
    ],
    "triangles": [
        1,
        0,
        2
    ],
    "carDensity": 3.0,
    "suspension": 0.7165402173995972,
    "motorSpeed": 869,
    "frontDensity": 4.900000095367432,
    "frontRadius": 0.689996063709259,
    "frontOffset": 1.0399771928787232,
    "backDensity": 3.4000000953674318,
    "backRadius": 0.543877124786377,
    "backOffset": -1.2021830081939698,
    "score": 913,
    "maxDistance": 834,
    "maxTime": 105.0999984741211,
    "speed": 8
}{
    "ID": 121986,
    "genomaID": "CV3TD11",
    "color": {
        "x": 0.8823857307434082,
        "y": 0.36269453167915347,
        "z": 0.5490991473197937
    },
    "vertexNumber": 3,
    "colliderVertices": [
        {
            "x": -1.5889267921447755,
            "y": -0.004421771038323641
        },
        {
            "x": 1.1117806434631348,
            "y": -0.1090712696313858
        },
        {
            "x": -0.1226494312286377,
            "y": 0.7457249164581299
        }
    ],
    "triangles": [
        1,
        0,
        2
    ],
    "carDensity": 3.0,
    "suspension": 0.6478852033615112,
    "motorSpeed": 869,
    "frontDensity": 4.900000095367432,
    "frontRadius": 0.689996063709259,
    "frontOffset": 1.4784454107284547,
    "backDensity": 3.4000000953674318,
    "backRadius": 0.543877124786377,
    "backOffset": -1.2382171154022217,
    "score": 912,
    "maxDistance": 832,
    "maxTime": 104.69999694824219,
    "speed": 8
}{
    "ID": 121815,
    "genomaID": "CV3TD9",
    "color": {
        "x": 0.6324389576911926,
        "y": 0.4681466221809387,
        "z": 0.2554509937763214
    },
    "vertexNumber": 3,
    "colliderVertices": [
        {
            "x": -1.1010850667953492,
            "y": -0.4912911653518677
        },
        {
            "x": 1.2597887516021729,
            "y": -0.34690144658088686
        },
        {
            "x": -1.7964177131652833,
            "y": 0.40650898218154909
        }
    ],
    "triangles": [
        1,
        0,
        2
    ],
    "carDensity": 3.0,
    "suspension": 0.605560302734375,
    "motorSpeed": 869,
    "frontDensity": 3.4000000953674318,
    "frontRadius": 0.5384522080421448,
    "frontOffset": 1.2536895275115967,
    "backDensity": 3.4000000953674318,
    "backRadius": 0.543877124786377,
    "backOffset": -1.3649227619171143,
    "score": 0,
    "maxDistance": 0,
    "maxTime": 0.8999999761581421,
    "speed": 0
}{
    "ID": 121999,
    "genomaID": "CV4TD10",
    "color": {
        "x": 0.20653727650642396,
        "y": 0.7379440665245056,
        "z": 0.5660251975059509
    },
    "vertexNumber": 4,
    "colliderVertices": [
        {
            "x": -1.1311557292938233,
            "y": -0.37241265177726748
        },
        {
            "x": 1.2124357223510743,
            "y": -0.47832465171813967
        },
        {
            "x": 1.2838869094848633,
            "y": 0.084861159324646
        },
        {
            "x": -0.30829405784606936,
            "y": 0.7458435297012329
        }
    ],
    "triangles": [
        3,
        2,
        1,
        1,
        0,
        3
    ],
    "carDensity": 4.0,
    "suspension": 0.4600498676300049,
    "motorSpeed": 858,
    "frontDensity": 2.0,
    "frontRadius": 0.4024698734283447,
    "frontOffset": 1.0627175569534302,
    "backDensity": 3.799999952316284,
    "backRadius": 0.5762941241264343,
    "backOffset": -1.2818386554718018,
    "score": 0,
    "maxDistance": 0,
    "maxTime": 0.8999999761581421,
    "speed": 0
}