{
    "ID": 49936,
    "genomaID": "CV4TD14",
    "color": {
        "x": 0.3711649477481842,
        "y": 0.06928182393312454,
        "z": 0.5170453190803528
    },
    "vertexNumber": 4,
    "colliderVertices": [
        {
            "x": -1.9750539064407349,
            "y": -0.36199453473091128
        },
        {
            "x": 1.534325361251831,
            "y": -0.2013022005558014
        },
        {
            "x": -0.9610989093780518,
            "y": 0.07346928119659424
        },
        {
            "x": -1.022385597229004,
            "y": 0.10155487060546875
        }
    ],
    "triangles": [
        0,
        3,
        2,
        2,
        1,
        0
    ],
    "carDensity": 4.0,
    "suspension": 0.9013360738754273,
    "motorSpeed": 873,
    "frontDensity": 4.800000190734863,
    "frontRadius": 0.6805284023284912,
    "frontOffset": 1.1092013120651246,
    "backDensity": 4.599999904632568,
    "backRadius": 0.6612368822097778,
    "backOffset": -1.4691007137298585,
    "score": 920,
    "maxDistance": 832,
    "maxTime": 94.5,
    "speed": 9
}{
    "ID": 49977,
    "genomaID": "CV3TD12",
    "color": {
        "x": 0.8133928775787354,
        "y": 0.2525545656681061,
        "z": 0.7479514479637146
    },
    "vertexNumber": 3,
    "colliderVertices": [
        {
            "x": -1.615149736404419,
            "y": -0.08056289702653885
        },
        {
            "x": 1.1510634422302247,
            "y": -0.4890420436859131
        },
        {
            "x": -0.87314772605896,
            "y": 0.506628692150116
        }
    ],
    "triangles": [
        1,
        0,
        2
    ],
    "carDensity": 3.0,
    "suspension": 0.42570844292640688,
    "motorSpeed": 851,
    "frontDensity": 4.800000190734863,
    "frontRadius": 0.6779978275299072,
    "frontOffset": 0.9436758756637573,
    "backDensity": 3.700000047683716,
    "backRadius": 0.5727956295013428,
    "backOffset": -1.32747483253479,
    "score": 914,
    "maxDistance": 834,
    "maxTime": 104.5999984741211,
    "speed": 8
}{
    "ID": 49974,
    "genomaID": "CV3TD12",
    "color": {
        "x": 0.16558422148227693,
        "y": 0.6600871682167053,
        "z": 0.13062037527561189
    },
    "vertexNumber": 3,
    "colliderVertices": [
        {
            "x": -1.615149736404419,
            "y": -0.08056289702653885
        },
        {
            "x": 1.1510634422302247,
            "y": -0.4890420436859131
        },
        {
            "x": -0.87314772605896,
            "y": 0.506628692150116
        }
    ],
    "triangles": [
        1,
        0,
        2
    ],
    "carDensity": 3.0,
    "suspension": 0.7361107468605042,
    "motorSpeed": 851,
    "frontDensity": 4.599999904632568,
    "frontRadius": 0.6554930210113525,
    "frontOffset": 0.5011541843414307,
    "backDensity": 3.5999999046325685,
    "backRadius": 0.562614381313324,
    "backOffset": -1.2710694074630738,
    "score": 910,
    "maxDistance": 833,
    "maxTime": 107.5999984741211,
    "speed": 8
}{
    "ID": 49808,
    "genomaID": "CV3TD12",
    "color": {
        "x": 0.17345787584781648,
        "y": 0.17457963526248933,
        "z": 0.9269862174987793
    },
    "vertexNumber": 3,
    "colliderVertices": [
        {
            "x": -1.615149736404419,
            "y": -0.08056289702653885
        },
        {
            "x": 1.1510634422302247,
            "y": -0.4890420436859131
        },
        {
            "x": -0.87314772605896,
            "y": 0.506628692150116
        }
    ],
    "triangles": [
        1,
        0,
        2
    ],
    "carDensity": 3.0,
    "suspension": 0.5616918802261353,
    "motorSpeed": 686,
    "frontDensity": 4.800000190734863,
    "frontRadius": 0.6791735291481018,
    "frontOffset": 1.1122599840164185,
    "backDensity": 3.9000000953674318,
    "backRadius": 0.5940473675727844,
    "backOffset": -1.0301207304000855,
    "score": 0,
    "maxDistance": 0,
    "maxTime": 0.8999999761581421,
    "speed": 0
}{
    "ID": 49993,
    "genomaID": "CV3TD9",
    "color": {
        "x": 0.23507264256477357,
        "y": 0.5300777554512024,
        "z": 0.8182836771011353
    },
    "vertexNumber": 3,
    "colliderVertices": [
        {
            "x": -1.615149736404419,
            "y": -0.08056289702653885
        },
        {
            "x": 1.1510634422302247,
            "y": -0.4890420436859131
        },
        {
            "x": -0.87314772605896,
            "y": 0.506628692150116
        }
    ],
    "triangles": [
        1,
        0,
        2
    ],
    "carDensity": 3.0,
    "suspension": 0.4611508548259735,
    "motorSpeed": 851,
    "frontDensity": 2.0,
    "frontRadius": 0.40308821201324465,
    "frontOffset": 0.9436758756637573,
    "backDensity": 3.700000047683716,
    "backRadius": 0.5727956295013428,
    "backOffset": -1.1058672666549683,
    "score": 0,
    "maxDistance": 0,
    "maxTime": 0.8999999761581421,
    "speed": 0
}