{
    "ID": 68897,
    "genomaID": "CV3TD12",
    "color": {
        "x": 0.46906620264053347,
        "y": 0.08658767491579056,
        "z": 0.5027150511741638
    },
    "vertexNumber": 3,
    "colliderVertices": [
        {
            "x": -1.615149736404419,
            "y": -0.08056289702653885
        },
        {
            "x": 1.1510634422302247,
            "y": -0.4890420436859131
        },
        {
            "x": -0.87314772605896,
            "y": 0.506628692150116
        }
    ],
    "triangles": [
        1,
        0,
        2
    ],
    "carDensity": 3.0,
    "suspension": 0.8887065649032593,
    "motorSpeed": 870,
    "frontDensity": 4.699999809265137,
    "frontRadius": 0.667515218257904,
    "frontOffset": 0.7177925109863281,
    "backDensity": 3.799999952316284,
    "backRadius": 0.5771936774253845,
    "backOffset": -1.2884907722473145,
    "score": 916,
    "maxDistance": 834,
    "maxTime": 102.19999694824219,
    "speed": 8
}{
    "ID": 68868,
    "genomaID": "CV3TD12",
    "color": {
        "x": 0.779715895652771,
        "y": 0.1597966104745865,
        "z": 0.1659081131219864
    },
    "vertexNumber": 3,
    "colliderVertices": [
        {
            "x": -1.615149736404419,
            "y": -0.08056289702653885
        },
        {
            "x": 1.1510634422302247,
            "y": -0.4890420436859131
        },
        {
            "x": -0.87314772605896,
            "y": 0.506628692150116
        }
    ],
    "triangles": [
        1,
        0,
        2
    ],
    "carDensity": 3.0,
    "suspension": 0.9499801397323608,
    "motorSpeed": 851,
    "frontDensity": 4.699999809265137,
    "frontRadius": 0.6720922589302063,
    "frontOffset": 1.455254316329956,
    "backDensity": 3.700000047683716,
    "backRadius": 0.5672485828399658,
    "backOffset": -0.9926904439926148,
    "score": 913,
    "maxDistance": 834,
    "maxTime": 105.30000305175781,
    "speed": 8
}{
    "ID": 68958,
    "genomaID": "CV3TD12",
    "color": {
        "x": 0.6495806574821472,
        "y": 0.11240507662296295,
        "z": 0.5328342318534851
    },
    "vertexNumber": 3,
    "colliderVertices": [
        {
            "x": -1.5422937870025635,
            "y": -0.3645823299884796
        },
        {
            "x": 1.1311384439468384,
            "y": -0.31137219071388247
        },
        {
            "x": -0.9455435276031494,
            "y": 0.8533689975738525
        }
    ],
    "triangles": [
        1,
        0,
        2
    ],
    "carDensity": 3.0,
    "suspension": 0.6550772190093994,
    "motorSpeed": 851,
    "frontDensity": 4.900000095367432,
    "frontRadius": 0.6900220513343811,
    "frontOffset": 0.9509569406509399,
    "backDensity": 3.700000047683716,
    "backRadius": 0.5727956295013428,
    "backOffset": -1.2086743116378785,
    "score": 912,
    "maxDistance": 833,
    "maxTime": 105.0999984741211,
    "speed": 8
}{
    "ID": 68943,
    "genomaID": "CV3TD11",
    "color": {
        "x": 0.828450083732605,
        "y": 0.6032790541648865,
        "z": 0.3092102110385895
    },
    "vertexNumber": 3,
    "colliderVertices": [
        {
            "x": -1.615149736404419,
            "y": -0.08056289702653885
        },
        {
            "x": 1.1510634422302247,
            "y": -0.4890420436859131
        },
        {
            "x": -0.87314772605896,
            "y": 0.506628692150116
        }
    ],
    "triangles": [
        1,
        0,
        2
    ],
    "carDensity": 3.0,
    "suspension": 0.5419849157333374,
    "motorSpeed": 1037,
    "frontDensity": 4.699999809265137,
    "frontRadius": 0.6725659966468811,
    "frontOffset": 0.9892572164535523,
    "backDensity": 3.0,
    "backRadius": 0.5013226866722107,
    "backOffset": -1.1096335649490357,
    "score": 18,
    "maxDistance": 4,
    "maxTime": 2.799999952316284,
    "speed": 1
}{
    "ID": 68999,
    "genomaID": "CV3TD9",
    "color": {
        "x": 0.20653727650642396,
        "y": 0.7379440665245056,
        "z": 0.5660251975059509
    },
    "vertexNumber": 3,
    "colliderVertices": [
        {
            "x": -1.615149736404419,
            "y": -0.08056289702653885
        },
        {
            "x": 1.1510634422302247,
            "y": -0.4890420436859131
        },
        {
            "x": -0.87314772605896,
            "y": 0.506628692150116
        }
    ],
    "triangles": [
        1,
        0,
        2
    ],
    "carDensity": 3.0,
    "suspension": 0.6767116189002991,
    "motorSpeed": 851,
    "frontDensity": 2.200000047683716,
    "frontRadius": 0.42236900329589846,
    "frontOffset": 0.9509569406509399,
    "backDensity": 3.700000047683716,
    "backRadius": 0.5727956295013428,
    "backOffset": -1.1634275913238526,
    "score": 0,
    "maxDistance": 0,
    "maxTime": 0.800000011920929,
    "speed": 0
}