{
    "ID": 118186,
    "genomaID": "CV3TD12",
    "color": {
        "x": 0.8823857307434082,
        "y": 0.36269453167915347,
        "z": 0.5490991473197937
    },
    "vertexNumber": 3,
    "colliderVertices": [
        {
            "x": -1.1010850667953492,
            "y": -0.4912911653518677
        },
        {
            "x": 1.2597887516021729,
            "y": -0.34690144658088686
        },
        {
            "x": -1.7964177131652833,
            "y": 0.40650898218154909
        }
    ],
    "triangles": [
        1,
        0,
        2
    ],
    "carDensity": 3.0,
    "suspension": 0.4286562204360962,
    "motorSpeed": 869,
    "frontDensity": 4.900000095367432,
    "frontRadius": 0.689996063709259,
    "frontOffset": 1.2325595617294312,
    "backDensity": 3.5999999046325685,
    "backRadius": 0.5606296062469482,
    "backOffset": -1.3263928890228272,
    "score": 915,
    "maxDistance": 834,
    "maxTime": 103.5999984741211,
    "speed": 8
}{
    "ID": 118120,
    "genomaID": "CV3TD12",
    "color": {
        "x": 0.9230668544769287,
        "y": 0.2133716642856598,
        "z": 0.3425312340259552
    },
    "vertexNumber": 3,
    "colliderVertices": [
        {
            "x": -1.4790287017822266,
            "y": -0.42688870429992678
        },
        {
            "x": 1.1591321229934693,
            "y": -0.4714164733886719
        },
        {
            "x": -0.429431676864624,
            "y": 0.6848815679550171
        }
    ],
    "triangles": [
        1,
        0,
        2
    ],
    "carDensity": 3.0,
    "suspension": 0.4995717704296112,
    "motorSpeed": 869,
    "frontDensity": 4.699999809265137,
    "frontRadius": 0.6731094717979431,
    "frontOffset": 0.513933539390564,
    "backDensity": 3.5999999046325685,
    "backRadius": 0.5557421445846558,
    "backOffset": -1.2543866634368897,
    "score": 912,
    "maxDistance": 832,
    "maxTime": 104.5,
    "speed": 8
}{
    "ID": 118003,
    "genomaID": "CV3TD12",
    "color": {
        "x": 0.5271676182746887,
        "y": 0.45618098974227908,
        "z": 0.9300339221954346
    },
    "vertexNumber": 3,
    "colliderVertices": [
        {
            "x": -1.4790287017822266,
            "y": -0.42688870429992678
        },
        {
            "x": 1.1591321229934693,
            "y": -0.4714164733886719
        },
        {
            "x": -0.429431676864624,
            "y": 0.6848815679550171
        }
    ],
    "triangles": [
        1,
        0,
        2
    ],
    "carDensity": 3.0,
    "suspension": 0.4995717704296112,
    "motorSpeed": 869,
    "frontDensity": 4.699999809265137,
    "frontRadius": 0.6731094717979431,
    "frontOffset": 1.2149782180786133,
    "backDensity": 3.5999999046325685,
    "backRadius": 0.5557421445846558,
    "backOffset": -1.2543866634368897,
    "score": 909,
    "maxDistance": 830,
    "maxTime": 104.5,
    "speed": 8
}{
    "ID": 118137,
    "genomaID": "CV6TD13",
    "color": {
        "x": 0.35887065529823305,
        "y": 0.6983789801597595,
        "z": 0.3055068552494049
    },
    "vertexNumber": 6,
    "colliderVertices": [
        {
            "x": -1.0466006994247437,
            "y": -0.00682526919990778
        },
        {
            "x": 1.3506722450256348,
            "y": -0.3547246754169464
        },
        {
            "x": 1.9271321296691895,
            "y": 0.3446107506752014
        },
        {
            "x": 1.5302462577819825,
            "y": 0.9307715892791748
        },
        {
            "x": 1.3246102333068848,
            "y": 0.0649714469909668
        },
        {
            "x": -0.8266890048980713,
            "y": 0.6882719993591309
        }
    ],
    "triangles": [
        4,
        3,
        1,
        1,
        5,
        4,
        3,
        2,
        1,
        1,
        0,
        5
    ],
    "carDensity": 6.0,
    "suspension": 0.8230874538421631,
    "motorSpeed": 869,
    "frontDensity": 3.5999999046325685,
    "frontRadius": 0.5563700199127197,
    "frontOffset": 0.930806040763855,
    "backDensity": 3.4000000953674318,
    "backRadius": 0.5430948138237,
    "backOffset": -1.3263928890228272,
    "score": 31,
    "maxDistance": 5,
    "maxTime": 1.899999976158142,
    "speed": 3
}{
    "ID": 118199,
    "genomaID": "CV3TD12",
    "color": {
        "x": 0.20653727650642396,
        "y": 0.7379440665245056,
        "z": 0.5660251975059509
    },
    "vertexNumber": 3,
    "colliderVertices": [
        {
            "x": -1.4903595447540284,
            "y": -0.07688982039690018
        },
        {
            "x": 1.6353117227554322,
            "y": -0.43294966220855715
        },
        {
            "x": -0.680962324142456,
            "y": 0.24219870567321778
        }
    ],
    "triangles": [
        1,
        0,
        2
    ],
    "carDensity": 3.0,
    "suspension": 0.803007960319519,
    "motorSpeed": 1396,
    "frontDensity": 4.699999809265137,
    "frontRadius": 0.6731094717979431,
    "frontOffset": 1.1079071760177613,
    "backDensity": 3.5999999046325685,
    "backRadius": 0.5557421445846558,
    "backOffset": -0.7791668772697449,
    "score": 0,
    "maxDistance": 0,
    "maxTime": 0.8999999761581421,
    "speed": 0
}