{
    "ID": 117232,
    "genomaID": "CV3TD12",
    "color": {
        "x": 0.6784065365791321,
        "y": 0.0615776851773262,
        "z": 0.45114654302597048
    },
    "vertexNumber": 3,
    "colliderVertices": [
        {
            "x": -1.7729783058166505,
            "y": -0.2636915147304535
        },
        {
            "x": 1.2018989324569703,
            "y": -0.13652606308460236
        },
        {
            "x": -0.26383233070373537,
            "y": 0.7968834638595581
        }
    ],
    "triangles": [
        1,
        0,
        2
    ],
    "carDensity": 3.0,
    "suspension": 0.44503673911094668,
    "motorSpeed": 832,
    "frontDensity": 4.900000095367432,
    "frontRadius": 0.6855190396308899,
    "frontOffset": 0.7771711945533752,
    "backDensity": 4.199999809265137,
    "backRadius": 0.6154143214225769,
    "backOffset": -0.9262865781784058,
    "score": 915,
    "maxDistance": 834,
    "maxTime": 102.9000015258789,
    "speed": 8
}{
    "ID": 117272,
    "genomaID": "CV3TD12",
    "color": {
        "x": 0.740606963634491,
        "y": 0.9502902030944824,
        "z": 0.9837138652801514
    },
    "vertexNumber": 3,
    "colliderVertices": [
        {
            "x": -1.4903595447540284,
            "y": -0.07688982039690018
        },
        {
            "x": 1.6353117227554322,
            "y": -0.43294966220855715
        },
        {
            "x": -0.680962324142456,
            "y": 0.24219870567321778
        }
    ],
    "triangles": [
        1,
        0,
        2
    ],
    "carDensity": 3.0,
    "suspension": 0.5853499174118042,
    "motorSpeed": 869,
    "frontDensity": 4.699999809265137,
    "frontRadius": 0.6731094717979431,
    "frontOffset": 1.1079071760177613,
    "backDensity": 3.5999999046325685,
    "backRadius": 0.5557421445846558,
    "backOffset": -1.3609344959259034,
    "score": 913,
    "maxDistance": 833,
    "maxTime": 104.19999694824219,
    "speed": 8
}{
    "ID": 117370,
    "genomaID": "CV3TD12",
    "color": {
        "x": 0.09569336473941803,
        "y": 0.6536408066749573,
        "z": 0.3564881384372711
    },
    "vertexNumber": 3,
    "colliderVertices": [
        {
            "x": -1.4903595447540284,
            "y": -0.07688982039690018
        },
        {
            "x": 1.6353117227554322,
            "y": -0.43294966220855715
        },
        {
            "x": -0.680962324142456,
            "y": 0.24219870567321778
        }
    ],
    "triangles": [
        1,
        0,
        2
    ],
    "carDensity": 3.0,
    "suspension": 0.9930466413497925,
    "motorSpeed": 869,
    "frontDensity": 4.699999809265137,
    "frontRadius": 0.6731094717979431,
    "frontOffset": 0.7603108286857605,
    "backDensity": 3.5999999046325685,
    "backRadius": 0.5557421445846558,
    "backOffset": -1.1195608377456666,
    "score": 912,
    "maxDistance": 833,
    "maxTime": 104.9000015258789,
    "speed": 8
}{
    "ID": 117226,
    "genomaID": "CV5TD14",
    "color": {
        "x": 0.11754800379276276,
        "y": 0.26775065064430239,
        "z": 0.6021478772163391
    },
    "vertexNumber": 5,
    "colliderVertices": [
        {
            "x": -1.789388656616211,
            "y": -0.2476855218410492
        },
        {
            "x": 1.144088625907898,
            "y": -0.08550829440355301
        },
        {
            "x": 1.5136656761169434,
            "y": 0.9825032949447632
        },
        {
            "x": 0.1508653163909912,
            "y": 0.47533804178237917
        },
        {
            "x": -0.3801882266998291,
            "y": 0.3695821166038513
        }
    ],
    "triangles": [
        1,
        4,
        3,
        3,
        2,
        1,
        1,
        0,
        4
    ],
    "carDensity": 5.0,
    "suspension": 0.4632047116756439,
    "motorSpeed": 910,
    "frontDensity": 4.900000095367432,
    "frontRadius": 0.6920121908187866,
    "frontOffset": 0.546849250793457,
    "backDensity": 3.5,
    "backRadius": 0.5482544898986816,
    "backOffset": -1.3279430866241456,
    "score": 0,
    "maxDistance": 0,
    "maxTime": 0.8999999761581421,
    "speed": 0
}{
    "ID": 117400,
    "genomaID": "CV3TD11",
    "color": {
        "x": 0.7157778143882752,
        "y": 0.7526435852050781,
        "z": 0.5779417157173157
    },
    "vertexNumber": 3,
    "colliderVertices": [
        {
            "x": -1.4903595447540284,
            "y": -0.07688982039690018
        },
        {
            "x": 1.6353117227554322,
            "y": -0.43294966220855715
        },
        {
            "x": -0.680962324142456,
            "y": 0.24219870567321778
        }
    ],
    "triangles": [
        1,
        0,
        2
    ],
    "carDensity": 3.0,
    "suspension": 0.6276591420173645,
    "motorSpeed": 1390,
    "frontDensity": 4.699999809265137,
    "frontRadius": 0.6731094717979431,
    "frontOffset": 1.3914637565612794,
    "backDensity": 2.700000047683716,
    "backRadius": 0.46622157096862795,
    "backOffset": -1.0057607889175416,
    "score": 0,
    "maxDistance": 0,
    "maxTime": 0.8999999761581421,
    "speed": 0
}