{
    "ID": 65508,
    "genomaID": "CV3TD12",
    "color": {
        "x": 0.18889263272285462,
        "y": 0.6252102255821228,
        "z": 0.9272602796554565
    },
    "vertexNumber": 3,
    "colliderVertices": [
        {
            "x": -1.615149736404419,
            "y": -0.08056289702653885
        },
        {
            "x": 1.1510634422302247,
            "y": -0.4890420436859131
        },
        {
            "x": -0.87314772605896,
            "y": 0.506628692150116
        }
    ],
    "triangles": [
        1,
        0,
        2
    ],
    "carDensity": 3.0,
    "suspension": 0.7865332961082459,
    "motorSpeed": 868,
    "frontDensity": 4.900000095367432,
    "frontRadius": 0.6900220513343811,
    "frontOffset": 0.6022814512252808,
    "backDensity": 3.700000047683716,
    "backRadius": 0.5686486959457398,
    "backOffset": -1.015665888786316,
    "score": 916,
    "maxDistance": 834,
    "maxTime": 102.30000305175781,
    "speed": 8
}{
    "ID": 65413,
    "genomaID": "CV3TD12",
    "color": {
        "x": 0.2999573051929474,
        "y": 0.8041330575942993,
        "z": 0.9977710247039795
    },
    "vertexNumber": 3,
    "colliderVertices": [
        {
            "x": -1.6967082023620606,
            "y": -0.4183594584465027
        },
        {
            "x": 1.6215009689331055,
            "y": -0.4354392886161804
        },
        {
            "x": 0.29096150398254397,
            "y": 0.040700316429138187
        }
    ],
    "triangles": [
        1,
        0,
        2
    ],
    "carDensity": 3.0,
    "suspension": 0.47752493619918826,
    "motorSpeed": 851,
    "frontDensity": 4.900000095367432,
    "frontRadius": 0.6900220513343811,
    "frontOffset": 0.6957441568374634,
    "backDensity": 3.5999999046325685,
    "backRadius": 0.5567549467086792,
    "backOffset": -1.3006441593170167,
    "score": 913,
    "maxDistance": 833,
    "maxTime": 103.9000015258789,
    "speed": 8
}{
    "ID": 65426,
    "genomaID": "CV3TD11",
    "color": {
        "x": 0.11754800379276276,
        "y": 0.26775065064430239,
        "z": 0.6021478772163391
    },
    "vertexNumber": 3,
    "colliderVertices": [
        {
            "x": -1.7552342414855958,
            "y": -0.4139992594718933
        },
        {
            "x": 1.2257237434387208,
            "y": -0.3140837252140045
        },
        {
            "x": -1.2028508186340333,
            "y": 0.2859709858894348
        }
    ],
    "triangles": [
        1,
        0,
        2
    ],
    "carDensity": 3.0,
    "suspension": 0.4256526529788971,
    "motorSpeed": 854,
    "frontDensity": 4.5,
    "frontRadius": 0.654674232006073,
    "frontOffset": 0.5268948078155518,
    "backDensity": 4.099999904632568,
    "backRadius": 0.6070380806922913,
    "backOffset": -0.6830474138259888,
    "score": 765,
    "maxDistance": 685,
    "maxTime": 85.0999984741211,
    "speed": 8
}{
    "ID": 65401,
    "genomaID": "CV4TD13",
    "color": {
        "x": 0.7041706442832947,
        "y": 0.1758122593164444,
        "z": 0.6612265706062317
    },
    "vertexNumber": 4,
    "colliderVertices": [
        {
            "x": -1.0291801691055298,
            "y": -0.07705546170473099
        },
        {
            "x": 1.8255562782287598,
            "y": -0.2555830180644989
        },
        {
            "x": 1.6934881210327149,
            "y": 0.1446758508682251
        },
        {
            "x": 0.845707356929779,
            "y": 0.6353734731674194
        }
    ],
    "triangles": [
        3,
        2,
        1,
        1,
        0,
        3
    ],
    "carDensity": 4.0,
    "suspension": 0.8920104503631592,
    "motorSpeed": 841,
    "frontDensity": 4.900000095367432,
    "frontRadius": 0.6923644542694092,
    "frontOffset": 0.9480780363082886,
    "backDensity": 4.099999904632568,
    "backRadius": 0.606690526008606,
    "backOffset": -1.4398658275604249,
    "score": 0,
    "maxDistance": 0,
    "maxTime": 0.800000011920929,
    "speed": 0
}{
    "ID": 65597,
    "genomaID": "CV3TD12",
    "color": {
        "x": 0.4004287123680115,
        "y": 0.941399097442627,
        "z": 0.8905913829803467
    },
    "vertexNumber": 3,
    "colliderVertices": [
        {
            "x": -1.929734468460083,
            "y": -0.034952882677316669
        },
        {
            "x": 1.2788736820220948,
            "y": -0.12691767513751985
        },
        {
            "x": 1.3173327445983887,
            "y": 0.8449224233627319
        }
    ],
    "triangles": [
        1,
        0,
        2
    ],
    "carDensity": 3.0,
    "suspension": 0.8870293498039246,
    "motorSpeed": 851,
    "frontDensity": 4.800000190734863,
    "frontRadius": 0.6776076555252075,
    "frontOffset": 0.868822455406189,
    "backDensity": 3.700000047683716,
    "backRadius": 0.5727956295013428,
    "backOffset": -1.4074642658233643,
    "score": 0,
    "maxDistance": 0,
    "maxTime": 0.800000011920929,
    "speed": 0
}