{
    "ID": 97391,
    "genomaID": "CV4TD13",
    "color": {
        "x": 0.6679555773735046,
        "y": 0.2269156277179718,
        "z": 0.9616402387619019
    },
    "vertexNumber": 4,
    "colliderVertices": [
        {
            "x": -1.370237112045288,
            "y": -0.16245879232883454
        },
        {
            "x": 1.175140380859375,
            "y": -0.34968551993370058
        },
        {
            "x": -0.3652498722076416,
            "y": 0.11660647392272949
        },
        {
            "x": -1.3494210243225098,
            "y": 0.7448263168334961
        }
    ],
    "triangles": [
        0,
        3,
        2,
        2,
        1,
        0
    ],
    "carDensity": 4.0,
    "suspension": 0.5107169151306152,
    "motorSpeed": 887,
    "frontDensity": 4.800000190734863,
    "frontRadius": 0.6753367185592651,
    "frontOffset": 0.6264530420303345,
    "backDensity": 3.799999952316284,
    "backRadius": 0.5761667490005493,
    "backOffset": -1.4358184337615967,
    "score": 916,
    "maxDistance": 833,
    "maxTime": 100.69999694824219,
    "speed": 8
}{
    "ID": 97270,
    "genomaID": "CV3TD12",
    "color": {
        "x": 0.550239622592926,
        "y": 0.43062347173690798,
        "z": 0.6933954358100891
    },
    "vertexNumber": 3,
    "colliderVertices": [
        {
            "x": -1.615149736404419,
            "y": -0.08056289702653885
        },
        {
            "x": 1.1510634422302247,
            "y": -0.4890420436859131
        },
        {
            "x": -0.87314772605896,
            "y": 0.506628692150116
        }
    ],
    "triangles": [
        1,
        0,
        2
    ],
    "carDensity": 3.0,
    "suspension": 0.6140813827514648,
    "motorSpeed": 878,
    "frontDensity": 4.900000095367432,
    "frontRadius": 0.6921337842941284,
    "frontOffset": 1.4219567775726319,
    "backDensity": 3.5999999046325685,
    "backRadius": 0.5590354204177856,
    "backOffset": -0.938257098197937,
    "score": 912,
    "maxDistance": 831,
    "maxTime": 102.5999984741211,
    "speed": 8
}{
    "ID": 97210,
    "genomaID": "CV3TD12",
    "color": {
        "x": 0.09728159010410309,
        "y": 0.6680589318275452,
        "z": 0.12447048723697663
    },
    "vertexNumber": 3,
    "colliderVertices": [
        {
            "x": -1.615149736404419,
            "y": -0.08056289702653885
        },
        {
            "x": 1.1510634422302247,
            "y": -0.4890420436859131
        },
        {
            "x": -0.87314772605896,
            "y": 0.506628692150116
        }
    ],
    "triangles": [
        1,
        0,
        2
    ],
    "carDensity": 3.0,
    "suspension": 0.7681789398193359,
    "motorSpeed": 851,
    "frontDensity": 4.800000190734863,
    "frontRadius": 0.678674578666687,
    "frontOffset": 0.8819786310195923,
    "backDensity": 3.799999952316284,
    "backRadius": 0.5814912915229797,
    "backOffset": -1.085924506187439,
    "score": 908,
    "maxDistance": 828,
    "maxTime": 103.5,
    "speed": 8
}{
    "ID": 97309,
    "genomaID": "CV3TD11",
    "color": {
        "x": 0.05376375466585159,
        "y": 0.28018298745155337,
        "z": 0.8776925802230835
    },
    "vertexNumber": 3,
    "colliderVertices": [
        {
            "x": -1.8667123317718506,
            "y": -0.26086005568504336
        },
        {
            "x": 1.7142552137374879,
            "y": -0.47794967889785769
        },
        {
            "x": -1.3046050071716309,
            "y": 0.2519386410713196
        }
    ],
    "triangles": [
        1,
        0,
        2
    ],
    "carDensity": 3.0,
    "suspension": 0.4946737587451935,
    "motorSpeed": 863,
    "frontDensity": 4.300000190734863,
    "frontRadius": 0.6321971416473389,
    "frontOffset": 1.0607630014419556,
    "backDensity": 3.5999999046325685,
    "backRadius": 0.5642890930175781,
    "backOffset": -1.0067263841629029,
    "score": 25,
    "maxDistance": 4,
    "maxTime": 1.899999976158142,
    "speed": 2
}{
    "ID": 97382,
    "genomaID": "CV3TD12",
    "color": {
        "x": 0.6366142630577087,
        "y": 0.22715237736701966,
        "z": 0.02326822467148304
    },
    "vertexNumber": 3,
    "colliderVertices": [
        {
            "x": -1.8514567613601685,
            "y": -0.005239785183221102
        },
        {
            "x": 1.4314024448394776,
            "y": -0.467776894569397
        },
        {
            "x": -1.6059131622314454,
            "y": 0.5224447846412659
        }
    ],
    "triangles": [
        1,
        0,
        2
    ],
    "carDensity": 3.0,
    "suspension": 0.8335022926330566,
    "motorSpeed": 1006,
    "frontDensity": 5.0,
    "frontRadius": 0.6956077814102173,
    "frontOffset": 0.7729734778404236,
    "backDensity": 3.5,
    "backRadius": 0.5543792843818665,
    "backOffset": -0.7925779223442078,
    "score": 0,
    "maxDistance": 0,
    "maxTime": 0.8999999761581421,
    "speed": 0
}