{
    "ID": 6887,
    "genomaID": "CV3TD10",
    "color": {
        "x": 0.6230459809303284,
        "y": 0.18502236902713777,
        "z": 0.48213261365890505
    },
    "vertexNumber": 3,
    "colliderVertices": [
        {
            "x": -1.2541747093200684,
            "y": -0.38386595249176028
        },
        {
            "x": 1.0193626880645753,
            "y": -0.271028071641922
        },
        {
            "x": 1.3762645721435547,
            "y": 0.10750925540924072
        }
    ],
    "triangles": [
        1,
        0,
        2
    ],
    "carDensity": 3.0,
    "suspension": 0.4529927372932434,
    "motorSpeed": 1336,
    "frontDensity": 4.199999809265137,
    "frontRadius": 0.6172062158584595,
    "frontOffset": 1.467574954032898,
    "backDensity": 3.0,
    "backRadius": 0.4988519549369812,
    "backOffset": -1.2643346786499024,
    "score": 930,
    "maxDistance": 829,
    "maxTime": 82.0,
    "speed": 10
}{
    "ID": 6933,
    "genomaID": "CV3TD9",
    "color": {
        "x": 0.1805342584848404,
        "y": 0.25532034039497378,
        "z": 0.11323119699954987
    },
    "vertexNumber": 3,
    "colliderVertices": [
        {
            "x": -1.2541747093200684,
            "y": -0.38386595249176028
        },
        {
            "x": 1.0193626880645753,
            "y": -0.271028071641922
        },
        {
            "x": 1.3762645721435547,
            "y": 0.10750925540924072
        }
    ],
    "triangles": [
        1,
        0,
        2
    ],
    "carDensity": 3.0,
    "suspension": 0.4602028727531433,
    "motorSpeed": 710,
    "frontDensity": 3.4000000953674318,
    "frontRadius": 0.5441341996192932,
    "frontOffset": 1.4559085369110108,
    "backDensity": 3.0999999046325685,
    "backRadius": 0.5140807628631592,
    "backOffset": -0.9427167177200317,
    "score": 892,
    "maxDistance": 833,
    "maxTime": 141.3000030517578,
    "speed": 6
}{
    "ID": 6972,
    "genomaID": "CV3TD12",
    "color": {
        "x": 0.29463282227516177,
        "y": 0.29146578907966616,
        "z": 0.1327604204416275
    },
    "vertexNumber": 3,
    "colliderVertices": [
        {
            "x": -1.5885701179504395,
            "y": -0.46892547607421877
        },
        {
            "x": 1.511277198791504,
            "y": -0.2736707627773285
        },
        {
            "x": -1.9587006568908692,
            "y": 0.2934284806251526
        }
    ],
    "triangles": [
        1,
        0,
        2
    ],
    "carDensity": 3.0,
    "suspension": 0.4498186409473419,
    "motorSpeed": 581,
    "frontDensity": 4.599999904632568,
    "frontRadius": 0.6623240113258362,
    "frontOffset": 0.748549222946167,
    "backDensity": 3.5,
    "backRadius": 0.5491522550582886,
    "backOffset": -0.9878369569778442,
    "score": 888,
    "maxDistance": 833,
    "maxTime": 151.8000030517578,
    "speed": 5
}{
    "ID": 6871,
    "genomaID": "CV6TD15",
    "color": {
        "x": 0.002318620914593339,
        "y": 0.27994123101234438,
        "z": 0.4828231930732727
    },
    "vertexNumber": 6,
    "colliderVertices": [
        {
            "x": -1.2211706638336182,
            "y": -0.0524485781788826
        },
        {
            "x": 1.1847150325775147,
            "y": -0.14387507736682893
        },
        {
            "x": 1.7511687278747559,
            "y": 0.5991271138191223
        },
        {
            "x": 1.6330575942993165,
            "y": 0.3568890690803528
        },
        {
            "x": 0.8678049445152283,
            "y": 0.643240213394165
        },
        {
            "x": -1.007695198059082,
            "y": 0.2691299319267273
        }
    ],
    "triangles": [
        5,
        0,
        1,
        3,
        4,
        5,
        5,
        1,
        2
    ],
    "carDensity": 6.0,
    "suspension": 0.4498186409473419,
    "motorSpeed": 581,
    "frontDensity": 4.599999904632568,
    "frontRadius": 0.6614489555358887,
    "frontOffset": 0.9376953840255737,
    "backDensity": 3.5,
    "backRadius": 0.5500297546386719,
    "backOffset": -0.8397411108016968,
    "score": 24,
    "maxDistance": 4,
    "maxTime": 2.0,
    "speed": 2
}{
    "ID": 6970,
    "genomaID": "CV3TD9",
    "color": {
        "x": 0.09569336473941803,
        "y": 0.6536408066749573,
        "z": 0.3564881384372711
    },
    "vertexNumber": 3,
    "colliderVertices": [
        {
            "x": -1.2541747093200684,
            "y": -0.38386595249176028
        },
        {
            "x": 1.0193626880645753,
            "y": -0.271028071641922
        },
        {
            "x": 1.3762645721435547,
            "y": 0.10750925540924072
        }
    ],
    "triangles": [
        1,
        0,
        2
    ],
    "carDensity": 3.0,
    "suspension": 0.45985639095306399,
    "motorSpeed": 1478,
    "frontDensity": 3.4000000953674318,
    "frontRadius": 0.5441341996192932,
    "frontOffset": 0.5458955764770508,
    "backDensity": 3.4000000953674318,
    "backRadius": 0.5442493557929993,
    "backOffset": -1.4284188747406006,
    "score": -11,
    "maxDistance": -1,
    "maxTime": 1.0,
    "speed": -1
}