{
    "ID": 104831,
    "genomaID": "CV5TD14",
    "color": {
        "x": 0.9388390779495239,
        "y": 0.437438428401947,
        "z": 0.36826053261756899
    },
    "vertexNumber": 5,
    "colliderVertices": [
        {
            "x": -1.5008821487426758,
            "y": -0.310575395822525
        },
        {
            "x": 1.4064438343048096,
            "y": -0.48562872409820559
        },
        {
            "x": 0.37914395332336428,
            "y": 0.291989266872406
        },
        {
            "x": -0.11587643623352051,
            "y": 0.20232701301574708
        },
        {
            "x": -0.5279943943023682,
            "y": 0.39094430208206179
        }
    ],
    "triangles": [
        3,
        2,
        0,
        0,
        4,
        3,
        2,
        1,
        0
    ],
    "carDensity": 5.0,
    "suspension": 0.8102279901504517,
    "motorSpeed": 1200,
    "frontDensity": 4.800000190734863,
    "frontRadius": 0.68189936876297,
    "frontOffset": 1.42384672164917,
    "backDensity": 3.9000000953674318,
    "backRadius": 0.5918115973472595,
    "backOffset": -1.2019240856170655,
    "score": 937,
    "maxDistance": 832,
    "maxTime": 78.9000015258789,
    "speed": 11
}{
    "ID": 104856,
    "genomaID": "CV3TD11",
    "color": {
        "x": 0.1323385387659073,
        "y": 0.05233467370271683,
        "z": 0.0016689302865415812
    },
    "vertexNumber": 3,
    "colliderVertices": [
        {
            "x": -1.4903595447540284,
            "y": -0.07688982039690018
        },
        {
            "x": 1.6353117227554322,
            "y": -0.43294966220855715
        },
        {
            "x": -0.680962324142456,
            "y": 0.24219870567321778
        }
    ],
    "triangles": [
        1,
        0,
        2
    ],
    "carDensity": 3.0,
    "suspension": 0.8184705376625061,
    "motorSpeed": 869,
    "frontDensity": 4.900000095367432,
    "frontRadius": 0.6855190396308899,
    "frontOffset": 0.9102741479873657,
    "backDensity": 2.9000000953674318,
    "backRadius": 0.49355900287628176,
    "backOffset": -1.2002017498016358,
    "score": 912,
    "maxDistance": 833,
    "maxTime": 105.80000305175781,
    "speed": 8
}{
    "ID": 104854,
    "genomaID": "CV3TD11",
    "color": {
        "x": 0.207728773355484,
        "y": 0.2794424593448639,
        "z": 0.6410993933677673
    },
    "vertexNumber": 3,
    "colliderVertices": [
        {
            "x": -1.6157710552215577,
            "y": -0.29817453026771548
        },
        {
            "x": 1.3510942459106446,
            "y": -0.13528861105442048
        },
        {
            "x": -0.8149821758270264,
            "y": 0.4534052014350891
        }
    ],
    "triangles": [
        1,
        0,
        2
    ],
    "carDensity": 3.0,
    "suspension": 0.8296226859092712,
    "motorSpeed": 851,
    "frontDensity": 4.800000190734863,
    "frontRadius": 0.6848597526550293,
    "frontOffset": 1.2278811931610108,
    "backDensity": 3.0999999046325685,
    "backRadius": 0.508186936378479,
    "backOffset": -0.8483158349990845,
    "score": 910,
    "maxDistance": 833,
    "maxTime": 108.69999694824219,
    "speed": 8
}{
    "ID": 104989,
    "genomaID": "CV3TD11",
    "color": {
        "x": 0.2850213348865509,
        "y": 0.19931009411811829,
        "z": 0.833501935005188
    },
    "vertexNumber": 3,
    "colliderVertices": [
        {
            "x": -1.880523681640625,
            "y": -0.1485968977212906
        },
        {
            "x": 1.4883606433868409,
            "y": -0.17420406639575959
        },
        {
            "x": -1.3131742477416993,
            "y": 0.4692763686180115
        }
    ],
    "triangles": [
        1,
        0,
        2
    ],
    "carDensity": 3.0,
    "suspension": 0.9773052334785461,
    "motorSpeed": 869,
    "frontDensity": 4.699999809265137,
    "frontRadius": 0.6709414720535278,
    "frontOffset": 0.9551962614059448,
    "backDensity": 3.299999952316284,
    "backRadius": 0.5311817526817322,
    "backOffset": -0.9652167558670044,
    "score": 18,
    "maxDistance": 3,
    "maxTime": 1.899999976158142,
    "speed": 2
}{
    "ID": 104998,
    "genomaID": "CV3TD12",
    "color": {
        "x": 0.8288270235061646,
        "y": 0.1767282634973526,
        "z": 0.6346012949943543
    },
    "vertexNumber": 3,
    "colliderVertices": [
        {
            "x": -1.4268651008605958,
            "y": -0.039421383291482928
        },
        {
            "x": 1.2148345708847047,
            "y": -0.2895680367946625
        },
        {
            "x": 1.1834793090820313,
            "y": 0.19412493705749513
        }
    ],
    "triangles": [
        1,
        0,
        2
    ],
    "carDensity": 3.0,
    "suspension": 0.6834380626678467,
    "motorSpeed": 851,
    "frontDensity": 4.800000190734863,
    "frontRadius": 0.678674578666687,
    "frontOffset": 1.0854276418685914,
    "backDensity": 4.300000190734863,
    "backRadius": 0.6345572471618652,
    "backOffset": -0.5598019361495972,
    "score": 0,
    "maxDistance": 0,
    "maxTime": 0.8999999761581421,
    "speed": 0
}