{
    "ID": 11954,
    "genomaID": "CV3TD9",
    "color": {
        "x": 0.6879891753196716,
        "y": 0.5909647345542908,
        "z": 0.28141656517982485
    },
    "vertexNumber": 3,
    "colliderVertices": [
        {
            "x": -1.2541747093200684,
            "y": -0.38386595249176028
        },
        {
            "x": 1.0193626880645753,
            "y": -0.271028071641922
        },
        {
            "x": 1.3762645721435547,
            "y": 0.10750925540924072
        }
    ],
    "triangles": [
        1,
        0,
        2
    ],
    "carDensity": 3.0,
    "suspension": 0.7588680982589722,
    "motorSpeed": 938,
    "frontDensity": 4.099999904632568,
    "frontRadius": 0.6124105453491211,
    "frontOffset": 1.336734652519226,
    "backDensity": 2.299999952316284,
    "backRadius": 0.4301910996437073,
    "backOffset": -1.21971595287323,
    "score": 911,
    "maxDistance": 833,
    "maxTime": 107.30000305175781,
    "speed": 8
}{
    "ID": 11929,
    "genomaID": "CV3TD10",
    "color": {
        "x": 0.5148695111274719,
        "y": 0.07552278786897659,
        "z": 0.2990700304508209
    },
    "vertexNumber": 3,
    "colliderVertices": [
        {
            "x": -1.2541747093200684,
            "y": -0.38386595249176028
        },
        {
            "x": 1.0193626880645753,
            "y": -0.271028071641922
        },
        {
            "x": 1.3762645721435547,
            "y": 0.10750925540924072
        }
    ],
    "triangles": [
        1,
        0,
        2
    ],
    "carDensity": 3.0,
    "suspension": 0.5818006992340088,
    "motorSpeed": 710,
    "frontDensity": 3.799999952316284,
    "frontRadius": 0.5844048261642456,
    "frontOffset": 1.081262230873108,
    "backDensity": 3.0999999046325685,
    "backRadius": 0.5140807628631592,
    "backOffset": -0.9181336164474487,
    "score": 894,
    "maxDistance": 833,
    "maxTime": 136.8000030517578,
    "speed": 6
}{
    "ID": 11813,
    "genomaID": "CV3TD9",
    "color": {
        "x": 0.2999573051929474,
        "y": 0.8041330575942993,
        "z": 0.9977710247039795
    },
    "vertexNumber": 3,
    "colliderVertices": [
        {
            "x": -1.2541747093200684,
            "y": -0.38386595249176028
        },
        {
            "x": 1.0193626880645753,
            "y": -0.271028071641922
        },
        {
            "x": 1.3762645721435547,
            "y": 0.10750925540924072
        }
    ],
    "triangles": [
        1,
        0,
        2
    ],
    "carDensity": 3.0,
    "suspension": 0.6155965328216553,
    "motorSpeed": 710,
    "frontDensity": 3.5999999046325685,
    "frontRadius": 0.5609493255615234,
    "frontOffset": 0.9529803991317749,
    "backDensity": 2.5,
    "backRadius": 0.4495101869106293,
    "backOffset": -0.7599497437477112,
    "score": 891,
    "maxDistance": 833,
    "maxTime": 144.0,
    "speed": 6
}{
    "ID": 11889,
    "genomaID": "CV3TD10",
    "color": {
        "x": 0.7408681511878967,
        "y": 0.22221150994300843,
        "z": 0.2653341591358185
    },
    "vertexNumber": 3,
    "colliderVertices": [
        {
            "x": -1.2541747093200684,
            "y": -0.38386595249176028
        },
        {
            "x": 1.0193626880645753,
            "y": -0.271028071641922
        },
        {
            "x": 1.3762645721435547,
            "y": 0.10750925540924072
        }
    ],
    "triangles": [
        1,
        0,
        2
    ],
    "carDensity": 3.0,
    "suspension": 0.7645650506019592,
    "motorSpeed": 1329,
    "frontDensity": 3.5999999046325685,
    "frontRadius": 0.5609493255615234,
    "frontOffset": 1.4580895900726319,
    "backDensity": 3.0,
    "backRadius": 0.49538785219192507,
    "backOffset": -1.1919493675231934,
    "score": 54,
    "maxDistance": 15,
    "maxTime": 3.9000000953674318,
    "speed": 4
}{
    "ID": 11999,
    "genomaID": "CV3TD9",
    "color": {
        "x": 0.20653727650642396,
        "y": 0.7379440665245056,
        "z": 0.5660251975059509
    },
    "vertexNumber": 3,
    "colliderVertices": [
        {
            "x": -1.2541747093200684,
            "y": -0.38386595249176028
        },
        {
            "x": 1.0193626880645753,
            "y": -0.271028071641922
        },
        {
            "x": 1.3762645721435547,
            "y": 0.10750925540924072
        }
    ],
    "triangles": [
        1,
        0,
        2
    ],
    "carDensity": 3.0,
    "suspension": 0.7215014696121216,
    "motorSpeed": 725,
    "frontDensity": 2.5999999046325685,
    "frontRadius": 0.45977580547332766,
    "frontOffset": 0.8996528387069702,
    "backDensity": 3.0999999046325685,
    "backRadius": 0.5140807628631592,
    "backOffset": -0.6172605752944946,
    "score": 0,
    "maxDistance": 0,
    "maxTime": 0.8999999761581421,
    "speed": 0
}