{
    "ID": 66002,
    "genomaID": "CV3TD12",
    "color": {
        "x": 0.9623392820358276,
        "y": 0.11472178995609284,
        "z": 0.9211682081222534
    },
    "vertexNumber": 3,
    "colliderVertices": [
        {
            "x": -1.615149736404419,
            "y": -0.08056289702653885
        },
        {
            "x": 1.1510634422302247,
            "y": -0.4890420436859131
        },
        {
            "x": -0.87314772605896,
            "y": 0.506628692150116
        }
    ],
    "triangles": [
        1,
        0,
        2
    ],
    "carDensity": 3.0,
    "suspension": 0.8289597034454346,
    "motorSpeed": 851,
    "frontDensity": 4.699999809265137,
    "frontRadius": 0.6659700870513916,
    "frontOffset": 0.9974621534347534,
    "backDensity": 4.099999904632568,
    "backRadius": 0.6062093377113342,
    "backOffset": -0.7411350011825562,
    "score": 916,
    "maxDistance": 834,
    "maxTime": 101.4000015258789,
    "speed": 8
}{
    "ID": 66176,
    "genomaID": "CV3TD12",
    "color": {
        "x": 0.5646211504936218,
        "y": 0.5388018488883972,
        "z": 0.891024112701416
    },
    "vertexNumber": 3,
    "colliderVertices": [
        {
            "x": -1.7552342414855958,
            "y": -0.4139992594718933
        },
        {
            "x": 1.2257237434387208,
            "y": -0.3140837252140045
        },
        {
            "x": -1.2028508186340333,
            "y": 0.2859709858894348
        }
    ],
    "triangles": [
        1,
        0,
        2
    ],
    "carDensity": 3.0,
    "suspension": 0.5003143548965454,
    "motorSpeed": 851,
    "frontDensity": 4.800000190734863,
    "frontRadius": 0.6790211200714111,
    "frontOffset": 1.4029873609542847,
    "backDensity": 4.099999904632568,
    "backRadius": 0.6070380806922913,
    "backOffset": -0.6830474138259888,
    "score": 914,
    "maxDistance": 833,
    "maxTime": 102.4000015258789,
    "speed": 8
}{
    "ID": 66101,
    "genomaID": "CV3TD11",
    "color": {
        "x": 0.27885201573371889,
        "y": 0.885794997215271,
        "z": 0.33655062317848208
    },
    "vertexNumber": 3,
    "colliderVertices": [
        {
            "x": -1.615149736404419,
            "y": -0.08056289702653885
        },
        {
            "x": 1.1510634422302247,
            "y": -0.4890420436859131
        },
        {
            "x": -0.87314772605896,
            "y": 0.506628692150116
        }
    ],
    "triangles": [
        1,
        0,
        2
    ],
    "carDensity": 3.0,
    "suspension": 0.4122346043586731,
    "motorSpeed": 841,
    "frontDensity": 4.900000095367432,
    "frontRadius": 0.6923644542694092,
    "frontOffset": 0.962527871131897,
    "backDensity": 3.200000047683716,
    "backRadius": 0.5207129716873169,
    "backOffset": -1.0380579233169556,
    "score": 911,
    "maxDistance": 834,
    "maxTime": 108.30000305175781,
    "speed": 8
}{
    "ID": 66149,
    "genomaID": "CV3TD12",
    "color": {
        "x": 0.6384986042976379,
        "y": 0.9156663417816162,
        "z": 0.5310222506523132
    },
    "vertexNumber": 3,
    "colliderVertices": [
        {
            "x": -1.615149736404419,
            "y": -0.08056289702653885
        },
        {
            "x": 1.1510634422302247,
            "y": -0.4890420436859131
        },
        {
            "x": -0.87314772605896,
            "y": 0.506628692150116
        }
    ],
    "triangles": [
        1,
        0,
        2
    ],
    "carDensity": 3.0,
    "suspension": 0.887561023235321,
    "motorSpeed": 851,
    "frontDensity": 4.699999809265137,
    "frontRadius": 0.6659700870513916,
    "frontOffset": 0.6251298189163208,
    "backDensity": 4.099999904632568,
    "backRadius": 0.6062093377113342,
    "backOffset": -0.7609836459159851,
    "score": 13,
    "maxDistance": 2,
    "maxTime": 1.7999999523162842,
    "speed": 1
}{
    "ID": 66198,
    "genomaID": "CV3TD12",
    "color": {
        "x": 0.8288270235061646,
        "y": 0.1767282634973526,
        "z": 0.6346012949943543
    },
    "vertexNumber": 3,
    "colliderVertices": [
        {
            "x": -1.615149736404419,
            "y": -0.08056289702653885
        },
        {
            "x": 1.1510634422302247,
            "y": -0.4890420436859131
        },
        {
            "x": -0.87314772605896,
            "y": 0.506628692150116
        }
    ],
    "triangles": [
        1,
        0,
        2
    ],
    "carDensity": 3.0,
    "suspension": 0.5907760858535767,
    "motorSpeed": 710,
    "frontDensity": 4.900000095367432,
    "frontRadius": 0.6900220513343811,
    "frontOffset": 0.9509569406509399,
    "backDensity": 3.700000047683716,
    "backRadius": 0.5727956295013428,
    "backOffset": -1.0093480348587037,
    "score": 0,
    "maxDistance": 0,
    "maxTime": 0.800000011920929,
    "speed": 0
}