{
    "ID": 81035,
    "genomaID": "CV3TD12",
    "color": {
        "x": 0.5232427716255188,
        "y": 0.3716043531894684,
        "z": 0.0048233275301754478
    },
    "vertexNumber": 3,
    "colliderVertices": [
        {
            "x": -1.615149736404419,
            "y": -0.08056289702653885
        },
        {
            "x": 1.1510634422302247,
            "y": -0.4890420436859131
        },
        {
            "x": -0.87314772605896,
            "y": 0.506628692150116
        }
    ],
    "triangles": [
        1,
        0,
        2
    ],
    "carDensity": 3.0,
    "suspension": 0.47621458768844607,
    "motorSpeed": 851,
    "frontDensity": 4.800000190734863,
    "frontRadius": 0.6819571256637573,
    "frontOffset": 0.5694378614425659,
    "backDensity": 3.9000000953674318,
    "backRadius": 0.5904068946838379,
    "backOffset": -1.0060805082321168,
    "score": 915,
    "maxDistance": 834,
    "maxTime": 103.19999694824219,
    "speed": 8
}{
    "ID": 81015,
    "genomaID": "CV3TD12",
    "color": {
        "x": 0.6324389576911926,
        "y": 0.4681466221809387,
        "z": 0.2554509937763214
    },
    "vertexNumber": 3,
    "colliderVertices": [
        {
            "x": -1.3146932125091553,
            "y": -0.35629478096961977
        },
        {
            "x": 1.1096062660217286,
            "y": -0.44019651412963869
        },
        {
            "x": -1.8295903205871583,
            "y": 0.6733900308609009
        }
    ],
    "triangles": [
        1,
        0,
        2
    ],
    "carDensity": 3.0,
    "suspension": 0.9193080067634583,
    "motorSpeed": 851,
    "frontDensity": 4.699999809265137,
    "frontRadius": 0.6703457832336426,
    "frontOffset": 1.1829211711883546,
    "backDensity": 3.700000047683716,
    "backRadius": 0.5727956295013428,
    "backOffset": -1.29623544216156,
    "score": 913,
    "maxDistance": 834,
    "maxTime": 105.19999694824219,
    "speed": 8
}{
    "ID": 81102,
    "genomaID": "CV3TD12",
    "color": {
        "x": 0.9907965660095215,
        "y": 0.6384530663490295,
        "z": 0.3951743245124817
    },
    "vertexNumber": 3,
    "colliderVertices": [
        {
            "x": -1.3365752696990967,
            "y": -0.277400940656662
        },
        {
            "x": 1.6808668375015259,
            "y": -0.27248135209083559
        },
        {
            "x": -0.9843099117279053,
            "y": 0.7557973861694336
        }
    ],
    "triangles": [
        1,
        0,
        2
    ],
    "carDensity": 3.0,
    "suspension": 0.8804476857185364,
    "motorSpeed": 851,
    "frontDensity": 4.599999904632568,
    "frontRadius": 0.6637872457504273,
    "frontOffset": 1.1674021482467652,
    "backDensity": 3.5999999046325685,
    "backRadius": 0.5636851787567139,
    "backOffset": -0.9907368421554565,
    "score": 911,
    "maxDistance": 833,
    "maxTime": 106.5,
    "speed": 8
}{
    "ID": 81128,
    "genomaID": "CV4TD12",
    "color": {
        "x": 0.41994935274124148,
        "y": 0.1704275757074356,
        "z": 0.1830092817544937
    },
    "vertexNumber": 4,
    "colliderVertices": [
        {
            "x": -1.3645997047424317,
            "y": -0.2897184193134308
        },
        {
            "x": 1.8960250616073609,
            "y": -0.3753138780593872
        },
        {
            "x": -0.5266406536102295,
            "y": 0.3081262707710266
        },
        {
            "x": -1.4313359260559083,
            "y": 0.026447176933288575
        }
    ],
    "triangles": [
        3,
        2,
        1,
        1,
        0,
        3
    ],
    "carDensity": 4.0,
    "suspension": 0.9743959903717041,
    "motorSpeed": 803,
    "frontDensity": 4.599999904632568,
    "frontRadius": 0.660163938999176,
    "frontOffset": 0.8323546051979065,
    "backDensity": 3.4000000953674318,
    "backRadius": 0.5443997979164124,
    "backOffset": -1.1968622207641602,
    "score": 13,
    "maxDistance": 2,
    "maxTime": 1.899999976158142,
    "speed": 1
}{
    "ID": 81200,
    "genomaID": "CV4TD13",
    "color": {
        "x": 0.7157778143882752,
        "y": 0.7526435852050781,
        "z": 0.5779417157173157
    },
    "vertexNumber": 4,
    "colliderVertices": [
        {
            "x": -1.629990816116333,
            "y": -0.21831294894218446
        },
        {
            "x": 1.1102324724197388,
            "y": -0.09485043585300446
        },
        {
            "x": 1.672475814819336,
            "y": 0.3639271855354309
        },
        {
            "x": -0.009595155715942383,
            "y": 0.5534471869468689
        }
    ],
    "triangles": [
        3,
        2,
        1,
        1,
        0,
        3
    ],
    "carDensity": 4.0,
    "suspension": 0.6886901259422302,
    "motorSpeed": 851,
    "frontDensity": 4.800000190734863,
    "frontRadius": 0.6810335516929627,
    "frontOffset": 0.6932899951934815,
    "backDensity": 3.9000000953674318,
    "backRadius": 0.591224193572998,
    "backOffset": -1.2336359024047852,
    "score": 0,
    "maxDistance": 0,
    "maxTime": 0.8999999761581421,
    "speed": 0
}