{
    "ID": 118683,
    "genomaID": "CV3TD11",
    "color": {
        "x": 0.15972353518009187,
        "y": 0.53553706407547,
        "z": 0.18321241438388825
    },
    "vertexNumber": 3,
    "colliderVertices": [
        {
            "x": -1.4790287017822266,
            "y": -0.42688870429992678
        },
        {
            "x": 1.1591321229934693,
            "y": -0.4714164733886719
        },
        {
            "x": -0.429431676864624,
            "y": 0.6848815679550171
        }
    ],
    "triangles": [
        1,
        0,
        2
    ],
    "carDensity": 3.0,
    "suspension": 0.4995717704296112,
    "motorSpeed": 940,
    "frontDensity": 4.400000095367432,
    "frontRadius": 0.6385026574134827,
    "frontOffset": 0.513933539390564,
    "backDensity": 3.700000047683716,
    "backRadius": 0.5656377077102661,
    "backOffset": -1.2543866634368897,
    "score": 917,
    "maxDistance": 833,
    "maxTime": 99.4000015258789,
    "speed": 8
}{
    "ID": 118715,
    "genomaID": "CV3TD12",
    "color": {
        "x": 0.7853478193283081,
        "y": 0.6659738421440125,
        "z": 0.621863067150116
    },
    "vertexNumber": 3,
    "colliderVertices": [
        {
            "x": -1.4790287017822266,
            "y": -0.42688870429992678
        },
        {
            "x": 1.1591321229934693,
            "y": -0.4714164733886719
        },
        {
            "x": -0.429431676864624,
            "y": 0.6848815679550171
        }
    ],
    "triangles": [
        1,
        0,
        2
    ],
    "carDensity": 3.0,
    "suspension": 0.8138747215270996,
    "motorSpeed": 869,
    "frontDensity": 4.699999809265137,
    "frontRadius": 0.6731094717979431,
    "frontOffset": 0.513933539390564,
    "backDensity": 3.5999999046325685,
    "backRadius": 0.5557421445846558,
    "backOffset": -1.2343019247055054,
    "score": 913,
    "maxDistance": 833,
    "maxTime": 104.69999694824219,
    "speed": 8
}{
    "ID": 118638,
    "genomaID": "CV3TD11",
    "color": {
        "x": 0.473757803440094,
        "y": 0.4240033030509949,
        "z": 0.13615132868289948
    },
    "vertexNumber": 3,
    "colliderVertices": [
        {
            "x": -1.87174654006958,
            "y": -0.48871129751205447
        },
        {
            "x": 1.4022159576416016,
            "y": -0.3172537386417389
        },
        {
            "x": -1.1397089958190919,
            "y": 0.2695292830467224
        }
    ],
    "triangles": [
        1,
        0,
        2
    ],
    "carDensity": 3.0,
    "suspension": 0.7108128666877747,
    "motorSpeed": 858,
    "frontDensity": 4.900000095367432,
    "frontRadius": 0.6920121908187866,
    "frontOffset": 0.9488304853439331,
    "backDensity": 3.299999952316284,
    "backRadius": 0.5267398357391357,
    "backOffset": -1.1287661790847779,
    "score": 911,
    "maxDistance": 833,
    "maxTime": 106.9000015258789,
    "speed": 8
}{
    "ID": 118617,
    "genomaID": "CV3TD10",
    "color": {
        "x": 0.06466711312532425,
        "y": 0.33973923325538638,
        "z": 0.8371891975402832
    },
    "vertexNumber": 3,
    "colliderVertices": [
        {
            "x": -1.4790287017822266,
            "y": -0.42688870429992678
        },
        {
            "x": 1.1591321229934693,
            "y": -0.4714164733886719
        },
        {
            "x": -0.429431676864624,
            "y": 0.6848815679550171
        }
    ],
    "triangles": [
        1,
        0,
        2
    ],
    "carDensity": 3.0,
    "suspension": 0.9263938069343567,
    "motorSpeed": 869,
    "frontDensity": 3.200000047683716,
    "frontRadius": 0.5158765912055969,
    "frontOffset": 0.513933539390564,
    "backDensity": 3.5999999046325685,
    "backRadius": 0.5557421445846558,
    "backOffset": -1.2343019247055054,
    "score": 0,
    "maxDistance": 0,
    "maxTime": 1.0,
    "speed": 0
}{
    "ID": 118774,
    "genomaID": "CV3TD11",
    "color": {
        "x": 0.16558422148227693,
        "y": 0.6600871682167053,
        "z": 0.13062037527561189
    },
    "vertexNumber": 3,
    "colliderVertices": [
        {
            "x": -1.87174654006958,
            "y": -0.48871129751205447
        },
        {
            "x": 1.4022159576416016,
            "y": -0.3172537386417389
        },
        {
            "x": -1.1397089958190919,
            "y": 0.2695292830467224
        }
    ],
    "triangles": [
        1,
        0,
        2
    ],
    "carDensity": 3.0,
    "suspension": 0.42388325929641726,
    "motorSpeed": 858,
    "frontDensity": 3.5999999046325685,
    "frontRadius": 0.5607544779777527,
    "frontOffset": 0.8562906980514526,
    "backDensity": 4.5,
    "backRadius": 0.6546332240104675,
    "backOffset": -1.3228166103363038,
    "score": -11,
    "maxDistance": -1,
    "maxTime": 1.0,
    "speed": -1
}