{
    "ID": 36112,
    "genomaID": "CV4TD13",
    "color": {
        "x": 0.42164772748947146,
        "y": 0.7253873944282532,
        "z": 0.8201931715011597
    },
    "vertexNumber": 4,
    "colliderVertices": [
        {
            "x": -1.6253166198730469,
            "y": -0.3372003138065338
        },
        {
            "x": 1.4561243057250977,
            "y": -0.47253841161727908
        },
        {
            "x": -0.18962311744689942,
            "y": 0.2976929545402527
        },
        {
            "x": -0.7036993503570557,
            "y": 0.49902552366256716
        }
    ],
    "triangles": [
        3,
        2,
        1,
        1,
        0,
        3
    ],
    "carDensity": 4.0,
    "suspension": 0.9881467223167419,
    "motorSpeed": 864,
    "frontDensity": 4.900000095367432,
    "frontRadius": 0.6877074241638184,
    "frontOffset": 1.3662527799606324,
    "backDensity": 3.9000000953674318,
    "backRadius": 0.5904344916343689,
    "backOffset": -0.5931792259216309,
    "score": 916,
    "maxDistance": 834,
    "maxTime": 101.5,
    "speed": 8
}{
    "ID": 36126,
    "genomaID": "CV3TD11",
    "color": {
        "x": 0.9714512825012207,
        "y": 0.9411721229553223,
        "z": 0.5284295678138733
    },
    "vertexNumber": 3,
    "colliderVertices": [
        {
            "x": -1.2415111064910889,
            "y": -0.332523912191391
        },
        {
            "x": 1.2988438606262208,
            "y": -0.2140497863292694
        },
        {
            "x": -1.6646909713745118,
            "y": 0.4260508418083191
        }
    ],
    "triangles": [
        1,
        0,
        2
    ],
    "carDensity": 3.0,
    "suspension": 0.5491193532943726,
    "motorSpeed": 881,
    "frontDensity": 4.900000095367432,
    "frontRadius": 0.6877074241638184,
    "frontOffset": 1.0848230123519898,
    "backDensity": 3.0,
    "backRadius": 0.4971954822540283,
    "backOffset": -1.4015283584594727,
    "score": 912,
    "maxDistance": 834,
    "maxTime": 106.80000305175781,
    "speed": 8
}{
    "ID": 36011,
    "genomaID": "CV3TD11",
    "color": {
        "x": 0.3950609564781189,
        "y": 0.9663015604019165,
        "z": 0.10336209833621979
    },
    "vertexNumber": 3,
    "colliderVertices": [
        {
            "x": -1.3214707374572755,
            "y": -0.17451073229312898
        },
        {
            "x": 1.5323352813720704,
            "y": -0.06335759907960892
        },
        {
            "x": -1.5806546211242676,
            "y": 0.5031101107597351
        }
    ],
    "triangles": [
        1,
        0,
        2
    ],
    "carDensity": 3.0,
    "suspension": 0.5640919208526611,
    "motorSpeed": 529,
    "frontDensity": 4.699999809265137,
    "frontRadius": 0.6739943027496338,
    "frontOffset": 1.4265663623809815,
    "backDensity": 3.4000000953674318,
    "backRadius": 0.5411863327026367,
    "backOffset": -0.7063478231430054,
    "score": 733,
    "maxDistance": 682,
    "maxTime": 134.39999389648438,
    "speed": 5
}{
    "ID": 36164,
    "genomaID": "CV5TD13",
    "color": {
        "x": 0.5360366702079773,
        "y": 0.385536253452301,
        "z": 0.09161461144685745
    },
    "vertexNumber": 5,
    "colliderVertices": [
        {
            "x": -1.6692321300506592,
            "y": -0.11849130690097809
        },
        {
            "x": 1.4218025207519532,
            "y": -0.10102303326129914
        },
        {
            "x": 0.613430917263031,
            "y": 0.45236891508102419
        },
        {
            "x": -1.6808290481567383,
            "y": 0.4011935591697693
        },
        {
            "x": -1.9339733123779297,
            "y": 0.25062304735183718
        }
    ],
    "triangles": [
        1,
        4,
        3,
        3,
        2,
        1,
        1,
        0,
        4
    ],
    "carDensity": 5.0,
    "suspension": 0.533840537071228,
    "motorSpeed": 864,
    "frontDensity": 4.900000095367432,
    "frontRadius": 0.6877074241638184,
    "frontOffset": 1.222575068473816,
    "backDensity": 3.200000047683716,
    "backRadius": 0.5216219425201416,
    "backOffset": -0.9075554609298706,
    "score": 13,
    "maxDistance": 2,
    "maxTime": 1.7999999523162842,
    "speed": 1
}{
    "ID": 36200,
    "genomaID": "CV3TD8",
    "color": {
        "x": 0.7157778143882752,
        "y": 0.7526435852050781,
        "z": 0.5779417157173157
    },
    "vertexNumber": 3,
    "colliderVertices": [
        {
            "x": -1.3214707374572755,
            "y": -0.17451073229312898
        },
        {
            "x": 1.5323352813720704,
            "y": -0.06335759907960892
        },
        {
            "x": -1.5806546211242676,
            "y": 0.5031101107597351
        }
    ],
    "triangles": [
        1,
        0,
        2
    ],
    "carDensity": 3.0,
    "suspension": 0.8987960815429688,
    "motorSpeed": 864,
    "frontDensity": 2.0,
    "frontRadius": 0.4046507477760315,
    "frontOffset": 0.6858370304107666,
    "backDensity": 3.4000000953674318,
    "backRadius": 0.5411863327026367,
    "backOffset": -0.7063478231430054,
    "score": 0,
    "maxDistance": 0,
    "maxTime": 0.800000011920929,
    "speed": 0
}