{
    "ID": 14937,
    "genomaID": "CV4TD12",
    "color": {
        "x": 0.35887065529823305,
        "y": 0.6983789801597595,
        "z": 0.3055068552494049
    },
    "vertexNumber": 4,
    "colliderVertices": [
        {
            "x": -1.4980177879333497,
            "y": -0.4272273778915405
        },
        {
            "x": 1.1730620861053467,
            "y": -0.43692779541015627
        },
        {
            "x": -1.814589023590088,
            "y": 0.21405422687530518
        },
        {
            "x": -1.962052345275879,
            "y": 0.4246276021003723
        }
    ],
    "triangles": [
        0,
        3,
        2,
        2,
        1,
        0
    ],
    "carDensity": 4.0,
    "suspension": 0.8273947238922119,
    "motorSpeed": 871,
    "frontDensity": 4.599999904632568,
    "frontRadius": 0.6598317623138428,
    "frontOffset": 1.445523977279663,
    "backDensity": 2.700000047683716,
    "backRadius": 0.4710909128189087,
    "backOffset": -1.2470252513885499,
    "score": 909,
    "maxDistance": 834,
    "maxTime": 111.4000015258789,
    "speed": 7
}{
    "ID": 14828,
    "genomaID": "CV3TD10",
    "color": {
        "x": 0.21284857392311097,
        "y": 0.5834235548973084,
        "z": 0.923439621925354
    },
    "vertexNumber": 3,
    "colliderVertices": [
        {
            "x": -1.7412893772125245,
            "y": -0.24600020051002503
        },
        {
            "x": 1.6365805864334107,
            "y": -0.11980439722537995
        },
        {
            "x": -1.7040982246398926,
            "y": 0.012483358383178711
        }
    ],
    "triangles": [
        1,
        0,
        2
    ],
    "carDensity": 3.0,
    "suspension": 0.9748323559761047,
    "motorSpeed": 696,
    "frontDensity": 4.099999904632568,
    "frontRadius": 0.6126639246940613,
    "frontOffset": 1.2907428741455079,
    "backDensity": 2.5999999046325685,
    "backRadius": 0.4603666067123413,
    "backOffset": -0.992690920829773,
    "score": 893,
    "maxDistance": 833,
    "maxTime": 138.8000030517578,
    "speed": 6
}{
    "ID": 14894,
    "genomaID": "CV3TD8",
    "color": {
        "x": 0.9743155241012573,
        "y": 0.7195313572883606,
        "z": 0.18392349779605866
    },
    "vertexNumber": 3,
    "colliderVertices": [
        {
            "x": -1.6530086994171143,
            "y": -0.20500448346138
        },
        {
            "x": 1.0130809545516968,
            "y": -0.27738508582115176
        },
        {
            "x": 1.0394701957702637,
            "y": 0.09570145606994629
        }
    ],
    "triangles": [
        1,
        0,
        2
    ],
    "carDensity": 3.0,
    "suspension": 0.5109349489212036,
    "motorSpeed": 742,
    "frontDensity": 3.200000047683716,
    "frontRadius": 0.5158510208129883,
    "frontOffset": 1.4939134120941163,
    "backDensity": 2.5,
    "backRadius": 0.45481961965560915,
    "backOffset": -1.0633381605148316,
    "score": 890,
    "maxDistance": 833,
    "maxTime": 146.5,
    "speed": 6
}{
    "ID": 14834,
    "genomaID": "CV5TD10",
    "color": {
        "x": 0.804320216178894,
        "y": 0.13390614092350007,
        "z": 0.699569046497345
    },
    "vertexNumber": 5,
    "colliderVertices": [
        {
            "x": -1.7219383716583253,
            "y": -0.49840283393859866
        },
        {
            "x": 1.420952320098877,
            "y": -0.21779558062553407
        },
        {
            "x": 0.5491299033164978,
            "y": 0.1387864351272583
        },
        {
            "x": -0.7378780841827393,
            "y": 0.09876692295074463
        },
        {
            "x": -1.076493263244629,
            "y": 0.5499830842018127
        }
    ],
    "triangles": [
        3,
        2,
        0,
        0,
        4,
        3,
        2,
        1,
        0
    ],
    "carDensity": 5.0,
    "suspension": 0.7397447228431702,
    "motorSpeed": 742,
    "frontDensity": 2.200000047683716,
    "frontRadius": 0.4152580201625824,
    "frontOffset": 1.4858219623565674,
    "backDensity": 3.4000000953674318,
    "backRadius": 0.5373395085334778,
    "backOffset": -1.478249430656433,
    "score": 30,
    "maxDistance": 5,
    "maxTime": 2.0,
    "speed": 3
}{
    "ID": 15000,
    "genomaID": "CV3TD11",
    "color": {
        "x": 0.7157778143882752,
        "y": 0.7526435852050781,
        "z": 0.5779417157173157
    },
    "vertexNumber": 3,
    "colliderVertices": [
        {
            "x": -1.3666658401489258,
            "y": -0.22882482409477235
        },
        {
            "x": 1.5621507167816163,
            "y": -0.3761718273162842
        },
        {
            "x": 0.6666788458824158,
            "y": 0.6275278329849243
        }
    ],
    "triangles": [
        1,
        0,
        2
    ],
    "carDensity": 3.0,
    "suspension": 0.8273947238922119,
    "motorSpeed": 1380,
    "frontDensity": 3.9000000953674318,
    "frontRadius": 0.5894964933395386,
    "frontOffset": 1.445523977279663,
    "backDensity": 3.799999952316284,
    "backRadius": 0.5753019452095032,
    "backOffset": -1.1380236148834229,
    "score": 0,
    "maxDistance": 0,
    "maxTime": 1.0,
    "speed": 0
}