{
    "ID": 127677,
    "genomaID": "CV3TD12",
    "color": {
        "x": 0.14412035048007966,
        "y": 0.6549108624458313,
        "z": 0.8956549167633057
    },
    "vertexNumber": 3,
    "colliderVertices": [
        {
            "x": -1.87174654006958,
            "y": -0.48871129751205447
        },
        {
            "x": 1.4022159576416016,
            "y": -0.3172537386417389
        },
        {
            "x": -1.1397089958190919,
            "y": 0.2695292830467224
        }
    ],
    "triangles": [
        1,
        0,
        2
    ],
    "carDensity": 3.0,
    "suspension": 0.4981442391872406,
    "motorSpeed": 858,
    "frontDensity": 4.900000095367432,
    "frontRadius": 0.6920121908187866,
    "frontOffset": 1.3879289627075196,
    "backDensity": 4.099999904632568,
    "backRadius": 0.6114500164985657,
    "backOffset": -1.0711561441421509,
    "score": 917,
    "maxDistance": 834,
    "maxTime": 100.30000305175781,
    "speed": 8
}{
    "ID": 127618,
    "genomaID": "CV3TD11",
    "color": {
        "x": 0.10304059088230133,
        "y": 0.24252107739448548,
        "z": 0.42268627882003786
    },
    "vertexNumber": 3,
    "colliderVertices": [
        {
            "x": -1.87174654006958,
            "y": -0.48871129751205447
        },
        {
            "x": 1.4022159576416016,
            "y": -0.3172537386417389
        },
        {
            "x": -1.1397089958190919,
            "y": 0.2695292830467224
        }
    ],
    "triangles": [
        1,
        0,
        2
    ],
    "carDensity": 3.0,
    "suspension": 0.5506638288497925,
    "motorSpeed": 877,
    "frontDensity": 4.900000095367432,
    "frontRadius": 0.6920121908187866,
    "frontOffset": 1.0626250505447388,
    "backDensity": 3.4000000953674318,
    "backRadius": 0.535703182220459,
    "backOffset": -0.7913451790809631,
    "score": 913,
    "maxDistance": 833,
    "maxTime": 104.19999694824219,
    "speed": 8
}{
    "ID": 127621,
    "genomaID": "CV4TD13",
    "color": {
        "x": 0.40347129106521609,
        "y": 0.9957618713378906,
        "z": 0.7073728442192078
    },
    "vertexNumber": 4,
    "colliderVertices": [
        {
            "x": -1.7166693210601807,
            "y": -0.17999549210071565
        },
        {
            "x": 1.87736976146698,
            "y": -0.4954484701156616
        },
        {
            "x": -0.59067702293396,
            "y": 0.5876768231391907
        },
        {
            "x": -0.7953126430511475,
            "y": 0.2921033501625061
        }
    ],
    "triangles": [
        3,
        2,
        1,
        1,
        0,
        3
    ],
    "carDensity": 4.0,
    "suspension": 0.4981442391872406,
    "motorSpeed": 858,
    "frontDensity": 4.900000095367432,
    "frontRadius": 0.6920121908187866,
    "frontOffset": 1.3190586566925049,
    "backDensity": 3.799999952316284,
    "backRadius": 0.5762941241264343,
    "backOffset": -0.7102144956588745,
    "score": 530,
    "maxDistance": 447,
    "maxTime": 54.0,
    "speed": 8
}{
    "ID": 127649,
    "genomaID": "CV5TD13",
    "color": {
        "x": 0.9829254150390625,
        "y": 0.4487306475639343,
        "z": 0.6804571747779846
    },
    "vertexNumber": 5,
    "colliderVertices": [
        {
            "x": -1.0426973104476929,
            "y": -0.4956403374671936
        },
        {
            "x": 1.8744821548461915,
            "y": -0.12528856098651887
        },
        {
            "x": 1.200357437133789,
            "y": 0.9965462684631348
        },
        {
            "x": 0.3723633289337158,
            "y": 0.8800176382064819
        },
        {
            "x": 0.025928258895874025,
            "y": 0.4491909146308899
        }
    ],
    "triangles": [
        1,
        4,
        3,
        3,
        2,
        1,
        1,
        0,
        4
    ],
    "carDensity": 5.0,
    "suspension": 0.7335798144340515,
    "motorSpeed": 1215,
    "frontDensity": 4.900000095367432,
    "frontRadius": 0.6920121908187866,
    "frontOffset": 1.0626250505447388,
    "backDensity": 3.4000000953674318,
    "backRadius": 0.535703182220459,
    "backOffset": -0.7913451790809631,
    "score": 0,
    "maxDistance": 0,
    "maxTime": 1.0,
    "speed": 0
}{
    "ID": 127778,
    "genomaID": "CV3TD10",
    "color": {
        "x": 0.9642459154129028,
        "y": 0.7943227291107178,
        "z": 0.8144594430923462
    },
    "vertexNumber": 3,
    "colliderVertices": [
        {
            "x": -1.1010850667953492,
            "y": -0.4912911653518677
        },
        {
            "x": 1.2597887516021729,
            "y": -0.34690144658088686
        },
        {
            "x": -1.7964177131652833,
            "y": 0.40650898218154909
        }
    ],
    "triangles": [
        1,
        0,
        2
    ],
    "carDensity": 3.0,
    "suspension": 0.9439916014671326,
    "motorSpeed": 869,
    "frontDensity": 3.200000047683716,
    "frontRadius": 0.5183602571487427,
    "frontOffset": 0.7010087966918945,
    "backDensity": 3.799999952316284,
    "backRadius": 0.5826144218444824,
    "backOffset": -1.2931983470916749,
    "score": -11,
    "maxDistance": -1,
    "maxTime": 1.0,
    "speed": -1
}