{
    "ID": 8402,
    "genomaID": "CV4TD12",
    "color": {
        "x": 0.9623392820358276,
        "y": 0.11472178995609284,
        "z": 0.9211682081222534
    },
    "vertexNumber": 4,
    "colliderVertices": [
        {
            "x": -1.552065372467041,
            "y": -0.3256870210170746
        },
        {
            "x": 1.5871820449829102,
            "y": -0.004137218464165926
        },
        {
            "x": 1.3832430839538575,
            "y": 0.26319509744644167
        },
        {
            "x": -1.9917845726013184,
            "y": 0.14219319820404054
        }
    ],
    "triangles": [
        3,
        2,
        1,
        1,
        0,
        3
    ],
    "carDensity": 4.0,
    "suspension": 0.7343809604644775,
    "motorSpeed": 746,
    "frontDensity": 3.799999952316284,
    "frontRadius": 0.5764027237892151,
    "frontOffset": 1.2276595830917359,
    "backDensity": 3.5,
    "backRadius": 0.546230673789978,
    "backOffset": -1.4845527410507203,
    "score": 898,
    "maxDistance": 833,
    "maxTime": 129.10000610351563,
    "speed": 6
}{
    "ID": 8484,
    "genomaID": "CV3TD9",
    "color": {
        "x": 0.07270289212465286,
        "y": 0.4169004559516907,
        "z": 0.18276561796665193
    },
    "vertexNumber": 3,
    "colliderVertices": [
        {
            "x": -1.2541747093200684,
            "y": -0.38386595249176028
        },
        {
            "x": 1.0193626880645753,
            "y": -0.271028071641922
        },
        {
            "x": 1.3762645721435547,
            "y": 0.10750925540924072
        }
    ],
    "triangles": [
        1,
        0,
        2
    ],
    "carDensity": 3.0,
    "suspension": 0.7725767493247986,
    "motorSpeed": 710,
    "frontDensity": 3.4000000953674318,
    "frontRadius": 0.5441341996192932,
    "frontOffset": 0.5494911670684815,
    "backDensity": 3.0999999046325685,
    "backRadius": 0.5140807628631592,
    "backOffset": -0.854516863822937,
    "score": 893,
    "maxDistance": 834,
    "maxTime": 141.60000610351563,
    "speed": 6
}{
    "ID": 8530,
    "genomaID": "CV3TD8",
    "color": {
        "x": 0.18558229506015778,
        "y": 0.2526076138019562,
        "z": 0.8065615892410278
    },
    "vertexNumber": 3,
    "colliderVertices": [
        {
            "x": -1.7412893772125245,
            "y": -0.24600020051002503
        },
        {
            "x": 1.6365805864334107,
            "y": -0.11980439722537995
        },
        {
            "x": -1.7040982246398926,
            "y": 0.012483358383178711
        }
    ],
    "triangles": [
        1,
        0,
        2
    ],
    "carDensity": 3.0,
    "suspension": 0.5170705318450928,
    "motorSpeed": 770,
    "frontDensity": 3.299999952316284,
    "frontRadius": 0.530158519744873,
    "frontOffset": 0.624504804611206,
    "backDensity": 2.0,
    "backRadius": 0.4036732017993927,
    "backOffset": -0.5595413446426392,
    "score": 890,
    "maxDistance": 833,
    "maxTime": 145.89999389648438,
    "speed": 6
}{
    "ID": 8478,
    "genomaID": "CV3TD11",
    "color": {
        "x": 0.7106577754020691,
        "y": 0.4553489089012146,
        "z": 0.9418917894363403
    },
    "vertexNumber": 3,
    "colliderVertices": [
        {
            "x": -1.7412893772125245,
            "y": -0.24600020051002503
        },
        {
            "x": 1.6365805864334107,
            "y": -0.11980439722537995
        },
        {
            "x": -1.7040982246398926,
            "y": 0.012483358383178711
        }
    ],
    "triangles": [
        1,
        0,
        2
    ],
    "carDensity": 3.0,
    "suspension": 0.7393191456794739,
    "motorSpeed": 696,
    "frontDensity": 4.900000095367432,
    "frontRadius": 0.6891068816184998,
    "frontOffset": 1.4957866668701172,
    "backDensity": 2.5999999046325685,
    "backRadius": 0.463079035282135,
    "backOffset": -1.0397611856460572,
    "score": 30,
    "maxDistance": 5,
    "maxTime": 2.0,
    "speed": 3
}{
    "ID": 8592,
    "genomaID": "CV4TD11",
    "color": {
        "x": 0.44061583280563357,
        "y": 0.84649658203125,
        "z": 0.2109551727771759
    },
    "vertexNumber": 4,
    "colliderVertices": [
        {
            "x": -1.6628518104553223,
            "y": -0.16429223120212556
        },
        {
            "x": 1.785203218460083,
            "y": -0.04849106818437576
        },
        {
            "x": -0.17571568489074708,
            "y": 0.10583603382110596
        },
        {
            "x": -1.3150887489318848,
            "y": 0.5921429991722107
        }
    ],
    "triangles": [
        0,
        3,
        2,
        2,
        1,
        0
    ],
    "carDensity": 4.0,
    "suspension": 0.9045025110244751,
    "motorSpeed": 705,
    "frontDensity": 4.199999809265137,
    "frontRadius": 0.6172062158584595,
    "frontOffset": 1.2552040815353394,
    "backDensity": 3.299999952316284,
    "backRadius": 0.5326973795890808,
    "backOffset": -0.9293771982192993,
    "score": 0,
    "maxDistance": 0,
    "maxTime": 1.0,
    "speed": 0
}