{
    "ID": 9188,
    "genomaID": "CV3TD10",
    "color": {
        "x": 0.33870187401771548,
        "y": 0.8453875780105591,
        "z": 0.8509781360626221
    },
    "vertexNumber": 3,
    "colliderVertices": [
        {
            "x": -1.3842709064483643,
            "y": -0.4283416271209717
        },
        {
            "x": 1.0090166330337525,
            "y": -0.14637883007526399
        },
        {
            "x": 0.7567448019981384,
            "y": 0.08288002014160156
        }
    ],
    "triangles": [
        1,
        0,
        2
    ],
    "carDensity": 3.0,
    "suspension": 0.9583516716957092,
    "motorSpeed": 725,
    "frontDensity": 4.0,
    "frontRadius": 0.6009075045585632,
    "frontOffset": 0.6481270790100098,
    "backDensity": 3.0999999046325685,
    "backRadius": 0.5140807628631592,
    "backOffset": -0.610832929611206,
    "score": 897,
    "maxDistance": 834,
    "maxTime": 131.6999969482422,
    "speed": 6
}{
    "ID": 9054,
    "genomaID": "CV3TD10",
    "color": {
        "x": 0.207728773355484,
        "y": 0.2794424593448639,
        "z": 0.6410993933677673
    },
    "vertexNumber": 3,
    "colliderVertices": [
        {
            "x": -1.6988446712493897,
            "y": -0.36931994557380679
        },
        {
            "x": 1.6371219158172608,
            "y": -0.07870364934206009
        },
        {
            "x": -0.27959609031677248,
            "y": 0.0782926082611084
        }
    ],
    "triangles": [
        1,
        0,
        2
    ],
    "carDensity": 3.0,
    "suspension": 0.9840580224990845,
    "motorSpeed": 710,
    "frontDensity": 3.5,
    "frontRadius": 0.55451899766922,
    "frontOffset": 1.2109801769256592,
    "backDensity": 3.200000047683716,
    "backRadius": 0.5190696716308594,
    "backOffset": -1.1467463970184327,
    "score": 893,
    "maxDistance": 833,
    "maxTime": 139.89999389648438,
    "speed": 6
}{
    "ID": 9138,
    "genomaID": "CV3TD9",
    "color": {
        "x": 0.3041220009326935,
        "y": 0.9625204801559448,
        "z": 0.17214645445346833
    },
    "vertexNumber": 3,
    "colliderVertices": [
        {
            "x": -1.2541747093200684,
            "y": -0.38386595249176028
        },
        {
            "x": 1.0193626880645753,
            "y": -0.271028071641922
        },
        {
            "x": 1.3762645721435547,
            "y": 0.10750925540924072
        }
    ],
    "triangles": [
        1,
        0,
        2
    ],
    "carDensity": 3.0,
    "suspension": 0.4069347679615021,
    "motorSpeed": 710,
    "frontDensity": 3.4000000953674318,
    "frontRadius": 0.5441341996192932,
    "frontOffset": 0.5494911670684815,
    "backDensity": 3.0999999046325685,
    "backRadius": 0.5140807628631592,
    "backOffset": -0.7641995549201965,
    "score": 891,
    "maxDistance": 833,
    "maxTime": 142.5,
    "speed": 6
}{
    "ID": 9154,
    "genomaID": "CV3TD9",
    "color": {
        "x": 0.6879891753196716,
        "y": 0.5909647345542908,
        "z": 0.28141656517982485
    },
    "vertexNumber": 3,
    "colliderVertices": [
        {
            "x": -1.2541747093200684,
            "y": -0.38386595249176028
        },
        {
            "x": 1.0193626880645753,
            "y": -0.271028071641922
        },
        {
            "x": 1.3762645721435547,
            "y": 0.10750925540924072
        }
    ],
    "triangles": [
        1,
        0,
        2
    ],
    "carDensity": 3.0,
    "suspension": 0.6517946720123291,
    "motorSpeed": 710,
    "frontDensity": 3.5,
    "frontRadius": 0.55451899766922,
    "frontOffset": 0.781832754611969,
    "backDensity": 2.4000000953674318,
    "backRadius": 0.4424801468849182,
    "backOffset": -1.1441701650619507,
    "score": 30,
    "maxDistance": 5,
    "maxTime": 2.0,
    "speed": 2
}{
    "ID": 9200,
    "genomaID": "CV3TD10",
    "color": {
        "x": 0.7157778143882752,
        "y": 0.7526435852050781,
        "z": 0.5779417157173157
    },
    "vertexNumber": 3,
    "colliderVertices": [
        {
            "x": -1.2541747093200684,
            "y": -0.38386595249176028
        },
        {
            "x": 1.0193626880645753,
            "y": -0.271028071641922
        },
        {
            "x": 1.3762645721435547,
            "y": 0.10750925540924072
        }
    ],
    "triangles": [
        1,
        0,
        2
    ],
    "carDensity": 3.0,
    "suspension": 0.4069347679615021,
    "motorSpeed": 710,
    "frontDensity": 3.4000000953674318,
    "frontRadius": 0.5441341996192932,
    "frontOffset": 0.5494911670684815,
    "backDensity": 3.5,
    "backRadius": 0.5518447160720825,
    "backOffset": -0.7641995549201965,
    "score": 0,
    "maxDistance": 0,
    "maxTime": 1.0,
    "speed": 0
}