{
    "ID": 112006,
    "genomaID": "CV3TD12",
    "color": {
        "x": 0.023887161165475847,
        "y": 0.4522629380226135,
        "z": 0.36236730217933657
    },
    "vertexNumber": 3,
    "colliderVertices": [
        {
            "x": -1.87174654006958,
            "y": -0.48871129751205447
        },
        {
            "x": 1.4022159576416016,
            "y": -0.3172537386417389
        },
        {
            "x": -1.1397089958190919,
            "y": 0.2695292830467224
        }
    ],
    "triangles": [
        1,
        0,
        2
    ],
    "carDensity": 3.0,
    "suspension": 0.9641605615615845,
    "motorSpeed": 879,
    "frontDensity": 4.800000190734863,
    "frontRadius": 0.678674578666687,
    "frontOffset": 0.7789420485496521,
    "backDensity": 3.9000000953674318,
    "backRadius": 0.5913886427879334,
    "backOffset": -1.2327916622161866,
    "score": 916,
    "maxDistance": 833,
    "maxTime": 100.30000305175781,
    "speed": 8
}{
    "ID": 112139,
    "genomaID": "CV4TD13",
    "color": {
        "x": 0.7111497521400452,
        "y": 0.07223165780305863,
        "z": 0.6428661942481995
    },
    "vertexNumber": 4,
    "colliderVertices": [
        {
            "x": -1.1571428775787354,
            "y": -0.017785312607884408
        },
        {
            "x": 1.6976892948150635,
            "y": -0.45099586248397829
        },
        {
            "x": -0.907581090927124,
            "y": 0.6379216909408569
        },
        {
            "x": -1.5830674171447755,
            "y": 0.3191775679588318
        }
    ],
    "triangles": [
        3,
        2,
        1,
        1,
        0,
        3
    ],
    "carDensity": 4.0,
    "suspension": 0.7753526568412781,
    "motorSpeed": 869,
    "frontDensity": 4.900000095367432,
    "frontRadius": 0.6931619048118591,
    "frontOffset": 1.2337391376495362,
    "backDensity": 3.5999999046325685,
    "backRadius": 0.5576536059379578,
    "backOffset": -0.8707126379013062,
    "score": 913,
    "maxDistance": 833,
    "maxTime": 104.0,
    "speed": 8
}{
    "ID": 112114,
    "genomaID": "CV3TD11",
    "color": {
        "x": 0.4710010886192322,
        "y": 0.6669597029685974,
        "z": 0.4208528399467468
    },
    "vertexNumber": 3,
    "colliderVertices": [
        {
            "x": -1.4903595447540284,
            "y": -0.07688982039690018
        },
        {
            "x": 1.6353117227554322,
            "y": -0.43294966220855715
        },
        {
            "x": -0.680962324142456,
            "y": 0.24219870567321778
        }
    ],
    "triangles": [
        1,
        0,
        2
    ],
    "carDensity": 3.0,
    "suspension": 0.5979447364807129,
    "motorSpeed": 869,
    "frontDensity": 4.300000190734863,
    "frontRadius": 0.6346901655197144,
    "frontOffset": 0.9724022150039673,
    "backDensity": 3.5999999046325685,
    "backRadius": 0.5557421445846558,
    "backOffset": -1.2535370588302613,
    "score": 911,
    "maxDistance": 833,
    "maxTime": 106.30000305175781,
    "speed": 8
}{
    "ID": 112122,
    "genomaID": "CV3TD11",
    "color": {
        "x": 0.3380949795246124,
        "y": 0.903610348701477,
        "z": 0.08308065682649613
    },
    "vertexNumber": 3,
    "colliderVertices": [
        {
            "x": -1.252399206161499,
            "y": -0.2104797065258026
        },
        {
            "x": 1.4507899284362794,
            "y": -0.07135552912950516
        },
        {
            "x": -1.054612636566162,
            "y": 0.9447813034057617
        }
    ],
    "triangles": [
        1,
        0,
        2
    ],
    "carDensity": 3.0,
    "suspension": 0.996857225894928,
    "motorSpeed": 879,
    "frontDensity": 4.800000190734863,
    "frontRadius": 0.6772931814193726,
    "frontOffset": 1.4589011669158936,
    "backDensity": 3.200000047683716,
    "backRadius": 0.5170900821685791,
    "backOffset": -0.8173794150352478,
    "score": 18,
    "maxDistance": 3,
    "maxTime": 2.0,
    "speed": 2
}{
    "ID": 112104,
    "genomaID": "CV3TD9",
    "color": {
        "x": 0.1352529674768448,
        "y": 0.6208288073539734,
        "z": 0.2655027210712433
    },
    "vertexNumber": 3,
    "colliderVertices": [
        {
            "x": -1.615149736404419,
            "y": -0.08056289702653885
        },
        {
            "x": 1.1510634422302247,
            "y": -0.4890420436859131
        },
        {
            "x": -0.87314772605896,
            "y": 0.506628692150116
        }
    ],
    "triangles": [
        1,
        0,
        2
    ],
    "carDensity": 3.0,
    "suspension": 0.4064149856567383,
    "motorSpeed": 917,
    "frontDensity": 2.0999999046325685,
    "frontRadius": 0.41030532121658327,
    "frontOffset": 0.5807585716247559,
    "backDensity": 3.5,
    "backRadius": 0.5506408214569092,
    "backOffset": -1.146061658859253,
    "score": -11,
    "maxDistance": -1,
    "maxTime": 1.0,
    "speed": -1
}