{
    "ID": 34119,
    "genomaID": "CV3TD11",
    "color": {
        "x": 0.03547847643494606,
        "y": 0.4556052088737488,
        "z": 0.1441134363412857
    },
    "vertexNumber": 3,
    "colliderVertices": [
        {
            "x": -1.3196678161621094,
            "y": -0.13924403488636018
        },
        {
            "x": 1.527311086654663,
            "y": -0.4570744037628174
        },
        {
            "x": -0.4547536373138428,
            "y": 0.41911548376083376
        }
    ],
    "triangles": [
        1,
        0,
        2
    ],
    "carDensity": 3.0,
    "suspension": 0.6748627424240112,
    "motorSpeed": 864,
    "frontDensity": 4.300000190734863,
    "frontRadius": 0.6345345973968506,
    "frontOffset": 1.1349283456802369,
    "backDensity": 3.799999952316284,
    "backRadius": 0.5819660425186157,
    "backOffset": -0.8416465520858765,
    "score": 914,
    "maxDistance": 834,
    "maxTime": 104.69999694824219,
    "speed": 8
}{
    "ID": 34059,
    "genomaID": "CV3TD11",
    "color": {
        "x": 0.37210455536842348,
        "y": 0.8846409320831299,
        "z": 0.02142811007797718
    },
    "vertexNumber": 3,
    "colliderVertices": [
        {
            "x": -1.2415111064910889,
            "y": -0.332523912191391
        },
        {
            "x": 1.2988438606262208,
            "y": -0.2140497863292694
        },
        {
            "x": -1.6646909713745118,
            "y": 0.4260508418083191
        }
    ],
    "triangles": [
        1,
        0,
        2
    ],
    "carDensity": 3.0,
    "suspension": 0.7883102297782898,
    "motorSpeed": 864,
    "frontDensity": 4.900000095367432,
    "frontRadius": 0.6877074241638184,
    "frontOffset": 1.2426632642745972,
    "backDensity": 3.0,
    "backRadius": 0.4971954822540283,
    "backOffset": -1.2170758247375489,
    "score": 910,
    "maxDistance": 833,
    "maxTime": 107.5,
    "speed": 8
}{
    "ID": 34189,
    "genomaID": "CV3TD11",
    "color": {
        "x": 0.2850213348865509,
        "y": 0.19931009411811829,
        "z": 0.833501935005188
    },
    "vertexNumber": 3,
    "colliderVertices": [
        {
            "x": -1.5426743030548096,
            "y": -0.31173190474510195
        },
        {
            "x": 1.685715913772583,
            "y": -0.41106098890304568
        },
        {
            "x": -1.749105453491211,
            "y": 0.46286851167678835
        }
    ],
    "triangles": [
        1,
        0,
        2
    ],
    "carDensity": 3.0,
    "suspension": 0.6080672144889832,
    "motorSpeed": 864,
    "frontDensity": 4.699999809265137,
    "frontRadius": 0.6739943027496338,
    "frontOffset": 1.3707334995269776,
    "backDensity": 3.0,
    "backRadius": 0.5017982721328735,
    "backOffset": -1.0486289262771607,
    "score": 909,
    "maxDistance": 833,
    "maxTime": 109.5,
    "speed": 8
}{
    "ID": 34168,
    "genomaID": "CV3TD10",
    "color": {
        "x": 0.5351142287254334,
        "y": 0.944305419921875,
        "z": 0.5410485863685608
    },
    "vertexNumber": 3,
    "colliderVertices": [
        {
            "x": -1.615149736404419,
            "y": -0.08056289702653885
        },
        {
            "x": 1.1510634422302247,
            "y": -0.4890420436859131
        },
        {
            "x": -0.87314772605896,
            "y": 0.506628692150116
        }
    ],
    "triangles": [
        1,
        0,
        2
    ],
    "carDensity": 3.0,
    "suspension": 0.5825198888778687,
    "motorSpeed": 722,
    "frontDensity": 3.9000000953674318,
    "frontRadius": 0.5874972939491272,
    "frontOffset": 0.9651037454605103,
    "backDensity": 3.299999952316284,
    "backRadius": 0.5263765454292297,
    "backOffset": -1.1194993257522584,
    "score": 26,
    "maxDistance": 4,
    "maxTime": 1.7999999523162842,
    "speed": 2
}{
    "ID": 34199,
    "genomaID": "CV3TD7",
    "color": {
        "x": 0.20653727650642396,
        "y": 0.7379440665245056,
        "z": 0.5660251975059509
    },
    "vertexNumber": 3,
    "colliderVertices": [
        {
            "x": -1.2415111064910889,
            "y": -0.332523912191391
        },
        {
            "x": 1.2988438606262208,
            "y": -0.2140497863292694
        },
        {
            "x": -1.6646909713745118,
            "y": 0.4260508418083191
        }
    ],
    "triangles": [
        1,
        0,
        2
    ],
    "carDensity": 3.0,
    "suspension": 0.4137628972530365,
    "motorSpeed": 864,
    "frontDensity": 2.4000000953674318,
    "frontRadius": 0.4356926679611206,
    "frontOffset": 0.9725979566574097,
    "backDensity": 2.200000047683716,
    "backRadius": 0.42477142810821535,
    "backOffset": -0.6891130208969116,
    "score": 0,
    "maxDistance": 0,
    "maxTime": 0.800000011920929,
    "speed": 0
}