{
    "ID": 42667,
    "genomaID": "CV6TD15",
    "color": {
        "x": 0.9465456008911133,
        "y": 0.2535231411457062,
        "z": 0.658656656742096
    },
    "vertexNumber": 6,
    "colliderVertices": [
        {
            "x": -1.8762176036834717,
            "y": -0.1672089844942093
        },
        {
            "x": 1.4605193138122559,
            "y": -0.44895946979522707
        },
        {
            "x": 1.004605770111084,
            "y": 0.16312146186828614
        },
        {
            "x": 0.9939321875572205,
            "y": 0.3979184031486511
        },
        {
            "x": 0.4261143207550049,
            "y": 0.0434643030166626
        },
        {
            "x": 0.38876986503601076,
            "y": 0.2738282084465027
        }
    ],
    "triangles": [
        1,
        0,
        4,
        4,
        2,
        1,
        0,
        5,
        4,
        4,
        3,
        2
    ],
    "carDensity": 6.0,
    "suspension": 0.48382624983787539,
    "motorSpeed": 892,
    "frontDensity": 4.900000095367432,
    "frontRadius": 0.6888914704322815,
    "frontOffset": 1.1586257219314576,
    "backDensity": 3.9000000953674318,
    "backRadius": 0.5897818207740784,
    "backOffset": -1.4036749601364136,
    "score": 917,
    "maxDistance": 833,
    "maxTime": 98.80000305175781,
    "speed": 8
}{
    "ID": 42664,
    "genomaID": "CV4TD13",
    "color": {
        "x": 0.7446132302284241,
        "y": 0.4693710207939148,
        "z": 0.9633924961090088
    },
    "vertexNumber": 4,
    "colliderVertices": [
        {
            "x": -1.0409836769104005,
            "y": -0.03399086371064186
        },
        {
            "x": 1.1548062562942505,
            "y": -0.12523867189884187
        },
        {
            "x": 0.6743878722190857,
            "y": 0.49332088232040408
        },
        {
            "x": 0.21538281440734864,
            "y": 0.7388695478439331
        }
    ],
    "triangles": [
        3,
        2,
        1,
        1,
        0,
        3
    ],
    "carDensity": 4.0,
    "suspension": 0.9652979373931885,
    "motorSpeed": 851,
    "frontDensity": 4.800000190734863,
    "frontRadius": 0.6791735291481018,
    "frontOffset": 1.1210542917251588,
    "backDensity": 3.9000000953674318,
    "backRadius": 0.5884959697723389,
    "backOffset": -1.1904535293579102,
    "score": 913,
    "maxDistance": 833,
    "maxTime": 104.0,
    "speed": 8
}{
    "ID": 42777,
    "genomaID": "CV3TD12",
    "color": {
        "x": 0.8133928775787354,
        "y": 0.2525545656681061,
        "z": 0.7479514479637146
    },
    "vertexNumber": 3,
    "colliderVertices": [
        {
            "x": -1.2415111064910889,
            "y": -0.332523912191391
        },
        {
            "x": 1.2988438606262208,
            "y": -0.2140497863292694
        },
        {
            "x": -1.6646909713745118,
            "y": 0.4260508418083191
        }
    ],
    "triangles": [
        1,
        0,
        2
    ],
    "carDensity": 3.0,
    "suspension": 0.6895972490310669,
    "motorSpeed": 864,
    "frontDensity": 4.900000095367432,
    "frontRadius": 0.687933087348938,
    "frontOffset": 1.001299500465393,
    "backDensity": 3.5,
    "backRadius": 0.5464233160018921,
    "backOffset": -1.454211711883545,
    "score": 912,
    "maxDistance": 833,
    "maxTime": 105.4000015258789,
    "speed": 8
}{
    "ID": 42798,
    "genomaID": "CV3TD11",
    "color": {
        "x": 0.8288270235061646,
        "y": 0.1767282634973526,
        "z": 0.6346012949943543
    },
    "vertexNumber": 3,
    "colliderVertices": [
        {
            "x": -1.2415111064910889,
            "y": -0.332523912191391
        },
        {
            "x": 1.2988438606262208,
            "y": -0.2140497863292694
        },
        {
            "x": -1.6646909713745118,
            "y": 0.4260508418083191
        }
    ],
    "triangles": [
        1,
        0,
        2
    ],
    "carDensity": 3.0,
    "suspension": 0.5438257455825806,
    "motorSpeed": 833,
    "frontDensity": 4.900000095367432,
    "frontRadius": 0.6877074241638184,
    "frontOffset": 1.4561216831207276,
    "backDensity": 3.4000000953674318,
    "backRadius": 0.5352407097816467,
    "backOffset": -1.3291022777557374,
    "score": 20,
    "maxDistance": 3,
    "maxTime": 1.7999999523162842,
    "speed": 2
}{
    "ID": 42797,
    "genomaID": "CV3TD11",
    "color": {
        "x": 0.4004287123680115,
        "y": 0.941399097442627,
        "z": 0.8905913829803467
    },
    "vertexNumber": 3,
    "colliderVertices": [
        {
            "x": -1.2415111064910889,
            "y": -0.332523912191391
        },
        {
            "x": 1.2988438606262208,
            "y": -0.2140497863292694
        },
        {
            "x": -1.6646909713745118,
            "y": 0.4260508418083191
        }
    ],
    "triangles": [
        1,
        0,
        2
    ],
    "carDensity": 3.0,
    "suspension": 0.6822878122329712,
    "motorSpeed": 1353,
    "frontDensity": 4.900000095367432,
    "frontRadius": 0.6877074241638184,
    "frontOffset": 1.393097162246704,
    "backDensity": 3.299999952316284,
    "backRadius": 0.5273419618606567,
    "backOffset": -0.8382617235183716,
    "score": 0,
    "maxDistance": 0,
    "maxTime": 0.800000011920929,
    "speed": 0
}