{
    "ID": 6201,
    "genomaID": "CV4TD12",
    "color": {
        "x": 0.7041706442832947,
        "y": 0.1758122593164444,
        "z": 0.6612265706062317
    },
    "vertexNumber": 4,
    "colliderVertices": [
        {
            "x": -1.3097517490386963,
            "y": -0.2664778530597687
        },
        {
            "x": 1.213698387145996,
            "y": -0.41457319259643557
        },
        {
            "x": 0.44774794578552248,
            "y": 0.10722100734710694
        },
        {
            "x": -1.939803123474121,
            "y": 0.5242975354194641
        }
    ],
    "triangles": [
        3,
        2,
        1,
        1,
        0,
        3
    ],
    "carDensity": 4.0,
    "suspension": 0.7718310952186585,
    "motorSpeed": 980,
    "frontDensity": 4.800000190734863,
    "frontRadius": 0.6833054423332214,
    "frontOffset": 1.3293708562850953,
    "backDensity": 3.0,
    "backRadius": 0.4983479082584381,
    "backOffset": -0.9309300184249878,
    "score": 917,
    "maxDistance": 834,
    "maxTime": 100.30000305175781,
    "speed": 8
}{
    "ID": 6238,
    "genomaID": "CV3TD10",
    "color": {
        "x": 0.473757803440094,
        "y": 0.4240033030509949,
        "z": 0.13615132868289948
    },
    "vertexNumber": 3,
    "colliderVertices": [
        {
            "x": -1.2541747093200684,
            "y": -0.38386595249176028
        },
        {
            "x": 1.0193626880645753,
            "y": -0.271028071641922
        },
        {
            "x": 1.3762645721435547,
            "y": 0.10750925540924072
        }
    ],
    "triangles": [
        1,
        0,
        2
    ],
    "carDensity": 3.0,
    "suspension": 0.5115365982055664,
    "motorSpeed": 681,
    "frontDensity": 3.700000047683716,
    "frontRadius": 0.5688643455505371,
    "frontOffset": 0.8841882944107056,
    "backDensity": 3.0999999046325685,
    "backRadius": 0.5057275891304016,
    "backOffset": -1.053629755973816,
    "score": 891,
    "maxDistance": 833,
    "maxTime": 144.5,
    "speed": 6
}{
    "ID": 6235,
    "genomaID": "CV3TD8",
    "color": {
        "x": 0.5232427716255188,
        "y": 0.3716043531894684,
        "z": 0.0048233275301754478
    },
    "vertexNumber": 3,
    "colliderVertices": [
        {
            "x": -1.7412893772125245,
            "y": -0.24600020051002503
        },
        {
            "x": 1.6365805864334107,
            "y": -0.11980439722537995
        },
        {
            "x": -1.7040982246398926,
            "y": 0.012483358383178711
        }
    ],
    "triangles": [
        1,
        0,
        2
    ],
    "carDensity": 3.0,
    "suspension": 0.4801725149154663,
    "motorSpeed": 696,
    "frontDensity": 3.299999952316284,
    "frontRadius": 0.530158519744873,
    "frontOffset": 1.4957866668701172,
    "backDensity": 2.5,
    "backRadius": 0.45025408267974856,
    "backOffset": -0.5595413446426392,
    "score": 887,
    "maxDistance": 833,
    "maxTime": 154.39999389648438,
    "speed": 5
}{
    "ID": 6213,
    "genomaID": "CV3TD10",
    "color": {
        "x": 0.2999573051929474,
        "y": 0.8041330575942993,
        "z": 0.9977710247039795
    },
    "vertexNumber": 3,
    "colliderVertices": [
        {
            "x": -1.7725322246551514,
            "y": -0.38803619146347048
        },
        {
            "x": 1.4673488140106202,
            "y": -0.43181347846984866
        },
        {
            "x": 1.290015697479248,
            "y": 0.925052285194397
        }
    ],
    "triangles": [
        1,
        0,
        2
    ],
    "carDensity": 3.0,
    "suspension": 0.47439712285995486,
    "motorSpeed": 681,
    "frontDensity": 4.199999809265137,
    "frontRadius": 0.6172062158584595,
    "frontOffset": 0.8841882944107056,
    "backDensity": 3.0,
    "backRadius": 0.4988519549369812,
    "backOffset": -0.9293771982192993,
    "score": 26,
    "maxDistance": 4,
    "maxTime": 1.7999999523162842,
    "speed": 2
}{
    "ID": 6387,
    "genomaID": "CV3TD11",
    "color": {
        "x": 0.31324294209480288,
        "y": 0.07841325551271439,
        "z": 0.9491356611251831
    },
    "vertexNumber": 3,
    "colliderVertices": [
        {
            "x": -1.2541747093200684,
            "y": -0.38386595249176028
        },
        {
            "x": 1.0193626880645753,
            "y": -0.271028071641922
        },
        {
            "x": 1.3762645721435547,
            "y": 0.10750925540924072
        }
    ],
    "triangles": [
        1,
        0,
        2
    ],
    "carDensity": 3.0,
    "suspension": 0.7691543102264404,
    "motorSpeed": 681,
    "frontDensity": 2.799999952316284,
    "frontRadius": 0.4771614074707031,
    "frontOffset": 1.2461082935333253,
    "backDensity": 5.0,
    "backRadius": 0.698902428150177,
    "backOffset": -0.8865760564804077,
    "score": 0,
    "maxDistance": 0,
    "maxTime": 0.800000011920929,
    "speed": 0
}