{
    "ID": 22602,
    "genomaID": "CV3TD11",
    "color": {
        "x": 0.9623392820358276,
        "y": 0.11472178995609284,
        "z": 0.9211682081222534
    },
    "vertexNumber": 3,
    "colliderVertices": [
        {
            "x": -1.5219223499298096,
            "y": -0.2267734706401825
        },
        {
            "x": 1.29156494140625,
            "y": -0.0822649672627449
        },
        {
            "x": -1.457838535308838,
            "y": 0.26656633615493777
        }
    ],
    "triangles": [
        1,
        0,
        2
    ],
    "carDensity": 3.0,
    "suspension": 0.7663100957870483,
    "motorSpeed": 900,
    "frontDensity": 4.800000190734863,
    "frontRadius": 0.6791735291481018,
    "frontOffset": 1.0340715646743775,
    "backDensity": 2.700000047683716,
    "backRadius": 0.4733758568763733,
    "backOffset": -1.2708625793457032,
    "score": 911,
    "maxDistance": 832,
    "maxTime": 104.9000015258789,
    "speed": 8
}{
    "ID": 22637,
    "genomaID": "CV3TD10",
    "color": {
        "x": 0.16911913454532624,
        "y": 0.4503716826438904,
        "z": 0.7681111097335815
    },
    "vertexNumber": 3,
    "colliderVertices": [
        {
            "x": -1.2541747093200684,
            "y": -0.38386595249176028
        },
        {
            "x": 1.0193626880645753,
            "y": -0.271028071641922
        },
        {
            "x": 1.3762645721435547,
            "y": 0.10750925540924072
        }
    ],
    "triangles": [
        1,
        0,
        2
    ],
    "carDensity": 3.0,
    "suspension": 0.43703359365463259,
    "motorSpeed": 725,
    "frontDensity": 3.5999999046325685,
    "frontRadius": 0.5584205389022827,
    "frontOffset": 0.551944375038147,
    "backDensity": 3.0999999046325685,
    "backRadius": 0.5149927735328674,
    "backOffset": -1.3157596588134766,
    "score": 894,
    "maxDistance": 833,
    "maxTime": 137.10000610351563,
    "speed": 6
}{
    "ID": 22764,
    "genomaID": "CV3TD10",
    "color": {
        "x": 0.5360366702079773,
        "y": 0.385536253452301,
        "z": 0.09161461144685745
    },
    "vertexNumber": 3,
    "colliderVertices": [
        {
            "x": -1.0491482019424439,
            "y": -0.32242438197135928
        },
        {
            "x": 1.356581449508667,
            "y": -0.19404199719429017
        },
        {
            "x": -0.9801814556121826,
            "y": 0.6215863823890686
        }
    ],
    "triangles": [
        1,
        0,
        2
    ],
    "carDensity": 3.0,
    "suspension": 0.4709494411945343,
    "motorSpeed": 709,
    "frontDensity": 4.099999904632568,
    "frontRadius": 0.6074416637420654,
    "frontOffset": 1.416265845298767,
    "backDensity": 3.0999999046325685,
    "backRadius": 0.5093687772750855,
    "backOffset": -1.0783909559249879,
    "score": 893,
    "maxDistance": 833,
    "maxTime": 138.10000610351563,
    "speed": 6
}{
    "ID": 22750,
    "genomaID": "CV3TD10",
    "color": {
        "x": 0.1806507259607315,
        "y": 0.9725886583328247,
        "z": 0.14072836935520173
    },
    "vertexNumber": 3,
    "colliderVertices": [
        {
            "x": -1.6619575023651124,
            "y": -0.274162620306015
        },
        {
            "x": 1.2242718935012818,
            "y": -0.025434497743844987
        },
        {
            "x": -0.768294095993042,
            "y": 0.1820462942123413
        }
    ],
    "triangles": [
        1,
        0,
        2
    ],
    "carDensity": 3.0,
    "suspension": 0.6735197901725769,
    "motorSpeed": 1470,
    "frontDensity": 3.700000047683716,
    "frontRadius": 0.5681912899017334,
    "frontOffset": 1.416265845298767,
    "backDensity": 2.799999952316284,
    "backRadius": 0.47981566190719607,
    "backOffset": -1.266839861869812,
    "score": 39,
    "maxDistance": 9,
    "maxTime": 3.0,
    "speed": 3
}{
    "ID": 22795,
    "genomaID": "CV5TD13",
    "color": {
        "x": 0.1332085281610489,
        "y": 0.55067378282547,
        "z": 0.17289210855960847
    },
    "vertexNumber": 5,
    "colliderVertices": [
        {
            "x": -1.070406198501587,
            "y": -0.4306676387786865
        },
        {
            "x": 1.9310578107833863,
            "y": -0.07635248452425003
        },
        {
            "x": 0.8941463828086853,
            "y": 0.24672651290893556
        },
        {
            "x": 0.19965100288391114,
            "y": 0.5514658093452454
        },
        {
            "x": -0.9996511936187744,
            "y": 0.69107985496521
        }
    ],
    "triangles": [
        2,
        1,
        4,
        4,
        3,
        2,
        1,
        0,
        4
    ],
    "carDensity": 5.0,
    "suspension": 0.8188256621360779,
    "motorSpeed": 851,
    "frontDensity": 4.800000190734863,
    "frontRadius": 0.6791735291481018,
    "frontOffset": 0.8076942563056946,
    "backDensity": 2.9000000953674318,
    "backRadius": 0.49475717544555666,
    "backOffset": -1.311294436454773,
    "score": 0,
    "maxDistance": 0,
    "maxTime": 1.0,
    "speed": 0
}