{
    "ID": 112814,
    "genomaID": "CV4TD13",
    "color": {
        "x": 0.8415801525115967,
        "y": 0.888700008392334,
        "z": 0.6227731108665466
    },
    "vertexNumber": 4,
    "colliderVertices": [
        {
            "x": -1.2988917827606202,
            "y": -0.2752462327480316
        },
        {
            "x": 1.7441651821136475,
            "y": -0.425096333026886
        },
        {
            "x": -1.126734733581543,
            "y": 0.13047420978546143
        },
        {
            "x": -1.8666682243347169,
            "y": 0.6922590732574463
        }
    ],
    "triangles": [
        0,
        3,
        2,
        2,
        1,
        0
    ],
    "carDensity": 4.0,
    "suspension": 0.8656555414199829,
    "motorSpeed": 869,
    "frontDensity": 4.900000095367432,
    "frontRadius": 0.689996063709259,
    "frontOffset": 1.2615368366241456,
    "backDensity": 3.700000047683716,
    "backRadius": 0.5688552260398865,
    "backOffset": -0.9414438009262085,
    "score": 915,
    "maxDistance": 833,
    "maxTime": 102.19999694824219,
    "speed": 8
}{
    "ID": 112846,
    "genomaID": "CV4TD13",
    "color": {
        "x": 0.832940936088562,
        "y": 0.48083454370498659,
        "z": 0.30451205372810366
    },
    "vertexNumber": 4,
    "colliderVertices": [
        {
            "x": -1.1571428775787354,
            "y": -0.017785312607884408
        },
        {
            "x": 1.6976892948150635,
            "y": -0.45099586248397829
        },
        {
            "x": -0.907581090927124,
            "y": 0.6379216909408569
        },
        {
            "x": -1.5830674171447755,
            "y": 0.3191775679588318
        }
    ],
    "triangles": [
        3,
        2,
        1,
        1,
        0,
        3
    ],
    "carDensity": 4.0,
    "suspension": 0.982035219669342,
    "motorSpeed": 869,
    "frontDensity": 4.900000095367432,
    "frontRadius": 0.6931619048118591,
    "frontOffset": 1.1166356801986695,
    "backDensity": 3.5999999046325685,
    "backRadius": 0.5576536059379578,
    "backOffset": -1.4061245918273926,
    "score": 913,
    "maxDistance": 832,
    "maxTime": 103.19999694824219,
    "speed": 8
}{
    "ID": 112868,
    "genomaID": "CV3TD11",
    "color": {
        "x": 0.779715895652771,
        "y": 0.1597966104745865,
        "z": 0.1659081131219864
    },
    "vertexNumber": 3,
    "colliderVertices": [
        {
            "x": -1.615149736404419,
            "y": -0.08056289702653885
        },
        {
            "x": 1.1510634422302247,
            "y": -0.4890420436859131
        },
        {
            "x": -0.87314772605896,
            "y": 0.506628692150116
        }
    ],
    "triangles": [
        1,
        0,
        2
    ],
    "carDensity": 3.0,
    "suspension": 0.49076947569847109,
    "motorSpeed": 875,
    "frontDensity": 4.599999904632568,
    "frontRadius": 0.6642931699752808,
    "frontOffset": 0.7257845401763916,
    "backDensity": 3.0999999046325685,
    "backRadius": 0.5130761861801148,
    "backOffset": -1.061301827430725,
    "score": 911,
    "maxDistance": 834,
    "maxTime": 107.9000015258789,
    "speed": 8
}{
    "ID": 112804,
    "genomaID": "CV3TD9",
    "color": {
        "x": 0.01801169104874134,
        "y": 0.5105918049812317,
        "z": 0.7415900826454163
    },
    "vertexNumber": 3,
    "colliderVertices": [
        {
            "x": -1.87174654006958,
            "y": -0.48871129751205447
        },
        {
            "x": 1.4022159576416016,
            "y": -0.3172537386417389
        },
        {
            "x": -1.1397089958190919,
            "y": 0.2695292830467224
        }
    ],
    "triangles": [
        1,
        0,
        2
    ],
    "carDensity": 3.0,
    "suspension": 0.6172448396682739,
    "motorSpeed": 858,
    "frontDensity": 2.4000000953674318,
    "frontRadius": 0.4428699314594269,
    "frontOffset": 0.7512066960334778,
    "backDensity": 3.5,
    "backRadius": 0.5482544898986816,
    "backOffset": -0.732596755027771,
    "score": 0,
    "maxDistance": -1,
    "maxTime": 0.8999999761581421,
    "speed": -1
}{
    "ID": 112996,
    "genomaID": "CV3TD11",
    "color": {
        "x": 0.2718107998371124,
        "y": 0.8708093166351318,
        "z": 0.932330846786499
    },
    "vertexNumber": 3,
    "colliderVertices": [
        {
            "x": -1.4903595447540284,
            "y": -0.07688982039690018
        },
        {
            "x": 1.6353117227554322,
            "y": -0.43294966220855715
        },
        {
            "x": -0.680962324142456,
            "y": 0.24219870567321778
        }
    ],
    "triangles": [
        1,
        0,
        2
    ],
    "carDensity": 3.0,
    "suspension": 0.7545837163925171,
    "motorSpeed": 991,
    "frontDensity": 4.300000190734863,
    "frontRadius": 0.6346901655197144,
    "frontOffset": 0.5988762378692627,
    "backDensity": 3.5999999046325685,
    "backRadius": 0.5557421445846558,
    "backOffset": -1.1151260137557984,
    "score": 0,
    "maxDistance": 0,
    "maxTime": 0.8999999761581421,
    "speed": 0
}