{
    "ID": 21578,
    "genomaID": "CV3TD11",
    "color": {
        "x": 0.9642459154129028,
        "y": 0.7943227291107178,
        "z": 0.8144594430923462
    },
    "vertexNumber": 3,
    "colliderVertices": [
        {
            "x": -1.5219223499298096,
            "y": -0.2267734706401825
        },
        {
            "x": 1.29156494140625,
            "y": -0.0822649672627449
        },
        {
            "x": -1.457838535308838,
            "y": 0.26656633615493777
        }
    ],
    "triangles": [
        1,
        0,
        2
    ],
    "carDensity": 3.0,
    "suspension": 0.5440456867218018,
    "motorSpeed": 900,
    "frontDensity": 4.800000190734863,
    "frontRadius": 0.6791735291481018,
    "frontOffset": 0.8828955888748169,
    "backDensity": 2.700000047683716,
    "backRadius": 0.4733758568763733,
    "backOffset": -1.2708625793457032,
    "score": 913,
    "maxDistance": 834,
    "maxTime": 105.80000305175781,
    "speed": 8
}{
    "ID": 21405,
    "genomaID": "CV3TD10",
    "color": {
        "x": 0.08106125146150589,
        "y": 0.07938504964113236,
        "z": 0.5804063677787781
    },
    "vertexNumber": 3,
    "colliderVertices": [
        {
            "x": -1.2541747093200684,
            "y": -0.38386595249176028
        },
        {
            "x": 1.0193626880645753,
            "y": -0.271028071641922
        },
        {
            "x": 1.3762645721435547,
            "y": 0.10750925540924072
        }
    ],
    "triangles": [
        1,
        0,
        2
    ],
    "carDensity": 3.0,
    "suspension": 0.6818922162055969,
    "motorSpeed": 710,
    "frontDensity": 3.9000000953674318,
    "frontRadius": 0.5862852334976196,
    "frontOffset": 1.2539472579956055,
    "backDensity": 3.0999999046325685,
    "backRadius": 0.5140538811683655,
    "backOffset": -0.9985219240188599,
    "score": 894,
    "maxDistance": 833,
    "maxTime": 135.6999969482422,
    "speed": 6
}{
    "ID": 21500,
    "genomaID": "CV3TD10",
    "color": {
        "x": 0.2999170124530792,
        "y": 0.7223097681999207,
        "z": 0.851524829864502
    },
    "vertexNumber": 3,
    "colliderVertices": [
        {
            "x": -1.7412893772125245,
            "y": -0.24600020051002503
        },
        {
            "x": 1.6365805864334107,
            "y": -0.11980439722537995
        },
        {
            "x": -1.7040982246398926,
            "y": 0.012483358383178711
        }
    ],
    "triangles": [
        1,
        0,
        2
    ],
    "carDensity": 3.0,
    "suspension": 0.4054439663887024,
    "motorSpeed": 696,
    "frontDensity": 4.099999904632568,
    "frontRadius": 0.6126639246940613,
    "frontOffset": 1.4752845764160157,
    "backDensity": 2.799999952316284,
    "backRadius": 0.48306673765182497,
    "backOffset": -0.8562813997268677,
    "score": 893,
    "maxDistance": 833,
    "maxTime": 137.6999969482422,
    "speed": 6
}{
    "ID": 21563,
    "genomaID": "CV3TD10",
    "color": {
        "x": 0.876664400100708,
        "y": 0.6546191573143005,
        "z": 0.03237474337220192
    },
    "vertexNumber": 3,
    "colliderVertices": [
        {
            "x": -1.2541747093200684,
            "y": -0.38386595249176028
        },
        {
            "x": 1.0193626880645753,
            "y": -0.271028071641922
        },
        {
            "x": 1.3762645721435547,
            "y": 0.10750925540924072
        }
    ],
    "triangles": [
        1,
        0,
        2
    ],
    "carDensity": 3.0,
    "suspension": 0.9126211404800415,
    "motorSpeed": 1053,
    "frontDensity": 3.799999952316284,
    "frontRadius": 0.5765514373779297,
    "frontOffset": 1.1769869327545167,
    "backDensity": 3.200000047683716,
    "backRadius": 0.5168055891990662,
    "backOffset": -1.0779870748519898,
    "score": 26,
    "maxDistance": 4,
    "maxTime": 1.7999999523162842,
    "speed": 2
}{
    "ID": 21594,
    "genomaID": "CV3TD10",
    "color": {
        "x": 0.6533638834953308,
        "y": 0.5734136700630188,
        "z": 0.5898723006248474
    },
    "vertexNumber": 3,
    "colliderVertices": [
        {
            "x": -1.7412893772125245,
            "y": -0.24600020051002503
        },
        {
            "x": 1.6365805864334107,
            "y": -0.11980439722537995
        },
        {
            "x": -1.7040982246398926,
            "y": 0.012483358383178711
        }
    ],
    "triangles": [
        1,
        0,
        2
    ],
    "carDensity": 3.0,
    "suspension": 0.9072062373161316,
    "motorSpeed": 1431,
    "frontDensity": 4.099999904632568,
    "frontRadius": 0.6126639246940613,
    "frontOffset": 1.159051775932312,
    "backDensity": 2.9000000953674318,
    "backRadius": 0.49115341901779177,
    "backOffset": -1.460282802581787,
    "score": 0,
    "maxDistance": 0,
    "maxTime": 0.800000011920929,
    "speed": 0
}