{
    "ID": 64825,
    "genomaID": "CV3TD12",
    "color": {
        "x": 0.5644888281822205,
        "y": 0.8662688732147217,
        "z": 0.6183064579963684
    },
    "vertexNumber": 3,
    "colliderVertices": [
        {
            "x": -1.615149736404419,
            "y": -0.08056289702653885
        },
        {
            "x": 1.1510634422302247,
            "y": -0.4890420436859131
        },
        {
            "x": -0.87314772605896,
            "y": 0.506628692150116
        }
    ],
    "triangles": [
        1,
        0,
        2
    ],
    "carDensity": 3.0,
    "suspension": 0.417029470205307,
    "motorSpeed": 841,
    "frontDensity": 4.900000095367432,
    "frontRadius": 0.6923644542694092,
    "frontOffset": 0.9480780363082886,
    "backDensity": 4.099999904632568,
    "backRadius": 0.606690526008606,
    "backOffset": -1.4398658275604249,
    "score": 916,
    "maxDistance": 834,
    "maxTime": 102.0999984741211,
    "speed": 8
}{
    "ID": 64926,
    "genomaID": "CV3TD12",
    "color": {
        "x": 0.9714512825012207,
        "y": 0.9411721229553223,
        "z": 0.5284295678138733
    },
    "vertexNumber": 3,
    "colliderVertices": [
        {
            "x": -1.8275327682495118,
            "y": -0.2862608730792999
        },
        {
            "x": 1.4120464324951172,
            "y": -0.28827038407325747
        },
        {
            "x": -0.39328598976135256,
            "y": 0.5744979977607727
        }
    ],
    "triangles": [
        1,
        0,
        2
    ],
    "carDensity": 3.0,
    "suspension": 0.808260440826416,
    "motorSpeed": 841,
    "frontDensity": 4.900000095367432,
    "frontRadius": 0.6923644542694092,
    "frontOffset": 0.8087777495384216,
    "backDensity": 3.9000000953674318,
    "backRadius": 0.5895581841468811,
    "backOffset": -0.5596873760223389,
    "score": 914,
    "maxDistance": 834,
    "maxTime": 103.80000305175781,
    "speed": 8
}{
    "ID": 64808,
    "genomaID": "CV3TD13",
    "color": {
        "x": 0.17345787584781648,
        "y": 0.17457963526248933,
        "z": 0.9269862174987793
    },
    "vertexNumber": 3,
    "colliderVertices": [
        {
            "x": -1.6967082023620606,
            "y": -0.4183594584465027
        },
        {
            "x": 1.6215009689331055,
            "y": -0.4354392886161804
        },
        {
            "x": 0.29096150398254397,
            "y": 0.040700316429138187
        }
    ],
    "triangles": [
        1,
        0,
        2
    ],
    "carDensity": 3.0,
    "suspension": 0.47752493619918826,
    "motorSpeed": 851,
    "frontDensity": 4.900000095367432,
    "frontRadius": 0.6900220513343811,
    "frontOffset": 0.6957441568374634,
    "backDensity": 4.800000190734863,
    "backRadius": 0.6829761862754822,
    "backOffset": -1.011639952659607,
    "score": 604,
    "maxDistance": 521,
    "maxTime": 62.900001525878909,
    "speed": 8
}{
    "ID": 64826,
    "genomaID": "CV5TD14",
    "color": {
        "x": 0.11754800379276276,
        "y": 0.26775065064430239,
        "z": 0.6021478772163391
    },
    "vertexNumber": 5,
    "colliderVertices": [
        {
            "x": -1.9755233526229859,
            "y": -0.2700580656528473
        },
        {
            "x": 1.1853810548782349,
            "y": -0.0699765756726265
        },
        {
            "x": 1.1529154777526856,
            "y": 0.6420546770095825
        },
        {
            "x": -1.3959589004516602,
            "y": 0.8361482620239258
        },
        {
            "x": -1.5101475715637208,
            "y": 0.6622582674026489
        }
    ],
    "triangles": [
        1,
        4,
        3,
        3,
        2,
        1,
        1,
        0,
        4
    ],
    "carDensity": 5.0,
    "suspension": 0.9682145118713379,
    "motorSpeed": 896,
    "frontDensity": 4.800000190734863,
    "frontRadius": 0.6776076555252075,
    "frontOffset": 0.868822455406189,
    "backDensity": 3.799999952316284,
    "backRadius": 0.5846697092056274,
    "backOffset": -1.4074642658233643,
    "score": 0,
    "maxDistance": 0,
    "maxTime": 1.0,
    "speed": 0
}{
    "ID": 64944,
    "genomaID": "CV3TD9",
    "color": {
        "x": 0.9064865112304688,
        "y": 0.7779922485351563,
        "z": 0.8559051752090454
    },
    "vertexNumber": 3,
    "colliderVertices": [
        {
            "x": -1.615149736404419,
            "y": -0.08056289702653885
        },
        {
            "x": 1.1510634422302247,
            "y": -0.4890420436859131
        },
        {
            "x": -0.87314772605896,
            "y": 0.506628692150116
        }
    ],
    "triangles": [
        1,
        0,
        2
    ],
    "carDensity": 3.0,
    "suspension": 0.45099544525146487,
    "motorSpeed": 841,
    "frontDensity": 2.4000000953674318,
    "frontRadius": 0.4351901412010193,
    "frontOffset": 0.5920541286468506,
    "backDensity": 3.9000000953674318,
    "backRadius": 0.5895581841468811,
    "backOffset": -0.8601635694503784,
    "score": -11,
    "maxDistance": -1,
    "maxTime": 1.0,
    "speed": -1
}