{
    "ID": 897,
    "genomaID": "CV3TD12",
    "color": {
        "x": 0.46906620264053347,
        "y": 0.08658767491579056,
        "z": 0.5027150511741638
    },
    "vertexNumber": 3,
    "colliderVertices": [
        {
            "x": -1.6230437755584717,
            "y": -0.25080981850624087
        },
        {
            "x": 1.0400066375732422,
            "y": -0.41160649061203005
        },
        {
            "x": -1.309241771697998,
            "y": 0.0684884786605835
        }
    ],
    "triangles": [
        1,
        0,
        2
    ],
    "carDensity": 3.0,
    "suspension": 0.9315811395645142,
    "motorSpeed": 1096,
    "frontDensity": 4.699999809265137,
    "frontRadius": 0.6716451048851013,
    "frontOffset": 0.6187325716018677,
    "backDensity": 4.0,
    "backRadius": 0.6002939939498901,
    "backOffset": -1.4415342807769776,
    "score": 925,
    "maxDistance": 833,
    "maxTime": 90.5999984741211,
    "speed": 9
}{
    "ID": 983,
    "genomaID": "CV5TD11",
    "color": {
        "x": 0.6271914839744568,
        "y": 0.385389506816864,
        "z": 0.47247403860092165
    },
    "vertexNumber": 5,
    "colliderVertices": [
        {
            "x": -1.421478509902954,
            "y": -0.45941978693008425
        },
        {
            "x": 1.645350456237793,
            "y": -0.44577664136886599
        },
        {
            "x": 0.9644913077354431,
            "y": 0.6328182220458984
        },
        {
            "x": -0.4157283306121826,
            "y": 0.16700637340545655
        },
        {
            "x": -1.2547879219055176,
            "y": 0.8681219816207886
        }
    ],
    "triangles": [
        3,
        2,
        0,
        0,
        4,
        3,
        2,
        1,
        0
    ],
    "carDensity": 5.0,
    "suspension": 0.5680171251296997,
    "motorSpeed": 680,
    "frontDensity": 3.299999952316284,
    "frontRadius": 0.5332390666007996,
    "frontOffset": 1.1213270425796509,
    "backDensity": 3.4000000953674318,
    "backRadius": 0.5427310466766357,
    "backOffset": -1.3529844284057618,
    "score": 209,
    "maxDistance": 151,
    "maxTime": 26.0,
    "speed": 6
}{
    "ID": 911,
    "genomaID": "CV3TD9",
    "color": {
        "x": 0.3045879900455475,
        "y": 0.8878774642944336,
        "z": 0.1544487625360489
    },
    "vertexNumber": 3,
    "colliderVertices": [
        {
            "x": -1.2758939266204835,
            "y": -0.26064231991767886
        },
        {
            "x": 1.5863540172576905,
            "y": -0.2993753254413605
        },
        {
            "x": -0.5513002872467041,
            "y": 0.5645495057106018
        }
    ],
    "triangles": [
        1,
        0,
        2
    ],
    "carDensity": 3.0,
    "suspension": 0.6749545335769653,
    "motorSpeed": 525,
    "frontDensity": 3.4000000953674318,
    "frontRadius": 0.5394505262374878,
    "frontOffset": 0.9624675512313843,
    "backDensity": 3.200000047683716,
    "backRadius": 0.5248759388923645,
    "backOffset": -1.1905192136764527,
    "score": 187,
    "maxDistance": 141,
    "maxTime": 30.799999237060548,
    "speed": 5
}{
    "ID": 992,
    "genomaID": "CV3TD11",
    "color": {
        "x": 0.44061583280563357,
        "y": 0.84649658203125,
        "z": 0.2109551727771759
    },
    "vertexNumber": 3,
    "colliderVertices": [
        {
            "x": -1.1878464221954346,
            "y": -0.4724609851837158
        },
        {
            "x": 1.0493226051330567,
            "y": -0.2441907823085785
        },
        {
            "x": 0.3892648220062256,
            "y": 0.597611129283905
        }
    ],
    "triangles": [
        1,
        0,
        2
    ],
    "carDensity": 3.0,
    "suspension": 0.8383685350418091,
    "motorSpeed": 573,
    "frontDensity": 4.0,
    "frontRadius": 0.6009075045585632,
    "frontOffset": 0.7743366360664368,
    "backDensity": 4.0,
    "backRadius": 0.6023024320602417,
    "backOffset": -1.1537244319915772,
    "score": 39,
    "maxDistance": 9,
    "maxTime": 3.0,
    "speed": 3
}{
    "ID": 998,
    "genomaID": "CV3TD12",
    "color": {
        "x": 0.8288270235061646,
        "y": 0.1767282634973526,
        "z": 0.6346012949943543
    },
    "vertexNumber": 3,
    "colliderVertices": [
        {
            "x": -1.7412893772125245,
            "y": -0.24600020051002503
        },
        {
            "x": 1.6365805864334107,
            "y": -0.11980439722537995
        },
        {
            "x": -1.7040982246398926,
            "y": 0.012483358383178711
        }
    ],
    "triangles": [
        1,
        0,
        2
    ],
    "carDensity": 3.0,
    "suspension": 0.8383685350418091,
    "motorSpeed": 573,
    "frontDensity": 4.300000190734863,
    "frontRadius": 0.6260837912559509,
    "frontOffset": 0.5994844436645508,
    "backDensity": 4.800000190734863,
    "backRadius": 0.6848711967468262,
    "backOffset": -1.1806392669677735,
    "score": -11,
    "maxDistance": -1,
    "maxTime": 1.0,
    "speed": -1
}