{
    "ID": 120675,
    "genomaID": "CV3TD12",
    "color": {
        "x": 0.6410743594169617,
        "y": 0.9711371660232544,
        "z": 0.6748340725898743
    },
    "vertexNumber": 3,
    "colliderVertices": [
        {
            "x": -1.1010850667953492,
            "y": -0.4912911653518677
        },
        {
            "x": 1.2597887516021729,
            "y": -0.34690144658088686
        },
        {
            "x": -1.7964177131652833,
            "y": 0.40650898218154909
        }
    ],
    "triangles": [
        1,
        0,
        2
    ],
    "carDensity": 3.0,
    "suspension": 0.9368834495544434,
    "motorSpeed": 869,
    "frontDensity": 4.900000095367432,
    "frontRadius": 0.689996063709259,
    "frontOffset": 1.1088842153549195,
    "backDensity": 3.799999952316284,
    "backRadius": 0.578791618347168,
    "backOffset": -1.1407067775726319,
    "score": 916,
    "maxDistance": 834,
    "maxTime": 102.0999984741211,
    "speed": 8
}{
    "ID": 120711,
    "genomaID": "CV3TD11",
    "color": {
        "x": 0.3045879900455475,
        "y": 0.8878774642944336,
        "z": 0.1544487625360489
    },
    "vertexNumber": 3,
    "colliderVertices": [
        {
            "x": -1.1010850667953492,
            "y": -0.4912911653518677
        },
        {
            "x": 1.2597887516021729,
            "y": -0.34690144658088686
        },
        {
            "x": -1.7964177131652833,
            "y": 0.40650898218154909
        }
    ],
    "triangles": [
        1,
        0,
        2
    ],
    "carDensity": 3.0,
    "suspension": 0.6319212913513184,
    "motorSpeed": 869,
    "frontDensity": 4.900000095367432,
    "frontRadius": 0.689996063709259,
    "frontOffset": 1.0323325395584107,
    "backDensity": 3.4000000953674318,
    "backRadius": 0.5432383418083191,
    "backOffset": -0.8912488222122192,
    "score": 913,
    "maxDistance": 834,
    "maxTime": 105.30000305175781,
    "speed": 8
}{
    "ID": 120721,
    "genomaID": "CV4TD13",
    "color": {
        "x": 0.18041671812534333,
        "y": 0.051729924976825717,
        "z": 0.21896246075630189
    },
    "vertexNumber": 4,
    "colliderVertices": [
        {
            "x": -1.5362260341644288,
            "y": -0.15631182491779328
        },
        {
            "x": 1.322497844696045,
            "y": -0.04100019112229347
        },
        {
            "x": -0.5763447284698486,
            "y": 0.15973639488220216
        },
        {
            "x": -0.6610105037689209,
            "y": 0.5486413836479187
        }
    ],
    "triangles": [
        0,
        3,
        2,
        2,
        1,
        0
    ],
    "carDensity": 4.0,
    "suspension": 0.784064769744873,
    "motorSpeed": 858,
    "frontDensity": 4.900000095367432,
    "frontRadius": 0.6855611205101013,
    "frontOffset": 1.1856389045715333,
    "backDensity": 3.5,
    "backRadius": 0.5482544898986816,
    "backOffset": -0.9746383428573608,
    "score": 911,
    "maxDistance": 833,
    "maxTime": 106.30000305175781,
    "speed": 8
}{
    "ID": 120628,
    "genomaID": "CV6TD15",
    "color": {
        "x": 0.21284857392311097,
        "y": 0.5834235548973084,
        "z": 0.923439621925354
    },
    "vertexNumber": 6,
    "colliderVertices": [
        {
            "x": -1.2908802032470704,
            "y": -0.3037886321544647
        },
        {
            "x": 1.3179361820220948,
            "y": -0.2676447331905365
        },
        {
            "x": 1.9799628257751465,
            "y": 0.5259432196617127
        },
        {
            "x": 0.6174377799034119,
            "y": 0.4471563696861267
        },
        {
            "x": -1.3497743606567383,
            "y": 0.4556829333305359
        },
        {
            "x": -1.9337644577026368,
            "y": 0.8851619958877564
        }
    ],
    "triangles": [
        0,
        4,
        3,
        3,
        2,
        0,
        0,
        5,
        4,
        2,
        1,
        0
    ],
    "carDensity": 6.0,
    "suspension": 0.9649379253387451,
    "motorSpeed": 913,
    "frontDensity": 4.800000190734863,
    "frontRadius": 0.6750825047492981,
    "frontOffset": 1.4845576286315919,
    "backDensity": 4.199999809265137,
    "backRadius": 0.6154143214225769,
    "backOffset": -0.8492308855056763,
    "score": 0,
    "maxDistance": 0,
    "maxTime": 1.0,
    "speed": 0
}{
    "ID": 120800,
    "genomaID": "CV4TD13",
    "color": {
        "x": 0.7157778143882752,
        "y": 0.7526435852050781,
        "z": 0.5779417157173157
    },
    "vertexNumber": 4,
    "colliderVertices": [
        {
            "x": -1.501596212387085,
            "y": -0.33311936259269717
        },
        {
            "x": 1.10941743850708,
            "y": -0.45187699794769289
        },
        {
            "x": 0.9199399352073669,
            "y": 0.4783250689506531
        },
        {
            "x": 0.15649628639221192,
            "y": 0.29302793741226199
        }
    ],
    "triangles": [
        3,
        2,
        1,
        1,
        0,
        3
    ],
    "carDensity": 4.0,
    "suspension": 0.7046859860420227,
    "motorSpeed": 869,
    "frontDensity": 4.900000095367432,
    "frontRadius": 0.689996063709259,
    "frontOffset": 0.6883535385131836,
    "backDensity": 3.5,
    "backRadius": 0.5457624197006226,
    "backOffset": -1.296877384185791,
    "score": 0,
    "maxDistance": 0,
    "maxTime": 1.0,
    "speed": 0
}