{
    "ID": 128256,
    "genomaID": "CV3TD12",
    "color": {
        "x": 0.1323385387659073,
        "y": 0.05233467370271683,
        "z": 0.0016689302865415812
    },
    "vertexNumber": 3,
    "colliderVertices": [
        {
            "x": -1.87174654006958,
            "y": -0.48871129751205447
        },
        {
            "x": 1.4022159576416016,
            "y": -0.3172537386417389
        },
        {
            "x": -1.1397089958190919,
            "y": 0.2695292830467224
        }
    ],
    "triangles": [
        1,
        0,
        2
    ],
    "carDensity": 3.0,
    "suspension": 0.8767291307449341,
    "motorSpeed": 858,
    "frontDensity": 4.900000095367432,
    "frontRadius": 0.6920121908187866,
    "frontOffset": 1.3879289627075196,
    "backDensity": 4.099999904632568,
    "backRadius": 0.6114500164985657,
    "backOffset": -1.0711561441421509,
    "score": 917,
    "maxDistance": 834,
    "maxTime": 100.5999984741211,
    "speed": 8
}{
    "ID": 128335,
    "genomaID": "CV3TD12",
    "color": {
        "x": 0.8202186822891235,
        "y": 0.08997727185487747,
        "z": 0.484300434589386
    },
    "vertexNumber": 3,
    "colliderVertices": [
        {
            "x": -1.87174654006958,
            "y": -0.48871129751205447
        },
        {
            "x": 1.4022159576416016,
            "y": -0.3172537386417389
        },
        {
            "x": -1.1397089958190919,
            "y": 0.2695292830467224
        }
    ],
    "triangles": [
        1,
        0,
        2
    ],
    "carDensity": 3.0,
    "suspension": 0.6052736043930054,
    "motorSpeed": 858,
    "frontDensity": 4.699999809265137,
    "frontRadius": 0.6666257977485657,
    "frontOffset": 1.2738187313079835,
    "backDensity": 3.799999952316284,
    "backRadius": 0.5842820405960083,
    "backOffset": -0.847655177116394,
    "score": 914,
    "maxDistance": 833,
    "maxTime": 103.4000015258789,
    "speed": 8
}{
    "ID": 128281,
    "genomaID": "CV3TD11",
    "color": {
        "x": 0.33774855732917788,
        "y": 0.22017505764961244,
        "z": 0.21699634194374085
    },
    "vertexNumber": 3,
    "colliderVertices": [
        {
            "x": -1.1049926280975342,
            "y": -0.2753242552280426
        },
        {
            "x": 1.571460247039795,
            "y": -0.35226044058799746
        },
        {
            "x": -1.935417652130127,
            "y": 0.4670941233634949
        }
    ],
    "triangles": [
        1,
        0,
        2
    ],
    "carDensity": 3.0,
    "suspension": 0.6529721021652222,
    "motorSpeed": 866,
    "frontDensity": 4.900000095367432,
    "frontRadius": 0.6857311129570007,
    "frontOffset": 0.7123048305511475,
    "backDensity": 3.4000000953674318,
    "backRadius": 0.543877124786377,
    "backOffset": -0.9716824293136597,
    "score": 912,
    "maxDistance": 833,
    "maxTime": 105.30000305175781,
    "speed": 8
}{
    "ID": 128207,
    "genomaID": "CV5TD13",
    "color": {
        "x": 0.348359614610672,
        "y": 0.6772759556770325,
        "z": 0.9588689804077148
    },
    "vertexNumber": 5,
    "colliderVertices": [
        {
            "x": -1.9704680442810059,
            "y": -0.1447061449289322
        },
        {
            "x": 1.1461143493652344,
            "y": -0.061012573540210727
        },
        {
            "x": -0.05254673957824707,
            "y": 0.3720095753669739
        },
        {
            "x": -1.4441847801208497,
            "y": 0.5300065875053406
        },
        {
            "x": -1.53936767578125,
            "y": 0.9053521156311035
        }
    ],
    "triangles": [
        3,
        2,
        0,
        0,
        4,
        3,
        2,
        1,
        0
    ],
    "carDensity": 5.0,
    "suspension": 0.48028966784477236,
    "motorSpeed": 869,
    "frontDensity": 4.900000095367432,
    "frontRadius": 0.6857311129570007,
    "frontOffset": 1.3154581785202027,
    "backDensity": 3.4000000953674318,
    "backRadius": 0.543877124786377,
    "backOffset": -0.9085515737533569,
    "score": 0,
    "maxDistance": 0,
    "maxTime": 1.0,
    "speed": 0
}{
    "ID": 128347,
    "genomaID": "CV3TD10",
    "color": {
        "x": 0.6293123364448547,
        "y": 0.02893555536866188,
        "z": 0.7288181185722351
    },
    "vertexNumber": 3,
    "colliderVertices": [
        {
            "x": -1.1010850667953492,
            "y": -0.4912911653518677
        },
        {
            "x": 1.2597887516021729,
            "y": -0.34690144658088686
        },
        {
            "x": -1.7964177131652833,
            "y": 0.40650898218154909
        }
    ],
    "triangles": [
        1,
        0,
        2
    ],
    "carDensity": 3.0,
    "suspension": 0.9318289756774902,
    "motorSpeed": 869,
    "frontDensity": 3.0,
    "frontRadius": 0.4953182339668274,
    "frontOffset": 0.8266474604606628,
    "backDensity": 3.9000000953674318,
    "backRadius": 0.5858511924743652,
    "backOffset": -1.2088193893432618,
    "score": -11,
    "maxDistance": -1,
    "maxTime": 1.0,
    "speed": -1
}