{
    "ID": 32435,
    "genomaID": "CV3TD12",
    "color": {
        "x": 0.5232427716255188,
        "y": 0.3716043531894684,
        "z": 0.0048233275301754478
    },
    "vertexNumber": 3,
    "colliderVertices": [
        {
            "x": -1.3630409240722657,
            "y": -0.022734584286808969
        },
        {
            "x": 1.4788799285888672,
            "y": -0.11716319620609284
        },
        {
            "x": -1.282625675201416,
            "y": 0.7953797578811646
        }
    ],
    "triangles": [
        1,
        0,
        2
    ],
    "carDensity": 3.0,
    "suspension": 0.5864449739456177,
    "motorSpeed": 864,
    "frontDensity": 4.900000095367432,
    "frontRadius": 0.6877074241638184,
    "frontOffset": 1.3640035390853882,
    "backDensity": 3.700000047683716,
    "backRadius": 0.5709259510040283,
    "backOffset": -1.0854970216751099,
    "score": 914,
    "maxDistance": 833,
    "maxTime": 102.69999694824219,
    "speed": 8
}{
    "ID": 32599,
    "genomaID": "CV3TD12",
    "color": {
        "x": 0.20653727650642396,
        "y": 0.7379440665245056,
        "z": 0.5660251975059509
    },
    "vertexNumber": 3,
    "colliderVertices": [
        {
            "x": -1.2415111064910889,
            "y": -0.332523912191391
        },
        {
            "x": 1.2988438606262208,
            "y": -0.2140497863292694
        },
        {
            "x": -1.6646909713745118,
            "y": 0.4260508418083191
        }
    ],
    "triangles": [
        1,
        0,
        2
    ],
    "carDensity": 3.0,
    "suspension": 0.5062819719314575,
    "motorSpeed": 864,
    "frontDensity": 4.900000095367432,
    "frontRadius": 0.6877074241638184,
    "frontOffset": 1.3589234352111817,
    "backDensity": 3.5,
    "backRadius": 0.5463443994522095,
    "backOffset": -1.1492549180984498,
    "score": 911,
    "maxDistance": 832,
    "maxTime": 104.69999694824219,
    "speed": 8
}{
    "ID": 32588,
    "genomaID": "CV3TD10",
    "color": {
        "x": 0.33870187401771548,
        "y": 0.8453875780105591,
        "z": 0.8509781360626221
    },
    "vertexNumber": 3,
    "colliderVertices": [
        {
            "x": -1.2415111064910889,
            "y": -0.332523912191391
        },
        {
            "x": 1.2988438606262208,
            "y": -0.2140497863292694
        },
        {
            "x": -1.6646909713745118,
            "y": 0.4260508418083191
        }
    ],
    "triangles": [
        1,
        0,
        2
    ],
    "carDensity": 3.0,
    "suspension": 0.9819116592407227,
    "motorSpeed": 864,
    "frontDensity": 4.900000095367432,
    "frontRadius": 0.6877074241638184,
    "frontOffset": 1.1175810098648072,
    "backDensity": 2.0999999046325685,
    "backRadius": 0.41387927532196047,
    "backOffset": -1.0279771089553834,
    "score": 909,
    "maxDistance": 833,
    "maxTime": 110.0999984741211,
    "speed": 8
}{
    "ID": 32583,
    "genomaID": "CV3TD12",
    "color": {
        "x": 0.6271914839744568,
        "y": 0.385389506816864,
        "z": 0.47247403860092165
    },
    "vertexNumber": 3,
    "colliderVertices": [
        {
            "x": -1.5219223499298096,
            "y": -0.2267734706401825
        },
        {
            "x": 1.29156494140625,
            "y": -0.0822649672627449
        },
        {
            "x": -1.457838535308838,
            "y": 0.26656633615493777
        }
    ],
    "triangles": [
        1,
        0,
        2
    ],
    "carDensity": 3.0,
    "suspension": 0.5102293491363525,
    "motorSpeed": 545,
    "frontDensity": 4.699999809265137,
    "frontRadius": 0.6665739417076111,
    "frontOffset": 1.136960744857788,
    "backDensity": 3.5999999046325685,
    "backRadius": 0.5566391944885254,
    "backOffset": -0.5265799760818481,
    "score": 26,
    "maxDistance": 4,
    "maxTime": 1.899999976158142,
    "speed": 2
}{
    "ID": 32589,
    "genomaID": "CV4TD12",
    "color": {
        "x": 0.2850213348865509,
        "y": 0.19931009411811829,
        "z": 0.833501935005188
    },
    "vertexNumber": 4,
    "colliderVertices": [
        {
            "x": -1.7396159172058106,
            "y": -0.16564948856830598
        },
        {
            "x": 1.466109275817871,
            "y": -0.1006716638803482
        },
        {
            "x": -1.6929426193237305,
            "y": 0.057047486305236819
        },
        {
            "x": -1.7720398902893067,
            "y": 0.39346593618392947
        }
    ],
    "triangles": [
        0,
        3,
        2,
        2,
        1,
        0
    ],
    "carDensity": 4.0,
    "suspension": 0.7320442795753479,
    "motorSpeed": 1206,
    "frontDensity": 4.699999809265137,
    "frontRadius": 0.6718026399612427,
    "frontOffset": 1.2512590885162354,
    "backDensity": 3.200000047683716,
    "backRadius": 0.5154522657394409,
    "backOffset": -1.494552493095398,
    "score": 0,
    "maxDistance": 0,
    "maxTime": 0.8999999761581421,
    "speed": 0
}