{
    "ID": 122426,
    "genomaID": "CV3TD12",
    "color": {
        "x": 0.11754800379276276,
        "y": 0.26775065064430239,
        "z": 0.6021478772163391
    },
    "vertexNumber": 3,
    "colliderVertices": [
        {
            "x": -1.87174654006958,
            "y": -0.48871129751205447
        },
        {
            "x": 1.4022159576416016,
            "y": -0.3172537386417389
        },
        {
            "x": -1.1397089958190919,
            "y": 0.2695292830467224
        }
    ],
    "triangles": [
        1,
        0,
        2
    ],
    "carDensity": 3.0,
    "suspension": 0.700188934803009,
    "motorSpeed": 858,
    "frontDensity": 4.699999809265137,
    "frontRadius": 0.6704391241073608,
    "frontOffset": 1.4070948362350464,
    "backDensity": 4.199999809265137,
    "backRadius": 0.6160622239112854,
    "backOffset": -0.9379357099533081,
    "score": 916,
    "maxDistance": 834,
    "maxTime": 101.0999984741211,
    "speed": 8
}{
    "ID": 122523,
    "genomaID": "CV3TD12",
    "color": {
        "x": 0.7486791014671326,
        "y": 0.47938281297683718,
        "z": 0.7399960160255432
    },
    "vertexNumber": 3,
    "colliderVertices": [
        {
            "x": -1.4903595447540284,
            "y": -0.07688982039690018
        },
        {
            "x": 1.6353117227554322,
            "y": -0.43294966220855715
        },
        {
            "x": -0.680962324142456,
            "y": 0.24219870567321778
        }
    ],
    "triangles": [
        1,
        0,
        2
    ],
    "carDensity": 3.0,
    "suspension": 0.5853499174118042,
    "motorSpeed": 867,
    "frontDensity": 4.699999809265137,
    "frontRadius": 0.6731094717979431,
    "frontOffset": 0.8668674230575562,
    "backDensity": 3.5999999046325685,
    "backRadius": 0.5557421445846558,
    "backOffset": -1.1325889825820923,
    "score": 913,
    "maxDistance": 833,
    "maxTime": 104.69999694824219,
    "speed": 8
}{
    "ID": 122416,
    "genomaID": "CV6TD12",
    "color": {
        "x": 0.5844923853874207,
        "y": 0.5197818875312805,
        "z": 0.2364385426044464
    },
    "vertexNumber": 6,
    "colliderVertices": [
        {
            "x": -1.5221288204193116,
            "y": -0.2783927619457245
        },
        {
            "x": 1.8322540521621705,
            "y": -0.4207921624183655
        },
        {
            "x": 0.47251200675964358,
            "y": 0.07192075252532959
        },
        {
            "x": -0.671954870223999,
            "y": 0.27855151891708376
        },
        {
            "x": -1.6223807334899903,
            "y": 0.2689310908317566
        },
        {
            "x": -1.8711957931518555,
            "y": 0.18556475639343263
        }
    ],
    "triangles": [
        3,
        1,
        5,
        5,
        4,
        3,
        3,
        2,
        1,
        1,
        0,
        5
    ],
    "carDensity": 6.0,
    "suspension": 0.5015736818313599,
    "motorSpeed": 869,
    "frontDensity": 4.199999809265137,
    "frontRadius": 0.6181759834289551,
    "frontOffset": 1.2536895275115967,
    "backDensity": 2.0999999046325685,
    "backRadius": 0.4116644859313965,
    "backOffset": -1.449047565460205,
    "score": 897,
    "maxDistance": 833,
    "maxTime": 130.5,
    "speed": 6
}{
    "ID": 122437,
    "genomaID": "CV3TD11",
    "color": {
        "x": 0.16911913454532624,
        "y": 0.4503716826438904,
        "z": 0.7681111097335815
    },
    "vertexNumber": 3,
    "colliderVertices": [
        {
            "x": -1.217820644378662,
            "y": -0.32702240347862246
        },
        {
            "x": 1.420637607574463,
            "y": -0.49531298875808718
        },
        {
            "x": -1.3083605766296387,
            "y": 0.5821769833564758
        }
    ],
    "triangles": [
        1,
        0,
        2
    ],
    "carDensity": 3.0,
    "suspension": 0.417734831571579,
    "motorSpeed": 1287,
    "frontDensity": 4.900000095367432,
    "frontRadius": 0.689996063709259,
    "frontOffset": 1.2536895275115967,
    "backDensity": 3.200000047683716,
    "backRadius": 0.5241340398788452,
    "backOffset": -1.0710829496383668,
    "score": 0,
    "maxDistance": 0,
    "maxTime": 0.0,
    "speed": -2147483648
}{
    "ID": 122574,
    "genomaID": "CV3TD8",
    "color": {
        "x": 0.16558422148227693,
        "y": 0.6600871682167053,
        "z": 0.13062037527561189
    },
    "vertexNumber": 3,
    "colliderVertices": [
        {
            "x": -1.3467082977294922,
            "y": -0.4956449270248413
        },
        {
            "x": 1.0778272151947022,
            "y": -0.1792699247598648
        },
        {
            "x": -1.5517005920410157,
            "y": 0.5429202914237976
        }
    ],
    "triangles": [
        1,
        0,
        2
    ],
    "carDensity": 3.0,
    "suspension": 0.605560302734375,
    "motorSpeed": 1295,
    "frontDensity": 2.299999952316284,
    "frontRadius": 0.4274119734764099,
    "frontOffset": 0.5411841869354248,
    "backDensity": 3.4000000953674318,
    "backRadius": 0.543877124786377,
    "backOffset": -1.3843696117401124,
    "score": -11,
    "maxDistance": -1,
    "maxTime": 1.0,
    "speed": -1
}