{
    "ID": 63750,
    "genomaID": "CV3TD12",
    "color": {
        "x": 0.1806507259607315,
        "y": 0.9725886583328247,
        "z": 0.14072836935520173
    },
    "vertexNumber": 3,
    "colliderVertices": [
        {
            "x": -1.615149736404419,
            "y": -0.08056289702653885
        },
        {
            "x": 1.1510634422302247,
            "y": -0.4890420436859131
        },
        {
            "x": -0.87314772605896,
            "y": 0.506628692150116
        }
    ],
    "triangles": [
        1,
        0,
        2
    ],
    "carDensity": 3.0,
    "suspension": 0.7443519830703735,
    "motorSpeed": 851,
    "frontDensity": 4.699999809265137,
    "frontRadius": 0.6659700870513916,
    "frontOffset": 0.5513335466384888,
    "backDensity": 4.099999904632568,
    "backRadius": 0.6062093377113342,
    "backOffset": -1.190751552581787,
    "score": 916,
    "maxDistance": 834,
    "maxTime": 102.30000305175781,
    "speed": 8
}{
    "ID": 63696,
    "genomaID": "CV3TD12",
    "color": {
        "x": 0.5878106951713562,
        "y": 0.5455228686332703,
        "z": 0.34203508496284487
    },
    "vertexNumber": 3,
    "colliderVertices": [
        {
            "x": -1.615149736404419,
            "y": -0.08056289702653885
        },
        {
            "x": 1.1510634422302247,
            "y": -0.4890420436859131
        },
        {
            "x": -0.87314772605896,
            "y": 0.506628692150116
        }
    ],
    "triangles": [
        1,
        0,
        2
    ],
    "carDensity": 3.0,
    "suspension": 0.46840476989746096,
    "motorSpeed": 841,
    "frontDensity": 4.900000095367432,
    "frontRadius": 0.6923644542694092,
    "frontOffset": 1.1756994724273682,
    "backDensity": 3.700000047683716,
    "backRadius": 0.5708329677581787,
    "backOffset": -1.1290638446807862,
    "score": 914,
    "maxDistance": 834,
    "maxTime": 104.69999694824219,
    "speed": 8
}{
    "ID": 63776,
    "genomaID": "CV3TD12",
    "color": {
        "x": 0.5646211504936218,
        "y": 0.5388018488883972,
        "z": 0.891024112701416
    },
    "vertexNumber": 3,
    "colliderVertices": [
        {
            "x": -1.6967082023620606,
            "y": -0.4183594584465027
        },
        {
            "x": 1.6215009689331055,
            "y": -0.4354392886161804
        },
        {
            "x": 0.29096150398254397,
            "y": 0.040700316429138187
        }
    ],
    "triangles": [
        1,
        0,
        2
    ],
    "carDensity": 3.0,
    "suspension": 0.47752493619918826,
    "motorSpeed": 851,
    "frontDensity": 4.900000095367432,
    "frontRadius": 0.6900220513343811,
    "frontOffset": 1.2245615720748902,
    "backDensity": 3.700000047683716,
    "backRadius": 0.5727956295013428,
    "backOffset": -0.9670487642288208,
    "score": 913,
    "maxDistance": 833,
    "maxTime": 103.5,
    "speed": 8
}{
    "ID": 63657,
    "genomaID": "CV3TD12",
    "color": {
        "x": 0.8725746870040894,
        "y": 0.9586373567581177,
        "z": 0.8193961381912231
    },
    "vertexNumber": 3,
    "colliderVertices": [
        {
            "x": -1.1877288818359376,
            "y": -0.3552757799625397
        },
        {
            "x": 1.2407467365264893,
            "y": -0.3752557635307312
        },
        {
            "x": 1.443039894104004,
            "y": 0.6624330282211304
        }
    ],
    "triangles": [
        1,
        0,
        2
    ],
    "carDensity": 3.0,
    "suspension": 0.5194817781448364,
    "motorSpeed": 853,
    "frontDensity": 4.900000095367432,
    "frontRadius": 0.6900220513343811,
    "frontOffset": 1.1931297779083253,
    "backDensity": 3.799999952316284,
    "backRadius": 0.5754249095916748,
    "backOffset": -0.8840943574905396,
    "score": 13,
    "maxDistance": 2,
    "maxTime": 1.7999999523162842,
    "speed": 1
}{
    "ID": 63799,
    "genomaID": "CV6TD15",
    "color": {
        "x": 0.20653727650642396,
        "y": 0.7379440665245056,
        "z": 0.5660251975059509
    },
    "vertexNumber": 6,
    "colliderVertices": [
        {
            "x": -1.3414645195007325,
            "y": -0.3026110827922821
        },
        {
            "x": 1.625537395477295,
            "y": -0.14683718979358674
        },
        {
            "x": 1.6096177101135255,
            "y": 0.5898081660270691
        },
        {
            "x": 0.26149678230285647,
            "y": 0.330025851726532
        },
        {
            "x": 0.16451478004455567,
            "y": 0.14243543148040772
        },
        {
            "x": -0.7155444622039795,
            "y": 0.8693023920059204
        }
    ],
    "triangles": [
        1,
        0,
        4,
        4,
        3,
        1,
        0,
        5,
        4,
        3,
        2,
        1
    ],
    "carDensity": 6.0,
    "suspension": 0.5422303676605225,
    "motorSpeed": 851,
    "frontDensity": 4.900000095367432,
    "frontRadius": 0.6900220513343811,
    "frontOffset": 0.6780661344528198,
    "backDensity": 3.700000047683716,
    "backRadius": 0.5727956295013428,
    "backOffset": -0.9670487642288208,
    "score": 0,
    "maxDistance": 0,
    "maxTime": 0.800000011920929,
    "speed": 0
}