{
    "ID": 74424,
    "genomaID": "CV5TD14",
    "color": {
        "x": 0.21015825867652894,
        "y": 0.7514325380325317,
        "z": 0.603265106678009
    },
    "vertexNumber": 5,
    "colliderVertices": [
        {
            "x": -1.358903169631958,
            "y": -0.030087534338235856
        },
        {
            "x": 1.280360221862793,
            "y": -0.22655203938484193
        },
        {
            "x": -0.715101957321167,
            "y": 0.439075767993927
        },
        {
            "x": -0.9292347431182861,
            "y": 0.6629095077514648
        },
        {
            "x": -1.1955451965332032,
            "y": 0.42227309942245486
        }
    ],
    "triangles": [
        2,
        1,
        4,
        4,
        3,
        2,
        1,
        0,
        4
    ],
    "carDensity": 5.0,
    "suspension": 0.8269264101982117,
    "motorSpeed": 875,
    "frontDensity": 4.800000190734863,
    "frontRadius": 0.6810335516929627,
    "frontOffset": 1.4905059337615967,
    "backDensity": 3.700000047683716,
    "backRadius": 0.5727956295013428,
    "backOffset": -0.9918109178543091,
    "score": 916,
    "maxDistance": 834,
    "maxTime": 102.30000305175781,
    "speed": 8
}{
    "ID": 74534,
    "genomaID": "CV5TD14",
    "color": {
        "x": 0.6873781085014343,
        "y": 0.1535031944513321,
        "z": 0.13155795633792878
    },
    "vertexNumber": 5,
    "colliderVertices": [
        {
            "x": -1.358903169631958,
            "y": -0.030087534338235856
        },
        {
            "x": 1.280360221862793,
            "y": -0.22655203938484193
        },
        {
            "x": -0.715101957321167,
            "y": 0.439075767993927
        },
        {
            "x": -0.9292347431182861,
            "y": 0.6629095077514648
        },
        {
            "x": -1.1955451965332032,
            "y": 0.42227309942245486
        }
    ],
    "triangles": [
        2,
        1,
        4,
        4,
        3,
        2,
        1,
        0,
        4
    ],
    "carDensity": 5.0,
    "suspension": 0.9394285678863525,
    "motorSpeed": 851,
    "frontDensity": 4.800000190734863,
    "frontRadius": 0.6810335516929627,
    "frontOffset": 0.7372902631759644,
    "backDensity": 3.700000047683716,
    "backRadius": 0.5727956295013428,
    "backOffset": -0.9918109178543091,
    "score": 914,
    "maxDistance": 834,
    "maxTime": 104.69999694824219,
    "speed": 8
}{
    "ID": 74600,
    "genomaID": "CV3TD12",
    "color": {
        "x": 0.7157778143882752,
        "y": 0.7526435852050781,
        "z": 0.5779417157173157
    },
    "vertexNumber": 3,
    "colliderVertices": [
        {
            "x": -1.3146932125091553,
            "y": -0.35629478096961977
        },
        {
            "x": 1.1096062660217286,
            "y": -0.44019651412963869
        },
        {
            "x": -1.8295903205871583,
            "y": 0.6733900308609009
        }
    ],
    "triangles": [
        1,
        0,
        2
    ],
    "carDensity": 3.0,
    "suspension": 0.4158511459827423,
    "motorSpeed": 851,
    "frontDensity": 4.900000095367432,
    "frontRadius": 0.6851785182952881,
    "frontOffset": 0.7034549713134766,
    "backDensity": 3.700000047683716,
    "backRadius": 0.5727956295013428,
    "backOffset": -1.208482265472412,
    "score": 913,
    "maxDistance": 834,
    "maxTime": 105.19999694824219,
    "speed": 8
}{
    "ID": 74408,
    "genomaID": "CV3TD10",
    "color": {
        "x": 0.17345787584781648,
        "y": 0.17457963526248933,
        "z": 0.9269862174987793
    },
    "vertexNumber": 3,
    "colliderVertices": [
        {
            "x": -1.8268630504608155,
            "y": -0.334953635931015
        },
        {
            "x": 1.4763984680175782,
            "y": -0.24565550684928895
        },
        {
            "x": -0.9468667507171631,
            "y": 0.6174160838127136
        }
    ],
    "triangles": [
        1,
        0,
        2
    ],
    "carDensity": 3.0,
    "suspension": 0.6942669153213501,
    "motorSpeed": 851,
    "frontDensity": 3.0999999046325685,
    "frontRadius": 0.5076053142547607,
    "frontOffset": 1.024729609489441,
    "backDensity": 3.799999952316284,
    "backRadius": 0.5767271518707275,
    "backOffset": -1.0245078802108765,
    "score": 0,
    "maxDistance": 0,
    "maxTime": 0.800000011920929,
    "speed": 0
}{
    "ID": 74599,
    "genomaID": "CV3TD9",
    "color": {
        "x": 0.20653727650642396,
        "y": 0.7379440665245056,
        "z": 0.5660251975059509
    },
    "vertexNumber": 3,
    "colliderVertices": [
        {
            "x": -1.615149736404419,
            "y": -0.08056289702653885
        },
        {
            "x": 1.1510634422302247,
            "y": -0.4890420436859131
        },
        {
            "x": -0.87314772605896,
            "y": 0.506628692150116
        }
    ],
    "triangles": [
        1,
        0,
        2
    ],
    "carDensity": 3.0,
    "suspension": 0.8671930432319641,
    "motorSpeed": 851,
    "frontDensity": 2.0999999046325685,
    "frontRadius": 0.4070990979671478,
    "frontOffset": 1.275874137878418,
    "backDensity": 3.5999999046325685,
    "backRadius": 0.5585571527481079,
    "backOffset": -0.8016687035560608,
    "score": 0,
    "maxDistance": 0,
    "maxTime": 0.800000011920929,
    "speed": 0
}