{
    "ID": 9683,
    "genomaID": "CV3TD10",
    "color": {
        "x": 0.15972353518009187,
        "y": 0.53553706407547,
        "z": 0.18321241438388825
    },
    "vertexNumber": 3,
    "colliderVertices": [
        {
            "x": -1.2541747093200684,
            "y": -0.38386595249176028
        },
        {
            "x": 1.0193626880645753,
            "y": -0.271028071641922
        },
        {
            "x": 1.3762645721435547,
            "y": 0.10750925540924072
        }
    ],
    "triangles": [
        1,
        0,
        2
    ],
    "carDensity": 3.0,
    "suspension": 0.7085757255554199,
    "motorSpeed": 939,
    "frontDensity": 4.199999809265137,
    "frontRadius": 0.6177605390548706,
    "frontOffset": 1.2109801769256592,
    "backDensity": 3.0999999046325685,
    "backRadius": 0.5140807628631592,
    "backOffset": -0.9427167177200317,
    "score": 907,
    "maxDistance": 827,
    "maxTime": 103.0,
    "speed": 8
}{
    "ID": 9766,
    "genomaID": "CV3TD10",
    "color": {
        "x": 0.6054989695549011,
        "y": 0.6117491126060486,
        "z": 0.5935098528862
    },
    "vertexNumber": 3,
    "colliderVertices": [
        {
            "x": -1.3842709064483643,
            "y": -0.4283416271209717
        },
        {
            "x": 1.0090166330337525,
            "y": -0.14637883007526399
        },
        {
            "x": 0.7567448019981384,
            "y": 0.08288002014160156
        }
    ],
    "triangles": [
        1,
        0,
        2
    ],
    "carDensity": 3.0,
    "suspension": 0.9583516716957092,
    "motorSpeed": 725,
    "frontDensity": 4.0,
    "frontRadius": 0.6009075045585632,
    "frontOffset": 0.6481270790100098,
    "backDensity": 3.299999952316284,
    "backRadius": 0.5282836556434631,
    "backOffset": -0.610832929611206,
    "score": 894,
    "maxDistance": 831,
    "maxTime": 132.5,
    "speed": 6
}{
    "ID": 9662,
    "genomaID": "CV3TD9",
    "color": {
        "x": 0.13412870466709138,
        "y": 0.49022799730300906,
        "z": 0.5442808270454407
    },
    "vertexNumber": 3,
    "colliderVertices": [
        {
            "x": -1.105527639389038,
            "y": -0.030847076326608659
        },
        {
            "x": 1.2057361602783204,
            "y": -0.16233421862125398
        },
        {
            "x": -1.5781054496765137,
            "y": 0.27025920152664187
        }
    ],
    "triangles": [
        1,
        0,
        2
    ],
    "carDensity": 3.0,
    "suspension": 0.9131471514701843,
    "motorSpeed": 710,
    "frontDensity": 3.4000000953674318,
    "frontRadius": 0.5441341996192932,
    "frontOffset": 0.9283815622329712,
    "backDensity": 3.0,
    "backRadius": 0.5023099184036255,
    "backOffset": -0.854516863822937,
    "score": 891,
    "maxDistance": 833,
    "maxTime": 143.5,
    "speed": 6
}{
    "ID": 9688,
    "genomaID": "CV3TD10",
    "color": {
        "x": 0.9071204662322998,
        "y": 0.30994704365730288,
        "z": 0.45191246271133425
    },
    "vertexNumber": 3,
    "colliderVertices": [
        {
            "x": -1.2541747093200684,
            "y": -0.38386595249176028
        },
        {
            "x": 1.0193626880645753,
            "y": -0.271028071641922
        },
        {
            "x": 1.3762645721435547,
            "y": 0.10750925540924072
        }
    ],
    "triangles": [
        1,
        0,
        2
    ],
    "carDensity": 3.0,
    "suspension": 0.8515685200691223,
    "motorSpeed": 710,
    "frontDensity": 3.4000000953674318,
    "frontRadius": 0.5441341996192932,
    "frontOffset": 1.234393835067749,
    "backDensity": 4.199999809265137,
    "backRadius": 0.6176940202713013,
    "backOffset": -0.8190273642539978,
    "score": 36,
    "maxDistance": 6,
    "maxTime": 2.0,
    "speed": 3
}{
    "ID": 9746,
    "genomaID": "CV3TD11",
    "color": {
        "x": 0.09030605107545853,
        "y": 0.587245762348175,
        "z": 0.2169661819934845
    },
    "vertexNumber": 3,
    "colliderVertices": [
        {
            "x": -1.105527639389038,
            "y": -0.030847076326608659
        },
        {
            "x": 1.2057361602783204,
            "y": -0.16233421862125398
        },
        {
            "x": -1.5781054496765137,
            "y": 0.27025920152664187
        }
    ],
    "triangles": [
        1,
        0,
        2
    ],
    "carDensity": 3.0,
    "suspension": 0.84603351354599,
    "motorSpeed": 710,
    "frontDensity": 3.4000000953674318,
    "frontRadius": 0.5441341996192932,
    "frontOffset": 1.3026999235153199,
    "backDensity": 4.800000190734863,
    "backRadius": 0.6788604259490967,
    "backOffset": -0.854516863822937,
    "score": -11,
    "maxDistance": -1,
    "maxTime": 1.0,
    "speed": -1
}