{
    "ID": 67329,
    "genomaID": "CV3TD12",
    "color": {
        "x": 0.5148695111274719,
        "y": 0.07552278786897659,
        "z": 0.2990700304508209
    },
    "vertexNumber": 3,
    "colliderVertices": [
        {
            "x": -1.6967082023620606,
            "y": -0.4183594584465027
        },
        {
            "x": 1.6215009689331055,
            "y": -0.4354392886161804
        },
        {
            "x": 0.29096150398254397,
            "y": 0.040700316429138187
        }
    ],
    "triangles": [
        1,
        0,
        2
    ],
    "carDensity": 3.0,
    "suspension": 0.8568682670593262,
    "motorSpeed": 851,
    "frontDensity": 4.900000095367432,
    "frontRadius": 0.6900220513343811,
    "frontOffset": 0.7410382032394409,
    "backDensity": 3.799999952316284,
    "backRadius": 0.5848655700683594,
    "backOffset": -1.341240644454956,
    "score": 915,
    "maxDistance": 834,
    "maxTime": 102.80000305175781,
    "speed": 8
}{
    "ID": 67270,
    "genomaID": "CV3TD12",
    "color": {
        "x": 0.550239622592926,
        "y": 0.43062347173690798,
        "z": 0.6933954358100891
    },
    "vertexNumber": 3,
    "colliderVertices": [
        {
            "x": -1.615149736404419,
            "y": -0.08056289702653885
        },
        {
            "x": 1.1510634422302247,
            "y": -0.4890420436859131
        },
        {
            "x": -0.87314772605896,
            "y": 0.506628692150116
        }
    ],
    "triangles": [
        1,
        0,
        2
    ],
    "carDensity": 3.0,
    "suspension": 0.40390536189079287,
    "motorSpeed": 851,
    "frontDensity": 4.800000190734863,
    "frontRadius": 0.6776076555252075,
    "frontOffset": 0.6698473691940308,
    "backDensity": 3.700000047683716,
    "backRadius": 0.5727956295013428,
    "backOffset": -1.3664262294769288,
    "score": 913,
    "maxDistance": 833,
    "maxTime": 104.5,
    "speed": 8
}{
    "ID": 67382,
    "genomaID": "CV3TD11",
    "color": {
        "x": 0.6366142630577087,
        "y": 0.22715237736701966,
        "z": 0.02326822467148304
    },
    "vertexNumber": 3,
    "colliderVertices": [
        {
            "x": -1.615149736404419,
            "y": -0.08056289702653885
        },
        {
            "x": 1.1510634422302247,
            "y": -0.4890420436859131
        },
        {
            "x": -0.87314772605896,
            "y": 0.506628692150116
        }
    ],
    "triangles": [
        1,
        0,
        2
    ],
    "carDensity": 3.0,
    "suspension": 0.7460435628890991,
    "motorSpeed": 868,
    "frontDensity": 4.900000095367432,
    "frontRadius": 0.6900220513343811,
    "frontOffset": 1.4120991230010987,
    "backDensity": 2.9000000953674318,
    "backRadius": 0.4935801029205322,
    "backOffset": -0.7861207127571106,
    "score": 911,
    "maxDistance": 834,
    "maxTime": 107.80000305175781,
    "speed": 8
}{
    "ID": 67251,
    "genomaID": "CV4TD11",
    "color": {
        "x": 0.560156524181366,
        "y": 0.9362970590591431,
        "z": 0.4048425555229187
    },
    "vertexNumber": 4,
    "colliderVertices": [
        {
            "x": -1.687772274017334,
            "y": -0.07874298840761185
        },
        {
            "x": 1.1884435415267945,
            "y": -0.29231515526771548
        },
        {
            "x": 0.5770377516746521,
            "y": 0.5196183323860169
        },
        {
            "x": -1.0573768615722657,
            "y": 0.4442228674888611
        }
    ],
    "triangles": [
        3,
        2,
        1,
        1,
        0,
        3
    ],
    "carDensity": 4.0,
    "suspension": 0.7204480171203613,
    "motorSpeed": 868,
    "frontDensity": 3.0999999046325685,
    "frontRadius": 0.5068330764770508,
    "frontOffset": 1.005437970161438,
    "backDensity": 3.700000047683716,
    "backRadius": 0.5686486959457398,
    "backOffset": -1.015665888786316,
    "score": 6,
    "maxDistance": 1,
    "maxTime": 1.7999999523162842,
    "speed": 1
}{
    "ID": 67400,
    "genomaID": "CV5TD11",
    "color": {
        "x": 0.7157778143882752,
        "y": 0.7526435852050781,
        "z": 0.5779417157173157
    },
    "vertexNumber": 5,
    "colliderVertices": [
        {
            "x": -1.5025699138641358,
            "y": -0.005813062656670809
        },
        {
            "x": 1.2703866958618165,
            "y": -0.1970389187335968
        },
        {
            "x": 1.1436562538146973,
            "y": 0.7360903024673462
        },
        {
            "x": 0.9588493704795837,
            "y": 0.040911197662353519
        },
        {
            "x": 0.24220824241638184,
            "y": 0.3845359683036804
        }
    ],
    "triangles": [
        1,
        4,
        3,
        3,
        2,
        1,
        1,
        0,
        4
    ],
    "carDensity": 5.0,
    "suspension": 0.5079876184463501,
    "motorSpeed": 893,
    "frontDensity": 2.5999999046325685,
    "frontRadius": 0.46478015184402468,
    "frontOffset": 0.6382113695144653,
    "backDensity": 3.0,
    "backRadius": 0.5010219216346741,
    "backOffset": -0.7180562019348145,
    "score": 0,
    "maxDistance": 0,
    "maxTime": 0.800000011920929,
    "speed": 0
}