{
    "ID": 38879,
    "genomaID": "CV6TD14",
    "color": {
        "x": 0.07293427735567093,
        "y": 0.7639034986495972,
        "z": 0.21623137593269349
    },
    "vertexNumber": 6,
    "colliderVertices": [
        {
            "x": -1.1377239227294922,
            "y": -0.16808713972568513
        },
        {
            "x": 1.4599943161010743,
            "y": -0.035592321306467059
        },
        {
            "x": 0.7029995322227478,
            "y": 0.7564626932144165
        },
        {
            "x": 0.43115735054016116,
            "y": 0.25065284967422488
        },
        {
            "x": -0.8812663555145264,
            "y": 0.029757022857666017
        },
        {
            "x": -1.615119457244873,
            "y": 0.31464916467666628
        }
    ],
    "triangles": [
        0,
        4,
        3,
        3,
        1,
        0,
        0,
        5,
        4,
        3,
        2,
        1
    ],
    "carDensity": 6.0,
    "suspension": 0.8616470694541931,
    "motorSpeed": 892,
    "frontDensity": 4.900000095367432,
    "frontRadius": 0.6888914704322815,
    "frontOffset": 1.1586257219314576,
    "backDensity": 3.4000000953674318,
    "backRadius": 0.5387384295463562,
    "backOffset": -0.9984716176986694,
    "score": 915,
    "maxDistance": 833,
    "maxTime": 101.80000305175781,
    "speed": 8
}{
    "ID": 38885,
    "genomaID": "CV3TD11",
    "color": {
        "x": 0.4745785593986511,
        "y": 0.1451893001794815,
        "z": 0.3153058588504791
    },
    "vertexNumber": 3,
    "colliderVertices": [
        {
            "x": -1.2415111064910889,
            "y": -0.332523912191391
        },
        {
            "x": 1.2988438606262208,
            "y": -0.2140497863292694
        },
        {
            "x": -1.6646909713745118,
            "y": 0.4260508418083191
        }
    ],
    "triangles": [
        1,
        0,
        2
    ],
    "carDensity": 3.0,
    "suspension": 0.8616470694541931,
    "motorSpeed": 892,
    "frontDensity": 4.900000095367432,
    "frontRadius": 0.6888914704322815,
    "frontOffset": 1.1586257219314576,
    "backDensity": 2.5999999046325685,
    "backRadius": 0.4634740352630615,
    "backOffset": -1.2850620746612549,
    "score": 912,
    "maxDistance": 834,
    "maxTime": 106.5,
    "speed": 8
}{
    "ID": 38833,
    "genomaID": "CV3TD11",
    "color": {
        "x": 0.2025337517261505,
        "y": 0.5234045386314392,
        "z": 0.5499987006187439
    },
    "vertexNumber": 3,
    "colliderVertices": [
        {
            "x": -1.8786656856536866,
            "y": -0.49674010276794436
        },
        {
            "x": 1.5108978748321534,
            "y": -0.2767623960971832
        },
        {
            "x": -1.2797718048095704,
            "y": 0.1858816146850586
        }
    ],
    "triangles": [
        1,
        0,
        2
    ],
    "carDensity": 3.0,
    "suspension": 0.5222387313842773,
    "motorSpeed": 867,
    "frontDensity": 4.900000095367432,
    "frontRadius": 0.6877074241638184,
    "frontOffset": 1.1586257219314576,
    "backDensity": 3.0,
    "backRadius": 0.4971954822540283,
    "backOffset": -0.8229278922080994,
    "score": 910,
    "maxDistance": 833,
    "maxTime": 107.80000305175781,
    "speed": 8
}{
    "ID": 38863,
    "genomaID": "CV4TD12",
    "color": {
        "x": 0.8644475936889648,
        "y": 0.6927585005760193,
        "z": 0.47708970308303835
    },
    "vertexNumber": 4,
    "colliderVertices": [
        {
            "x": -1.0661338567733765,
            "y": -0.0642409399151802
        },
        {
            "x": 1.6813403367996216,
            "y": -0.45601803064346316
        },
        {
            "x": -0.39000439643859866,
            "y": 0.2597091794013977
        },
        {
            "x": -0.6520559787750244,
            "y": 0.6465421915054321
        }
    ],
    "triangles": [
        0,
        3,
        2,
        2,
        1,
        0
    ],
    "carDensity": 4.0,
    "suspension": 0.8616470694541931,
    "motorSpeed": 892,
    "frontDensity": 4.900000095367432,
    "frontRadius": 0.6877074241638184,
    "frontOffset": 0.8153894543647766,
    "backDensity": 3.0,
    "backRadius": 0.4971954822540283,
    "backOffset": -0.9069446325302124,
    "score": 9,
    "maxDistance": 2,
    "maxTime": 2.9000000953674318,
    "speed": 1
}{
    "ID": 38993,
    "genomaID": "CV3TD11",
    "color": {
        "x": 0.23507264256477357,
        "y": 0.5300777554512024,
        "z": 0.8182836771011353
    },
    "vertexNumber": 3,
    "colliderVertices": [
        {
            "x": -1.3710658550262452,
            "y": -0.36291202902793887
        },
        {
            "x": 1.0110141038894654,
            "y": -0.41903162002563479
        },
        {
            "x": -0.4943125247955322,
            "y": 0.6511760950088501
        }
    ],
    "triangles": [
        1,
        0,
        2
    ],
    "carDensity": 3.0,
    "suspension": 0.9515455961227417,
    "motorSpeed": 1099,
    "frontDensity": 5.0,
    "frontRadius": 0.6988407373428345,
    "frontOffset": 0.8933373689651489,
    "backDensity": 3.0,
    "backRadius": 0.4968641996383667,
    "backOffset": -1.1737536191940308,
    "score": 0,
    "maxDistance": 0,
    "maxTime": 0.8999999761581421,
    "speed": 0
}