{
    "ID": 92347,
    "genomaID": "CV3TD12",
    "color": {
        "x": 0.6293123364448547,
        "y": 0.02893555536866188,
        "z": 0.7288181185722351
    },
    "vertexNumber": 3,
    "colliderVertices": [
        {
            "x": -1.615149736404419,
            "y": -0.08056289702653885
        },
        {
            "x": 1.1510634422302247,
            "y": -0.4890420436859131
        },
        {
            "x": -0.87314772605896,
            "y": 0.506628692150116
        }
    ],
    "triangles": [
        1,
        0,
        2
    ],
    "carDensity": 3.0,
    "suspension": 0.4053061306476593,
    "motorSpeed": 1158,
    "frontDensity": 4.800000190734863,
    "frontRadius": 0.6801435947418213,
    "frontOffset": 1.3841021060943604,
    "backDensity": 3.700000047683716,
    "backRadius": 0.5705000162124634,
    "backOffset": -1.0226343870162964,
    "score": 921,
    "maxDistance": 830,
    "maxTime": 90.80000305175781,
    "speed": 9
}{
    "ID": 92238,
    "genomaID": "CV3TD12",
    "color": {
        "x": 0.473757803440094,
        "y": 0.4240033030509949,
        "z": 0.13615132868289948
    },
    "vertexNumber": 3,
    "colliderVertices": [
        {
            "x": -1.615149736404419,
            "y": -0.08056289702653885
        },
        {
            "x": 1.1510634422302247,
            "y": -0.4890420436859131
        },
        {
            "x": -0.87314772605896,
            "y": 0.506628692150116
        }
    ],
    "triangles": [
        1,
        0,
        2
    ],
    "carDensity": 3.0,
    "suspension": 0.5200397372245789,
    "motorSpeed": 851,
    "frontDensity": 4.800000190734863,
    "frontRadius": 0.6787758469581604,
    "frontOffset": 0.6719167232513428,
    "backDensity": 3.5,
    "backRadius": 0.5543792843818665,
    "backOffset": -1.018170952796936,
    "score": 912,
    "maxDistance": 834,
    "maxTime": 106.4000015258789,
    "speed": 8
}{
    "ID": 92371,
    "genomaID": "CV3TD11",
    "color": {
        "x": 0.44894856214523318,
        "y": 0.6840866208076477,
        "z": 0.24672845005989076
    },
    "vertexNumber": 3,
    "colliderVertices": [
        {
            "x": -1.615149736404419,
            "y": -0.08056289702653885
        },
        {
            "x": 1.1510634422302247,
            "y": -0.4890420436859131
        },
        {
            "x": -0.87314772605896,
            "y": 0.506628692150116
        }
    ],
    "triangles": [
        1,
        0,
        2
    ],
    "carDensity": 3.0,
    "suspension": 0.9946087002754211,
    "motorSpeed": 851,
    "frontDensity": 4.800000190734863,
    "frontRadius": 0.6801435947418213,
    "frontOffset": 0.9861174821853638,
    "backDensity": 3.4000000953674318,
    "backRadius": 0.5403072237968445,
    "backOffset": -1.0243817567825318,
    "score": 911,
    "maxDistance": 834,
    "maxTime": 107.69999694824219,
    "speed": 8
}{
    "ID": 92217,
    "genomaID": "CV3TD12",
    "color": {
        "x": 0.06466711312532425,
        "y": 0.33973923325538638,
        "z": 0.8371891975402832
    },
    "vertexNumber": 3,
    "colliderVertices": [
        {
            "x": -1.615149736404419,
            "y": -0.08056289702653885
        },
        {
            "x": 1.1510634422302247,
            "y": -0.4890420436859131
        },
        {
            "x": -0.87314772605896,
            "y": 0.506628692150116
        }
    ],
    "triangles": [
        1,
        0,
        2
    ],
    "carDensity": 3.0,
    "suspension": 0.4053061306476593,
    "motorSpeed": 851,
    "frontDensity": 4.800000190734863,
    "frontRadius": 0.6801435947418213,
    "frontOffset": 1.3841021060943604,
    "backDensity": 4.300000190734863,
    "backRadius": 0.6284524202346802,
    "backOffset": -1.0226343870162964,
    "score": 198,
    "maxDistance": 147,
    "maxTime": 28.899999618530275,
    "speed": 5
}{
    "ID": 92389,
    "genomaID": "CV3TD12",
    "color": {
        "x": 0.2850213348865509,
        "y": 0.19931009411811829,
        "z": 0.833501935005188
    },
    "vertexNumber": 3,
    "colliderVertices": [
        {
            "x": -1.8219696283340455,
            "y": -0.17945744097232819
        },
        {
            "x": 1.1694306135177613,
            "y": -0.012433411553502083
        },
        {
            "x": -0.7852461338043213,
            "y": 0.5309587121009827
        }
    ],
    "triangles": [
        1,
        0,
        2
    ],
    "carDensity": 3.0,
    "suspension": 0.4538515508174896,
    "motorSpeed": 1332,
    "frontDensity": 4.800000190734863,
    "frontRadius": 0.6801435947418213,
    "frontOffset": 1.444127082824707,
    "backDensity": 3.700000047683716,
    "backRadius": 0.565962016582489,
    "backOffset": -0.9103037118911743,
    "score": 0,
    "maxDistance": 0,
    "maxTime": 0.8999999761581421,
    "speed": 0
}