{
    "ID": 119357,
    "genomaID": "CV3TD12",
    "color": {
        "x": 0.5680072903633118,
        "y": 0.14264823496341706,
        "z": 0.8933107852935791
    },
    "vertexNumber": 3,
    "colliderVertices": [
        {
            "x": -1.1010850667953492,
            "y": -0.4912911653518677
        },
        {
            "x": 1.2597887516021729,
            "y": -0.34690144658088686
        },
        {
            "x": -1.7964177131652833,
            "y": 0.40650898218154909
        }
    ],
    "triangles": [
        1,
        0,
        2
    ],
    "carDensity": 3.0,
    "suspension": 0.46079495549201968,
    "motorSpeed": 869,
    "frontDensity": 4.900000095367432,
    "frontRadius": 0.689996063709259,
    "frontOffset": 0.5776222944259644,
    "backDensity": 3.799999952316284,
    "backRadius": 0.5767992734909058,
    "backOffset": -0.5016919374465942,
    "score": 916,
    "maxDistance": 833,
    "maxTime": 100.80000305175781,
    "speed": 8
}{
    "ID": 119301,
    "genomaID": "CV3TD11",
    "color": {
        "x": 0.27885201573371889,
        "y": 0.885794997215271,
        "z": 0.33655062317848208
    },
    "vertexNumber": 3,
    "colliderVertices": [
        {
            "x": -1.6306345462799073,
            "y": -0.2617659866809845
        },
        {
            "x": 1.828461766242981,
            "y": -0.30215731263160708
        },
        {
            "x": -1.8737444877624512,
            "y": 0.18787920475006104
        }
    ],
    "triangles": [
        1,
        0,
        2
    ],
    "carDensity": 3.0,
    "suspension": 0.5282756090164185,
    "motorSpeed": 869,
    "frontDensity": 4.900000095367432,
    "frontRadius": 0.689996063709259,
    "frontOffset": 0.591050386428833,
    "backDensity": 3.4000000953674318,
    "backRadius": 0.543877124786377,
    "backOffset": -0.9489911794662476,
    "score": 913,
    "maxDistance": 833,
    "maxTime": 104.0999984741211,
    "speed": 8
}{
    "ID": 119206,
    "genomaID": "CV3TD12",
    "color": {
        "x": 0.023887161165475847,
        "y": 0.4522629380226135,
        "z": 0.36236730217933657
    },
    "vertexNumber": 3,
    "colliderVertices": [
        {
            "x": -1.7729783058166505,
            "y": -0.2636915147304535
        },
        {
            "x": 1.2018989324569703,
            "y": -0.13652606308460236
        },
        {
            "x": -0.26383233070373537,
            "y": 0.7968834638595581
        }
    ],
    "triangles": [
        1,
        0,
        2
    ],
    "carDensity": 3.0,
    "suspension": 0.9414397478103638,
    "motorSpeed": 832,
    "frontDensity": 4.900000095367432,
    "frontRadius": 0.6855190396308899,
    "frontOffset": 1.3817451000213624,
    "backDensity": 4.199999809265137,
    "backRadius": 0.6154143214225769,
    "backOffset": -0.6762763261795044,
    "score": 911,
    "maxDistance": 830,
    "maxTime": 102.69999694824219,
    "speed": 8
}{
    "ID": 119203,
    "genomaID": "CV3TD12",
    "color": {
        "x": 0.5271676182746887,
        "y": 0.45618098974227908,
        "z": 0.9300339221954346
    },
    "vertexNumber": 3,
    "colliderVertices": [
        {
            "x": -1.2756998538970948,
            "y": -0.45075535774230959
        },
        {
            "x": 1.6203079223632813,
            "y": -0.4041508436203003
        },
        {
            "x": -1.4938368797302247,
            "y": 0.6844768524169922
        }
    ],
    "triangles": [
        1,
        0,
        2
    ],
    "carDensity": 3.0,
    "suspension": 0.8034124374389648,
    "motorSpeed": 1241,
    "frontDensity": 4.900000095367432,
    "frontRadius": 0.6855190396308899,
    "frontOffset": 1.3817451000213624,
    "backDensity": 4.199999809265137,
    "backRadius": 0.6154143214225769,
    "backOffset": -0.8492308855056763,
    "score": 0,
    "maxDistance": 0,
    "maxTime": 0.8999999761581421,
    "speed": 0
}{
    "ID": 119398,
    "genomaID": "CV6TD15",
    "color": {
        "x": 0.8288270235061646,
        "y": 0.1767282634973526,
        "z": 0.6346012949943543
    },
    "vertexNumber": 6,
    "colliderVertices": [
        {
            "x": -1.253972053527832,
            "y": -0.1249396950006485
        },
        {
            "x": 1.6485036611557007,
            "y": -0.05318475514650345
        },
        {
            "x": 1.7049946784973145,
            "y": 0.06166660785675049
        },
        {
            "x": 0.0930931568145752,
            "y": 0.45117002725601199
        },
        {
            "x": -0.07210564613342285,
            "y": 0.1441481113433838
        },
        {
            "x": -0.7828810214996338,
            "y": 0.01618945598602295
        }
    ],
    "triangles": [
        4,
        3,
        1,
        1,
        5,
        4,
        3,
        2,
        1,
        1,
        0,
        5
    ],
    "carDensity": 6.0,
    "suspension": 0.770591139793396,
    "motorSpeed": 869,
    "frontDensity": 4.800000190734863,
    "frontRadius": 0.6777834892272949,
    "frontOffset": 0.513933539390564,
    "backDensity": 3.700000047683716,
    "backRadius": 0.5656377077102661,
    "backOffset": -0.8283566832542419,
    "score": 0,
    "maxDistance": 0,
    "maxTime": 0.8999999761581421,
    "speed": 0
}