{
    "ID": 72112,
    "genomaID": "CV3TD11",
    "color": {
        "x": 0.42164772748947146,
        "y": 0.7253873944282532,
        "z": 0.8201931715011597
    },
    "vertexNumber": 3,
    "colliderVertices": [
        {
            "x": -1.615149736404419,
            "y": -0.08056289702653885
        },
        {
            "x": 1.1510634422302247,
            "y": -0.4890420436859131
        },
        {
            "x": -0.87314772605896,
            "y": 0.506628692150116
        }
    ],
    "triangles": [
        1,
        0,
        2
    ],
    "carDensity": 3.0,
    "suspension": 0.8212217092514038,
    "motorSpeed": 906,
    "frontDensity": 5.0,
    "frontRadius": 0.6950520277023315,
    "frontOffset": 1.0510128736495972,
    "backDensity": 3.4000000953674318,
    "backRadius": 0.5422195196151733,
    "backOffset": -1.4093756675720215,
    "score": 917,
    "maxDistance": 834,
    "maxTime": 100.69999694824219,
    "speed": 8
}{
    "ID": 72100,
    "genomaID": "CV3TD12",
    "color": {
        "x": 0.2999170124530792,
        "y": 0.7223097681999207,
        "z": 0.851524829864502
    },
    "vertexNumber": 3,
    "colliderVertices": [
        {
            "x": -1.615149736404419,
            "y": -0.08056289702653885
        },
        {
            "x": 1.1510634422302247,
            "y": -0.4890420436859131
        },
        {
            "x": -0.87314772605896,
            "y": 0.506628692150116
        }
    ],
    "triangles": [
        1,
        0,
        2
    ],
    "carDensity": 3.0,
    "suspension": 0.6215742826461792,
    "motorSpeed": 851,
    "frontDensity": 4.800000190734863,
    "frontRadius": 0.6776076555252075,
    "frontOffset": 0.7595176100730896,
    "backDensity": 3.799999952316284,
    "backRadius": 0.5834527015686035,
    "backOffset": -0.7365010976791382,
    "score": 914,
    "maxDistance": 834,
    "maxTime": 103.69999694824219,
    "speed": 8
}{
    "ID": 72143,
    "genomaID": "CV3TD11",
    "color": {
        "x": 0.828450083732605,
        "y": 0.6032790541648865,
        "z": 0.3092102110385895
    },
    "vertexNumber": 3,
    "colliderVertices": [
        {
            "x": -1.615149736404419,
            "y": -0.08056289702653885
        },
        {
            "x": 1.1510634422302247,
            "y": -0.4890420436859131
        },
        {
            "x": -0.87314772605896,
            "y": 0.506628692150116
        }
    ],
    "triangles": [
        1,
        0,
        2
    ],
    "carDensity": 3.0,
    "suspension": 0.8212217092514038,
    "motorSpeed": 851,
    "frontDensity": 4.800000190734863,
    "frontRadius": 0.6825554370880127,
    "frontOffset": 1.0510128736495972,
    "backDensity": 3.0999999046325685,
    "backRadius": 0.5072226524353027,
    "backOffset": -1.073038935661316,
    "score": 911,
    "maxDistance": 834,
    "maxTime": 109.0,
    "speed": 8
}{
    "ID": 72003,
    "genomaID": "CV3TD11",
    "color": {
        "x": 0.5271676182746887,
        "y": 0.45618098974227908,
        "z": 0.9300339221954346
    },
    "vertexNumber": 3,
    "colliderVertices": [
        {
            "x": -1.3146932125091553,
            "y": -0.35629478096961977
        },
        {
            "x": 1.1096062660217286,
            "y": -0.44019651412963869
        },
        {
            "x": -1.8295903205871583,
            "y": 0.6733900308609009
        }
    ],
    "triangles": [
        1,
        0,
        2
    ],
    "carDensity": 3.0,
    "suspension": 0.5287967920303345,
    "motorSpeed": 851,
    "frontDensity": 3.5,
    "frontRadius": 0.5538447499275208,
    "frontOffset": 1.3671836853027344,
    "backDensity": 4.0,
    "backRadius": 0.5986046195030212,
    "backOffset": -1.0265740156173707,
    "score": 0,
    "maxDistance": 0,
    "maxTime": 0.800000011920929,
    "speed": 0
}{
    "ID": 72200,
    "genomaID": "CV3TD12",
    "color": {
        "x": 0.7157778143882752,
        "y": 0.7526435852050781,
        "z": 0.5779417157173157
    },
    "vertexNumber": 3,
    "colliderVertices": [
        {
            "x": -1.615149736404419,
            "y": -0.08056289702653885
        },
        {
            "x": 1.1510634422302247,
            "y": -0.4890420436859131
        },
        {
            "x": -0.87314772605896,
            "y": 0.506628692150116
        }
    ],
    "triangles": [
        1,
        0,
        2
    ],
    "carDensity": 3.0,
    "suspension": 0.8492372632026672,
    "motorSpeed": 1471,
    "frontDensity": 4.800000190734863,
    "frontRadius": 0.6751866936683655,
    "frontOffset": 0.5252996683120728,
    "backDensity": 3.700000047683716,
    "backRadius": 0.5727956295013428,
    "backOffset": -0.8528941869735718,
    "score": 0,
    "maxDistance": 0,
    "maxTime": 0.800000011920929,
    "speed": 0
}