{
    "ID": 104268,
    "genomaID": "CV4TD13",
    "color": {
        "x": 0.779715895652771,
        "y": 0.1597966104745865,
        "z": 0.1659081131219864
    },
    "vertexNumber": 4,
    "colliderVertices": [
        {
            "x": -1.0350886583328248,
            "y": -0.19529631733894349
        },
        {
            "x": 1.0733088254928589,
            "y": -0.14162828028202058
        },
        {
            "x": 0.10740256309509278,
            "y": 0.24093985557556153
        },
        {
            "x": -0.9431231021881104,
            "y": 0.6971957683563232
        }
    ],
    "triangles": [
        0,
        3,
        2,
        2,
        1,
        0
    ],
    "carDensity": 4.0,
    "suspension": 0.8102279901504517,
    "motorSpeed": 851,
    "frontDensity": 4.800000190734863,
    "frontRadius": 0.68189936876297,
    "frontOffset": 0.9267646074295044,
    "backDensity": 3.9000000953674318,
    "backRadius": 0.5918115973472595,
    "backOffset": -1.2019240856170655,
    "score": 915,
    "maxDistance": 834,
    "maxTime": 103.0,
    "speed": 8
}{
    "ID": 104256,
    "genomaID": "CV3TD12",
    "color": {
        "x": 0.1323385387659073,
        "y": 0.05233467370271683,
        "z": 0.0016689302865415812
    },
    "vertexNumber": 3,
    "colliderVertices": [
        {
            "x": -1.615149736404419,
            "y": -0.08056289702653885
        },
        {
            "x": 1.1510634422302247,
            "y": -0.4890420436859131
        },
        {
            "x": -0.87314772605896,
            "y": 0.506628692150116
        }
    ],
    "triangles": [
        1,
        0,
        2
    ],
    "carDensity": 3.0,
    "suspension": 0.43055129051208498,
    "motorSpeed": 851,
    "frontDensity": 4.900000095367432,
    "frontRadius": 0.685553252696991,
    "frontOffset": 0.5417180061340332,
    "backDensity": 3.5,
    "backRadius": 0.5470849275588989,
    "backOffset": -1.3655173778533936,
    "score": 912,
    "maxDistance": 834,
    "maxTime": 106.80000305175781,
    "speed": 8
}{
    "ID": 104393,
    "genomaID": "CV3TD11",
    "color": {
        "x": 0.23507264256477357,
        "y": 0.5300777554512024,
        "z": 0.8182836771011353
    },
    "vertexNumber": 3,
    "colliderVertices": [
        {
            "x": -1.0476775169372559,
            "y": -0.10838748514652252
        },
        {
            "x": 1.2206603288650513,
            "y": -0.44047820568084719
        },
        {
            "x": -1.8252973556518555,
            "y": 0.989000678062439
        }
    ],
    "triangles": [
        1,
        0,
        2
    ],
    "carDensity": 3.0,
    "suspension": 0.9683849215507507,
    "motorSpeed": 851,
    "frontDensity": 4.800000190734863,
    "frontRadius": 0.6848597526550293,
    "frontOffset": 1.4491386413574219,
    "backDensity": 3.299999952316284,
    "backRadius": 0.531836211681366,
    "backOffset": -0.7141315937042236,
    "score": 911,
    "maxDistance": 834,
    "maxTime": 108.9000015258789,
    "speed": 8
}{
    "ID": 104260,
    "genomaID": "CV3TD11",
    "color": {
        "x": 0.06874633580446243,
        "y": 0.15198315680027009,
        "z": 0.8252511024475098
    },
    "vertexNumber": 3,
    "colliderVertices": [
        {
            "x": -1.615149736404419,
            "y": -0.08056289702653885
        },
        {
            "x": 1.1510634422302247,
            "y": -0.4890420436859131
        },
        {
            "x": -0.87314772605896,
            "y": 0.506628692150116
        }
    ],
    "triangles": [
        1,
        0,
        2
    ],
    "carDensity": 3.0,
    "suspension": 0.8126922249794006,
    "motorSpeed": 851,
    "frontDensity": 4.900000095367432,
    "frontRadius": 0.6855190396308899,
    "frontOffset": 1.0264970064163209,
    "backDensity": 3.200000047683716,
    "backRadius": 0.5193728804588318,
    "backOffset": -1.2851574420928956,
    "score": 18,
    "maxDistance": 3,
    "maxTime": 2.0,
    "speed": 2
}{
    "ID": 104400,
    "genomaID": "CV3TD11",
    "color": {
        "x": 0.7157778143882752,
        "y": 0.7526435852050781,
        "z": 0.5779417157173157
    },
    "vertexNumber": 3,
    "colliderVertices": [
        {
            "x": -1.4903595447540284,
            "y": -0.07688982039690018
        },
        {
            "x": 1.6353117227554322,
            "y": -0.43294966220855715
        },
        {
            "x": -0.680962324142456,
            "y": 0.24219870567321778
        }
    ],
    "triangles": [
        1,
        0,
        2
    ],
    "carDensity": 3.0,
    "suspension": 0.7582658529281616,
    "motorSpeed": 869,
    "frontDensity": 4.699999809265137,
    "frontRadius": 0.6709414720535278,
    "frontOffset": 0.6823937892913818,
    "backDensity": 2.9000000953674318,
    "backRadius": 0.4873276352882385,
    "backOffset": -1.4155354499816895,
    "score": 0,
    "maxDistance": 0,
    "maxTime": 1.0,
    "speed": 0
}