{
    "ID": 101824,
    "genomaID": "CV3TD12",
    "color": {
        "x": 0.21015825867652894,
        "y": 0.7514325380325317,
        "z": 0.603265106678009
    },
    "vertexNumber": 3,
    "colliderVertices": [
        {
            "x": -1.7290756702423096,
            "y": -0.3135705888271332
        },
        {
            "x": 1.3545441627502442,
            "y": -0.37638723850250246
        },
        {
            "x": 0.7655348181724548,
            "y": 0.4455224871635437
        }
    ],
    "triangles": [
        1,
        0,
        2
    ],
    "carDensity": 3.0,
    "suspension": 0.9739419221878052,
    "motorSpeed": 863,
    "frontDensity": 4.900000095367432,
    "frontRadius": 0.687317967414856,
    "frontOffset": 1.2182514667510987,
    "backDensity": 3.700000047683716,
    "backRadius": 0.5719133019447327,
    "backOffset": -1.2250189781188965,
    "score": 915,
    "maxDistance": 833,
    "maxTime": 102.0999984741211,
    "speed": 8
}{
    "ID": 101961,
    "genomaID": "CV3TD12",
    "color": {
        "x": 0.3694678843021393,
        "y": 0.12531735002994538,
        "z": 0.28705695271492007
    },
    "vertexNumber": 3,
    "colliderVertices": [
        {
            "x": -1.615149736404419,
            "y": -0.08056289702653885
        },
        {
            "x": 1.1510634422302247,
            "y": -0.4890420436859131
        },
        {
            "x": -0.87314772605896,
            "y": 0.506628692150116
        }
    ],
    "triangles": [
        1,
        0,
        2
    ],
    "carDensity": 3.0,
    "suspension": 0.5332916378974915,
    "motorSpeed": 851,
    "frontDensity": 4.900000095367432,
    "frontRadius": 0.6855190396308899,
    "frontOffset": 0.5081826448440552,
    "backDensity": 3.5,
    "backRadius": 0.5470849275588989,
    "backOffset": -0.7551295161247253,
    "score": 912,
    "maxDistance": 834,
    "maxTime": 107.0999984741211,
    "speed": 8
}{
    "ID": 101998,
    "genomaID": "CV4TD13",
    "color": {
        "x": 0.8288270235061646,
        "y": 0.1767282634973526,
        "z": 0.6346012949943543
    },
    "vertexNumber": 4,
    "colliderVertices": [
        {
            "x": -1.0350886583328248,
            "y": -0.19529631733894349
        },
        {
            "x": 1.0733088254928589,
            "y": -0.14162828028202058
        },
        {
            "x": 0.10740256309509278,
            "y": 0.24093985557556153
        },
        {
            "x": -0.9431231021881104,
            "y": 0.6971957683563232
        }
    ],
    "triangles": [
        0,
        3,
        2,
        2,
        1,
        0
    ],
    "carDensity": 4.0,
    "suspension": 0.8211706280708313,
    "motorSpeed": 851,
    "frontDensity": 4.800000190734863,
    "frontRadius": 0.68189936876297,
    "frontOffset": 1.4053720235824586,
    "backDensity": 3.5,
    "backRadius": 0.5470849275588989,
    "backOffset": -1.1307011842727662,
    "score": 911,
    "maxDistance": 833,
    "maxTime": 106.4000015258789,
    "speed": 8
}{
    "ID": 101900,
    "genomaID": "CV4TD13",
    "color": {
        "x": 0.2999170124530792,
        "y": 0.7223097681999207,
        "z": 0.851524829864502
    },
    "vertexNumber": 4,
    "colliderVertices": [
        {
            "x": -1.6875646114349366,
            "y": -0.047728247940540317
        },
        {
            "x": 1.5343248844146729,
            "y": -0.05392218381166458
        },
        {
            "x": 1.751309871673584,
            "y": 0.23718619346618653
        },
        {
            "x": 1.3229713439941407,
            "y": 0.9119054079055786
        }
    ],
    "triangles": [
        3,
        2,
        1,
        1,
        0,
        3
    ],
    "carDensity": 4.0,
    "suspension": 0.8211706280708313,
    "motorSpeed": 867,
    "frontDensity": 4.900000095367432,
    "frontRadius": 0.6855190396308899,
    "frontOffset": 1.4053720235824586,
    "backDensity": 3.5,
    "backRadius": 0.5470849275588989,
    "backOffset": -0.8043317198753357,
    "score": 18,
    "maxDistance": 3,
    "maxTime": 1.899999976158142,
    "speed": 2
}{
    "ID": 101997,
    "genomaID": "CV3TD11",
    "color": {
        "x": 0.4004287123680115,
        "y": 0.941399097442627,
        "z": 0.8905913829803467
    },
    "vertexNumber": 3,
    "colliderVertices": [
        {
            "x": -1.615149736404419,
            "y": -0.08056289702653885
        },
        {
            "x": 1.1510634422302247,
            "y": -0.4890420436859131
        },
        {
            "x": -0.87314772605896,
            "y": 0.506628692150116
        }
    ],
    "triangles": [
        1,
        0,
        2
    ],
    "carDensity": 3.0,
    "suspension": 0.8562170267105103,
    "motorSpeed": 946,
    "frontDensity": 4.800000190734863,
    "frontRadius": 0.678674578666687,
    "frontOffset": 0.6958237886428833,
    "backDensity": 3.299999952316284,
    "backRadius": 0.5286526679992676,
    "backOffset": -0.5209677219390869,
    "score": 0,
    "maxDistance": 0,
    "maxTime": 0.8999999761581421,
    "speed": 0
}