{
    "ID": 30611,
    "genomaID": "CV3TD12",
    "color": {
        "x": 0.3950609564781189,
        "y": 0.9663015604019165,
        "z": 0.10336209833621979
    },
    "vertexNumber": 3,
    "colliderVertices": [
        {
            "x": -1.3196678161621094,
            "y": -0.13924403488636018
        },
        {
            "x": 1.527311086654663,
            "y": -0.4570744037628174
        },
        {
            "x": -0.4547536373138428,
            "y": 0.41911548376083376
        }
    ],
    "triangles": [
        1,
        0,
        2
    ],
    "carDensity": 3.0,
    "suspension": 0.563485860824585,
    "motorSpeed": 864,
    "frontDensity": 4.699999809265137,
    "frontRadius": 0.6739943027496338,
    "frontOffset": 1.2451012134552003,
    "backDensity": 3.799999952316284,
    "backRadius": 0.5798087120056152,
    "backOffset": -1.1201452016830445,
    "score": 915,
    "maxDistance": 834,
    "maxTime": 103.0,
    "speed": 8
}{
    "ID": 30726,
    "genomaID": "CV3TD12",
    "color": {
        "x": 0.9714512825012207,
        "y": 0.9411721229553223,
        "z": 0.5284295678138733
    },
    "vertexNumber": 3,
    "colliderVertices": [
        {
            "x": -1.3196678161621094,
            "y": -0.13924403488636018
        },
        {
            "x": 1.527311086654663,
            "y": -0.4570744037628174
        },
        {
            "x": -0.4547536373138428,
            "y": 0.41911548376083376
        }
    ],
    "triangles": [
        1,
        0,
        2
    ],
    "carDensity": 3.0,
    "suspension": 0.9526940584182739,
    "motorSpeed": 864,
    "frontDensity": 4.699999809265137,
    "frontRadius": 0.6739943027496338,
    "frontOffset": 1.3959271907806397,
    "backDensity": 3.799999952316284,
    "backRadius": 0.5798087120056152,
    "backOffset": -1.1940090656280518,
    "score": 910,
    "maxDistance": 829,
    "maxTime": 102.0,
    "speed": 8
}{
    "ID": 30770,
    "genomaID": "CV4TD12",
    "color": {
        "x": 0.09569336473941803,
        "y": 0.6536408066749573,
        "z": 0.3564881384372711
    },
    "vertexNumber": 4,
    "colliderVertices": [
        {
            "x": -1.7396159172058106,
            "y": -0.16564948856830598
        },
        {
            "x": 1.466109275817871,
            "y": -0.1006716638803482
        },
        {
            "x": -1.6929426193237305,
            "y": 0.057047486305236819
        },
        {
            "x": -1.7720398902893067,
            "y": 0.39346593618392947
        }
    ],
    "triangles": [
        0,
        3,
        2,
        2,
        1,
        0
    ],
    "carDensity": 4.0,
    "suspension": 0.6122595071792603,
    "motorSpeed": 864,
    "frontDensity": 4.699999809265137,
    "frontRadius": 0.6718026399612427,
    "frontOffset": 1.150598406791687,
    "backDensity": 2.799999952316284,
    "backRadius": 0.4819214940071106,
    "backOffset": -1.058022141456604,
    "score": 907,
    "maxDistance": 830,
    "maxTime": 108.0,
    "speed": 8
}{
    "ID": 30717,
    "genomaID": "CV4TD10",
    "color": {
        "x": 0.21057823300361634,
        "y": 0.03984392061829567,
        "z": 0.7053022980690002
    },
    "vertexNumber": 4,
    "colliderVertices": [
        {
            "x": -1.7396159172058106,
            "y": -0.16564948856830598
        },
        {
            "x": 1.466109275817871,
            "y": -0.1006716638803482
        },
        {
            "x": -1.6929426193237305,
            "y": 0.057047486305236819
        },
        {
            "x": -1.7720398902893067,
            "y": 0.39346593618392947
        }
    ],
    "triangles": [
        0,
        3,
        2,
        2,
        1,
        0
    ],
    "carDensity": 4.0,
    "suspension": 0.7841771841049194,
    "motorSpeed": 864,
    "frontDensity": 3.4000000953674318,
    "frontRadius": 0.535442054271698,
    "frontOffset": 1.226951003074646,
    "backDensity": 3.200000047683716,
    "backRadius": 0.5154522657394409,
    "backOffset": -1.3711936473846436,
    "score": 30,
    "maxDistance": 5,
    "maxTime": 2.0,
    "speed": 2
}{
    "ID": 30793,
    "genomaID": "CV3TD9",
    "color": {
        "x": 0.23507264256477357,
        "y": 0.5300777554512024,
        "z": 0.8182836771011353
    },
    "vertexNumber": 3,
    "colliderVertices": [
        {
            "x": -1.3196678161621094,
            "y": -0.13924403488636018
        },
        {
            "x": 1.527311086654663,
            "y": -0.4570744037628174
        },
        {
            "x": -0.4547536373138428,
            "y": 0.41911548376083376
        }
    ],
    "triangles": [
        1,
        0,
        2
    ],
    "carDensity": 3.0,
    "suspension": 0.9526940584182739,
    "motorSpeed": 864,
    "frontDensity": 2.200000047683716,
    "frontRadius": 0.41970691084861758,
    "frontOffset": 1.3134770393371583,
    "backDensity": 3.799999952316284,
    "backRadius": 0.5798087120056152,
    "backOffset": -0.772233784198761,
    "score": 0,
    "maxDistance": 0,
    "maxTime": 1.0,
    "speed": 0
}