{
    "ID": 58401,
    "genomaID": "CV3TD12",
    "color": {
        "x": 0.7041706442832947,
        "y": 0.1758122593164444,
        "z": 0.6612265706062317
    },
    "vertexNumber": 3,
    "colliderVertices": [
        {
            "x": -1.615149736404419,
            "y": -0.08056289702653885
        },
        {
            "x": 1.1510634422302247,
            "y": -0.4890420436859131
        },
        {
            "x": -0.87314772605896,
            "y": 0.506628692150116
        }
    ],
    "triangles": [
        1,
        0,
        2
    ],
    "carDensity": 3.0,
    "suspension": 0.6381839513778687,
    "motorSpeed": 851,
    "frontDensity": 4.599999904632568,
    "frontRadius": 0.6619943380355835,
    "frontOffset": 1.1065655946731568,
    "backDensity": 3.9000000953674318,
    "backRadius": 0.5934619307518005,
    "backOffset": -1.1997168064117432,
    "score": 915,
    "maxDistance": 834,
    "maxTime": 103.19999694824219,
    "speed": 8
}{
    "ID": 58458,
    "genomaID": "CV3TD12",
    "color": {
        "x": 0.2537532150745392,
        "y": 0.35843053460121157,
        "z": 0.0802081897854805
    },
    "vertexNumber": 3,
    "colliderVertices": [
        {
            "x": -1.6776483058929444,
            "y": -0.468777060508728
        },
        {
            "x": 1.612501859664917,
            "y": -0.4625171422958374
        },
        {
            "x": -1.112375259399414,
            "y": 0.8176323175430298
        }
    ],
    "triangles": [
        1,
        0,
        2
    ],
    "carDensity": 3.0,
    "suspension": 0.4459483325481415,
    "motorSpeed": 851,
    "frontDensity": 4.900000095367432,
    "frontRadius": 0.6900220513343811,
    "frontOffset": 1.227508306503296,
    "backDensity": 3.700000047683716,
    "backRadius": 0.5727956295013428,
    "backOffset": -0.7967734932899475,
    "score": 913,
    "maxDistance": 833,
    "maxTime": 104.4000015258789,
    "speed": 8
}{
    "ID": 58517,
    "genomaID": "CV3TD11",
    "color": {
        "x": 0.21057823300361634,
        "y": 0.03984392061829567,
        "z": 0.7053022980690002
    },
    "vertexNumber": 3,
    "colliderVertices": [
        {
            "x": -1.615149736404419,
            "y": -0.08056289702653885
        },
        {
            "x": 1.1510634422302247,
            "y": -0.4890420436859131
        },
        {
            "x": -0.87314772605896,
            "y": 0.506628692150116
        }
    ],
    "triangles": [
        1,
        0,
        2
    ],
    "carDensity": 3.0,
    "suspension": 0.47945699095726015,
    "motorSpeed": 851,
    "frontDensity": 4.599999904632568,
    "frontRadius": 0.6619943380355835,
    "frontOffset": 0.9904400110244751,
    "backDensity": 3.200000047683716,
    "backRadius": 0.523564338684082,
    "backOffset": -1.1997168064117432,
    "score": 910,
    "maxDistance": 834,
    "maxTime": 109.80000305175781,
    "speed": 8
}{
    "ID": 58444,
    "genomaID": "CV3TD12",
    "color": {
        "x": 0.37244489789009097,
        "y": 0.5369817614555359,
        "z": 0.409048855304718
    },
    "vertexNumber": 3,
    "colliderVertices": [
        {
            "x": -1.615149736404419,
            "y": -0.08056289702653885
        },
        {
            "x": 1.1510634422302247,
            "y": -0.4890420436859131
        },
        {
            "x": -0.87314772605896,
            "y": 0.506628692150116
        }
    ],
    "triangles": [
        1,
        0,
        2
    ],
    "carDensity": 3.0,
    "suspension": 0.6952751874923706,
    "motorSpeed": 505,
    "frontDensity": 4.900000095367432,
    "frontRadius": 0.6937325596809387,
    "frontOffset": 0.7788261771202087,
    "backDensity": 3.799999952316284,
    "backRadius": 0.5808402299880981,
    "backOffset": -0.7210626602172852,
    "score": 12,
    "maxDistance": 2,
    "maxTime": 2.0,
    "speed": 1
}{
    "ID": 58521,
    "genomaID": "CV3TD10",
    "color": {
        "x": 0.18041671812534333,
        "y": 0.051729924976825717,
        "z": 0.21896246075630189
    },
    "vertexNumber": 3,
    "colliderVertices": [
        {
            "x": -1.615149736404419,
            "y": -0.08056289702653885
        },
        {
            "x": 1.1510634422302247,
            "y": -0.4890420436859131
        },
        {
            "x": -0.87314772605896,
            "y": 0.506628692150116
        }
    ],
    "triangles": [
        1,
        0,
        2
    ],
    "carDensity": 3.0,
    "suspension": 0.7562613487243652,
    "motorSpeed": 1237,
    "frontDensity": 3.0,
    "frontRadius": 0.49642235040664675,
    "frontOffset": 0.7788261771202087,
    "backDensity": 3.700000047683716,
    "backRadius": 0.5727956295013428,
    "backOffset": -0.7021017074584961,
    "score": -11,
    "maxDistance": -1,
    "maxTime": 1.0,
    "speed": -1
}