{
    "ID": 54709,
    "genomaID": "CV3TD12",
    "color": {
        "x": 0.05376375466585159,
        "y": 0.28018298745155337,
        "z": 0.8776925802230835
    },
    "vertexNumber": 3,
    "colliderVertices": [
        {
            "x": -1.9498302936553956,
            "y": -0.08241457492113114
        },
        {
            "x": 1.0748586654663087,
            "y": -0.01023560855537653
        },
        {
            "x": 1.0151176452636719,
            "y": 0.8579267263412476
        }
    ],
    "triangles": [
        1,
        0,
        2
    ],
    "carDensity": 3.0,
    "suspension": 0.7408931255340576,
    "motorSpeed": 865,
    "frontDensity": 4.800000190734863,
    "frontRadius": 0.6779978275299072,
    "frontOffset": 0.9124287366867065,
    "backDensity": 4.0,
    "backRadius": 0.5976420640945435,
    "backOffset": -1.2955820560455323,
    "score": 915,
    "maxDistance": 833,
    "maxTime": 101.5,
    "speed": 8
}{
    "ID": 54691,
    "genomaID": "CV3TD12",
    "color": {
        "x": 0.610786497592926,
        "y": 0.21976199746131898,
        "z": 0.07008791714906693
    },
    "vertexNumber": 3,
    "colliderVertices": [
        {
            "x": -1.9498302936553956,
            "y": -0.08241457492113114
        },
        {
            "x": 1.0748586654663087,
            "y": -0.01023560855537653
        },
        {
            "x": 1.0151176452636719,
            "y": 0.8579267263412476
        }
    ],
    "triangles": [
        1,
        0,
        2
    ],
    "carDensity": 3.0,
    "suspension": 0.7408931255340576,
    "motorSpeed": 851,
    "frontDensity": 4.800000190734863,
    "frontRadius": 0.6779978275299072,
    "frontOffset": 1.4819300174713135,
    "backDensity": 4.0,
    "backRadius": 0.5976420640945435,
    "backOffset": -1.2955820560455323,
    "score": 913,
    "maxDistance": 832,
    "maxTime": 102.80000305175781,
    "speed": 8
}{
    "ID": 54800,
    "genomaID": "CV3TD12",
    "color": {
        "x": 0.7157778143882752,
        "y": 0.7526435852050781,
        "z": 0.5779417157173157
    },
    "vertexNumber": 3,
    "colliderVertices": [
        {
            "x": -1.9498302936553956,
            "y": -0.08241457492113114
        },
        {
            "x": 1.0748586654663087,
            "y": -0.01023560855537653
        },
        {
            "x": 1.0151176452636719,
            "y": 0.8579267263412476
        }
    ],
    "triangles": [
        1,
        0,
        2
    ],
    "carDensity": 3.0,
    "suspension": 0.720246434211731,
    "motorSpeed": 851,
    "frontDensity": 4.800000190734863,
    "frontRadius": 0.6779978275299072,
    "frontOffset": 1.322964072227478,
    "backDensity": 4.0,
    "backRadius": 0.5976420640945435,
    "backOffset": -0.8939932584762573,
    "score": 912,
    "maxDistance": 831,
    "maxTime": 102.30000305175781,
    "speed": 8
}{
    "ID": 54608,
    "genomaID": "CV3TD10",
    "color": {
        "x": 0.17345787584781648,
        "y": 0.17457963526248933,
        "z": 0.9269862174987793
    },
    "vertexNumber": 3,
    "colliderVertices": [
        {
            "x": -1.615149736404419,
            "y": -0.08056289702653885
        },
        {
            "x": 1.1510634422302247,
            "y": -0.4890420436859131
        },
        {
            "x": -0.87314772605896,
            "y": 0.506628692150116
        }
    ],
    "triangles": [
        1,
        0,
        2
    ],
    "carDensity": 3.0,
    "suspension": 0.6157327890396118,
    "motorSpeed": 851,
    "frontDensity": 2.9000000953674318,
    "frontRadius": 0.49481725692749026,
    "frontOffset": 1.254394769668579,
    "backDensity": 4.0,
    "backRadius": 0.5961636304855347,
    "backOffset": -1.0644892454147339,
    "score": 0,
    "maxDistance": 0,
    "maxTime": 0.8999999761581421,
    "speed": 0
}{
    "ID": 54796,
    "genomaID": "CV3TD12",
    "color": {
        "x": 0.2718107998371124,
        "y": 0.8708093166351318,
        "z": 0.932330846786499
    },
    "vertexNumber": 3,
    "colliderVertices": [
        {
            "x": -1.615149736404419,
            "y": -0.08056289702653885
        },
        {
            "x": 1.1510634422302247,
            "y": -0.4890420436859131
        },
        {
            "x": -0.87314772605896,
            "y": 0.506628692150116
        }
    ],
    "triangles": [
        1,
        0,
        2
    ],
    "carDensity": 3.0,
    "suspension": 0.6196962594985962,
    "motorSpeed": 1230,
    "frontDensity": 4.900000095367432,
    "frontRadius": 0.6937325596809387,
    "frontOffset": 1.2634929418563843,
    "backDensity": 3.700000047683716,
    "backRadius": 0.5727956295013428,
    "backOffset": -0.9036346673965454,
    "score": 0,
    "maxDistance": 0,
    "maxTime": 0.8999999761581421,
    "speed": 0
}