{
    "ID": 2086,
    "genomaID": "CV3TD11",
    "color": {
        "x": 0.8205829858779907,
        "y": 0.27505388855934145,
        "z": 0.7973049879074097
    },
    "vertexNumber": 3,
    "colliderVertices": [
        {
            "x": -1.4363679885864258,
            "y": -0.15820898115634919
        },
        {
            "x": 1.2508301734924317,
            "y": -0.4935498833656311
        },
        {
            "x": -0.8346202373504639,
            "y": 0.1674712896347046
        }
    ],
    "triangles": [
        1,
        0,
        2
    ],
    "carDensity": 3.0,
    "suspension": 0.874248206615448,
    "motorSpeed": 1125,
    "frontDensity": 4.599999904632568,
    "frontRadius": 0.6625373959541321,
    "frontOffset": 1.463058352470398,
    "backDensity": 2.9000000953674318,
    "backRadius": 0.4885649085044861,
    "backOffset": -0.8886746168136597,
    "score": 922,
    "maxDistance": 833,
    "maxTime": 93.5999984741211,
    "speed": 9
}{
    "ID": 2157,
    "genomaID": "CV3TD9",
    "color": {
        "x": 0.5680072903633118,
        "y": 0.14264823496341706,
        "z": 0.8933107852935791
    },
    "vertexNumber": 3,
    "colliderVertices": [
        {
            "x": -1.7412893772125245,
            "y": -0.24600020051002503
        },
        {
            "x": 1.6365805864334107,
            "y": -0.11980439722537995
        },
        {
            "x": -1.7040982246398926,
            "y": 0.012483358383178711
        }
    ],
    "triangles": [
        1,
        0,
        2
    ],
    "carDensity": 3.0,
    "suspension": 0.6069122552871704,
    "motorSpeed": 573,
    "frontDensity": 4.0,
    "frontRadius": 0.6009075045585632,
    "frontOffset": 0.7743366360664368,
    "backDensity": 2.4000000953674318,
    "backRadius": 0.4419623613357544,
    "backOffset": -0.5804743766784668,
    "score": 882,
    "maxDistance": 833,
    "maxTime": 170.1999969482422,
    "speed": 5
}{
    "ID": 2103,
    "genomaID": "CV5TD11",
    "color": {
        "x": 0.1564124971628189,
        "y": 0.4464983344078064,
        "z": 0.09421814978122711
    },
    "vertexNumber": 5,
    "colliderVertices": [
        {
            "x": -1.308213233947754,
            "y": -0.41844266653060915
        },
        {
            "x": 1.255002498626709,
            "y": -0.19515159726142884
        },
        {
            "x": 1.315065860748291,
            "y": 0.6077298521995544
        },
        {
            "x": -0.052644968032836917,
            "y": 0.7251143455505371
        },
        {
            "x": -1.591252326965332,
            "y": 0.3159591555595398
        }
    ],
    "triangles": [
        1,
        4,
        3,
        3,
        2,
        1,
        1,
        0,
        4
    ],
    "carDensity": 5.0,
    "suspension": 0.9823001623153687,
    "motorSpeed": 814,
    "frontDensity": 3.5999999046325685,
    "frontRadius": 0.5630515813827515,
    "frontOffset": 1.3640350103378297,
    "backDensity": 2.0999999046325685,
    "backRadius": 0.40550148487091067,
    "backOffset": -0.9388655424118042,
    "score": 259,
    "maxDistance": 200,
    "maxTime": 33.900001525878909,
    "speed": 6
}{
    "ID": 2102,
    "genomaID": "CV6TD14",
    "color": {
        "x": 0.9907965660095215,
        "y": 0.6384530663490295,
        "z": 0.3951743245124817
    },
    "vertexNumber": 6,
    "colliderVertices": [
        {
            "x": -1.5180561542510987,
            "y": -0.475302517414093
        },
        {
            "x": 1.490434169769287,
            "y": -0.09676994383335114
        },
        {
            "x": 1.4077496528625489,
            "y": 0.5770182013511658
        },
        {
            "x": 0.3280026912689209,
            "y": 0.5957992672920227
        },
        {
            "x": -0.6491434574127197,
            "y": 0.3718910813331604
        },
        {
            "x": -1.3107471466064454,
            "y": 0.558994472026825
        }
    ],
    "triangles": [
        4,
        2,
        0,
        0,
        5,
        4,
        4,
        3,
        2,
        2,
        1,
        0
    ],
    "carDensity": 6.0,
    "suspension": 0.691646933555603,
    "motorSpeed": 607,
    "frontDensity": 4.199999809265137,
    "frontRadius": 0.6171678304672241,
    "frontOffset": 0.8980609178543091,
    "backDensity": 3.5999999046325685,
    "backRadius": 0.5632027387619019,
    "backOffset": -1.176160216331482,
    "score": 36,
    "maxDistance": 6,
    "maxTime": 2.0,
    "speed": 3
}{
    "ID": 2200,
    "genomaID": "CV3TD11",
    "color": {
        "x": 0.7157778143882752,
        "y": 0.7526435852050781,
        "z": 0.5779417157173157
    },
    "vertexNumber": 3,
    "colliderVertices": [
        {
            "x": -1.6908864974975587,
            "y": -0.4902547597885132
        },
        {
            "x": 1.0964771509170533,
            "y": -0.2757904827594757
        },
        {
            "x": -0.5471775531768799,
            "y": 0.3217129111289978
        }
    ],
    "triangles": [
        1,
        0,
        2
    ],
    "carDensity": 3.0,
    "suspension": 0.8817207217216492,
    "motorSpeed": 1484,
    "frontDensity": 3.9000000953674318,
    "frontRadius": 0.5873469114303589,
    "frontOffset": 0.8773089647293091,
    "backDensity": 4.0,
    "backRadius": 0.5955812931060791,
    "backOffset": -1.3504441976547242,
    "score": -11,
    "maxDistance": -1,
    "maxTime": 1.0,
    "speed": -1
}