{
    "ID": 99003,
    "genomaID": "CV3TD12",
    "color": {
        "x": 0.5271676182746887,
        "y": 0.45618098974227908,
        "z": 0.9300339221954346
    },
    "vertexNumber": 3,
    "colliderVertices": [
        {
            "x": -1.615149736404419,
            "y": -0.08056289702653885
        },
        {
            "x": 1.1510634422302247,
            "y": -0.4890420436859131
        },
        {
            "x": -0.87314772605896,
            "y": 0.506628692150116
        }
    ],
    "triangles": [
        1,
        0,
        2
    ],
    "carDensity": 3.0,
    "suspension": 0.6278368234634399,
    "motorSpeed": 878,
    "frontDensity": 4.900000095367432,
    "frontRadius": 0.6921337842941284,
    "frontOffset": 1.4426283836364747,
    "backDensity": 3.5999999046325685,
    "backRadius": 0.5590354204177856,
    "backOffset": -0.9754389524459839,
    "score": 914,
    "maxDistance": 833,
    "maxTime": 102.5,
    "speed": 8
}{
    "ID": 99180,
    "genomaID": "CV3TD12",
    "color": {
        "x": 0.4858422875404358,
        "y": 0.5531181693077087,
        "z": 0.6130606532096863
    },
    "vertexNumber": 3,
    "colliderVertices": [
        {
            "x": -1.615149736404419,
            "y": -0.08056289702653885
        },
        {
            "x": 1.1510634422302247,
            "y": -0.4890420436859131
        },
        {
            "x": -0.87314772605896,
            "y": 0.506628692150116
        }
    ],
    "triangles": [
        1,
        0,
        2
    ],
    "carDensity": 3.0,
    "suspension": 0.8211706280708313,
    "motorSpeed": 851,
    "frontDensity": 4.900000095367432,
    "frontRadius": 0.6855190396308899,
    "frontOffset": 1.3807328939437867,
    "backDensity": 3.5,
    "backRadius": 0.5470849275588989,
    "backOffset": -0.6304410696029663,
    "score": 912,
    "maxDistance": 834,
    "maxTime": 106.80000305175781,
    "speed": 8
}{
    "ID": 99195,
    "genomaID": "CV3TD12",
    "color": {
        "x": 0.1332085281610489,
        "y": 0.55067378282547,
        "z": 0.17289210855960847
    },
    "vertexNumber": 3,
    "colliderVertices": [
        {
            "x": -1.615149736404419,
            "y": -0.08056289702653885
        },
        {
            "x": 1.1510634422302247,
            "y": -0.4890420436859131
        },
        {
            "x": -0.87314772605896,
            "y": 0.506628692150116
        }
    ],
    "triangles": [
        1,
        0,
        2
    ],
    "carDensity": 3.0,
    "suspension": 0.8211706280708313,
    "motorSpeed": 851,
    "frontDensity": 4.900000095367432,
    "frontRadius": 0.6855190396308899,
    "frontOffset": 1.3807328939437867,
    "backDensity": 3.5,
    "backRadius": 0.5470849275588989,
    "backOffset": -0.6304410696029663,
    "score": 909,
    "maxDistance": 831,
    "maxTime": 106.19999694824219,
    "speed": 8
}{
    "ID": 99011,
    "genomaID": "CV6TD15",
    "color": {
        "x": 0.3950609564781189,
        "y": 0.9663015604019165,
        "z": 0.10336209833621979
    },
    "vertexNumber": 6,
    "colliderVertices": [
        {
            "x": -1.8141987323760987,
            "y": -0.40896332263946535
        },
        {
            "x": 1.5229027271270753,
            "y": -0.1357356458902359
        },
        {
            "x": 1.5791211128234864,
            "y": 0.5876678824424744
        },
        {
            "x": 0.3278806209564209,
            "y": 0.7982485294342041
        },
        {
            "x": -1.9780282974243165,
            "y": 0.8852211236953735
        },
        {
            "x": -1.9863057136535645,
            "y": 0.8974376916885376
        }
    ],
    "triangles": [
        4,
        2,
        0,
        0,
        5,
        4,
        4,
        3,
        2,
        2,
        1,
        0
    ],
    "carDensity": 6.0,
    "suspension": 0.8211706280708313,
    "motorSpeed": 851,
    "frontDensity": 4.900000095367432,
    "frontRadius": 0.6855190396308899,
    "frontOffset": 1.3807328939437867,
    "backDensity": 3.5,
    "backRadius": 0.5470849275588989,
    "backOffset": -0.6304410696029663,
    "score": 0,
    "maxDistance": 0,
    "maxTime": 1.0,
    "speed": 0
}{
    "ID": 99200,
    "genomaID": "CV3TD11",
    "color": {
        "x": 0.7157778143882752,
        "y": 0.7526435852050781,
        "z": 0.5779417157173157
    },
    "vertexNumber": 3,
    "colliderVertices": [
        {
            "x": -1.8514567613601685,
            "y": -0.005239785183221102
        },
        {
            "x": 1.4314024448394776,
            "y": -0.467776894569397
        },
        {
            "x": -1.6059131622314454,
            "y": 0.5224447846412659
        }
    ],
    "triangles": [
        1,
        0,
        2
    ],
    "carDensity": 3.0,
    "suspension": 0.7706723809242249,
    "motorSpeed": 1259,
    "frontDensity": 4.199999809265137,
    "frontRadius": 0.6204772591590881,
    "frontOffset": 1.0476323366165162,
    "backDensity": 4.099999904632568,
    "backRadius": 0.6117246747016907,
    "backOffset": -1.1828012466430665,
    "score": -11,
    "maxDistance": -1,
    "maxTime": 1.0,
    "speed": -1
}