{
    "ID": 49003,
    "genomaID": "CV3TD12",
    "color": {
        "x": 0.5271676182746887,
        "y": 0.45618098974227908,
        "z": 0.9300339221954346
    },
    "vertexNumber": 3,
    "colliderVertices": [
        {
            "x": -1.615149736404419,
            "y": -0.08056289702653885
        },
        {
            "x": 1.1510634422302247,
            "y": -0.4890420436859131
        },
        {
            "x": -0.87314772605896,
            "y": 0.506628692150116
        }
    ],
    "triangles": [
        1,
        0,
        2
    ],
    "carDensity": 3.0,
    "suspension": 0.6619654893875122,
    "motorSpeed": 851,
    "frontDensity": 4.800000190734863,
    "frontRadius": 0.6791735291481018,
    "frontOffset": 0.947604775428772,
    "backDensity": 3.9000000953674318,
    "backRadius": 0.5883185267448425,
    "backOffset": -1.2408336400985718,
    "score": 915,
    "maxDistance": 834,
    "maxTime": 103.30000305175781,
    "speed": 8
}{
    "ID": 49065,
    "genomaID": "CV3TD12",
    "color": {
        "x": 0.7932404279708862,
        "y": 0.4070221781730652,
        "z": 0.7800842523574829
    },
    "vertexNumber": 3,
    "colliderVertices": [
        {
            "x": -1.615149736404419,
            "y": -0.08056289702653885
        },
        {
            "x": 1.1510634422302247,
            "y": -0.4890420436859131
        },
        {
            "x": -0.87314772605896,
            "y": 0.506628692150116
        }
    ],
    "triangles": [
        1,
        0,
        2
    ],
    "carDensity": 3.0,
    "suspension": 0.5970245599746704,
    "motorSpeed": 851,
    "frontDensity": 4.900000095367432,
    "frontRadius": 0.688839316368103,
    "frontOffset": 1.4982573986053467,
    "backDensity": 3.799999952316284,
    "backRadius": 0.5768226385116577,
    "backOffset": -0.7840161919593811,
    "score": 913,
    "maxDistance": 833,
    "maxTime": 103.80000305175781,
    "speed": 8
}{
    "ID": 49197,
    "genomaID": "CV3TD12",
    "color": {
        "x": 0.4004287123680115,
        "y": 0.941399097442627,
        "z": 0.8905913829803467
    },
    "vertexNumber": 3,
    "colliderVertices": [
        {
            "x": -1.615149736404419,
            "y": -0.08056289702653885
        },
        {
            "x": 1.1510634422302247,
            "y": -0.4890420436859131
        },
        {
            "x": -0.87314772605896,
            "y": 0.506628692150116
        }
    ],
    "triangles": [
        1,
        0,
        2
    ],
    "carDensity": 3.0,
    "suspension": 0.5483864545822144,
    "motorSpeed": 851,
    "frontDensity": 4.699999809265137,
    "frontRadius": 0.6651449799537659,
    "frontOffset": 0.7994818091392517,
    "backDensity": 3.5999999046325685,
    "backRadius": 0.5598692893981934,
    "backOffset": -1.3139245510101319,
    "score": 912,
    "maxDistance": 834,
    "maxTime": 107.5,
    "speed": 8
}{
    "ID": 49127,
    "genomaID": "CV6TD15",
    "color": {
        "x": 0.418354332447052,
        "y": 0.9232157468795776,
        "z": 0.7851275205612183
    },
    "vertexNumber": 6,
    "colliderVertices": [
        {
            "x": -1.531233549118042,
            "y": -0.3949992060661316
        },
        {
            "x": 1.865523099899292,
            "y": -0.196751207113266
        },
        {
            "x": 1.9647102355957032,
            "y": 0.25436121225357058
        },
        {
            "x": 1.0234565734863282,
            "y": 0.7563375234603882
        },
        {
            "x": 0.6981324553489685,
            "y": 0.7581816911697388
        },
        {
            "x": -0.611680269241333,
            "y": 0.6464533805847168
        }
    ],
    "triangles": [
        3,
        1,
        5,
        5,
        4,
        3,
        3,
        2,
        1,
        1,
        0,
        5
    ],
    "carDensity": 6.0,
    "suspension": 0.4411619007587433,
    "motorSpeed": 851,
    "frontDensity": 4.800000190734863,
    "frontRadius": 0.6844404935836792,
    "frontOffset": 0.9436758756637573,
    "backDensity": 3.700000047683716,
    "backRadius": 0.5727956295013428,
    "backOffset": -1.1702311038970948,
    "score": 19,
    "maxDistance": 3,
    "maxTime": 1.899999976158142,
    "speed": 2
}{
    "ID": 49193,
    "genomaID": "CV3TD10",
    "color": {
        "x": 0.23507264256477357,
        "y": 0.5300777554512024,
        "z": 0.8182836771011353
    },
    "vertexNumber": 3,
    "colliderVertices": [
        {
            "x": -1.615149736404419,
            "y": -0.08056289702653885
        },
        {
            "x": 1.1510634422302247,
            "y": -0.4890420436859131
        },
        {
            "x": -0.87314772605896,
            "y": 0.506628692150116
        }
    ],
    "triangles": [
        1,
        0,
        2
    ],
    "carDensity": 3.0,
    "suspension": 0.605066180229187,
    "motorSpeed": 851,
    "frontDensity": 3.299999952316284,
    "frontRadius": 0.531613290309906,
    "frontOffset": 1.0382431745529175,
    "backDensity": 3.9000000953674318,
    "backRadius": 0.5877033472061157,
    "backOffset": -1.3139245510101319,
    "score": 0,
    "maxDistance": 0,
    "maxTime": 0.8999999761581421,
    "speed": 0
}