{
    "ID": 97977,
    "genomaID": "CV3TD12",
    "color": {
        "x": 0.8133928775787354,
        "y": 0.2525545656681061,
        "z": 0.7479514479637146
    },
    "vertexNumber": 3,
    "colliderVertices": [
        {
            "x": -1.615149736404419,
            "y": -0.08056289702653885
        },
        {
            "x": 1.1510634422302247,
            "y": -0.4890420436859131
        },
        {
            "x": -0.87314772605896,
            "y": 0.506628692150116
        }
    ],
    "triangles": [
        1,
        0,
        2
    ],
    "carDensity": 3.0,
    "suspension": 0.9690150618553162,
    "motorSpeed": 878,
    "frontDensity": 4.900000095367432,
    "frontRadius": 0.6921337842941284,
    "frontOffset": 0.8846014738082886,
    "backDensity": 3.5999999046325685,
    "backRadius": 0.5590354204177856,
    "backOffset": -0.9754389524459839,
    "score": 916,
    "maxDistance": 834,
    "maxTime": 102.19999694824219,
    "speed": 8
}{
    "ID": 97985,
    "genomaID": "CV3TD12",
    "color": {
        "x": 0.8011007308959961,
        "y": 0.07880652695894242,
        "z": 0.9284113645553589
    },
    "vertexNumber": 3,
    "colliderVertices": [
        {
            "x": -1.615149736404419,
            "y": -0.08056289702653885
        },
        {
            "x": 1.1510634422302247,
            "y": -0.4890420436859131
        },
        {
            "x": -0.87314772605896,
            "y": 0.506628692150116
        }
    ],
    "triangles": [
        1,
        0,
        2
    ],
    "carDensity": 3.0,
    "suspension": 0.5289580821990967,
    "motorSpeed": 851,
    "frontDensity": 4.900000095367432,
    "frontRadius": 0.6855190396308899,
    "frontOffset": 1.1535404920578004,
    "backDensity": 3.5999999046325685,
    "backRadius": 0.5573350191116333,
    "backOffset": -0.6304410696029663,
    "score": 913,
    "maxDistance": 834,
    "maxTime": 105.80000305175781,
    "speed": 8
}{
    "ID": 97838,
    "genomaID": "CV3TD8",
    "color": {
        "x": 0.473757803440094,
        "y": 0.4240033030509949,
        "z": 0.13615132868289948
    },
    "vertexNumber": 3,
    "colliderVertices": [
        {
            "x": -1.615149736404419,
            "y": -0.08056289702653885
        },
        {
            "x": 1.1510634422302247,
            "y": -0.4890420436859131
        },
        {
            "x": -0.87314772605896,
            "y": 0.506628692150116
        }
    ],
    "triangles": [
        1,
        0,
        2
    ],
    "carDensity": 3.0,
    "suspension": 0.5362184047698975,
    "motorSpeed": 851,
    "frontDensity": 2.700000047683716,
    "frontRadius": 0.46855294704437258,
    "frontOffset": 1.0199207067489625,
    "backDensity": 2.0999999046325685,
    "backRadius": 0.4097651243209839,
    "backOffset": -1.084854006767273,
    "score": 888,
    "maxDistance": 833,
    "maxTime": 151.1999969482422,
    "speed": 6
}{
    "ID": 97984,
    "genomaID": "CV3TD12",
    "color": {
        "x": 0.9423954486846924,
        "y": 0.37610429525375368,
        "z": 0.541720449924469
    },
    "vertexNumber": 3,
    "colliderVertices": [
        {
            "x": -1.615149736404419,
            "y": -0.08056289702653885
        },
        {
            "x": 1.1510634422302247,
            "y": -0.4890420436859131
        },
        {
            "x": -0.87314772605896,
            "y": 0.506628692150116
        }
    ],
    "triangles": [
        1,
        0,
        2
    ],
    "carDensity": 3.0,
    "suspension": 0.88792484998703,
    "motorSpeed": 851,
    "frontDensity": 4.800000190734863,
    "frontRadius": 0.6801435947418213,
    "frontOffset": 0.6160506010055542,
    "backDensity": 4.099999904632568,
    "backRadius": 0.614558219909668,
    "backOffset": -1.1279655694961548,
    "score": 13,
    "maxDistance": 3,
    "maxTime": 2.9000000953674318,
    "speed": 1
}{
    "ID": 97996,
    "genomaID": "CV3TD12",
    "color": {
        "x": 0.2718107998371124,
        "y": 0.8708093166351318,
        "z": 0.932330846786499
    },
    "vertexNumber": 3,
    "colliderVertices": [
        {
            "x": -1.8514567613601685,
            "y": -0.005239785183221102
        },
        {
            "x": 1.4314024448394776,
            "y": -0.467776894569397
        },
        {
            "x": -1.6059131622314454,
            "y": 0.5224447846412659
        }
    ],
    "triangles": [
        1,
        0,
        2
    ],
    "carDensity": 3.0,
    "suspension": 0.4057285487651825,
    "motorSpeed": 1144,
    "frontDensity": 4.900000095367432,
    "frontRadius": 0.6921337842941284,
    "frontOffset": 0.8526097536087036,
    "backDensity": 3.5,
    "backRadius": 0.5543792843818665,
    "backOffset": -0.7041388750076294,
    "score": 0,
    "maxDistance": 0,
    "maxTime": 0.8999999761581421,
    "speed": 0
}