{
    "ID": 38277,
    "genomaID": "CV3TD12",
    "color": {
        "x": 0.14412035048007966,
        "y": 0.6549108624458313,
        "z": 0.8956549167633057
    },
    "vertexNumber": 3,
    "colliderVertices": [
        {
            "x": -1.3710658550262452,
            "y": -0.36291202902793887
        },
        {
            "x": 1.0110141038894654,
            "y": -0.41903162002563479
        },
        {
            "x": -0.4943125247955322,
            "y": 0.6511760950088501
        }
    ],
    "triangles": [
        1,
        0,
        2
    ],
    "carDensity": 3.0,
    "suspension": 0.9486777782440186,
    "motorSpeed": 864,
    "frontDensity": 4.900000095367432,
    "frontRadius": 0.6877074241638184,
    "frontOffset": 0.7006040811538696,
    "backDensity": 4.0,
    "backRadius": 0.6004970669746399,
    "backOffset": -1.477064847946167,
    "score": 915,
    "maxDistance": 833,
    "maxTime": 101.4000015258789,
    "speed": 8
}{
    "ID": 38305,
    "genomaID": "CV3TD12",
    "color": {
        "x": 0.9370694160461426,
        "y": 0.9634641408920288,
        "z": 0.2424352467060089
    },
    "vertexNumber": 3,
    "colliderVertices": [
        {
            "x": -1.615149736404419,
            "y": -0.08056289702653885
        },
        {
            "x": 1.1510634422302247,
            "y": -0.4890420436859131
        },
        {
            "x": -0.87314772605896,
            "y": 0.506628692150116
        }
    ],
    "triangles": [
        1,
        0,
        2
    ],
    "carDensity": 3.0,
    "suspension": 0.8195930123329163,
    "motorSpeed": 851,
    "frontDensity": 4.800000190734863,
    "frontRadius": 0.6791735291481018,
    "frontOffset": 1.114772915840149,
    "backDensity": 3.700000047683716,
    "backRadius": 0.5727956295013428,
    "backOffset": -1.2137205600738526,
    "score": 912,
    "maxDistance": 832,
    "maxTime": 104.4000015258789,
    "speed": 8
}{
    "ID": 38229,
    "genomaID": "CV3TD12",
    "color": {
        "x": 0.08117235451936722,
        "y": 0.625411331653595,
        "z": 0.6168079972267151
    },
    "vertexNumber": 3,
    "colliderVertices": [
        {
            "x": -1.615149736404419,
            "y": -0.08056289702653885
        },
        {
            "x": 1.1510634422302247,
            "y": -0.4890420436859131
        },
        {
            "x": -0.87314772605896,
            "y": 0.506628692150116
        }
    ],
    "triangles": [
        1,
        0,
        2
    ],
    "carDensity": 3.0,
    "suspension": 0.8946253061294556,
    "motorSpeed": 865,
    "frontDensity": 4.800000190734863,
    "frontRadius": 0.6791735291481018,
    "frontOffset": 0.9107576608657837,
    "backDensity": 3.5999999046325685,
    "backRadius": 0.5558890104293823,
    "backOffset": -1.412567138671875,
    "score": 908,
    "maxDistance": 829,
    "maxTime": 104.4000015258789,
    "speed": 8
}{
    "ID": 38313,
    "genomaID": "CV3TD8",
    "color": {
        "x": 0.28870442509651186,
        "y": 0.7211344838142395,
        "z": 0.6233711838722229
    },
    "vertexNumber": 3,
    "colliderVertices": [
        {
            "x": -1.2415111064910889,
            "y": -0.332523912191391
        },
        {
            "x": 1.2988438606262208,
            "y": -0.2140497863292694
        },
        {
            "x": -1.6646909713745118,
            "y": 0.4260508418083191
        }
    ],
    "triangles": [
        1,
        0,
        2
    ],
    "carDensity": 3.0,
    "suspension": 0.9983741044998169,
    "motorSpeed": 892,
    "frontDensity": 2.5,
    "frontRadius": 0.4454529881477356,
    "frontOffset": 1.1586257219314576,
    "backDensity": 3.0,
    "backRadius": 0.4971954822540283,
    "backOffset": -1.2850620746612549,
    "score": 19,
    "maxDistance": 3,
    "maxTime": 1.899999976158142,
    "speed": 2
}{
    "ID": 38395,
    "genomaID": "CV3TD12",
    "color": {
        "x": 0.1332085281610489,
        "y": 0.55067378282547,
        "z": 0.17289210855960847
    },
    "vertexNumber": 3,
    "colliderVertices": [
        {
            "x": -1.1368077993392945,
            "y": -0.07039285451173783
        },
        {
            "x": 1.6357916593551636,
            "y": -0.12240965664386749
        },
        {
            "x": -1.237396240234375,
            "y": 0.21409189701080323
        }
    ],
    "triangles": [
        1,
        0,
        2
    ],
    "carDensity": 3.0,
    "suspension": 0.7305117249488831,
    "motorSpeed": 929,
    "frontDensity": 4.900000095367432,
    "frontRadius": 0.6877074241638184,
    "frontOffset": 1.2840275764465333,
    "backDensity": 3.5999999046325685,
    "backRadius": 0.5644927620887756,
    "backOffset": -0.6407256126403809,
    "score": 0,
    "maxDistance": 0,
    "maxTime": 0.8999999761581421,
    "speed": 0
}