{
    "ID": 70824,
    "genomaID": "CV3TD12",
    "color": {
        "x": 0.21015825867652894,
        "y": 0.7514325380325317,
        "z": 0.603265106678009
    },
    "vertexNumber": 3,
    "colliderVertices": [
        {
            "x": -1.615149736404419,
            "y": -0.08056289702653885
        },
        {
            "x": 1.1510634422302247,
            "y": -0.4890420436859131
        },
        {
            "x": -0.87314772605896,
            "y": 0.506628692150116
        }
    ],
    "triangles": [
        1,
        0,
        2
    ],
    "carDensity": 3.0,
    "suspension": 0.6215742826461792,
    "motorSpeed": 851,
    "frontDensity": 4.800000190734863,
    "frontRadius": 0.6776076555252075,
    "frontOffset": 0.7595176100730896,
    "backDensity": 3.9000000953674318,
    "backRadius": 0.5936185121536255,
    "backOffset": -0.744492769241333,
    "score": 915,
    "maxDistance": 834,
    "maxTime": 103.0,
    "speed": 8
}{
    "ID": 70806,
    "genomaID": "CV3TD12",
    "color": {
        "x": 0.023887161165475847,
        "y": 0.4522629380226135,
        "z": 0.36236730217933657
    },
    "vertexNumber": 3,
    "colliderVertices": [
        {
            "x": -1.109405279159546,
            "y": -0.36799290776252749
        },
        {
            "x": 1.0800998210906983,
            "y": -0.40228724479675295
        },
        {
            "x": 0.6214174628257752,
            "y": 0.7729034423828125
        }
    ],
    "triangles": [
        1,
        0,
        2
    ],
    "carDensity": 3.0,
    "suspension": 0.898044228553772,
    "motorSpeed": 851,
    "frontDensity": 4.599999904632568,
    "frontRadius": 0.6643805503845215,
    "frontOffset": 0.8680652379989624,
    "backDensity": 3.799999952316284,
    "backRadius": 0.5831201076507568,
    "backOffset": -1.2264153957366944,
    "score": 913,
    "maxDistance": 833,
    "maxTime": 104.5,
    "speed": 8
}{
    "ID": 70983,
    "genomaID": "CV3TD11",
    "color": {
        "x": 0.6271914839744568,
        "y": 0.385389506816864,
        "z": 0.47247403860092165
    },
    "vertexNumber": 3,
    "colliderVertices": [
        {
            "x": -1.615149736404419,
            "y": -0.08056289702653885
        },
        {
            "x": 1.1510634422302247,
            "y": -0.4890420436859131
        },
        {
            "x": -0.87314772605896,
            "y": 0.506628692150116
        }
    ],
    "triangles": [
        1,
        0,
        2
    ],
    "carDensity": 3.0,
    "suspension": 0.8212217092514038,
    "motorSpeed": 851,
    "frontDensity": 5.0,
    "frontRadius": 0.6950520277023315,
    "frontOffset": 1.258372187614441,
    "backDensity": 2.700000047683716,
    "backRadius": 0.47103750705718996,
    "backOffset": -1.2748664617538453,
    "score": 910,
    "maxDistance": 834,
    "maxTime": 109.0999984741211,
    "speed": 8
}{
    "ID": 70923,
    "genomaID": "CV3TD10",
    "color": {
        "x": 0.7486791014671326,
        "y": 0.47938281297683718,
        "z": 0.7399960160255432
    },
    "vertexNumber": 3,
    "colliderVertices": [
        {
            "x": -1.615149736404419,
            "y": -0.08056289702653885
        },
        {
            "x": 1.1510634422302247,
            "y": -0.4890420436859131
        },
        {
            "x": -0.87314772605896,
            "y": 0.506628692150116
        }
    ],
    "triangles": [
        1,
        0,
        2
    ],
    "carDensity": 3.0,
    "suspension": 0.9311824440956116,
    "motorSpeed": 851,
    "frontDensity": 4.199999809265137,
    "frontRadius": 0.6192803382873535,
    "frontOffset": 1.4060893058776856,
    "backDensity": 3.299999952316284,
    "backRadius": 0.5311955809593201,
    "backOffset": -0.7227219343185425,
    "score": 19,
    "maxDistance": 3,
    "maxTime": 1.7999999523162842,
    "speed": 2
}{
    "ID": 70996,
    "genomaID": "CV3TD9",
    "color": {
        "x": 0.2718107998371124,
        "y": 0.8708093166351318,
        "z": 0.932330846786499
    },
    "vertexNumber": 3,
    "colliderVertices": [
        {
            "x": -1.615149736404419,
            "y": -0.08056289702653885
        },
        {
            "x": 1.1510634422302247,
            "y": -0.4890420436859131
        },
        {
            "x": -0.87314772605896,
            "y": 0.506628692150116
        }
    ],
    "triangles": [
        1,
        0,
        2
    ],
    "carDensity": 3.0,
    "suspension": 0.591753363609314,
    "motorSpeed": 851,
    "frontDensity": 2.0999999046325685,
    "frontRadius": 0.41189438104629519,
    "frontOffset": 0.9162579774856567,
    "backDensity": 3.700000047683716,
    "backRadius": 0.5727956295013428,
    "backOffset": -1.3543648719787598,
    "score": 0,
    "maxDistance": 0,
    "maxTime": 0.800000011920929,
    "speed": 0
}