{
    "ID": 11729,
    "genomaID": "CV3TD9",
    "color": {
        "x": 0.5148695111274719,
        "y": 0.07552278786897659,
        "z": 0.2990700304508209
    },
    "vertexNumber": 3,
    "colliderVertices": [
        {
            "x": -1.2541747093200684,
            "y": -0.38386595249176028
        },
        {
            "x": 1.0193626880645753,
            "y": -0.271028071641922
        },
        {
            "x": 1.3762645721435547,
            "y": 0.10750925540924072
        }
    ],
    "triangles": [
        1,
        0,
        2
    ],
    "carDensity": 3.0,
    "suspension": 0.7953788638114929,
    "motorSpeed": 938,
    "frontDensity": 4.099999904632568,
    "frontRadius": 0.6124105453491211,
    "frontOffset": 1.1691553592681885,
    "backDensity": 2.299999952316284,
    "backRadius": 0.4301910996437073,
    "backOffset": -1.21971595287323,
    "score": 911,
    "maxDistance": 833,
    "maxTime": 107.0999984741211,
    "speed": 8
}{
    "ID": 11626,
    "genomaID": "CV5TD12",
    "color": {
        "x": 0.11754800379276276,
        "y": 0.26775065064430239,
        "z": 0.6021478772163391
    },
    "vertexNumber": 5,
    "colliderVertices": [
        {
            "x": -1.123705506324768,
            "y": -0.43279045820236208
        },
        {
            "x": 1.7245936393737794,
            "y": -0.3916490077972412
        },
        {
            "x": 1.1209511756896973,
            "y": 0.3413481116294861
        },
        {
            "x": -0.9815647602081299,
            "y": 0.27668172121047976
        },
        {
            "x": -1.9070281982421876,
            "y": 0.05304121971130371
        }
    ],
    "triangles": [
        1,
        4,
        3,
        3,
        2,
        1,
        1,
        0,
        4
    ],
    "carDensity": 5.0,
    "suspension": 0.9615735411643982,
    "motorSpeed": 710,
    "frontDensity": 3.5999999046325685,
    "frontRadius": 0.5644333362579346,
    "frontOffset": 1.2769092321395875,
    "backDensity": 3.200000047683716,
    "backRadius": 0.5197929739952087,
    "backOffset": -1.4911764860153199,
    "score": 893,
    "maxDistance": 833,
    "maxTime": 139.5,
    "speed": 6
}{
    "ID": 11779,
    "genomaID": "CV3TD10",
    "color": {
        "x": 0.5564845204353333,
        "y": 0.10687769949436188,
        "z": 0.8510869741439819
    },
    "vertexNumber": 3,
    "colliderVertices": [
        {
            "x": -1.2541747093200684,
            "y": -0.38386595249176028
        },
        {
            "x": 1.0193626880645753,
            "y": -0.271028071641922
        },
        {
            "x": 1.3762645721435547,
            "y": 0.10750925540924072
        }
    ],
    "triangles": [
        1,
        0,
        2
    ],
    "carDensity": 3.0,
    "suspension": 0.900088369846344,
    "motorSpeed": 704,
    "frontDensity": 3.5,
    "frontRadius": 0.5500792264938355,
    "frontOffset": 0.9351452589035034,
    "backDensity": 3.0999999046325685,
    "backRadius": 0.507459282875061,
    "backOffset": -1.2629454135894776,
    "score": 891,
    "maxDistance": 833,
    "maxTime": 142.6999969482422,
    "speed": 6
}{
    "ID": 11732,
    "genomaID": "CV4TD11",
    "color": {
        "x": 0.6392239928245544,
        "y": 0.8724530935287476,
        "z": 0.24214902520179749
    },
    "vertexNumber": 4,
    "colliderVertices": [
        {
            "x": -1.5040605068206788,
            "y": -0.466708779335022
        },
        {
            "x": 1.4982969760894776,
            "y": -0.2881565988063812
        },
        {
            "x": 0.19408011436462403,
            "y": 0.7786002159118652
        },
        {
            "x": -0.6220085620880127,
            "y": 0.657927393913269
        }
    ],
    "triangles": [
        3,
        2,
        1,
        1,
        0,
        3
    ],
    "carDensity": 4.0,
    "suspension": 0.9615735411643982,
    "motorSpeed": 1067,
    "frontDensity": 3.5,
    "frontRadius": 0.5463897585868836,
    "frontOffset": 1.2769092321395875,
    "backDensity": 3.200000047683716,
    "backRadius": 0.5197929739952087,
    "backOffset": -1.3991305828094483,
    "score": 32,
    "maxDistance": 5,
    "maxTime": 1.899999976158142,
    "speed": 3
}{
    "ID": 11756,
    "genomaID": "CV3TD10",
    "color": {
        "x": 0.10897935926914215,
        "y": 0.14112116396427155,
        "z": 0.36768534779548647
    },
    "vertexNumber": 3,
    "colliderVertices": [
        {
            "x": -1.2541747093200684,
            "y": -0.38386595249176028
        },
        {
            "x": 1.0193626880645753,
            "y": -0.271028071641922
        },
        {
            "x": 1.3762645721435547,
            "y": 0.10750925540924072
        }
    ],
    "triangles": [
        1,
        0,
        2
    ],
    "carDensity": 3.0,
    "suspension": 0.49013230204582217,
    "motorSpeed": 1049,
    "frontDensity": 4.300000190734863,
    "frontRadius": 0.6306784749031067,
    "frontOffset": 0.8996528387069702,
    "backDensity": 3.0999999046325685,
    "backRadius": 0.5140807628631592,
    "backOffset": -0.6172605752944946,
    "score": 0,
    "maxDistance": 0,
    "maxTime": 0.8999999761581421,
    "speed": 0
}