{
    "ID": 37220,
    "genomaID": "CV3TD12",
    "color": {
        "x": 0.710654079914093,
        "y": 0.018615366891026498,
        "z": 0.12593068182468415
    },
    "vertexNumber": 3,
    "colliderVertices": [
        {
            "x": -1.615149736404419,
            "y": -0.08056289702653885
        },
        {
            "x": 1.1510634422302247,
            "y": -0.4890420436859131
        },
        {
            "x": -0.87314772605896,
            "y": 0.506628692150116
        }
    ],
    "triangles": [
        1,
        0,
        2
    ],
    "carDensity": 3.0,
    "suspension": 0.6181737184524536,
    "motorSpeed": 851,
    "frontDensity": 4.800000190734863,
    "frontRadius": 0.6791735291481018,
    "frontOffset": 0.9107576608657837,
    "backDensity": 3.799999952316284,
    "backRadius": 0.5811664462089539,
    "backOffset": -0.7615465521812439,
    "score": 916,
    "maxDistance": 834,
    "maxTime": 102.19999694824219,
    "speed": 8
}{
    "ID": 37287,
    "genomaID": "CV3TD12",
    "color": {
        "x": 0.6230459809303284,
        "y": 0.18502236902713777,
        "z": 0.48213261365890505
    },
    "vertexNumber": 3,
    "colliderVertices": [
        {
            "x": -1.615149736404419,
            "y": -0.08056289702653885
        },
        {
            "x": 1.1510634422302247,
            "y": -0.4890420436859131
        },
        {
            "x": -0.87314772605896,
            "y": 0.506628692150116
        }
    ],
    "triangles": [
        1,
        0,
        2
    ],
    "carDensity": 3.0,
    "suspension": 0.9752981662750244,
    "motorSpeed": 865,
    "frontDensity": 4.800000190734863,
    "frontRadius": 0.6791735291481018,
    "frontOffset": 0.9107576608657837,
    "backDensity": 3.5999999046325685,
    "backRadius": 0.5558890104293823,
    "backOffset": -1.412567138671875,
    "score": 912,
    "maxDistance": 833,
    "maxTime": 104.9000015258789,
    "speed": 8
}{
    "ID": 37205,
    "genomaID": "CV3TD11",
    "color": {
        "x": 0.08106125146150589,
        "y": 0.07938504964113236,
        "z": 0.5804063677787781
    },
    "vertexNumber": 3,
    "colliderVertices": [
        {
            "x": -1.2415111064910889,
            "y": -0.332523912191391
        },
        {
            "x": 1.2988438606262208,
            "y": -0.2140497863292694
        },
        {
            "x": -1.6646909713745118,
            "y": 0.4260508418083191
        }
    ],
    "triangles": [
        1,
        0,
        2
    ],
    "carDensity": 3.0,
    "suspension": 0.7232015132904053,
    "motorSpeed": 864,
    "frontDensity": 4.900000095367432,
    "frontRadius": 0.6877074241638184,
    "frontOffset": 0.9051779508590698,
    "backDensity": 2.9000000953674318,
    "backRadius": 0.4927864670753479,
    "backOffset": -0.7426813840866089,
    "score": 910,
    "maxDistance": 833,
    "maxTime": 108.0999984741211,
    "speed": 8
}{
    "ID": 37271,
    "genomaID": "CV6TD13",
    "color": {
        "x": 0.002318620914593339,
        "y": 0.27994123101234438,
        "z": 0.4828231930732727
    },
    "vertexNumber": 6,
    "colliderVertices": [
        {
            "x": -1.095801830291748,
            "y": -0.16811950504779817
        },
        {
            "x": 1.6046953201293946,
            "y": -0.11090989410877228
        },
        {
            "x": 1.5516119003295899,
            "y": 0.9638550281524658
        },
        {
            "x": 1.1652021408081055,
            "y": 0.5431990027427673
        },
        {
            "x": 1.0044960975646973,
            "y": 0.830409049987793
        },
        {
            "x": -1.4690074920654297,
            "y": 0.016596078872680665
        }
    ],
    "triangles": [
        3,
        1,
        5,
        5,
        4,
        3,
        3,
        2,
        1,
        1,
        0,
        5
    ],
    "carDensity": 6.0,
    "suspension": 0.6796591877937317,
    "motorSpeed": 864,
    "frontDensity": 4.0,
    "frontRadius": 0.6031781435012817,
    "frontOffset": 0.8839040994644165,
    "backDensity": 2.9000000953674318,
    "backRadius": 0.4917062520980835,
    "backOffset": -0.8102768063545227,
    "score": 13,
    "maxDistance": 2,
    "maxTime": 1.7999999523162842,
    "speed": 1
}{
    "ID": 37398,
    "genomaID": "CV3TD11",
    "color": {
        "x": 0.8288270235061646,
        "y": 0.1767282634973526,
        "z": 0.6346012949943543
    },
    "vertexNumber": 3,
    "colliderVertices": [
        {
            "x": -1.0749781131744385,
            "y": -0.07759607583284378
        },
        {
            "x": 1.864037036895752,
            "y": -0.4225216507911682
        },
        {
            "x": 0.9718899130821228,
            "y": 0.5046262145042419
        }
    ],
    "triangles": [
        1,
        0,
        2
    ],
    "carDensity": 3.0,
    "suspension": 0.5501279830932617,
    "motorSpeed": 864,
    "frontDensity": 4.900000095367432,
    "frontRadius": 0.6877074241638184,
    "frontOffset": 1.2426632642745972,
    "backDensity": 3.4000000953674318,
    "backRadius": 0.5358034372329712,
    "backOffset": -0.5959631204605103,
    "score": 0,
    "maxDistance": 0,
    "maxTime": 0.800000011920929,
    "speed": 0
}