{
    "ID": 123087,
    "genomaID": "CV3TD12",
    "color": {
        "x": 0.6230459809303284,
        "y": 0.18502236902713777,
        "z": 0.48213261365890505
    },
    "vertexNumber": 3,
    "colliderVertices": [
        {
            "x": -1.008594274520874,
            "y": -0.4825116991996765
        },
        {
            "x": 1.5255517959594727,
            "y": -0.48791754245758059
        },
        {
            "x": -1.914933204650879,
            "y": 0.47593003511428835
        }
    ],
    "triangles": [
        1,
        0,
        2
    ],
    "carDensity": 3.0,
    "suspension": 0.5223817825317383,
    "motorSpeed": 869,
    "frontDensity": 4.800000190734863,
    "frontRadius": 0.6835681200027466,
    "frontOffset": 1.2270724773406983,
    "backDensity": 4.0,
    "backRadius": 0.6015705466270447,
    "backOffset": -1.0030800104141236,
    "score": 916,
    "maxDistance": 833,
    "maxTime": 100.9000015258789,
    "speed": 8
}{
    "ID": 123118,
    "genomaID": "CV3TD11",
    "color": {
        "x": 0.18948939442634583,
        "y": 0.9479546546936035,
        "z": 0.9030055999755859
    },
    "vertexNumber": 3,
    "colliderVertices": [
        {
            "x": -1.1010850667953492,
            "y": -0.4912911653518677
        },
        {
            "x": 1.2597887516021729,
            "y": -0.34690144658088686
        },
        {
            "x": -1.7964177131652833,
            "y": 0.40650898218154909
        }
    ],
    "triangles": [
        1,
        0,
        2
    ],
    "carDensity": 3.0,
    "suspension": 0.4051319658756256,
    "motorSpeed": 869,
    "frontDensity": 4.900000095367432,
    "frontRadius": 0.689996063709259,
    "frontOffset": 1.4575793743133546,
    "backDensity": 3.200000047683716,
    "backRadius": 0.5202590227127075,
    "backOffset": -0.6878423690795898,
    "score": 912,
    "maxDistance": 834,
    "maxTime": 106.5999984741211,
    "speed": 8
}{
    "ID": 123040,
    "genomaID": "CV3TD11",
    "color": {
        "x": 0.10185934603214264,
        "y": 0.1385587602853775,
        "z": 0.6237040162086487
    },
    "vertexNumber": 3,
    "colliderVertices": [
        {
            "x": -1.1010850667953492,
            "y": -0.4912911653518677
        },
        {
            "x": 1.2597887516021729,
            "y": -0.34690144658088686
        },
        {
            "x": -1.7964177131652833,
            "y": 0.40650898218154909
        }
    ],
    "triangles": [
        1,
        0,
        2
    ],
    "carDensity": 3.0,
    "suspension": 0.605560302734375,
    "motorSpeed": 869,
    "frontDensity": 5.0,
    "frontRadius": 0.6953252553939819,
    "frontOffset": 0.710708737373352,
    "backDensity": 3.4000000953674318,
    "backRadius": 0.543877124786377,
    "backOffset": -1.3843696117401124,
    "score": 909,
    "maxDistance": 829,
    "maxTime": 103.9000015258789,
    "speed": 8
}{
    "ID": 123021,
    "genomaID": "CV3TD11",
    "color": {
        "x": 0.40347129106521609,
        "y": 0.9957618713378906,
        "z": 0.7073728442192078
    },
    "vertexNumber": 3,
    "colliderVertices": [
        {
            "x": -1.1010850667953492,
            "y": -0.4912911653518677
        },
        {
            "x": 1.2597887516021729,
            "y": -0.34690144658088686
        },
        {
            "x": -1.7964177131652833,
            "y": 0.40650898218154909
        }
    ],
    "triangles": [
        1,
        0,
        2
    ],
    "carDensity": 3.0,
    "suspension": 0.86418217420578,
    "motorSpeed": 675,
    "frontDensity": 4.900000095367432,
    "frontRadius": 0.689996063709259,
    "frontOffset": 1.0144799947738648,
    "backDensity": 3.4000000953674318,
    "backRadius": 0.543877124786377,
    "backOffset": -1.3242847919464112,
    "score": 25,
    "maxDistance": 4,
    "maxTime": 1.899999976158142,
    "speed": 2
}{
    "ID": 123199,
    "genomaID": "CV3TD11",
    "color": {
        "x": 0.20653727650642396,
        "y": 0.7379440665245056,
        "z": 0.5660251975059509
    },
    "vertexNumber": 3,
    "colliderVertices": [
        {
            "x": -1.1010850667953492,
            "y": -0.4912911653518677
        },
        {
            "x": 1.2597887516021729,
            "y": -0.34690144658088686
        },
        {
            "x": -1.7964177131652833,
            "y": 0.40650898218154909
        }
    ],
    "triangles": [
        1,
        0,
        2
    ],
    "carDensity": 3.0,
    "suspension": 0.7659005522727966,
    "motorSpeed": 1376,
    "frontDensity": 4.699999809265137,
    "frontRadius": 0.6721326112747192,
    "frontOffset": 1.1088842153549195,
    "backDensity": 3.4000000953674318,
    "backRadius": 0.543877124786377,
    "backOffset": -0.6603419780731201,
    "score": 0,
    "maxDistance": 0,
    "maxTime": 0.8999999761581421,
    "speed": 0
}