{
    "ID": 113408,
    "genomaID": "CV4TD13",
    "color": {
        "x": 0.17345787584781648,
        "y": 0.17457963526248933,
        "z": 0.9269862174987793
    },
    "vertexNumber": 4,
    "colliderVertices": [
        {
            "x": -1.1571428775787354,
            "y": -0.017785312607884408
        },
        {
            "x": 1.6976892948150635,
            "y": -0.45099586248397829
        },
        {
            "x": -0.907581090927124,
            "y": 0.6379216909408569
        },
        {
            "x": -1.5830674171447755,
            "y": 0.3191775679588318
        }
    ],
    "triangles": [
        3,
        2,
        1,
        1,
        0,
        3
    ],
    "carDensity": 4.0,
    "suspension": 0.8641257882118225,
    "motorSpeed": 869,
    "frontDensity": 4.900000095367432,
    "frontRadius": 0.6931619048118591,
    "frontOffset": 1.2337391376495362,
    "backDensity": 3.5999999046325685,
    "backRadius": 0.5576536059379578,
    "backOffset": -1.0780738592147828,
    "score": 915,
    "maxDistance": 834,
    "maxTime": 103.4000015258789,
    "speed": 8
}{
    "ID": 113526,
    "genomaID": "CV4TD13",
    "color": {
        "x": 0.9714512825012207,
        "y": 0.9411721229553223,
        "z": 0.5284295678138733
    },
    "vertexNumber": 4,
    "colliderVertices": [
        {
            "x": -1.1571428775787354,
            "y": -0.017785312607884408
        },
        {
            "x": 1.6976892948150635,
            "y": -0.45099586248397829
        },
        {
            "x": -0.907581090927124,
            "y": 0.6379216909408569
        },
        {
            "x": -1.5830674171447755,
            "y": 0.3191775679588318
        }
    ],
    "triangles": [
        3,
        2,
        1,
        1,
        0,
        3
    ],
    "carDensity": 4.0,
    "suspension": 0.8860889077186585,
    "motorSpeed": 869,
    "frontDensity": 4.900000095367432,
    "frontRadius": 0.6931619048118591,
    "frontOffset": 1.2337391376495362,
    "backDensity": 3.5999999046325685,
    "backRadius": 0.5576536059379578,
    "backOffset": -1.0665172338485718,
    "score": 913,
    "maxDistance": 833,
    "maxTime": 103.9000015258789,
    "speed": 8
}{
    "ID": 113534,
    "genomaID": "CV4TD13",
    "color": {
        "x": 0.6873781085014343,
        "y": 0.1535031944513321,
        "z": 0.13155795633792878
    },
    "vertexNumber": 4,
    "colliderVertices": [
        {
            "x": -1.5829734802246094,
            "y": -0.16452224552631379
        },
        {
            "x": 1.6475821733474732,
            "y": -0.29120752215385439
        },
        {
            "x": 0.5338420271873474,
            "y": 0.34932249784469607
        },
        {
            "x": 0.20815110206604005,
            "y": 0.7303787469863892
        }
    ],
    "triangles": [
        0,
        3,
        2,
        2,
        1,
        0
    ],
    "carDensity": 4.0,
    "suspension": 0.982035219669342,
    "motorSpeed": 869,
    "frontDensity": 4.900000095367432,
    "frontRadius": 0.6931619048118591,
    "frontOffset": 1.1166356801986695,
    "backDensity": 3.5999999046325685,
    "backRadius": 0.5576536059379578,
    "backOffset": -1.2809221744537354,
    "score": 911,
    "maxDistance": 831,
    "maxTime": 103.4000015258789,
    "speed": 8
}{
    "ID": 113418,
    "genomaID": "CV5TD15",
    "color": {
        "x": 0.10304059088230133,
        "y": 0.24252107739448548,
        "z": 0.42268627882003786
    },
    "vertexNumber": 5,
    "colliderVertices": [
        {
            "x": -1.9342020750045777,
            "y": -0.38842201232910159
        },
        {
            "x": 1.762008547782898,
            "y": -0.3589864671230316
        },
        {
            "x": 0.4533407688140869,
            "y": 0.495652973651886
        },
        {
            "x": -1.1542587280273438,
            "y": 0.6958166360855103
        },
        {
            "x": -1.270622730255127,
            "y": 0.4265677332878113
        }
    ],
    "triangles": [
        1,
        4,
        3,
        3,
        2,
        1,
        1,
        0,
        4
    ],
    "carDensity": 5.0,
    "suspension": 0.8641257882118225,
    "motorSpeed": 869,
    "frontDensity": 4.900000095367432,
    "frontRadius": 0.6931619048118591,
    "frontOffset": 1.2337391376495362,
    "backDensity": 4.800000190734863,
    "backRadius": 0.6780124306678772,
    "backOffset": -1.0780738592147828,
    "score": 0,
    "maxDistance": 0,
    "maxTime": 1.0,
    "speed": 0
}{
    "ID": 113599,
    "genomaID": "CV4TD11",
    "color": {
        "x": 0.20653727650642396,
        "y": 0.7379440665245056,
        "z": 0.5660251975059509
    },
    "vertexNumber": 4,
    "colliderVertices": [
        {
            "x": -1.1571428775787354,
            "y": -0.017785312607884408
        },
        {
            "x": 1.6976892948150635,
            "y": -0.45099586248397829
        },
        {
            "x": -0.907581090927124,
            "y": 0.6379216909408569
        },
        {
            "x": -1.5830674171447755,
            "y": 0.3191775679588318
        }
    ],
    "triangles": [
        3,
        2,
        1,
        1,
        0,
        3
    ],
    "carDensity": 4.0,
    "suspension": 0.7753526568412781,
    "motorSpeed": 869,
    "frontDensity": 3.0999999046325685,
    "frontRadius": 0.5098797082901001,
    "frontOffset": 1.2337391376495362,
    "backDensity": 3.5999999046325685,
    "backRadius": 0.5576536059379578,
    "backOffset": -1.0665172338485718,
    "score": 0,
    "maxDistance": 0,
    "maxTime": 1.0,
    "speed": 0
}