{
    "ID": 78624,
    "genomaID": "CV3TD12",
    "color": {
        "x": 0.21015825867652894,
        "y": 0.7514325380325317,
        "z": 0.603265106678009
    },
    "vertexNumber": 3,
    "colliderVertices": [
        {
            "x": -1.010199785232544,
            "y": -0.39424949884414675
        },
        {
            "x": 1.5240943431854249,
            "y": -0.3255944550037384
        },
        {
            "x": -1.7875475883483887,
            "y": 0.28482288122177126
        }
    ],
    "triangles": [
        1,
        0,
        2
    ],
    "carDensity": 3.0,
    "suspension": 0.668332040309906,
    "motorSpeed": 851,
    "frontDensity": 4.800000190734863,
    "frontRadius": 0.6831284165382385,
    "frontOffset": 0.7585070729255676,
    "backDensity": 4.099999904632568,
    "backRadius": 0.6082158088684082,
    "backOffset": -1.0809367895126343,
    "score": 915,
    "maxDistance": 833,
    "maxTime": 102.0,
    "speed": 8
}{
    "ID": 78730,
    "genomaID": "CV3TD12",
    "color": {
        "x": 0.18558229506015778,
        "y": 0.2526076138019562,
        "z": 0.8065615892410278
    },
    "vertexNumber": 3,
    "colliderVertices": [
        {
            "x": -1.615149736404419,
            "y": -0.08056289702653885
        },
        {
            "x": 1.1510634422302247,
            "y": -0.4890420436859131
        },
        {
            "x": -0.87314772605896,
            "y": 0.506628692150116
        }
    ],
    "triangles": [
        1,
        0,
        2
    ],
    "carDensity": 3.0,
    "suspension": 0.47621458768844607,
    "motorSpeed": 851,
    "frontDensity": 4.800000190734863,
    "frontRadius": 0.6819571256637573,
    "frontOffset": 1.1718071699142457,
    "backDensity": 3.5999999046325685,
    "backRadius": 0.5622896552085877,
    "backOffset": -0.8896018266677856,
    "score": 913,
    "maxDistance": 834,
    "maxTime": 106.0999984741211,
    "speed": 8
}{
    "ID": 78728,
    "genomaID": "CV6TD14",
    "color": {
        "x": 0.41994935274124148,
        "y": 0.1704275757074356,
        "z": 0.1830092817544937
    },
    "vertexNumber": 6,
    "colliderVertices": [
        {
            "x": -1.258922815322876,
            "y": -0.020709635689854623
        },
        {
            "x": 1.2471259832382203,
            "y": -0.2645486295223236
        },
        {
            "x": 0.0761258602142334,
            "y": 0.05880725383758545
        },
        {
            "x": -0.3622629642486572,
            "y": 0.793633222579956
        },
        {
            "x": -0.47997164726257326,
            "y": 0.24720370769500733
        },
        {
            "x": -1.637770175933838,
            "y": 0.1857457160949707
        }
    ],
    "triangles": [
        5,
        4,
        2,
        2,
        1,
        5,
        4,
        3,
        2,
        1,
        0,
        5
    ],
    "carDensity": 6.0,
    "suspension": 0.7483099102973938,
    "motorSpeed": 851,
    "frontDensity": 4.900000095367432,
    "frontRadius": 0.6895706653594971,
    "frontOffset": 0.7564458250999451,
    "backDensity": 2.700000047683716,
    "backRadius": 0.4735700488090515,
    "backOffset": -1.436586618423462,
    "score": 909,
    "maxDistance": 833,
    "maxTime": 109.9000015258789,
    "speed": 8
}{
    "ID": 78618,
    "genomaID": "CV3TD12",
    "color": {
        "x": 0.10304059088230133,
        "y": 0.24252107739448548,
        "z": 0.42268627882003786
    },
    "vertexNumber": 3,
    "colliderVertices": [
        {
            "x": -1.615149736404419,
            "y": -0.08056289702653885
        },
        {
            "x": 1.1510634422302247,
            "y": -0.4890420436859131
        },
        {
            "x": -0.87314772605896,
            "y": 0.506628692150116
        }
    ],
    "triangles": [
        1,
        0,
        2
    ],
    "carDensity": 3.0,
    "suspension": 0.47621458768844607,
    "motorSpeed": 851,
    "frontDensity": 4.800000190734863,
    "frontRadius": 0.6819571256637573,
    "frontOffset": 0.5907888412475586,
    "backDensity": 3.5,
    "backRadius": 0.5537533760070801,
    "backOffset": -0.902880072593689,
    "score": 0,
    "maxDistance": 0,
    "maxTime": 0.8999999761581421,
    "speed": 0
}{
    "ID": 78800,
    "genomaID": "CV3TD11",
    "color": {
        "x": 0.7157778143882752,
        "y": 0.7526435852050781,
        "z": 0.5779417157173157
    },
    "vertexNumber": 3,
    "colliderVertices": [
        {
            "x": -1.615149736404419,
            "y": -0.08056289702653885
        },
        {
            "x": 1.1510634422302247,
            "y": -0.4890420436859131
        },
        {
            "x": -0.87314772605896,
            "y": 0.506628692150116
        }
    ],
    "triangles": [
        1,
        0,
        2
    ],
    "carDensity": 3.0,
    "suspension": 0.47621458768844607,
    "motorSpeed": 851,
    "frontDensity": 3.799999952316284,
    "frontRadius": 0.5773229598999023,
    "frontOffset": 0.5907888412475586,
    "backDensity": 3.5999999046325685,
    "backRadius": 0.5622896552085877,
    "backOffset": -0.580007791519165,
    "score": 0,
    "maxDistance": 0,
    "maxTime": 0.8999999761581421,
    "speed": 0
}