{
    "ID": 20546,
    "genomaID": "CV3TD10",
    "color": {
        "x": 0.09030605107545853,
        "y": 0.587245762348175,
        "z": 0.2169661819934845
    },
    "vertexNumber": 3,
    "colliderVertices": [
        {
            "x": -1.2541747093200684,
            "y": -0.38386595249176028
        },
        {
            "x": 1.0193626880645753,
            "y": -0.271028071641922
        },
        {
            "x": 1.3762645721435547,
            "y": 0.10750925540924072
        }
    ],
    "triangles": [
        1,
        0,
        2
    ],
    "carDensity": 3.0,
    "suspension": 0.7736582159996033,
    "motorSpeed": 1176,
    "frontDensity": 3.5999999046325685,
    "frontRadius": 0.5609493255615234,
    "frontOffset": 1.0263100862503052,
    "backDensity": 3.0999999046325685,
    "backRadius": 0.5140538811683655,
    "backOffset": -1.3681042194366456,
    "score": 919,
    "maxDistance": 832,
    "maxTime": 96.0,
    "speed": 9
}{
    "ID": 20401,
    "genomaID": "CV3TD10",
    "color": {
        "x": 0.7041706442832947,
        "y": 0.1758122593164444,
        "z": 0.6612265706062317
    },
    "vertexNumber": 3,
    "colliderVertices": [
        {
            "x": -1.6619575023651124,
            "y": -0.274162620306015
        },
        {
            "x": 1.2242718935012818,
            "y": -0.025434497743844987
        },
        {
            "x": -0.768294095993042,
            "y": 0.1820462942123413
        }
    ],
    "triangles": [
        1,
        0,
        2
    ],
    "carDensity": 3.0,
    "suspension": 0.9064512252807617,
    "motorSpeed": 709,
    "frontDensity": 3.9000000953674318,
    "frontRadius": 0.5929539203643799,
    "frontOffset": 1.1268470287322999,
    "backDensity": 3.0999999046325685,
    "backRadius": 0.5093687772750855,
    "backOffset": -1.2965744733810425,
    "score": 893,
    "maxDistance": 832,
    "maxTime": 136.0,
    "speed": 6
}{
    "ID": 20424,
    "genomaID": "CV3TD9",
    "color": {
        "x": 0.21015825867652894,
        "y": 0.7514325380325317,
        "z": 0.603265106678009
    },
    "vertexNumber": 3,
    "colliderVertices": [
        {
            "x": -1.2541747093200684,
            "y": -0.38386595249176028
        },
        {
            "x": 1.0193626880645753,
            "y": -0.271028071641922
        },
        {
            "x": 1.3762645721435547,
            "y": 0.10750925540924072
        }
    ],
    "triangles": [
        1,
        0,
        2
    ],
    "carDensity": 3.0,
    "suspension": 0.41478613018989565,
    "motorSpeed": 725,
    "frontDensity": 2.9000000953674318,
    "frontRadius": 0.49291127920150759,
    "frontOffset": 0.9366587400436401,
    "backDensity": 3.200000047683716,
    "backRadius": 0.5168055891990662,
    "backOffset": -1.267113447189331,
    "score": 891,
    "maxDistance": 834,
    "maxTime": 145.39999389648438,
    "speed": 6
}{
    "ID": 20464,
    "genomaID": "CV3TD8",
    "color": {
        "x": 0.7446132302284241,
        "y": 0.4693710207939148,
        "z": 0.9633924961090088
    },
    "vertexNumber": 3,
    "colliderVertices": [
        {
            "x": -1.4712162017822266,
            "y": -0.24714472889900208
        },
        {
            "x": 1.3380789756774903,
            "y": -0.39892154932022097
        },
        {
            "x": -0.1430833339691162,
            "y": 0.2635803818702698
        }
    ],
    "triangles": [
        1,
        0,
        2
    ],
    "carDensity": 3.0,
    "suspension": 0.48883476853370669,
    "motorSpeed": 696,
    "frontDensity": 2.0,
    "frontRadius": 0.4021729826927185,
    "frontOffset": 1.159051775932312,
    "backDensity": 2.9000000953674318,
    "backRadius": 0.49115341901779177,
    "backOffset": -1.0949829816818238,
    "score": 51,
    "maxDistance": 14,
    "maxTime": 3.799999952316284,
    "speed": 4
}{
    "ID": 20600,
    "genomaID": "CV3TD10",
    "color": {
        "x": 0.7157778143882752,
        "y": 0.7526435852050781,
        "z": 0.5779417157173157
    },
    "vertexNumber": 3,
    "colliderVertices": [
        {
            "x": -1.7412893772125245,
            "y": -0.24600020051002503
        },
        {
            "x": 1.6365805864334107,
            "y": -0.11980439722537995
        },
        {
            "x": -1.7040982246398926,
            "y": 0.012483358383178711
        }
    ],
    "triangles": [
        1,
        0,
        2
    ],
    "carDensity": 3.0,
    "suspension": 0.4221012592315674,
    "motorSpeed": 1340,
    "frontDensity": 4.099999904632568,
    "frontRadius": 0.6126639246940613,
    "frontOffset": 1.159051775932312,
    "backDensity": 3.0999999046325685,
    "backRadius": 0.5053288340568543,
    "backOffset": -1.4401410818099976,
    "score": 0,
    "maxDistance": 0,
    "maxTime": 0.800000011920929,
    "speed": 0
}