{
    "ID": 62271,
    "genomaID": "CV3TD12",
    "color": {
        "x": 0.002318620914593339,
        "y": 0.27994123101234438,
        "z": 0.4828231930732727
    },
    "vertexNumber": 3,
    "colliderVertices": [
        {
            "x": -1.615149736404419,
            "y": -0.08056289702653885
        },
        {
            "x": 1.1510634422302247,
            "y": -0.4890420436859131
        },
        {
            "x": -0.87314772605896,
            "y": 0.506628692150116
        }
    ],
    "triangles": [
        1,
        0,
        2
    ],
    "carDensity": 3.0,
    "suspension": 0.6044437885284424,
    "motorSpeed": 851,
    "frontDensity": 4.900000095367432,
    "frontRadius": 0.6900220513343811,
    "frontOffset": 0.5746229887008667,
    "backDensity": 4.099999904632568,
    "backRadius": 0.6060552000999451,
    "backOffset": -1.4243991374969483,
    "score": 916,
    "maxDistance": 834,
    "maxTime": 101.80000305175781,
    "speed": 8
}{
    "ID": 62386,
    "genomaID": "CV3TD12",
    "color": {
        "x": 0.8823857307434082,
        "y": 0.36269453167915347,
        "z": 0.5490991473197937
    },
    "vertexNumber": 3,
    "colliderVertices": [
        {
            "x": -1.1387608051300049,
            "y": -0.12274028360843659
        },
        {
            "x": 1.132357120513916,
            "y": -0.4990397095680237
        },
        {
            "x": 0.06945443153381348,
            "y": 0.37725216150283816
        }
    ],
    "triangles": [
        1,
        0,
        2
    ],
    "carDensity": 3.0,
    "suspension": 0.8542616367340088,
    "motorSpeed": 851,
    "frontDensity": 4.900000095367432,
    "frontRadius": 0.6900220513343811,
    "frontOffset": 0.937470555305481,
    "backDensity": 3.700000047683716,
    "backRadius": 0.5727956295013428,
    "backOffset": -1.1303170919418336,
    "score": 914,
    "maxDistance": 834,
    "maxTime": 104.5,
    "speed": 8
}{
    "ID": 62264,
    "genomaID": "CV3TD11",
    "color": {
        "x": 0.7446132302284241,
        "y": 0.4693710207939148,
        "z": 0.9633924961090088
    },
    "vertexNumber": 3,
    "colliderVertices": [
        {
            "x": -1.6967082023620606,
            "y": -0.4183594584465027
        },
        {
            "x": 1.6215009689331055,
            "y": -0.4354392886161804
        },
        {
            "x": 0.29096150398254397,
            "y": 0.040700316429138187
        }
    ],
    "triangles": [
        1,
        0,
        2
    ],
    "carDensity": 3.0,
    "suspension": 0.407101571559906,
    "motorSpeed": 851,
    "frontDensity": 4.900000095367432,
    "frontRadius": 0.6900220513343811,
    "frontOffset": 1.0462294816970826,
    "backDensity": 2.9000000953674318,
    "backRadius": 0.49010443687438967,
    "backOffset": -1.2369251251220704,
    "score": 912,
    "maxDistance": 833,
    "maxTime": 106.0,
    "speed": 8
}{
    "ID": 62233,
    "genomaID": "CV3TD11",
    "color": {
        "x": 0.2025337517261505,
        "y": 0.5234045386314392,
        "z": 0.5499987006187439
    },
    "vertexNumber": 3,
    "colliderVertices": [
        {
            "x": -1.615149736404419,
            "y": -0.08056289702653885
        },
        {
            "x": 1.1510634422302247,
            "y": -0.4890420436859131
        },
        {
            "x": -0.87314772605896,
            "y": 0.506628692150116
        }
    ],
    "triangles": [
        1,
        0,
        2
    ],
    "carDensity": 3.0,
    "suspension": 0.8397335410118103,
    "motorSpeed": 853,
    "frontDensity": 4.900000095367432,
    "frontRadius": 0.6900220513343811,
    "frontOffset": 0.9278632402420044,
    "backDensity": 3.4000000953674318,
    "backRadius": 0.5407242774963379,
    "backOffset": -0.7223349809646606,
    "score": 14,
    "maxDistance": 3,
    "maxTime": 2.799999952316284,
    "speed": 1
}{
    "ID": 62397,
    "genomaID": "CV5TD13",
    "color": {
        "x": 0.4004287123680115,
        "y": 0.941399097442627,
        "z": 0.8905913829803467
    },
    "vertexNumber": 5,
    "colliderVertices": [
        {
            "x": -1.2115817070007325,
            "y": -0.07590795308351517
        },
        {
            "x": 1.8947311639785767,
            "y": -0.3252916634082794
        },
        {
            "x": 1.2833356857299805,
            "y": 0.9366786479949951
        },
        {
            "x": 0.23029494285583497,
            "y": 0.7413347959518433
        },
        {
            "x": -0.11541342735290528,
            "y": 0.06984210014343262
        }
    ],
    "triangles": [
        1,
        4,
        3,
        3,
        2,
        1,
        1,
        0,
        4
    ],
    "carDensity": 5.0,
    "suspension": 0.7162121534347534,
    "motorSpeed": 851,
    "frontDensity": 4.900000095367432,
    "frontRadius": 0.6900220513343811,
    "frontOffset": 0.7766568064689636,
    "backDensity": 3.0999999046325685,
    "backRadius": 0.5102001428604126,
    "backOffset": -1.2369251251220704,
    "score": 0,
    "maxDistance": 0,
    "maxTime": 0.800000011920929,
    "speed": 0
}