{
    "ID": 32687,
    "genomaID": "CV3TD12",
    "color": {
        "x": 0.6230459809303284,
        "y": 0.18502236902713777,
        "z": 0.48213261365890505
    },
    "vertexNumber": 3,
    "colliderVertices": [
        {
            "x": -1.2415111064910889,
            "y": -0.332523912191391
        },
        {
            "x": 1.2988438606262208,
            "y": -0.2140497863292694
        },
        {
            "x": -1.6646909713745118,
            "y": 0.4260508418083191
        }
    ],
    "triangles": [
        1,
        0,
        2
    ],
    "carDensity": 3.0,
    "suspension": 0.9819116592407227,
    "motorSpeed": 864,
    "frontDensity": 4.599999904632568,
    "frontRadius": 0.6616941094398499,
    "frontOffset": 1.1175810098648072,
    "backDensity": 3.9000000953674318,
    "backRadius": 0.5916703343391419,
    "backOffset": -1.1492549180984498,
    "score": 914,
    "maxDistance": 833,
    "maxTime": 102.4000015258789,
    "speed": 8
}{
    "ID": 32627,
    "genomaID": "CV3TD12",
    "color": {
        "x": 0.4877402186393738,
        "y": 0.17235733568668366,
        "z": 0.033257607370615008
    },
    "vertexNumber": 3,
    "colliderVertices": [
        {
            "x": -1.5219223499298096,
            "y": -0.2267734706401825
        },
        {
            "x": 1.29156494140625,
            "y": -0.0822649672627449
        },
        {
            "x": -1.457838535308838,
            "y": 0.26656633615493777
        }
    ],
    "triangles": [
        1,
        0,
        2
    ],
    "carDensity": 3.0,
    "suspension": 0.561516523361206,
    "motorSpeed": 851,
    "frontDensity": 4.800000190734863,
    "frontRadius": 0.6791735291481018,
    "frontOffset": 1.210644006729126,
    "backDensity": 3.5999999046325685,
    "backRadius": 0.5566391944885254,
    "backOffset": -1.0663846731185914,
    "score": 910,
    "maxDistance": 831,
    "maxTime": 105.5,
    "speed": 8
}{
    "ID": 32775,
    "genomaID": "CV3TD11",
    "color": {
        "x": 0.5999298691749573,
        "y": 0.9253668785095215,
        "z": 0.539160430431366
    },
    "vertexNumber": 3,
    "colliderVertices": [
        {
            "x": -1.5219223499298096,
            "y": -0.2267734706401825
        },
        {
            "x": 1.29156494140625,
            "y": -0.0822649672627449
        },
        {
            "x": -1.457838535308838,
            "y": 0.26656633615493777
        }
    ],
    "triangles": [
        1,
        0,
        2
    ],
    "carDensity": 3.0,
    "suspension": 0.4745642840862274,
    "motorSpeed": 847,
    "frontDensity": 4.800000190734863,
    "frontRadius": 0.6791735291481018,
    "frontOffset": 1.2103543281555176,
    "backDensity": 2.799999952316284,
    "backRadius": 0.47823742032051089,
    "backOffset": -0.9093838930130005,
    "score": 909,
    "maxDistance": 833,
    "maxTime": 109.80000305175781,
    "speed": 8
}{
    "ID": 32615,
    "genomaID": "CV4TD12",
    "color": {
        "x": 0.6324389576911926,
        "y": 0.4681466221809387,
        "z": 0.2554509937763214
    },
    "vertexNumber": 4,
    "colliderVertices": [
        {
            "x": -1.7396159172058106,
            "y": -0.16564948856830598
        },
        {
            "x": 1.466109275817871,
            "y": -0.1006716638803482
        },
        {
            "x": -1.6929426193237305,
            "y": 0.057047486305236819
        },
        {
            "x": -1.7720398902893067,
            "y": 0.39346593618392947
        }
    ],
    "triangles": [
        0,
        3,
        2,
        2,
        1,
        0
    ],
    "carDensity": 4.0,
    "suspension": 0.9184139370918274,
    "motorSpeed": 859,
    "frontDensity": 4.699999809265137,
    "frontRadius": 0.6718026399612427,
    "frontOffset": 1.2512590885162354,
    "backDensity": 3.200000047683716,
    "backRadius": 0.5154522657394409,
    "backOffset": -1.3711936473846436,
    "score": 26,
    "maxDistance": 4,
    "maxTime": 1.899999976158142,
    "speed": 2
}{
    "ID": 32786,
    "genomaID": "CV3TD11",
    "color": {
        "x": 0.8823857307434082,
        "y": 0.36269453167915347,
        "z": 0.5490991473197937
    },
    "vertexNumber": 3,
    "colliderVertices": [
        {
            "x": -1.2415111064910889,
            "y": -0.332523912191391
        },
        {
            "x": 1.2988438606262208,
            "y": -0.2140497863292694
        },
        {
            "x": -1.6646909713745118,
            "y": 0.4260508418083191
        }
    ],
    "triangles": [
        1,
        0,
        2
    ],
    "carDensity": 3.0,
    "suspension": 0.4547354578971863,
    "motorSpeed": 864,
    "frontDensity": 4.900000095367432,
    "frontRadius": 0.6877074241638184,
    "frontOffset": 0.5777170658111572,
    "backDensity": 3.0,
    "backRadius": 0.4971954822540283,
    "backOffset": -0.5345867872238159,
    "score": 0,
    "maxDistance": 0,
    "maxTime": 0.8999999761581421,
    "speed": 0
}