{
    "ID": 53344,
    "genomaID": "CV4TD13",
    "color": {
        "x": 0.9064865112304688,
        "y": 0.7779922485351563,
        "z": 0.8559051752090454
    },
    "vertexNumber": 4,
    "colliderVertices": [
        {
            "x": -1.5240569114685059,
            "y": -0.2524804174900055
        },
        {
            "x": 1.697647213935852,
            "y": -0.03587210550904274
        },
        {
            "x": 0.9185122847557068,
            "y": 0.8316378593444824
        },
        {
            "x": 0.7510365843772888,
            "y": 0.3443695902824402
        }
    ],
    "triangles": [
        3,
        2,
        1,
        1,
        0,
        3
    ],
    "carDensity": 4.0,
    "suspension": 0.9025242328643799,
    "motorSpeed": 888,
    "frontDensity": 4.800000190734863,
    "frontRadius": 0.6786094903945923,
    "frontOffset": 1.1471467018127442,
    "backDensity": 3.700000047683716,
    "backRadius": 0.5727956295013428,
    "backOffset": -0.9889003038406372,
    "score": 916,
    "maxDistance": 832,
    "maxTime": 99.5999984741211,
    "speed": 8
}{
    "ID": 53341,
    "genomaID": "CV3TD12",
    "color": {
        "x": 0.1089494377374649,
        "y": 0.33543577790260317,
        "z": 0.5204598307609558
    },
    "vertexNumber": 3,
    "colliderVertices": [
        {
            "x": -1.0454440116882325,
            "y": -0.14009757339954377
        },
        {
            "x": 1.3723909854888917,
            "y": -0.010384858585894108
        },
        {
            "x": -1.7219891548156739,
            "y": 0.6448235511779785
        }
    ],
    "triangles": [
        1,
        0,
        2
    ],
    "carDensity": 3.0,
    "suspension": 0.741431713104248,
    "motorSpeed": 851,
    "frontDensity": 4.800000190734863,
    "frontRadius": 0.6779978275299072,
    "frontOffset": 0.8784385919570923,
    "backDensity": 3.700000047683716,
    "backRadius": 0.5708839297294617,
    "backOffset": -1.1910613775253297,
    "score": 913,
    "maxDistance": 833,
    "maxTime": 104.5,
    "speed": 8
}{
    "ID": 53205,
    "genomaID": "CV3TD11",
    "color": {
        "x": 0.08106125146150589,
        "y": 0.07938504964113236,
        "z": 0.5804063677787781
    },
    "vertexNumber": 3,
    "colliderVertices": [
        {
            "x": -1.4332995414733887,
            "y": -0.45458292961120608
        },
        {
            "x": 1.2210006713867188,
            "y": -0.24345728754997254
        },
        {
            "x": 0.2976810932159424,
            "y": 0.12185859680175781
        }
    ],
    "triangles": [
        1,
        0,
        2
    ],
    "carDensity": 3.0,
    "suspension": 0.4793032705783844,
    "motorSpeed": 851,
    "frontDensity": 4.800000190734863,
    "frontRadius": 0.6779978275299072,
    "frontOffset": 0.8325991034507752,
    "backDensity": 3.0999999046325685,
    "backRadius": 0.5065014362335205,
    "backOffset": -1.047444462776184,
    "score": 910,
    "maxDistance": 833,
    "maxTime": 108.0,
    "speed": 8
}{
    "ID": 53209,
    "genomaID": "CV5TD14",
    "color": {
        "x": 0.43795162439346316,
        "y": 0.19413724541664124,
        "z": 0.2546187937259674
    },
    "vertexNumber": 5,
    "colliderVertices": [
        {
            "x": -1.8053679466247559,
            "y": -0.4996158480644226
        },
        {
            "x": 1.4615023136138917,
            "y": -0.24085310101509095
        },
        {
            "x": 1.8127613067626954,
            "y": 0.38963133096694949
        },
        {
            "x": -1.8646388053894044,
            "y": 0.909720778465271
        },
        {
            "x": -1.8810920715332032,
            "y": 0.6560521125793457
        }
    ],
    "triangles": [
        1,
        4,
        3,
        3,
        2,
        1,
        1,
        0,
        4
    ],
    "carDensity": 5.0,
    "suspension": 0.447483628988266,
    "motorSpeed": 1251,
    "frontDensity": 4.800000190734863,
    "frontRadius": 0.6771788597106934,
    "frontOffset": 0.8842998743057251,
    "backDensity": 3.700000047683716,
    "backRadius": 0.5727956295013428,
    "backOffset": -1.134806752204895,
    "score": 0,
    "maxDistance": 0,
    "maxTime": 0.800000011920929,
    "speed": 0
}{
    "ID": 53398,
    "genomaID": "CV3TD12",
    "color": {
        "x": 0.8288270235061646,
        "y": 0.1767282634973526,
        "z": 0.6346012949943543
    },
    "vertexNumber": 3,
    "colliderVertices": [
        {
            "x": -1.615149736404419,
            "y": -0.08056289702653885
        },
        {
            "x": 1.1510634422302247,
            "y": -0.4890420436859131
        },
        {
            "x": -0.87314772605896,
            "y": 0.506628692150116
        }
    ],
    "triangles": [
        1,
        0,
        2
    ],
    "carDensity": 3.0,
    "suspension": 0.9834510684013367,
    "motorSpeed": 1398,
    "frontDensity": 4.599999904632568,
    "frontRadius": 0.6569333672523499,
    "frontOffset": 1.3602699041366578,
    "backDensity": 3.5999999046325685,
    "backRadius": 0.5569925308227539,
    "backOffset": -0.8665162324905396,
    "score": 0,
    "maxDistance": 0,
    "maxTime": 0.800000011920929,
    "speed": 0
}