{
    "ID": 69095,
    "genomaID": "CV3TD12",
    "color": {
        "x": 0.07967270165681839,
        "y": 0.9841861724853516,
        "z": 0.05547118932008743
    },
    "vertexNumber": 3,
    "colliderVertices": [
        {
            "x": -1.615149736404419,
            "y": -0.08056289702653885
        },
        {
            "x": 1.1510634422302247,
            "y": -0.4890420436859131
        },
        {
            "x": -0.87314772605896,
            "y": 0.506628692150116
        }
    ],
    "triangles": [
        1,
        0,
        2
    ],
    "carDensity": 3.0,
    "suspension": 0.8212217092514038,
    "motorSpeed": 851,
    "frontDensity": 5.0,
    "frontRadius": 0.6950520277023315,
    "frontOffset": 1.258372187614441,
    "backDensity": 4.0,
    "backRadius": 0.5954518914222717,
    "backOffset": -1.1669907569885255,
    "score": 916,
    "maxDistance": 834,
    "maxTime": 101.80000305175781,
    "speed": 8
}{
    "ID": 69013,
    "genomaID": "CV3TD11",
    "color": {
        "x": 0.2999573051929474,
        "y": 0.8041330575942993,
        "z": 0.9977710247039795
    },
    "vertexNumber": 3,
    "colliderVertices": [
        {
            "x": -1.615149736404419,
            "y": -0.08056289702653885
        },
        {
            "x": 1.1510634422302247,
            "y": -0.4890420436859131
        },
        {
            "x": -0.87314772605896,
            "y": 0.506628692150116
        }
    ],
    "triangles": [
        1,
        0,
        2
    ],
    "carDensity": 3.0,
    "suspension": 0.9501285552978516,
    "motorSpeed": 851,
    "frontDensity": 4.800000190734863,
    "frontRadius": 0.6776076555252075,
    "frontOffset": 1.1885960102081299,
    "backDensity": 3.4000000953674318,
    "backRadius": 0.5390583872795105,
    "backOffset": -1.139613151550293,
    "score": 912,
    "maxDistance": 834,
    "maxTime": 107.5,
    "speed": 8
}{
    "ID": 69179,
    "genomaID": "CV3TD12",
    "color": {
        "x": 0.5564845204353333,
        "y": 0.10687769949436188,
        "z": 0.8510869741439819
    },
    "vertexNumber": 3,
    "colliderVertices": [
        {
            "x": -1.615149736404419,
            "y": -0.08056289702653885
        },
        {
            "x": 1.1510634422302247,
            "y": -0.4890420436859131
        },
        {
            "x": -0.87314772605896,
            "y": 0.506628692150116
        }
    ],
    "triangles": [
        1,
        0,
        2
    ],
    "carDensity": 3.0,
    "suspension": 0.8564595580101013,
    "motorSpeed": 851,
    "frontDensity": 4.800000190734863,
    "frontRadius": 0.6776076555252075,
    "frontOffset": 1.257953405380249,
    "backDensity": 3.700000047683716,
    "backRadius": 0.5727956295013428,
    "backOffset": -0.713565468788147,
    "score": 909,
    "maxDistance": 830,
    "maxTime": 104.69999694824219,
    "speed": 8
}{
    "ID": 69138,
    "genomaID": "CV3TD12",
    "color": {
        "x": 0.3041220009326935,
        "y": 0.9625204801559448,
        "z": 0.17214645445346833
    },
    "vertexNumber": 3,
    "colliderVertices": [
        {
            "x": -1.615149736404419,
            "y": -0.08056289702653885
        },
        {
            "x": 1.1510634422302247,
            "y": -0.4890420436859131
        },
        {
            "x": -0.87314772605896,
            "y": 0.506628692150116
        }
    ],
    "triangles": [
        1,
        0,
        2
    ],
    "carDensity": 3.0,
    "suspension": 0.41794899106025698,
    "motorSpeed": 851,
    "frontDensity": 4.800000190734863,
    "frontRadius": 0.6776076555252075,
    "frontOffset": 1.4324634075164796,
    "backDensity": 3.700000047683716,
    "backRadius": 0.5727956295013428,
    "backOffset": -1.3543648719787598,
    "score": 25,
    "maxDistance": 4,
    "maxTime": 1.899999976158142,
    "speed": 2
}{
    "ID": 69194,
    "genomaID": "CV3TD12",
    "color": {
        "x": 0.6533638834953308,
        "y": 0.5734136700630188,
        "z": 0.5898723006248474
    },
    "vertexNumber": 3,
    "colliderVertices": [
        {
            "x": -1.6148698329925538,
            "y": -0.2937222421169281
        },
        {
            "x": 1.7141838073730469,
            "y": -0.32562682032585146
        },
        {
            "x": 1.8474445343017579,
            "y": 0.6401095390319824
        }
    ],
    "triangles": [
        1,
        0,
        2
    ],
    "carDensity": 3.0,
    "suspension": 0.5998419523239136,
    "motorSpeed": 851,
    "frontDensity": 4.599999904632568,
    "frontRadius": 0.6643805503845215,
    "frontOffset": 0.8680652379989624,
    "backDensity": 3.799999952316284,
    "backRadius": 0.5831201076507568,
    "backOffset": -1.2264153957366944,
    "score": 0,
    "maxDistance": 0,
    "maxTime": 0.8999999761581421,
    "speed": 0
}