{
    "ID": 4913,
    "genomaID": "CV3TD10",
    "color": {
        "x": 0.28870442509651186,
        "y": 0.7211344838142395,
        "z": 0.6233711838722229
    },
    "vertexNumber": 3,
    "colliderVertices": [
        {
            "x": -1.2541747093200684,
            "y": -0.38386595249176028
        },
        {
            "x": 1.0193626880645753,
            "y": -0.271028071641922
        },
        {
            "x": 1.3762645721435547,
            "y": 0.10750925540924072
        }
    ],
    "triangles": [
        1,
        0,
        2
    ],
    "carDensity": 3.0,
    "suspension": 0.49621784687042239,
    "motorSpeed": 938,
    "frontDensity": 4.0,
    "frontRadius": 0.6009075045585632,
    "frontOffset": 1.1739256381988526,
    "backDensity": 3.0999999046325685,
    "backRadius": 0.5140807628631592,
    "backOffset": -0.6129534244537354,
    "score": 913,
    "maxDistance": 833,
    "maxTime": 104.0,
    "speed": 8
}{
    "ID": 4878,
    "genomaID": "CV4TD12",
    "color": {
        "x": 0.7106577754020691,
        "y": 0.4553489089012146,
        "z": 0.9418917894363403
    },
    "vertexNumber": 4,
    "colliderVertices": [
        {
            "x": -1.636077642440796,
            "y": -0.32203617691993716
        },
        {
            "x": 1.39447021484375,
            "y": -0.3224615752696991
        },
        {
            "x": -0.11445879936218262,
            "y": 0.10024082660675049
        },
        {
            "x": -1.0345091819763184,
            "y": 0.3043469786643982
        }
    ],
    "triangles": [
        3,
        2,
        1,
        1,
        0,
        3
    ],
    "carDensity": 4.0,
    "suspension": 0.6347928047180176,
    "motorSpeed": 573,
    "frontDensity": 4.800000190734863,
    "frontRadius": 0.6758988499641419,
    "frontOffset": 1.370798945426941,
    "backDensity": 3.299999952316284,
    "backRadius": 0.5345513224601746,
    "backOffset": -1.3187392950057984,
    "score": 887,
    "maxDistance": 833,
    "maxTime": 154.3000030517578,
    "speed": 5
}{
    "ID": 4975,
    "genomaID": "CV3TD9",
    "color": {
        "x": 0.5999298691749573,
        "y": 0.9253668785095215,
        "z": 0.539160430431366
    },
    "vertexNumber": 3,
    "colliderVertices": [
        {
            "x": -1.2541747093200684,
            "y": -0.38386595249176028
        },
        {
            "x": 1.0193626880645753,
            "y": -0.271028071641922
        },
        {
            "x": 1.3762645721435547,
            "y": 0.10750925540924072
        }
    ],
    "triangles": [
        1,
        0,
        2
    ],
    "carDensity": 3.0,
    "suspension": 0.8686789870262146,
    "motorSpeed": 573,
    "frontDensity": 4.300000190734863,
    "frontRadius": 0.6324726343154907,
    "frontOffset": 1.2738466262817383,
    "backDensity": 2.299999952316284,
    "backRadius": 0.4280740022659302,
    "backOffset": -0.8434783220291138,
    "score": 886,
    "maxDistance": 833,
    "maxTime": 157.0,
    "speed": 5
}{
    "ID": 4950,
    "genomaID": "CV3TD11",
    "color": {
        "x": 0.1806507259607315,
        "y": 0.9725886583328247,
        "z": 0.14072836935520173
    },
    "vertexNumber": 3,
    "colliderVertices": [
        {
            "x": -1.0362344980239869,
            "y": -0.08062560111284256
        },
        {
            "x": 1.2684881687164307,
            "y": -0.3727175295352936
        },
        {
            "x": -0.7967755794525147,
            "y": 0.6578238010406494
        }
    ],
    "triangles": [
        1,
        0,
        2
    ],
    "carDensity": 3.0,
    "suspension": 0.46839046478271487,
    "motorSpeed": 1095,
    "frontDensity": 4.900000095367432,
    "frontRadius": 0.6884205341339111,
    "frontOffset": 1.075208306312561,
    "backDensity": 3.200000047683716,
    "backRadius": 0.523668646812439,
    "backOffset": -1.1756112575531006,
    "score": 35,
    "maxDistance": 8,
    "maxTime": 3.0,
    "speed": 3
}{
    "ID": 4859,
    "genomaID": "CV3TD12",
    "color": {
        "x": 0.37210455536842348,
        "y": 0.8846409320831299,
        "z": 0.02142811007797718
    },
    "vertexNumber": 3,
    "colliderVertices": [
        {
            "x": -1.2541747093200684,
            "y": -0.38386595249176028
        },
        {
            "x": 1.0193626880645753,
            "y": -0.271028071641922
        },
        {
            "x": 1.3762645721435547,
            "y": 0.10750925540924072
        }
    ],
    "triangles": [
        1,
        0,
        2
    ],
    "carDensity": 3.0,
    "suspension": 0.5115365982055664,
    "motorSpeed": 940,
    "frontDensity": 3.5999999046325685,
    "frontRadius": 0.5564324259757996,
    "frontOffset": 0.8550766706466675,
    "backDensity": 4.599999904632568,
    "backRadius": 0.6601427793502808,
    "backOffset": -0.9293771982192993,
    "score": -11,
    "maxDistance": -1,
    "maxTime": 1.0,
    "speed": -1
}