{
    "ID": 114881,
    "genomaID": "CV4TD13",
    "color": {
        "x": 0.33774855732917788,
        "y": 0.22017505764961244,
        "z": 0.21699634194374085
    },
    "vertexNumber": 4,
    "colliderVertices": [
        {
            "x": -1.8333261013031006,
            "y": -0.31918177008628847
        },
        {
            "x": 1.402942419052124,
            "y": -0.4772578477859497
        },
        {
            "x": 0.23619484901428224,
            "y": 0.5132059454917908
        },
        {
            "x": -0.9313971996307373,
            "y": 0.3069302439689636
        }
    ],
    "triangles": [
        3,
        2,
        1,
        1,
        0,
        3
    ],
    "carDensity": 4.0,
    "suspension": 0.7751563787460327,
    "motorSpeed": 875,
    "frontDensity": 5.0,
    "frontRadius": 0.6977106332778931,
    "frontOffset": 1.4846665859222413,
    "backDensity": 3.799999952316284,
    "backRadius": 0.5839862823486328,
    "backOffset": -0.8446875810623169,
    "score": 917,
    "maxDistance": 834,
    "maxTime": 100.69999694824219,
    "speed": 8
}{
    "ID": 114969,
    "genomaID": "CV3TD12",
    "color": {
        "x": 0.7785465717315674,
        "y": 0.007556677795946598,
        "z": 0.1445998102426529
    },
    "vertexNumber": 3,
    "colliderVertices": [
        {
            "x": -1.7729783058166505,
            "y": -0.2636915147304535
        },
        {
            "x": 1.2018989324569703,
            "y": -0.13652606308460236
        },
        {
            "x": -0.26383233070373537,
            "y": 0.7968834638595581
        }
    ],
    "triangles": [
        1,
        0,
        2
    ],
    "carDensity": 3.0,
    "suspension": 0.8802152276039124,
    "motorSpeed": 851,
    "frontDensity": 4.900000095367432,
    "frontRadius": 0.6855190396308899,
    "frontOffset": 0.8131631016731262,
    "backDensity": 3.9000000953674318,
    "backRadius": 0.5868172645568848,
    "backOffset": -0.7288416624069214,
    "score": 914,
    "maxDistance": 834,
    "maxTime": 103.80000305175781,
    "speed": 8
}{
    "ID": 114917,
    "genomaID": "CV4TD12",
    "color": {
        "x": 0.21057823300361634,
        "y": 0.03984392061829567,
        "z": 0.7053022980690002
    },
    "vertexNumber": 4,
    "colliderVertices": [
        {
            "x": -1.1571428775787354,
            "y": -0.017785312607884408
        },
        {
            "x": 1.6976892948150635,
            "y": -0.45099586248397829
        },
        {
            "x": -0.907581090927124,
            "y": 0.6379216909408569
        },
        {
            "x": -1.5830674171447755,
            "y": 0.3191775679588318
        }
    ],
    "triangles": [
        3,
        2,
        1,
        1,
        0,
        3
    ],
    "carDensity": 4.0,
    "suspension": 0.41631948947906496,
    "motorSpeed": 867,
    "frontDensity": 4.900000095367432,
    "frontRadius": 0.689996063709259,
    "frontOffset": 1.0833925008773804,
    "backDensity": 3.200000047683716,
    "backRadius": 0.5191757678985596,
    "backOffset": -1.2763621807098389,
    "score": 911,
    "maxDistance": 833,
    "maxTime": 106.4000015258789,
    "speed": 8
}{
    "ID": 114820,
    "genomaID": "CV6TD14",
    "color": {
        "x": 0.710654079914093,
        "y": 0.018615366891026498,
        "z": 0.12593068182468415
    },
    "vertexNumber": 6,
    "colliderVertices": [
        {
            "x": -1.7793606519699097,
            "y": -0.08417607098817826
        },
        {
            "x": 1.3776824474334717,
            "y": -0.1789364367723465
        },
        {
            "x": 1.8497209548950196,
            "y": 0.552933394908905
        },
        {
            "x": -0.7176868915557861,
            "y": 0.008109569549560547
        },
        {
            "x": -1.0863709449768067,
            "y": 0.9087104797363281
        },
        {
            "x": -1.1040520668029786,
            "y": 0.34858590364456179
        }
    ],
    "triangles": [
        0,
        5,
        3,
        3,
        1,
        0,
        5,
        4,
        3,
        3,
        2,
        1
    ],
    "carDensity": 6.0,
    "suspension": 0.7666090726852417,
    "motorSpeed": 1434,
    "frontDensity": 5.0,
    "frontRadius": 0.6977106332778931,
    "frontOffset": 0.7387304306030273,
    "backDensity": 3.4000000953674318,
    "backRadius": 0.5357890725135803,
    "backOffset": -0.9247418642044067,
    "score": 0,
    "maxDistance": 0,
    "maxTime": 0.0,
    "speed": -2147483648
}{
    "ID": 114998,
    "genomaID": "CV4TD9",
    "color": {
        "x": 0.8288270235061646,
        "y": 0.1767282634973526,
        "z": 0.6346012949943543
    },
    "vertexNumber": 4,
    "colliderVertices": [
        {
            "x": -1.8333261013031006,
            "y": -0.31918177008628847
        },
        {
            "x": 1.402942419052124,
            "y": -0.4772578477859497
        },
        {
            "x": 0.23619484901428224,
            "y": 0.5132059454917908
        },
        {
            "x": -0.9313971996307373,
            "y": 0.3069302439689636
        }
    ],
    "triangles": [
        3,
        2,
        1,
        1,
        0,
        3
    ],
    "carDensity": 4.0,
    "suspension": 0.5929320454597473,
    "motorSpeed": 875,
    "frontDensity": 2.4000000953674318,
    "frontRadius": 0.4400569200515747,
    "frontOffset": 0.8464885950088501,
    "backDensity": 3.0999999046325685,
    "backRadius": 0.5062084197998047,
    "backOffset": -0.8446875810623169,
    "score": 0,
    "maxDistance": 0,
    "maxTime": 1.0,
    "speed": 0
}