{
    "ID": 110842,
    "genomaID": "CV3TD12",
    "color": {
        "x": 0.4156363606452942,
        "y": 0.559269368648529,
        "z": 0.22758856415748597
    },
    "vertexNumber": 3,
    "colliderVertices": [
        {
            "x": -1.87174654006958,
            "y": -0.48871129751205447
        },
        {
            "x": 1.4022159576416016,
            "y": -0.3172537386417389
        },
        {
            "x": -1.1397089958190919,
            "y": 0.2695292830467224
        }
    ],
    "triangles": [
        1,
        0,
        2
    ],
    "carDensity": 3.0,
    "suspension": 0.5452909469604492,
    "motorSpeed": 858,
    "frontDensity": 4.800000190734863,
    "frontRadius": 0.678674578666687,
    "frontOffset": 0.9507957696914673,
    "backDensity": 3.9000000953674318,
    "backRadius": 0.5913886427879334,
    "backOffset": -1.0203937292099,
    "score": 916,
    "maxDistance": 834,
    "maxTime": 102.30000305175781,
    "speed": 8
}{
    "ID": 110904,
    "genomaID": "CV4TD12",
    "color": {
        "x": 0.1352529674768448,
        "y": 0.6208288073539734,
        "z": 0.2655027210712433
    },
    "vertexNumber": 4,
    "colliderVertices": [
        {
            "x": -1.1571428775787354,
            "y": -0.017785312607884408
        },
        {
            "x": 1.6976892948150635,
            "y": -0.45099586248397829
        },
        {
            "x": -0.907581090927124,
            "y": 0.6379216909408569
        },
        {
            "x": -1.5830674171447755,
            "y": 0.3191775679588318
        }
    ],
    "triangles": [
        3,
        2,
        1,
        1,
        0,
        3
    ],
    "carDensity": 4.0,
    "suspension": 0.8736481666564941,
    "motorSpeed": 869,
    "frontDensity": 4.900000095367432,
    "frontRadius": 0.689996063709259,
    "frontOffset": 1.3606570959091187,
    "backDensity": 3.200000047683716,
    "backRadius": 0.5191757678985596,
    "backOffset": -0.9610549211502075,
    "score": 912,
    "maxDistance": 834,
    "maxTime": 106.30000305175781,
    "speed": 8
}{
    "ID": 110852,
    "genomaID": "CV3TD12",
    "color": {
        "x": 0.07705188542604447,
        "y": 0.08956373482942581,
        "z": 0.3849671483039856
    },
    "vertexNumber": 3,
    "colliderVertices": [
        {
            "x": -1.615149736404419,
            "y": -0.08056289702653885
        },
        {
            "x": 1.1510634422302247,
            "y": -0.4890420436859131
        },
        {
            "x": -0.87314772605896,
            "y": 0.506628692150116
        }
    ],
    "triangles": [
        1,
        0,
        2
    ],
    "carDensity": 3.0,
    "suspension": 0.6343846321105957,
    "motorSpeed": 875,
    "frontDensity": 5.0,
    "frontRadius": 0.6977106332778931,
    "frontOffset": 1.328188419342041,
    "backDensity": 4.400000095367432,
    "backRadius": 0.6411964893341065,
    "backOffset": -1.0390070676803589,
    "score": 239,
    "maxDistance": 162,
    "maxTime": 21.0,
    "speed": 8
}{
    "ID": 110856,
    "genomaID": "CV3TD12",
    "color": {
        "x": 0.1323385387659073,
        "y": 0.05233467370271683,
        "z": 0.0016689302865415812
    },
    "vertexNumber": 3,
    "colliderVertices": [
        {
            "x": -1.615149736404419,
            "y": -0.08056289702653885
        },
        {
            "x": 1.1510634422302247,
            "y": -0.4890420436859131
        },
        {
            "x": -0.87314772605896,
            "y": 0.506628692150116
        }
    ],
    "triangles": [
        1,
        0,
        2
    ],
    "carDensity": 3.0,
    "suspension": 0.6580564975738525,
    "motorSpeed": 851,
    "frontDensity": 4.5,
    "frontRadius": 0.6496872901916504,
    "frontOffset": 1.152020812034607,
    "backDensity": 4.900000095367432,
    "backRadius": 0.6878946423530579,
    "backOffset": -0.9106169939041138,
    "score": 0,
    "maxDistance": 0,
    "maxTime": 1.0,
    "speed": 0
}{
    "ID": 110958,
    "genomaID": "CV3TD9",
    "color": {
        "x": 0.6495806574821472,
        "y": 0.11240507662296295,
        "z": 0.5328342318534851
    },
    "vertexNumber": 3,
    "colliderVertices": [
        {
            "x": -1.615149736404419,
            "y": -0.08056289702653885
        },
        {
            "x": 1.1510634422302247,
            "y": -0.4890420436859131
        },
        {
            "x": -0.87314772605896,
            "y": 0.506628692150116
        }
    ],
    "triangles": [
        1,
        0,
        2
    ],
    "carDensity": 3.0,
    "suspension": 0.9483799934387207,
    "motorSpeed": 875,
    "frontDensity": 2.200000047683716,
    "frontRadius": 0.41812455654144289,
    "frontOffset": 0.8519207239151001,
    "backDensity": 3.5,
    "backRadius": 0.5470849275588989,
    "backOffset": -0.7737763524055481,
    "score": -11,
    "maxDistance": -1,
    "maxTime": 1.0,
    "speed": -1
}