{
    "ID": 91651,
    "genomaID": "CV3TD12",
    "color": {
        "x": 0.560156524181366,
        "y": 0.9362970590591431,
        "z": 0.4048425555229187
    },
    "vertexNumber": 3,
    "colliderVertices": [
        {
            "x": -1.615149736404419,
            "y": -0.08056289702653885
        },
        {
            "x": 1.1510634422302247,
            "y": -0.4890420436859131
        },
        {
            "x": -0.87314772605896,
            "y": 0.506628692150116
        }
    ],
    "triangles": [
        1,
        0,
        2
    ],
    "carDensity": 3.0,
    "suspension": 0.6057254076004028,
    "motorSpeed": 851,
    "frontDensity": 4.800000190734863,
    "frontRadius": 0.678674578666687,
    "frontOffset": 0.747327446937561,
    "backDensity": 3.799999952316284,
    "backRadius": 0.5814912915229797,
    "backOffset": -0.8481711149215698,
    "score": 915,
    "maxDistance": 834,
    "maxTime": 103.4000015258789,
    "speed": 8
}{
    "ID": 91723,
    "genomaID": "CV3TD12",
    "color": {
        "x": 0.7486791014671326,
        "y": 0.47938281297683718,
        "z": 0.7399960160255432
    },
    "vertexNumber": 3,
    "colliderVertices": [
        {
            "x": -1.615149736404419,
            "y": -0.08056289702653885
        },
        {
            "x": 1.1510634422302247,
            "y": -0.4890420436859131
        },
        {
            "x": -0.87314772605896,
            "y": 0.506628692150116
        }
    ],
    "triangles": [
        1,
        0,
        2
    ],
    "carDensity": 3.0,
    "suspension": 0.4053061306476593,
    "motorSpeed": 851,
    "frontDensity": 4.800000190734863,
    "frontRadius": 0.6801435947418213,
    "frontOffset": 1.3841021060943604,
    "backDensity": 3.700000047683716,
    "backRadius": 0.5705000162124634,
    "backOffset": -1.0226343870162964,
    "score": 913,
    "maxDistance": 834,
    "maxTime": 105.30000305175781,
    "speed": 8
}{
    "ID": 91767,
    "genomaID": "CV3TD12",
    "color": {
        "x": 0.6439273953437805,
        "y": 0.6756393313407898,
        "z": 0.4537511467933655
    },
    "vertexNumber": 3,
    "colliderVertices": [
        {
            "x": -1.615149736404419,
            "y": -0.08056289702653885
        },
        {
            "x": 1.1510634422302247,
            "y": -0.4890420436859131
        },
        {
            "x": -0.87314772605896,
            "y": 0.506628692150116
        }
    ],
    "triangles": [
        1,
        0,
        2
    ],
    "carDensity": 3.0,
    "suspension": 0.7362443208694458,
    "motorSpeed": 560,
    "frontDensity": 4.699999809265137,
    "frontRadius": 0.66722571849823,
    "frontOffset": 0.7093160152435303,
    "backDensity": 3.700000047683716,
    "backRadius": 0.5705000162124634,
    "backOffset": -1.3544797897338868,
    "score": 887,
    "maxDistance": 833,
    "maxTime": 153.0,
    "speed": 5
}{
    "ID": 91639,
    "genomaID": "CV3TD11",
    "color": {
        "x": 0.9107679128646851,
        "y": 0.2904328405857086,
        "z": 0.360495001077652
    },
    "vertexNumber": 3,
    "colliderVertices": [
        {
            "x": -1.615149736404419,
            "y": -0.08056289702653885
        },
        {
            "x": 1.1510634422302247,
            "y": -0.4890420436859131
        },
        {
            "x": -0.87314772605896,
            "y": 0.506628692150116
        }
    ],
    "triangles": [
        1,
        0,
        2
    ],
    "carDensity": 3.0,
    "suspension": 0.588295042514801,
    "motorSpeed": 882,
    "frontDensity": 4.800000190734863,
    "frontRadius": 0.6819571256637573,
    "frontOffset": 0.5513256788253784,
    "backDensity": 3.299999952316284,
    "backRadius": 0.5295753479003906,
    "backOffset": -1.3290274143218995,
    "score": 18,
    "maxDistance": 4,
    "maxTime": 2.9000000953674318,
    "speed": 1
}{
    "ID": 91798,
    "genomaID": "CV3TD12",
    "color": {
        "x": 0.8288270235061646,
        "y": 0.1767282634973526,
        "z": 0.6346012949943543
    },
    "vertexNumber": 3,
    "colliderVertices": [
        {
            "x": -1.615149736404419,
            "y": -0.08056289702653885
        },
        {
            "x": 1.1510634422302247,
            "y": -0.4890420436859131
        },
        {
            "x": -0.87314772605896,
            "y": 0.506628692150116
        }
    ],
    "triangles": [
        1,
        0,
        2
    ],
    "carDensity": 3.0,
    "suspension": 0.9413418769836426,
    "motorSpeed": 1301,
    "frontDensity": 4.800000190734863,
    "frontRadius": 0.6787758469581604,
    "frontOffset": 0.9065274000167847,
    "backDensity": 3.5,
    "backRadius": 0.5543792843818665,
    "backOffset": -1.018170952796936,
    "score": 0,
    "maxDistance": 0,
    "maxTime": 0.8999999761581421,
    "speed": 0
}