{
    "ID": 31354,
    "genomaID": "CV3TD12",
    "color": {
        "x": 0.6879891753196716,
        "y": 0.5909647345542908,
        "z": 0.28141656517982485
    },
    "vertexNumber": 3,
    "colliderVertices": [
        {
            "x": -1.3196678161621094,
            "y": -0.13924403488636018
        },
        {
            "x": 1.527311086654663,
            "y": -0.4570744037628174
        },
        {
            "x": -0.4547536373138428,
            "y": 0.41911548376083376
        }
    ],
    "triangles": [
        1,
        0,
        2
    ],
    "carDensity": 3.0,
    "suspension": 0.9526940584182739,
    "motorSpeed": 864,
    "frontDensity": 4.699999809265137,
    "frontRadius": 0.6739943027496338,
    "frontOffset": 0.7562859654426575,
    "backDensity": 3.799999952316284,
    "backRadius": 0.5798087120056152,
    "backOffset": -1.12490713596344,
    "score": 915,
    "maxDistance": 834,
    "maxTime": 102.9000015258789,
    "speed": 8
}{
    "ID": 31389,
    "genomaID": "CV3TD12",
    "color": {
        "x": 0.2850213348865509,
        "y": 0.19931009411811829,
        "z": 0.833501935005188
    },
    "vertexNumber": 3,
    "colliderVertices": [
        {
            "x": -1.5219223499298096,
            "y": -0.2267734706401825
        },
        {
            "x": 1.29156494140625,
            "y": -0.0822649672627449
        },
        {
            "x": -1.457838535308838,
            "y": 0.26656633615493777
        }
    ],
    "triangles": [
        1,
        0,
        2
    ],
    "carDensity": 3.0,
    "suspension": 0.9144468903541565,
    "motorSpeed": 851,
    "frontDensity": 4.800000190734863,
    "frontRadius": 0.6791735291481018,
    "frontOffset": 0.5765349864959717,
    "backDensity": 3.799999952316284,
    "backRadius": 0.580926775932312,
    "backOffset": -1.2394592761993409,
    "score": 912,
    "maxDistance": 832,
    "maxTime": 103.5999984741211,
    "speed": 8
}{
    "ID": 31333,
    "genomaID": "CV4TD12",
    "color": {
        "x": 0.1805342584848404,
        "y": 0.25532034039497378,
        "z": 0.11323119699954987
    },
    "vertexNumber": 4,
    "colliderVertices": [
        {
            "x": -1.7396159172058106,
            "y": -0.16564948856830598
        },
        {
            "x": 1.466109275817871,
            "y": -0.1006716638803482
        },
        {
            "x": -1.6929426193237305,
            "y": 0.057047486305236819
        },
        {
            "x": -1.7720398902893067,
            "y": 0.39346593618392947
        }
    ],
    "triangles": [
        0,
        3,
        2,
        2,
        1,
        0
    ],
    "carDensity": 4.0,
    "suspension": 0.949775755405426,
    "motorSpeed": 872,
    "frontDensity": 4.699999809265137,
    "frontRadius": 0.6718026399612427,
    "frontOffset": 0.8244041800498962,
    "backDensity": 2.799999952316284,
    "backRadius": 0.4819214940071106,
    "backOffset": -1.0130559206008912,
    "score": 910,
    "maxDistance": 833,
    "maxTime": 108.4000015258789,
    "speed": 8
}{
    "ID": 31271,
    "genomaID": "CV3TD12",
    "color": {
        "x": 0.002318620914593339,
        "y": 0.27994123101234438,
        "z": 0.4828231930732727
    },
    "vertexNumber": 3,
    "colliderVertices": [
        {
            "x": -1.3196678161621094,
            "y": -0.13924403488636018
        },
        {
            "x": 1.527311086654663,
            "y": -0.4570744037628174
        },
        {
            "x": -0.4547536373138428,
            "y": 0.41911548376083376
        }
    ],
    "triangles": [
        1,
        0,
        2
    ],
    "carDensity": 3.0,
    "suspension": 0.9526940584182739,
    "motorSpeed": 864,
    "frontDensity": 4.699999809265137,
    "frontRadius": 0.6739943027496338,
    "frontOffset": 0.7562859654426575,
    "backDensity": 3.799999952316284,
    "backRadius": 0.5798087120056152,
    "backOffset": -0.8792537450790405,
    "score": 38,
    "maxDistance": 6,
    "maxTime": 1.899999976158142,
    "speed": 3
}{
    "ID": 31400,
    "genomaID": "CV6TD15",
    "color": {
        "x": 0.7157778143882752,
        "y": 0.7526435852050781,
        "z": 0.5779417157173157
    },
    "vertexNumber": 6,
    "colliderVertices": [
        {
            "x": -1.4114389419555665,
            "y": -0.3049907982349396
        },
        {
            "x": 1.8583018779754639,
            "y": -0.06330538541078568
        },
        {
            "x": 0.6209678053855896,
            "y": 0.12585842609405518
        },
        {
            "x": -0.7682125568389893,
            "y": 0.45799773931503298
        },
        {
            "x": -1.4236297607421876,
            "y": 0.829156756401062
        },
        {
            "x": -1.565671443939209,
            "y": 0.7750253677368164
        }
    ],
    "triangles": [
        0,
        5,
        3,
        3,
        2,
        0,
        5,
        4,
        3,
        2,
        1,
        0
    ],
    "carDensity": 6.0,
    "suspension": 0.9526940584182739,
    "motorSpeed": 864,
    "frontDensity": 4.699999809265137,
    "frontRadius": 0.6739943027496338,
    "frontOffset": 1.3959271907806397,
    "backDensity": 3.799999952316284,
    "backRadius": 0.5798087120056152,
    "backOffset": -1.3606805801391602,
    "score": 0,
    "maxDistance": 0,
    "maxTime": 0.8999999761581421,
    "speed": 0
}