{
    "ID": 42032,
    "genomaID": "CV3TD12",
    "color": {
        "x": 0.6784065365791321,
        "y": 0.0615776851773262,
        "z": 0.45114654302597048
    },
    "vertexNumber": 3,
    "colliderVertices": [
        {
            "x": -1.615149736404419,
            "y": -0.08056289702653885
        },
        {
            "x": 1.1510634422302247,
            "y": -0.4890420436859131
        },
        {
            "x": -0.87314772605896,
            "y": 0.506628692150116
        }
    ],
    "triangles": [
        1,
        0,
        2
    ],
    "carDensity": 3.0,
    "suspension": 0.6445320248603821,
    "motorSpeed": 1125,
    "frontDensity": 4.800000190734863,
    "frontRadius": 0.6791735291481018,
    "frontOffset": 1.114772915840149,
    "backDensity": 3.700000047683716,
    "backRadius": 0.5727956295013428,
    "backOffset": -1.1625357866287232,
    "score": 923,
    "maxDistance": 833,
    "maxTime": 93.0,
    "speed": 9
}{
    "ID": 42160,
    "genomaID": "CV3TD12",
    "color": {
        "x": 0.2401660978794098,
        "y": 0.12440158426761627,
        "z": 0.483070433139801
    },
    "vertexNumber": 3,
    "colliderVertices": [
        {
            "x": -1.615149736404419,
            "y": -0.08056289702653885
        },
        {
            "x": 1.1510634422302247,
            "y": -0.4890420436859131
        },
        {
            "x": -0.87314772605896,
            "y": 0.506628692150116
        }
    ],
    "triangles": [
        1,
        0,
        2
    ],
    "carDensity": 3.0,
    "suspension": 0.9101619720458984,
    "motorSpeed": 884,
    "frontDensity": 4.699999809265137,
    "frontRadius": 0.6709995865821838,
    "frontOffset": 0.7620416283607483,
    "backDensity": 3.5999999046325685,
    "backRadius": 0.5558890104293823,
    "backOffset": -1.412567138671875,
    "score": 914,
    "maxDistance": 833,
    "maxTime": 102.9000015258789,
    "speed": 8
}{
    "ID": 42169,
    "genomaID": "CV3TD11",
    "color": {
        "x": 0.7785465717315674,
        "y": 0.007556677795946598,
        "z": 0.1445998102426529
    },
    "vertexNumber": 3,
    "colliderVertices": [
        {
            "x": -1.2415111064910889,
            "y": -0.332523912191391
        },
        {
            "x": 1.2988438606262208,
            "y": -0.2140497863292694
        },
        {
            "x": -1.6646909713745118,
            "y": 0.4260508418083191
        }
    ],
    "triangles": [
        1,
        0,
        2
    ],
    "carDensity": 3.0,
    "suspension": 0.4597401022911072,
    "motorSpeed": 864,
    "frontDensity": 4.900000095367432,
    "frontRadius": 0.6877074241638184,
    "frontOffset": 1.2497069835662842,
    "backDensity": 3.4000000953674318,
    "backRadius": 0.5352407097816467,
    "backOffset": -1.4150943756103516,
    "score": 912,
    "maxDistance": 833,
    "maxTime": 106.0,
    "speed": 8
}{
    "ID": 42164,
    "genomaID": "CV4TD12",
    "color": {
        "x": 0.5360366702079773,
        "y": 0.385536253452301,
        "z": 0.09161461144685745
    },
    "vertexNumber": 4,
    "colliderVertices": [
        {
            "x": -1.307427167892456,
            "y": -0.11495579779148102
        },
        {
            "x": 1.8460922241210938,
            "y": -0.19584152102470399
        },
        {
            "x": 0.9634312987327576,
            "y": 0.07225346565246582
        },
        {
            "x": 0.7821463942527771,
            "y": 0.2794058918952942
        }
    ],
    "triangles": [
        0,
        3,
        2,
        2,
        1,
        0
    ],
    "carDensity": 4.0,
    "suspension": 0.4597401022911072,
    "motorSpeed": 864,
    "frontDensity": 4.900000095367432,
    "frontRadius": 0.6877074241638184,
    "frontOffset": 1.2497069835662842,
    "backDensity": 3.4000000953674318,
    "backRadius": 0.5352407097816467,
    "backOffset": -1.4867947101593018,
    "score": 20,
    "maxDistance": 3,
    "maxTime": 1.7999999523162842,
    "speed": 2
}{
    "ID": 42195,
    "genomaID": "CV5TD13",
    "color": {
        "x": 0.1332085281610489,
        "y": 0.55067378282547,
        "z": 0.17289210855960847
    },
    "vertexNumber": 5,
    "colliderVertices": [
        {
            "x": -1.6368849277496338,
            "y": -0.11775483191013336
        },
        {
            "x": 1.3644976615905762,
            "y": -0.3266967833042145
        },
        {
            "x": 1.4098029136657715,
            "y": 0.7485824823379517
        },
        {
            "x": 1.1368770599365235,
            "y": 0.3516152501106262
        },
        {
            "x": 0.5213722586631775,
            "y": 0.8066495656967163
        }
    ],
    "triangles": [
        1,
        4,
        3,
        3,
        2,
        1,
        1,
        0,
        4
    ],
    "carDensity": 5.0,
    "suspension": 0.8987413048744202,
    "motorSpeed": 864,
    "frontDensity": 4.900000095367432,
    "frontRadius": 0.6877074241638184,
    "frontOffset": 0.6113619804382324,
    "backDensity": 3.4000000953674318,
    "backRadius": 0.5352407097816467,
    "backOffset": -0.8599704504013062,
    "score": 0,
    "maxDistance": 0,
    "maxTime": 0.800000011920929,
    "speed": 0
}