{
    "ID": 123613,
    "genomaID": "CV4TD13",
    "color": {
        "x": 0.2999573051929474,
        "y": 0.8041330575942993,
        "z": 0.9977710247039795
    },
    "vertexNumber": 4,
    "colliderVertices": [
        {
            "x": -1.8605372905731202,
            "y": -0.4470815062522888
        },
        {
            "x": 1.3211510181427003,
            "y": -0.09292513877153397
        },
        {
            "x": 0.04444479942321777,
            "y": 0.5202214121818543
        },
        {
            "x": -0.24493765830993653,
            "y": 0.07984542846679688
        }
    ],
    "triangles": [
        3,
        2,
        1,
        1,
        0,
        3
    ],
    "carDensity": 4.0,
    "suspension": 0.6100538969039917,
    "motorSpeed": 869,
    "frontDensity": 4.900000095367432,
    "frontRadius": 0.689996063709259,
    "frontOffset": 0.5599792003631592,
    "backDensity": 3.799999952316284,
    "backRadius": 0.5820742249488831,
    "backOffset": -1.0758002996444703,
    "score": 915,
    "maxDistance": 833,
    "maxTime": 101.0,
    "speed": 8
}{
    "ID": 123698,
    "genomaID": "CV3TD11",
    "color": {
        "x": 0.9387993812561035,
        "y": 0.08747292309999466,
        "z": 0.9844425916671753
    },
    "vertexNumber": 3,
    "colliderVertices": [
        {
            "x": -1.1010850667953492,
            "y": -0.4912911653518677
        },
        {
            "x": 1.2597887516021729,
            "y": -0.34690144658088686
        },
        {
            "x": -1.7964177131652833,
            "y": 0.40650898218154909
        }
    ],
    "triangles": [
        1,
        0,
        2
    ],
    "carDensity": 3.0,
    "suspension": 0.5557253360748291,
    "motorSpeed": 869,
    "frontDensity": 4.699999809265137,
    "frontRadius": 0.6721326112747192,
    "frontOffset": 0.8460131883621216,
    "backDensity": 3.4000000953674318,
    "backRadius": 0.543877124786377,
    "backOffset": -0.9629946947097778,
    "score": 913,
    "maxDistance": 834,
    "maxTime": 105.9000015258789,
    "speed": 8
}{
    "ID": 123764,
    "genomaID": "CV3TD11",
    "color": {
        "x": 0.5360366702079773,
        "y": 0.385536253452301,
        "z": 0.09161461144685745
    },
    "vertexNumber": 3,
    "colliderVertices": [
        {
            "x": -1.1010850667953492,
            "y": -0.4912911653518677
        },
        {
            "x": 1.2597887516021729,
            "y": -0.34690144658088686
        },
        {
            "x": -1.7964177131652833,
            "y": 0.40650898218154909
        }
    ],
    "triangles": [
        1,
        0,
        2
    ],
    "carDensity": 3.0,
    "suspension": 0.86418217420578,
    "motorSpeed": 869,
    "frontDensity": 4.900000095367432,
    "frontRadius": 0.689996063709259,
    "frontOffset": 0.9755085706710815,
    "backDensity": 3.4000000953674318,
    "backRadius": 0.543877124786377,
    "backOffset": -1.4384148120880128,
    "score": 912,
    "maxDistance": 833,
    "maxTime": 105.19999694824219,
    "speed": 8
}{
    "ID": 123612,
    "genomaID": "CV3TD9",
    "color": {
        "x": 0.20122388005256654,
        "y": 0.23634174466133119,
        "z": 0.11499907076358795
    },
    "vertexNumber": 3,
    "colliderVertices": [
        {
            "x": -1.4903595447540284,
            "y": -0.07688982039690018
        },
        {
            "x": 1.6353117227554322,
            "y": -0.43294966220855715
        },
        {
            "x": -0.680962324142456,
            "y": 0.24219870567321778
        }
    ],
    "triangles": [
        1,
        0,
        2
    ],
    "carDensity": 3.0,
    "suspension": 0.8354584574699402,
    "motorSpeed": 869,
    "frontDensity": 2.0999999046325685,
    "frontRadius": 0.40949422121047976,
    "frontOffset": 1.2433860301971436,
    "backDensity": 4.400000095367432,
    "backRadius": 0.6439339518547058,
    "backOffset": -0.5909172296524048,
    "score": 0,
    "maxDistance": -1,
    "maxTime": 0.8999999761581421,
    "speed": -1
}{
    "ID": 123800,
    "genomaID": "CV3TD10",
    "color": {
        "x": 0.7157778143882752,
        "y": 0.7526435852050781,
        "z": 0.5779417157173157
    },
    "vertexNumber": 3,
    "colliderVertices": [
        {
            "x": -1.87174654006958,
            "y": -0.48871129751205447
        },
        {
            "x": 1.4022159576416016,
            "y": -0.3172537386417389
        },
        {
            "x": -1.1397089958190919,
            "y": 0.2695292830467224
        }
    ],
    "triangles": [
        1,
        0,
        2
    ],
    "carDensity": 3.0,
    "suspension": 0.9688087105751038,
    "motorSpeed": 1337,
    "frontDensity": 3.299999952316284,
    "frontRadius": 0.5301070809364319,
    "frontOffset": 1.0242334604263306,
    "backDensity": 3.9000000953674318,
    "backRadius": 0.5897822380065918,
    "backOffset": -0.6051348447799683,
    "score": 0,
    "maxDistance": 0,
    "maxTime": 0.8999999761581421,
    "speed": 0
}