{
    "ID": 35939,
    "genomaID": "CV4TD13",
    "color": {
        "x": 0.7111497521400452,
        "y": 0.07223165780305863,
        "z": 0.6428661942481995
    },
    "vertexNumber": 4,
    "colliderVertices": [
        {
            "x": -1.6253166198730469,
            "y": -0.3372003138065338
        },
        {
            "x": 1.4561243057250977,
            "y": -0.47253841161727908
        },
        {
            "x": -0.18962311744689942,
            "y": 0.2976929545402527
        },
        {
            "x": -0.7036993503570557,
            "y": 0.49902552366256716
        }
    ],
    "triangles": [
        3,
        2,
        1,
        1,
        0,
        3
    ],
    "carDensity": 4.0,
    "suspension": 0.9881467223167419,
    "motorSpeed": 864,
    "frontDensity": 4.900000095367432,
    "frontRadius": 0.6877074241638184,
    "frontOffset": 1.3662527799606324,
    "backDensity": 3.9000000953674318,
    "backRadius": 0.5904344916343689,
    "backOffset": -0.5931792259216309,
    "score": 916,
    "maxDistance": 834,
    "maxTime": 101.9000015258789,
    "speed": 8
}{
    "ID": 35878,
    "genomaID": "CV3TD11",
    "color": {
        "x": 0.7106577754020691,
        "y": 0.4553489089012146,
        "z": 0.9418917894363403
    },
    "vertexNumber": 3,
    "colliderVertices": [
        {
            "x": -1.2415111064910889,
            "y": -0.332523912191391
        },
        {
            "x": 1.2988438606262208,
            "y": -0.2140497863292694
        },
        {
            "x": -1.6646909713745118,
            "y": 0.4260508418083191
        }
    ],
    "triangles": [
        1,
        0,
        2
    ],
    "carDensity": 3.0,
    "suspension": 0.533840537071228,
    "motorSpeed": 864,
    "frontDensity": 4.900000095367432,
    "frontRadius": 0.6877074241638184,
    "frontOffset": 1.222575068473816,
    "backDensity": 3.200000047683716,
    "backRadius": 0.5216219425201416,
    "backOffset": -1.477064847946167,
    "score": 912,
    "maxDistance": 834,
    "maxTime": 106.69999694824219,
    "speed": 8
}{
    "ID": 35986,
    "genomaID": "CV3TD11",
    "color": {
        "x": 0.8823857307434082,
        "y": 0.36269453167915347,
        "z": 0.5490991473197937
    },
    "vertexNumber": 3,
    "colliderVertices": [
        {
            "x": -1.615149736404419,
            "y": -0.08056289702653885
        },
        {
            "x": 1.1510634422302247,
            "y": -0.4890420436859131
        },
        {
            "x": -0.87314772605896,
            "y": 0.506628692150116
        }
    ],
    "triangles": [
        1,
        0,
        2
    ],
    "carDensity": 3.0,
    "suspension": 0.9456824660301209,
    "motorSpeed": 851,
    "frontDensity": 4.800000190734863,
    "frontRadius": 0.6791735291481018,
    "frontOffset": 0.9107576608657837,
    "backDensity": 3.299999952316284,
    "backRadius": 0.5341099500656128,
    "backOffset": -1.4904321432113648,
    "score": 911,
    "maxDistance": 834,
    "maxTime": 108.0999984741211,
    "speed": 8
}{
    "ID": 35944,
    "genomaID": "CV3TD11",
    "color": {
        "x": 0.9064865112304688,
        "y": 0.7779922485351563,
        "z": 0.8559051752090454
    },
    "vertexNumber": 3,
    "colliderVertices": [
        {
            "x": -1.3214707374572755,
            "y": -0.17451073229312898
        },
        {
            "x": 1.5323352813720704,
            "y": -0.06335759907960892
        },
        {
            "x": -1.5806546211242676,
            "y": 0.5031101107597351
        }
    ],
    "triangles": [
        1,
        0,
        2
    ],
    "carDensity": 3.0,
    "suspension": 0.5435587167739868,
    "motorSpeed": 864,
    "frontDensity": 4.599999904632568,
    "frontRadius": 0.6554234623908997,
    "frontOffset": 0.5654888153076172,
    "backDensity": 3.0999999046325685,
    "backRadius": 0.5088739395141602,
    "backOffset": -0.9441882371902466,
    "score": 13,
    "maxDistance": 2,
    "maxTime": 1.7999999523162842,
    "speed": 1
}{
    "ID": 35993,
    "genomaID": "CV3TD8",
    "color": {
        "x": 0.23507264256477357,
        "y": 0.5300777554512024,
        "z": 0.8182836771011353
    },
    "vertexNumber": 3,
    "colliderVertices": [
        {
            "x": -1.2415111064910889,
            "y": -0.332523912191391
        },
        {
            "x": 1.2988438606262208,
            "y": -0.2140497863292694
        },
        {
            "x": -1.6646909713745118,
            "y": 0.4260508418083191
        }
    ],
    "triangles": [
        1,
        0,
        2
    ],
    "carDensity": 3.0,
    "suspension": 0.905718982219696,
    "motorSpeed": 899,
    "frontDensity": 2.299999952316284,
    "frontRadius": 0.42764514684677126,
    "frontOffset": 1.486061930656433,
    "backDensity": 3.0,
    "backRadius": 0.4971954822540283,
    "backOffset": -1.120463252067566,
    "score": 0,
    "maxDistance": 0,
    "maxTime": 0.800000011920929,
    "speed": 0
}