{
    "ID": 10853,
    "genomaID": "CV3TD9",
    "color": {
        "x": 0.8309800624847412,
        "y": 0.5896372199058533,
        "z": 0.39294594526290896
    },
    "vertexNumber": 3,
    "colliderVertices": [
        {
            "x": -1.6530086994171143,
            "y": -0.20500448346138
        },
        {
            "x": 1.0130809545516968,
            "y": -0.27738508582115176
        },
        {
            "x": 1.0394701957702637,
            "y": 0.09570145606994629
        }
    ],
    "triangles": [
        1,
        0,
        2
    ],
    "carDensity": 3.0,
    "suspension": 0.7397447228431702,
    "motorSpeed": 1442,
    "frontDensity": 3.5999999046325685,
    "frontRadius": 0.5635712742805481,
    "frontOffset": 1.4939134120941163,
    "backDensity": 2.0,
    "backRadius": 0.400760680437088,
    "backOffset": -1.478249430656433,
    "score": 928,
    "maxDistance": 833,
    "maxTime": 87.80000305175781,
    "speed": 9
}{
    "ID": 10812,
    "genomaID": "CV4TD11",
    "color": {
        "x": 0.20122388005256654,
        "y": 0.23634174466133119,
        "z": 0.11499907076358795
    },
    "vertexNumber": 4,
    "colliderVertices": [
        {
            "x": -1.4665257930755616,
            "y": -0.052122004330158237
        },
        {
            "x": 1.8196923732757569,
            "y": -0.37972593307495119
        },
        {
            "x": 0.1563403606414795,
            "y": 0.5547298789024353
        },
        {
            "x": 0.09999966621398926,
            "y": 0.9020919799804688
        }
    ],
    "triangles": [
        0,
        3,
        2,
        2,
        1,
        0
    ],
    "carDensity": 4.0,
    "suspension": 0.5694007873535156,
    "motorSpeed": 696,
    "frontDensity": 3.9000000953674318,
    "frontRadius": 0.5942968130111694,
    "frontOffset": 1.452402114868164,
    "backDensity": 3.4000000953674318,
    "backRadius": 0.5356367826461792,
    "backOffset": -1.4142675399780274,
    "score": 894,
    "maxDistance": 833,
    "maxTime": 136.89999389648438,
    "speed": 6
}{
    "ID": 10917,
    "genomaID": "CV5TD12",
    "color": {
        "x": 0.21057823300361634,
        "y": 0.03984392061829567,
        "z": 0.7053022980690002
    },
    "vertexNumber": 5,
    "colliderVertices": [
        {
            "x": -1.321455717086792,
            "y": -0.2559017241001129
        },
        {
            "x": 1.8062909841537476,
            "y": -0.38254857063293459
        },
        {
            "x": 1.4256863594055176,
            "y": 0.3703001141548157
        },
        {
            "x": 1.3094305992126465,
            "y": 0.046201109886169437
        },
        {
            "x": -1.866103172302246,
            "y": 0.15021419525146485
        }
    ],
    "triangles": [
        1,
        4,
        3,
        3,
        2,
        1,
        1,
        0,
        4
    ],
    "carDensity": 5.0,
    "suspension": 0.4059414863586426,
    "motorSpeed": 710,
    "frontDensity": 3.799999952316284,
    "frontRadius": 0.5802605748176575,
    "frontOffset": 1.4634263515472413,
    "backDensity": 2.9000000953674318,
    "backRadius": 0.48966747522354128,
    "backOffset": -1.3429648876190186,
    "score": 892,
    "maxDistance": 833,
    "maxTime": 140.1999969482422,
    "speed": 6
}{
    "ID": 10894,
    "genomaID": "CV3TD9",
    "color": {
        "x": 0.9743155241012573,
        "y": 0.7195313572883606,
        "z": 0.18392349779605866
    },
    "vertexNumber": 3,
    "colliderVertices": [
        {
            "x": -1.2541747093200684,
            "y": -0.38386595249176028
        },
        {
            "x": 1.0193626880645753,
            "y": -0.271028071641922
        },
        {
            "x": 1.3762645721435547,
            "y": 0.10750925540924072
        }
    ],
    "triangles": [
        1,
        0,
        2
    ],
    "carDensity": 3.0,
    "suspension": 0.9369186758995056,
    "motorSpeed": 792,
    "frontDensity": 3.799999952316284,
    "frontRadius": 0.5802605748176575,
    "frontOffset": 1.2109801769256592,
    "backDensity": 2.299999952316284,
    "backRadius": 0.4321777820587158,
    "backOffset": -1.3365201950073243,
    "score": 32,
    "maxDistance": 5,
    "maxTime": 1.899999976158142,
    "speed": 3
}{
    "ID": 10995,
    "genomaID": "CV3TD9",
    "color": {
        "x": 0.1332085281610489,
        "y": 0.55067378282547,
        "z": 0.17289210855960847
    },
    "vertexNumber": 3,
    "colliderVertices": [
        {
            "x": -1.273350715637207,
            "y": -0.31728634238243105
        },
        {
            "x": 1.9087071418762208,
            "y": -0.22415396571159364
        },
        {
            "x": -0.14107775688171388,
            "y": 0.7553843259811401
        }
    ],
    "triangles": [
        1,
        0,
        2
    ],
    "carDensity": 3.0,
    "suspension": 0.5355539917945862,
    "motorSpeed": 725,
    "frontDensity": 3.0999999046325685,
    "frontRadius": 0.5118248462677002,
    "frontOffset": 0.5668600797653198,
    "backDensity": 3.0,
    "backRadius": 0.5009210705757141,
    "backOffset": -0.6172605752944946,
    "score": 0,
    "maxDistance": 0,
    "maxTime": 0.8999999761581421,
    "speed": 0
}