{
    "ID": 108310,
    "genomaID": "CV3TD12",
    "color": {
        "x": 0.43831032514572146,
        "y": 0.6220983862876892,
        "z": 0.829938530921936
    },
    "vertexNumber": 3,
    "colliderVertices": [
        {
            "x": -1.615149736404419,
            "y": -0.08056289702653885
        },
        {
            "x": 1.1510634422302247,
            "y": -0.4890420436859131
        },
        {
            "x": -0.87314772605896,
            "y": 0.506628692150116
        }
    ],
    "triangles": [
        1,
        0,
        2
    ],
    "carDensity": 3.0,
    "suspension": 0.9482477903366089,
    "motorSpeed": 851,
    "frontDensity": 4.900000095367432,
    "frontRadius": 0.6855190396308899,
    "frontOffset": 0.852310061454773,
    "backDensity": 3.9000000953674318,
    "backRadius": 0.5868172645568848,
    "backOffset": -1.2173802852630616,
    "score": 915,
    "maxDistance": 834,
    "maxTime": 103.0999984741211,
    "speed": 8
}{
    "ID": 108211,
    "genomaID": "CV3TD11",
    "color": {
        "x": 0.3950609564781189,
        "y": 0.9663015604019165,
        "z": 0.10336209833621979
    },
    "vertexNumber": 3,
    "colliderVertices": [
        {
            "x": -1.615149736404419,
            "y": -0.08056289702653885
        },
        {
            "x": 1.1510634422302247,
            "y": -0.4890420436859131
        },
        {
            "x": -0.87314772605896,
            "y": 0.506628692150116
        }
    ],
    "triangles": [
        1,
        0,
        2
    ],
    "carDensity": 3.0,
    "suspension": 0.9606164693832398,
    "motorSpeed": 851,
    "frontDensity": 4.900000095367432,
    "frontRadius": 0.6855190396308899,
    "frontOffset": 1.1910018920898438,
    "backDensity": 3.4000000953674318,
    "backRadius": 0.5438003540039063,
    "backOffset": -0.936764121055603,
    "score": 911,
    "maxDistance": 833,
    "maxTime": 106.5,
    "speed": 8
}{
    "ID": 108396,
    "genomaID": "CV3TD11",
    "color": {
        "x": 0.2718107998371124,
        "y": 0.8708093166351318,
        "z": 0.932330846786499
    },
    "vertexNumber": 3,
    "colliderVertices": [
        {
            "x": -1.615149736404419,
            "y": -0.08056289702653885
        },
        {
            "x": 1.1510634422302247,
            "y": -0.4890420436859131
        },
        {
            "x": -0.87314772605896,
            "y": 0.506628692150116
        }
    ],
    "triangles": [
        1,
        0,
        2
    ],
    "carDensity": 3.0,
    "suspension": 0.5504701137542725,
    "motorSpeed": 851,
    "frontDensity": 4.800000190734863,
    "frontRadius": 0.678674578666687,
    "frontOffset": 0.7966621518135071,
    "backDensity": 3.4000000953674318,
    "backRadius": 0.5434251427650452,
    "backOffset": -1.0693150758743287,
    "score": 910,
    "maxDistance": 833,
    "maxTime": 107.5999984741211,
    "speed": 8
}{
    "ID": 108300,
    "genomaID": "CV3TD11",
    "color": {
        "x": 0.2999170124530792,
        "y": 0.7223097681999207,
        "z": 0.851524829864502
    },
    "vertexNumber": 3,
    "colliderVertices": [
        {
            "x": -1.7689483165740967,
            "y": -0.34956035017967226
        },
        {
            "x": 1.2228209972381592,
            "y": -0.44897890090942385
        },
        {
            "x": 1.6979179382324219,
            "y": 0.674628734588623
        }
    ],
    "triangles": [
        1,
        0,
        2
    ],
    "carDensity": 3.0,
    "suspension": 0.5704837441444397,
    "motorSpeed": 869,
    "frontDensity": 4.599999904632568,
    "frontRadius": 0.6641259789466858,
    "frontOffset": 1.1839503049850464,
    "backDensity": 3.0999999046325685,
    "backRadius": 0.512342095375061,
    "backOffset": -1.325437307357788,
    "score": 24,
    "maxDistance": 4,
    "maxTime": 2.0,
    "speed": 2
}{
    "ID": 108389,
    "genomaID": "CV3TD10",
    "color": {
        "x": 0.2850213348865509,
        "y": 0.19931009411811829,
        "z": 0.833501935005188
    },
    "vertexNumber": 3,
    "colliderVertices": [
        {
            "x": -1.615149736404419,
            "y": -0.08056289702653885
        },
        {
            "x": 1.1510634422302247,
            "y": -0.4890420436859131
        },
        {
            "x": -0.87314772605896,
            "y": 0.506628692150116
        }
    ],
    "triangles": [
        1,
        0,
        2
    ],
    "carDensity": 3.0,
    "suspension": 0.4128144681453705,
    "motorSpeed": 870,
    "frontDensity": 3.299999952316284,
    "frontRadius": 0.5255069732666016,
    "frontOffset": 0.9286617040634155,
    "backDensity": 3.5,
    "backRadius": 0.5470849275588989,
    "backOffset": -1.3045380115509034,
    "score": 0,
    "maxDistance": 0,
    "maxTime": 1.0,
    "speed": 0
}