{
    "ID": 71235,
    "genomaID": "CV3TD11",
    "color": {
        "x": 0.5232427716255188,
        "y": 0.3716043531894684,
        "z": 0.0048233275301754478
    },
    "vertexNumber": 3,
    "colliderVertices": [
        {
            "x": -1.615149736404419,
            "y": -0.08056289702653885
        },
        {
            "x": 1.1510634422302247,
            "y": -0.4890420436859131
        },
        {
            "x": -0.87314772605896,
            "y": 0.506628692150116
        }
    ],
    "triangles": [
        1,
        0,
        2
    ],
    "carDensity": 3.0,
    "suspension": 0.898044228553772,
    "motorSpeed": 965,
    "frontDensity": 4.599999904632568,
    "frontRadius": 0.6643805503845215,
    "frontOffset": 0.8680652379989624,
    "backDensity": 3.200000047683716,
    "backRadius": 0.5214252471923828,
    "backOffset": -1.2264153957366944,
    "score": 918,
    "maxDistance": 834,
    "maxTime": 98.80000305175781,
    "speed": 8
}{
    "ID": 71347,
    "genomaID": "CV3TD12",
    "color": {
        "x": 0.6293123364448547,
        "y": 0.02893555536866188,
        "z": 0.7288181185722351
    },
    "vertexNumber": 3,
    "colliderVertices": [
        {
            "x": -1.615149736404419,
            "y": -0.08056289702653885
        },
        {
            "x": 1.1510634422302247,
            "y": -0.4890420436859131
        },
        {
            "x": -0.87314772605896,
            "y": 0.506628692150116
        }
    ],
    "triangles": [
        1,
        0,
        2
    ],
    "carDensity": 3.0,
    "suspension": 0.9708946943283081,
    "motorSpeed": 851,
    "frontDensity": 4.800000190734863,
    "frontRadius": 0.6793023943901062,
    "frontOffset": 1.383947730064392,
    "backDensity": 3.700000047683716,
    "backRadius": 0.5727956295013428,
    "backOffset": -0.7227219343185425,
    "score": 914,
    "maxDistance": 834,
    "maxTime": 104.5999984741211,
    "speed": 8
}{
    "ID": 71359,
    "genomaID": "CV3TD11",
    "color": {
        "x": 0.19886353611946107,
        "y": 0.25530508160591128,
        "z": 0.7633790969848633
    },
    "vertexNumber": 3,
    "colliderVertices": [
        {
            "x": -1.615149736404419,
            "y": -0.08056289702653885
        },
        {
            "x": 1.1510634422302247,
            "y": -0.4890420436859131
        },
        {
            "x": -0.87314772605896,
            "y": 0.506628692150116
        }
    ],
    "triangles": [
        1,
        0,
        2
    ],
    "carDensity": 3.0,
    "suspension": 0.8212217092514038,
    "motorSpeed": 851,
    "frontDensity": 4.900000095367432,
    "frontRadius": 0.694026529788971,
    "frontOffset": 1.258372187614441,
    "backDensity": 2.9000000953674318,
    "backRadius": 0.491547167301178,
    "backOffset": -1.2748664617538453,
    "score": 911,
    "maxDistance": 834,
    "maxTime": 108.4000015258789,
    "speed": 8
}{
    "ID": 71236,
    "genomaID": "CV3TD12",
    "color": {
        "x": 0.8993514776229858,
        "y": 0.857460618019104,
        "z": 0.45774370431900027
    },
    "vertexNumber": 3,
    "colliderVertices": [
        {
            "x": -1.615149736404419,
            "y": -0.08056289702653885
        },
        {
            "x": 1.1510634422302247,
            "y": -0.4890420436859131
        },
        {
            "x": -0.87314772605896,
            "y": 0.506628692150116
        }
    ],
    "triangles": [
        1,
        0,
        2
    ],
    "carDensity": 3.0,
    "suspension": 0.898044228553772,
    "motorSpeed": 889,
    "frontDensity": 4.599999904632568,
    "frontRadius": 0.6643805503845215,
    "frontOffset": 0.8680652379989624,
    "backDensity": 3.799999952316284,
    "backRadius": 0.5833895802497864,
    "backOffset": -1.364016056060791,
    "score": 13,
    "maxDistance": 2,
    "maxTime": 1.7999999523162842,
    "speed": 1
}{
    "ID": 71400,
    "genomaID": "CV3TD10",
    "color": {
        "x": 0.7157778143882752,
        "y": 0.7526435852050781,
        "z": 0.5779417157173157
    },
    "vertexNumber": 3,
    "colliderVertices": [
        {
            "x": -1.615149736404419,
            "y": -0.08056289702653885
        },
        {
            "x": 1.1510634422302247,
            "y": -0.4890420436859131
        },
        {
            "x": -0.87314772605896,
            "y": 0.506628692150116
        }
    ],
    "triangles": [
        1,
        0,
        2
    ],
    "carDensity": 3.0,
    "suspension": 0.8731880784034729,
    "motorSpeed": 912,
    "frontDensity": 2.9000000953674318,
    "frontRadius": 0.48636436462402346,
    "frontOffset": 1.2180042266845704,
    "backDensity": 3.799999952316284,
    "backRadius": 0.581800103187561,
    "backOffset": -0.9130712747573853,
    "score": 0,
    "maxDistance": 0,
    "maxTime": 0.800000011920929,
    "speed": 0
}