{
    "ID": 22539,
    "genomaID": "CV3TD11",
    "color": {
        "x": 0.7111497521400452,
        "y": 0.07223165780305863,
        "z": 0.6428661942481995
    },
    "vertexNumber": 3,
    "colliderVertices": [
        {
            "x": -1.3657686710357667,
            "y": -0.31611159443855288
        },
        {
            "x": 1.2195587158203126,
            "y": -0.19344410300254823
        },
        {
            "x": 0.7673758864402771,
            "y": 0.4987334609031677
        }
    ],
    "triangles": [
        1,
        0,
        2
    ],
    "carDensity": 3.0,
    "suspension": 0.6100122928619385,
    "motorSpeed": 900,
    "frontDensity": 4.699999809265137,
    "frontRadius": 0.6672317981719971,
    "frontOffset": 1.309234857559204,
    "backDensity": 3.200000047683716,
    "backRadius": 0.5200762152671814,
    "backOffset": -1.3525023460388184,
    "score": 913,
    "maxDistance": 833,
    "maxTime": 104.0999984741211,
    "speed": 8
}{
    "ID": 22563,
    "genomaID": "CV3TD10",
    "color": {
        "x": 0.876664400100708,
        "y": 0.6546191573143005,
        "z": 0.03237474337220192
    },
    "vertexNumber": 3,
    "colliderVertices": [
        {
            "x": -1.1032532453536988,
            "y": -0.49358516931533816
        },
        {
            "x": 1.832828164100647,
            "y": -0.2654899060726166
        },
        {
            "x": 1.4583029747009278,
            "y": 0.1334298849105835
        }
    ],
    "triangles": [
        1,
        0,
        2
    ],
    "carDensity": 3.0,
    "suspension": 0.4054439663887024,
    "motorSpeed": 696,
    "frontDensity": 4.099999904632568,
    "frontRadius": 0.6126639246940613,
    "frontOffset": 1.4752845764160157,
    "backDensity": 2.799999952316284,
    "backRadius": 0.48306673765182497,
    "backOffset": -0.8562813997268677,
    "score": 895,
    "maxDistance": 833,
    "maxTime": 135.39999389648438,
    "speed": 6
}{
    "ID": 22409,
    "genomaID": "CV3TD9",
    "color": {
        "x": 0.43795162439346316,
        "y": 0.19413724541664124,
        "z": 0.2546187937259674
    },
    "vertexNumber": 3,
    "colliderVertices": [
        {
            "x": -1.2541747093200684,
            "y": -0.38386595249176028
        },
        {
            "x": 1.0193626880645753,
            "y": -0.271028071641922
        },
        {
            "x": 1.3762645721435547,
            "y": 0.10750925540924072
        }
    ],
    "triangles": [
        1,
        0,
        2
    ],
    "carDensity": 3.0,
    "suspension": 0.832901656627655,
    "motorSpeed": 710,
    "frontDensity": 3.0,
    "frontRadius": 0.49934661388397219,
    "frontOffset": 1.2905610799789429,
    "backDensity": 3.4000000953674318,
    "backRadius": 0.539242148399353,
    "backOffset": -1.2763488292694092,
    "score": 891,
    "maxDistance": 833,
    "maxTime": 144.5,
    "speed": 6
}{
    "ID": 22449,
    "genomaID": "CV5TD13",
    "color": {
        "x": 0.9829254150390625,
        "y": 0.4487306475639343,
        "z": 0.6804571747779846
    },
    "vertexNumber": 5,
    "colliderVertices": [
        {
            "x": -1.2995107173919678,
            "y": -0.3764410614967346
        },
        {
            "x": 1.3534393310546876,
            "y": -0.3155500590801239
        },
        {
            "x": -0.4284794330596924,
            "y": 0.5127643942832947
        },
        {
            "x": -0.9216468334197998,
            "y": 0.5924219489097595
        },
        {
            "x": -1.8212394714355469,
            "y": 0.4189123511314392
        }
    ],
    "triangles": [
        1,
        4,
        3,
        3,
        2,
        1,
        1,
        0,
        4
    ],
    "carDensity": 5.0,
    "suspension": 0.5440456867218018,
    "motorSpeed": 900,
    "frontDensity": 4.699999809265137,
    "frontRadius": 0.6672317981719971,
    "frontOffset": 1.1517614126205445,
    "backDensity": 2.700000047683716,
    "backRadius": 0.4733758568763733,
    "backOffset": -1.2708625793457032,
    "score": 24,
    "maxDistance": 4,
    "maxTime": 2.0,
    "speed": 2
}{
    "ID": 22569,
    "genomaID": "CV3TD11",
    "color": {
        "x": 0.7785465717315674,
        "y": 0.007556677795946598,
        "z": 0.1445998102426529
    },
    "vertexNumber": 3,
    "colliderVertices": [
        {
            "x": -1.2541747093200684,
            "y": -0.38386595249176028
        },
        {
            "x": 1.0193626880645753,
            "y": -0.271028071641922
        },
        {
            "x": 1.3762645721435547,
            "y": 0.10750925540924072
        }
    ],
    "triangles": [
        1,
        0,
        2
    ],
    "carDensity": 3.0,
    "suspension": 0.640457034111023,
    "motorSpeed": 710,
    "frontDensity": 3.799999952316284,
    "frontRadius": 0.5779759883880615,
    "frontOffset": 0.6583400964736939,
    "backDensity": 4.099999904632568,
    "backRadius": 0.6076728105545044,
    "backOffset": -1.4169056415557862,
    "score": -11,
    "maxDistance": -1,
    "maxTime": 1.0,
    "speed": -1
}