{
    "ID": 46034,
    "genomaID": "CV5TD14",
    "color": {
        "x": 0.804320216178894,
        "y": 0.13390614092350007,
        "z": 0.699569046497345
    },
    "vertexNumber": 5,
    "colliderVertices": [
        {
            "x": -1.0398712158203126,
            "y": -0.15340085327625276
        },
        {
            "x": 1.2174824476242066,
            "y": -0.09507055580615998
        },
        {
            "x": 1.2585153579711915,
            "y": 0.011498212814331055
        },
        {
            "x": -1.642320156097412,
            "y": 0.4225284457206726
        },
        {
            "x": -1.8464860916137696,
            "y": 0.7244479656219482
        }
    ],
    "triangles": [
        4,
        0,
        1,
        1,
        2,
        3
    ],
    "carDensity": 5.0,
    "suspension": 0.810046911239624,
    "motorSpeed": 864,
    "frontDensity": 4.900000095367432,
    "frontRadius": 0.6900643706321716,
    "frontOffset": 0.9438258409500122,
    "backDensity": 3.799999952316284,
    "backRadius": 0.5783012509346008,
    "backOffset": -0.7563799023628235,
    "score": 916,
    "maxDistance": 834,
    "maxTime": 102.30000305175781,
    "speed": 8
}{
    "ID": 46079,
    "genomaID": "CV3TD12",
    "color": {
        "x": 0.07293427735567093,
        "y": 0.7639034986495972,
        "z": 0.21623137593269349
    },
    "vertexNumber": 3,
    "colliderVertices": [
        {
            "x": -1.615149736404419,
            "y": -0.08056289702653885
        },
        {
            "x": 1.1510634422302247,
            "y": -0.4890420436859131
        },
        {
            "x": -0.87314772605896,
            "y": 0.506628692150116
        }
    ],
    "triangles": [
        1,
        0,
        2
    ],
    "carDensity": 3.0,
    "suspension": 0.4144461750984192,
    "motorSpeed": 851,
    "frontDensity": 4.800000190734863,
    "frontRadius": 0.6805284023284912,
    "frontOffset": 1.2865971326828004,
    "backDensity": 3.700000047683716,
    "backRadius": 0.5727956295013428,
    "backOffset": -1.0195139646530152,
    "score": 913,
    "maxDistance": 833,
    "maxTime": 104.5999984741211,
    "speed": 8
}{
    "ID": 46188,
    "genomaID": "CV3TD11",
    "color": {
        "x": 0.33870187401771548,
        "y": 0.8453875780105591,
        "z": 0.8509781360626221
    },
    "vertexNumber": 3,
    "colliderVertices": [
        {
            "x": -1.615149736404419,
            "y": -0.08056289702653885
        },
        {
            "x": 1.1510634422302247,
            "y": -0.4890420436859131
        },
        {
            "x": -0.87314772605896,
            "y": 0.506628692150116
        }
    ],
    "triangles": [
        1,
        0,
        2
    ],
    "carDensity": 3.0,
    "suspension": 0.622551679611206,
    "motorSpeed": 833,
    "frontDensity": 4.5,
    "frontRadius": 0.6492257118225098,
    "frontOffset": 1.206608772277832,
    "backDensity": 3.9000000953674318,
    "backRadius": 0.5884959697723389,
    "backOffset": -0.8927086591720581,
    "score": 911,
    "maxDistance": 833,
    "maxTime": 107.19999694824219,
    "speed": 8
}{
    "ID": 46038,
    "genomaID": "CV3TD11",
    "color": {
        "x": 0.473757803440094,
        "y": 0.4240033030509949,
        "z": 0.13615132868289948
    },
    "vertexNumber": 3,
    "colliderVertices": [
        {
            "x": -1.2415111064910889,
            "y": -0.332523912191391
        },
        {
            "x": 1.2988438606262208,
            "y": -0.2140497863292694
        },
        {
            "x": -1.6646909713745118,
            "y": 0.4260508418083191
        }
    ],
    "triangles": [
        1,
        0,
        2
    ],
    "carDensity": 3.0,
    "suspension": 0.8703898191452026,
    "motorSpeed": 1095,
    "frontDensity": 4.900000095367432,
    "frontRadius": 0.6924682259559631,
    "frontOffset": 0.857840895652771,
    "backDensity": 3.4000000953674318,
    "backRadius": 0.5432775020599365,
    "backOffset": -0.7430999279022217,
    "score": 0,
    "maxDistance": 0,
    "maxTime": 0.800000011920929,
    "speed": 0
}{
    "ID": 46198,
    "genomaID": "CV4TD13",
    "color": {
        "x": 0.8288270235061646,
        "y": 0.1767282634973526,
        "z": 0.6346012949943543
    },
    "vertexNumber": 4,
    "colliderVertices": [
        {
            "x": -1.6864399909973145,
            "y": -0.4723161458969116
        },
        {
            "x": 1.8957805633544922,
            "y": -0.33790603280067446
        },
        {
            "x": 0.5184158682823181,
            "y": 0.5961640477180481
        },
        {
            "x": -0.653235673904419,
            "y": 0.7218456268310547
        }
    ],
    "triangles": [
        3,
        2,
        1,
        1,
        0,
        3
    ],
    "carDensity": 4.0,
    "suspension": 0.9984294176101685,
    "motorSpeed": 851,
    "frontDensity": 4.800000190734863,
    "frontRadius": 0.6791735291481018,
    "frontOffset": 0.5918723344802856,
    "backDensity": 3.9000000953674318,
    "backRadius": 0.5884959697723389,
    "backOffset": -1.338439702987671,
    "score": 0,
    "maxDistance": 0,
    "maxTime": 0.800000011920929,
    "speed": 0
}