{
    "ID": 68005,
    "genomaID": "CV3TD12",
    "color": {
        "x": 0.08106125146150589,
        "y": 0.07938504964113236,
        "z": 0.5804063677787781
    },
    "vertexNumber": 3,
    "colliderVertices": [
        {
            "x": -1.615149736404419,
            "y": -0.08056289702653885
        },
        {
            "x": 1.1510634422302247,
            "y": -0.4890420436859131
        },
        {
            "x": -0.87314772605896,
            "y": 0.506628692150116
        }
    ],
    "triangles": [
        1,
        0,
        2
    ],
    "carDensity": 3.0,
    "suspension": 0.4366026520729065,
    "motorSpeed": 851,
    "frontDensity": 4.800000190734863,
    "frontRadius": 0.6776076555252075,
    "frontOffset": 0.6698473691940308,
    "backDensity": 3.9000000953674318,
    "backRadius": 0.5936185121536255,
    "backOffset": -0.9021433591842651,
    "score": 915,
    "maxDistance": 833,
    "maxTime": 101.69999694824219,
    "speed": 8
}{
    "ID": 68183,
    "genomaID": "CV3TD12",
    "color": {
        "x": 0.6271914839744568,
        "y": 0.385389506816864,
        "z": 0.47247403860092165
    },
    "vertexNumber": 3,
    "colliderVertices": [
        {
            "x": -1.615149736404419,
            "y": -0.08056289702653885
        },
        {
            "x": 1.1510634422302247,
            "y": -0.4890420436859131
        },
        {
            "x": -0.87314772605896,
            "y": 0.506628692150116
        }
    ],
    "triangles": [
        1,
        0,
        2
    ],
    "carDensity": 3.0,
    "suspension": 0.479040265083313,
    "motorSpeed": 841,
    "frontDensity": 4.900000095367432,
    "frontRadius": 0.6933772563934326,
    "frontOffset": 0.6375830173492432,
    "backDensity": 3.700000047683716,
    "backRadius": 0.5708329677581787,
    "backOffset": -1.1510010957717896,
    "score": 913,
    "maxDistance": 834,
    "maxTime": 105.0999984741211,
    "speed": 8
}{
    "ID": 68134,
    "genomaID": "CV3TD11",
    "color": {
        "x": 0.6873781085014343,
        "y": 0.1535031944513321,
        "z": 0.13155795633792878
    },
    "vertexNumber": 3,
    "colliderVertices": [
        {
            "x": -1.615149736404419,
            "y": -0.08056289702653885
        },
        {
            "x": 1.1510634422302247,
            "y": -0.4890420436859131
        },
        {
            "x": -0.87314772605896,
            "y": 0.506628692150116
        }
    ],
    "triangles": [
        1,
        0,
        2
    ],
    "carDensity": 3.0,
    "suspension": 0.7357800006866455,
    "motorSpeed": 851,
    "frontDensity": 4.699999809265137,
    "frontRadius": 0.667515218257904,
    "frontOffset": 1.1484826803207398,
    "backDensity": 3.4000000953674318,
    "backRadius": 0.5422195196151733,
    "backOffset": -0.616037130355835,
    "score": 910,
    "maxDistance": 833,
    "maxTime": 108.4000015258789,
    "speed": 8
}{
    "ID": 68092,
    "genomaID": "CV5TD12",
    "color": {
        "x": 0.5142003893852234,
        "y": 0.7062521576881409,
        "z": 0.5577024817466736
    },
    "vertexNumber": 5,
    "colliderVertices": [
        {
            "x": -1.557469129562378,
            "y": -0.3512115776538849
        },
        {
            "x": 1.3045098781585694,
            "y": -0.45073938369750979
        },
        {
            "x": 1.858421802520752,
            "y": 0.8907730579376221
        },
        {
            "x": 0.49921631813049319,
            "y": 0.9004591703414917
        },
        {
            "x": 0.4242093563079834,
            "y": 0.6101194024085999
        }
    ],
    "triangles": [
        1,
        4,
        3,
        3,
        2,
        1,
        1,
        0,
        4
    ],
    "carDensity": 5.0,
    "suspension": 0.6550772190093994,
    "motorSpeed": 851,
    "frontDensity": 2.299999952316284,
    "frontRadius": 0.4257972240447998,
    "frontOffset": 0.9509569406509399,
    "backDensity": 4.599999904632568,
    "backRadius": 0.6570374369621277,
    "backOffset": -1.1634275913238526,
    "score": 19,
    "maxDistance": 3,
    "maxTime": 1.7999999523162842,
    "speed": 2
}{
    "ID": 68193,
    "genomaID": "CV5TD11",
    "color": {
        "x": 0.23507264256477357,
        "y": 0.5300777554512024,
        "z": 0.8182836771011353
    },
    "vertexNumber": 5,
    "colliderVertices": [
        {
            "x": -1.6182525157928467,
            "y": -0.08954329043626785
        },
        {
            "x": 1.649688959121704,
            "y": -0.0026103260461241009
        },
        {
            "x": 0.14952635765075684,
            "y": 0.2596842646598816
        },
        {
            "x": -0.06041598320007324,
            "y": 0.8546736240386963
        },
        {
            "x": -0.21728253364562989,
            "y": 0.8217804431915283
        }
    ],
    "triangles": [
        2,
        0,
        4,
        4,
        3,
        2,
        2,
        1,
        0
    ],
    "carDensity": 5.0,
    "suspension": 0.5654097199440002,
    "motorSpeed": 841,
    "frontDensity": 2.4000000953674318,
    "frontRadius": 0.4376358389854431,
    "frontOffset": 0.7829148173332214,
    "backDensity": 3.799999952316284,
    "backRadius": 0.576252818107605,
    "backOffset": -1.1437046527862549,
    "score": 0,
    "maxDistance": 0,
    "maxTime": 0.800000011920929,
    "speed": 0
}