{
    "ID": 49651,
    "genomaID": "CV3TD12",
    "color": {
        "x": 0.560156524181366,
        "y": 0.9362970590591431,
        "z": 0.4048425555229187
    },
    "vertexNumber": 3,
    "colliderVertices": [
        {
            "x": -1.615149736404419,
            "y": -0.08056289702653885
        },
        {
            "x": 1.1510634422302247,
            "y": -0.4890420436859131
        },
        {
            "x": -0.87314772605896,
            "y": 0.506628692150116
        }
    ],
    "triangles": [
        1,
        0,
        2
    ],
    "carDensity": 3.0,
    "suspension": 0.5616918802261353,
    "motorSpeed": 851,
    "frontDensity": 4.800000190734863,
    "frontRadius": 0.6791735291481018,
    "frontOffset": 1.1122599840164185,
    "backDensity": 3.9000000953674318,
    "backRadius": 0.5940473675727844,
    "backOffset": -1.0301207304000855,
    "score": 915,
    "maxDistance": 834,
    "maxTime": 103.0999984741211,
    "speed": 8
}{
    "ID": 49784,
    "genomaID": "CV3TD12",
    "color": {
        "x": 0.9423954486846924,
        "y": 0.37610429525375368,
        "z": 0.541720449924469
    },
    "vertexNumber": 3,
    "colliderVertices": [
        {
            "x": -1.615149736404419,
            "y": -0.08056289702653885
        },
        {
            "x": 1.1510634422302247,
            "y": -0.4890420436859131
        },
        {
            "x": -0.87314772605896,
            "y": 0.506628692150116
        }
    ],
    "triangles": [
        1,
        0,
        2
    ],
    "carDensity": 3.0,
    "suspension": 0.7387358546257019,
    "motorSpeed": 851,
    "frontDensity": 4.900000095367432,
    "frontRadius": 0.6855787634849548,
    "frontOffset": 0.7151105403900147,
    "backDensity": 3.5999999046325685,
    "backRadius": 0.5571418404579163,
    "backOffset": -0.9862803220748901,
    "score": 913,
    "maxDistance": 834,
    "maxTime": 106.0,
    "speed": 8
}{
    "ID": 49723,
    "genomaID": "CV5TD14",
    "color": {
        "x": 0.7486791014671326,
        "y": 0.47938281297683718,
        "z": 0.7399960160255432
    },
    "vertexNumber": 5,
    "colliderVertices": [
        {
            "x": -1.4130609035491944,
            "y": -0.09467877447605133
        },
        {
            "x": 1.4548602104187012,
            "y": -0.046028975397348407
        },
        {
            "x": -0.11517596244812012,
            "y": 0.265602171421051
        },
        {
            "x": -0.5463120937347412,
            "y": 0.12276852130889893
        },
        {
            "x": -1.238537311553955,
            "y": 0.7906262874603272
        }
    ],
    "triangles": [
        3,
        1,
        0,
        0,
        4,
        3,
        3,
        2,
        1
    ],
    "carDensity": 5.0,
    "suspension": 0.7519647479057312,
    "motorSpeed": 851,
    "frontDensity": 4.900000095367432,
    "frontRadius": 0.6925788521766663,
    "frontOffset": 0.6999326944351196,
    "backDensity": 4.0,
    "backRadius": 0.5979952216148377,
    "backOffset": -1.3139245510101319,
    "score": 910,
    "maxDistance": 829,
    "maxTime": 102.0999984741211,
    "speed": 8
}{
    "ID": 49603,
    "genomaID": "CV5TD13",
    "color": {
        "x": 0.5271676182746887,
        "y": 0.45618098974227908,
        "z": 0.9300339221954346
    },
    "vertexNumber": 5,
    "colliderVertices": [
        {
            "x": -1.4130609035491944,
            "y": -0.09467877447605133
        },
        {
            "x": 1.4548602104187012,
            "y": -0.046028975397348407
        },
        {
            "x": -0.11517596244812012,
            "y": 0.265602171421051
        },
        {
            "x": -0.5463120937347412,
            "y": 0.12276852130889893
        },
        {
            "x": -1.238537311553955,
            "y": 0.7906262874603272
        }
    ],
    "triangles": [
        3,
        1,
        0,
        0,
        4,
        3,
        3,
        2,
        1
    ],
    "carDensity": 5.0,
    "suspension": 0.5247942209243774,
    "motorSpeed": 1383,
    "frontDensity": 4.099999904632568,
    "frontRadius": 0.6118593215942383,
    "frontOffset": 1.0382431745529175,
    "backDensity": 3.700000047683716,
    "backRadius": 0.5727956295013428,
    "backOffset": -1.3349822759628297,
    "score": 19,
    "maxDistance": 3,
    "maxTime": 1.899999976158142,
    "speed": 2
}{
    "ID": 49794,
    "genomaID": "CV3TD12",
    "color": {
        "x": 0.6533638834953308,
        "y": 0.5734136700630188,
        "z": 0.5898723006248474
    },
    "vertexNumber": 3,
    "colliderVertices": [
        {
            "x": -1.615149736404419,
            "y": -0.08056289702653885
        },
        {
            "x": 1.1510634422302247,
            "y": -0.4890420436859131
        },
        {
            "x": -0.87314772605896,
            "y": 0.506628692150116
        }
    ],
    "triangles": [
        1,
        0,
        2
    ],
    "carDensity": 3.0,
    "suspension": 0.6579486131668091,
    "motorSpeed": 851,
    "frontDensity": 4.699999809265137,
    "frontRadius": 0.6651449799537659,
    "frontOffset": 1.0382431745529175,
    "backDensity": 4.300000190734863,
    "backRadius": 0.6302744746208191,
    "backOffset": -1.3139245510101319,
    "score": 0,
    "maxDistance": 0,
    "maxTime": 0.0,
    "speed": 0
}