{
    "ID": 116921,
    "genomaID": "CV4TD13",
    "color": {
        "x": 0.18041671812534333,
        "y": 0.051729924976825717,
        "z": 0.21896246075630189
    },
    "vertexNumber": 4,
    "colliderVertices": [
        {
            "x": -1.8333261013031006,
            "y": -0.31918177008628847
        },
        {
            "x": 1.402942419052124,
            "y": -0.4772578477859497
        },
        {
            "x": 0.23619484901428224,
            "y": 0.5132059454917908
        },
        {
            "x": -0.9313971996307373,
            "y": 0.3069302439689636
        }
    ],
    "triangles": [
        3,
        2,
        1,
        1,
        0,
        3
    ],
    "carDensity": 4.0,
    "suspension": 0.6815844774246216,
    "motorSpeed": 875,
    "frontDensity": 5.0,
    "frontRadius": 0.6977106332778931,
    "frontOffset": 1.4846665859222413,
    "backDensity": 3.799999952316284,
    "backRadius": 0.5839862823486328,
    "backOffset": -0.8446875810623169,
    "score": 917,
    "maxDistance": 834,
    "maxTime": 100.9000015258789,
    "speed": 8
}{
    "ID": 116842,
    "genomaID": "CV4TD12",
    "color": {
        "x": 0.4156363606452942,
        "y": 0.559269368648529,
        "z": 0.22758856415748597
    },
    "vertexNumber": 4,
    "colliderVertices": [
        {
            "x": -1.1571428775787354,
            "y": -0.017785312607884408
        },
        {
            "x": 1.6976892948150635,
            "y": -0.45099586248397829
        },
        {
            "x": -0.907581090927124,
            "y": 0.6379216909408569
        },
        {
            "x": -1.5830674171447755,
            "y": 0.3191775679588318
        }
    ],
    "triangles": [
        3,
        2,
        1,
        1,
        0,
        3
    ],
    "carDensity": 4.0,
    "suspension": 0.5625169277191162,
    "motorSpeed": 869,
    "frontDensity": 4.900000095367432,
    "frontRadius": 0.6931619048118591,
    "frontOffset": 0.6671878099441528,
    "backDensity": 3.299999952316284,
    "backRadius": 0.532214879989624,
    "backOffset": -1.0398019552230836,
    "score": 913,
    "maxDistance": 834,
    "maxTime": 106.0,
    "speed": 8
}{
    "ID": 116855,
    "genomaID": "CV3TD12",
    "color": {
        "x": 0.9982572793960571,
        "y": 0.006215930916368961,
        "z": 0.9321814775466919
    },
    "vertexNumber": 3,
    "colliderVertices": [
        {
            "x": -1.87174654006958,
            "y": -0.48871129751205447
        },
        {
            "x": 1.4022159576416016,
            "y": -0.3172537386417389
        },
        {
            "x": -1.1397089958190919,
            "y": 0.2695292830467224
        }
    ],
    "triangles": [
        1,
        0,
        2
    ],
    "carDensity": 3.0,
    "suspension": 0.6669546365737915,
    "motorSpeed": 605,
    "frontDensity": 4.900000095367432,
    "frontRadius": 0.6920121908187866,
    "frontOffset": 1.18723464012146,
    "backDensity": 3.5,
    "backRadius": 0.5482544898986816,
    "backOffset": -0.9069200754165649,
    "score": 891,
    "maxDistance": 833,
    "maxTime": 142.6999969482422,
    "speed": 6
}{
    "ID": 116844,
    "genomaID": "CV4TD14",
    "color": {
        "x": 0.37244489789009097,
        "y": 0.5369817614555359,
        "z": 0.409048855304718
    },
    "vertexNumber": 4,
    "colliderVertices": [
        {
            "x": -1.8333261013031006,
            "y": -0.31918177008628847
        },
        {
            "x": 1.402942419052124,
            "y": -0.4772578477859497
        },
        {
            "x": 0.23619484901428224,
            "y": 0.5132059454917908
        },
        {
            "x": -0.9313971996307373,
            "y": 0.3069302439689636
        }
    ],
    "triangles": [
        3,
        2,
        1,
        1,
        0,
        3
    ],
    "carDensity": 4.0,
    "suspension": 0.7865646481513977,
    "motorSpeed": 729,
    "frontDensity": 5.0,
    "frontRadius": 0.6977106332778931,
    "frontOffset": 1.4846665859222413,
    "backDensity": 4.599999904632568,
    "backRadius": 0.6569712162017822,
    "backOffset": -0.8446875810623169,
    "score": 0,
    "maxDistance": 0,
    "maxTime": 0.8999999761581421,
    "speed": 0
}{
    "ID": 116995,
    "genomaID": "CV6TD13",
    "color": {
        "x": 0.1332085281610489,
        "y": 0.55067378282547,
        "z": 0.17289210855960847
    },
    "vertexNumber": 6,
    "colliderVertices": [
        {
            "x": -1.509317398071289,
            "y": -0.033187929540872577
        },
        {
            "x": 1.5562670230865479,
            "y": -0.06911582499742508
        },
        {
            "x": 1.1099896430969239,
            "y": 0.8990575075149536
        },
        {
            "x": 0.27484726905822756,
            "y": 0.9410306215286255
        },
        {
            "x": 0.13092780113220216,
            "y": 0.9936484098434448
        },
        {
            "x": -0.7688372135162354,
            "y": 0.33320969343185427
        }
    ],
    "triangles": [
        3,
        1,
        5,
        5,
        4,
        3,
        3,
        2,
        1,
        1,
        0,
        5
    ],
    "carDensity": 6.0,
    "suspension": 0.9647456407546997,
    "motorSpeed": 885,
    "frontDensity": 5.0,
    "frontRadius": 0.6977106332778931,
    "frontOffset": 0.8549948930740356,
    "backDensity": 2.5,
    "backRadius": 0.44898688793182375,
    "backOffset": -1.0741201639175416,
    "score": 0,
    "maxDistance": 0,
    "maxTime": 0.8999999761581421,
    "speed": 0
}