{
    "ID": 123209,
    "genomaID": "CV3TD12",
    "color": {
        "x": 0.43795162439346316,
        "y": 0.19413724541664124,
        "z": 0.2546187937259674
    },
    "vertexNumber": 3,
    "colliderVertices": [
        {
            "x": -1.008594274520874,
            "y": -0.4825116991996765
        },
        {
            "x": 1.5255517959594727,
            "y": -0.48791754245758059
        },
        {
            "x": -1.914933204650879,
            "y": 0.47593003511428835
        }
    ],
    "triangles": [
        1,
        0,
        2
    ],
    "carDensity": 3.0,
    "suspension": 0.7650790810585022,
    "motorSpeed": 869,
    "frontDensity": 4.800000190734863,
    "frontRadius": 0.6835681200027466,
    "frontOffset": 1.486763834953308,
    "backDensity": 4.0,
    "backRadius": 0.6015705466270447,
    "backOffset": -1.0030800104141236,
    "score": 916,
    "maxDistance": 833,
    "maxTime": 100.69999694824219,
    "speed": 8
}{
    "ID": 123368,
    "genomaID": "CV3TD11",
    "color": {
        "x": 0.5351142287254334,
        "y": 0.944305419921875,
        "z": 0.5410485863685608
    },
    "vertexNumber": 3,
    "colliderVertices": [
        {
            "x": -1.1010850667953492,
            "y": -0.4912911653518677
        },
        {
            "x": 1.2597887516021729,
            "y": -0.34690144658088686
        },
        {
            "x": -1.7964177131652833,
            "y": 0.40650898218154909
        }
    ],
    "triangles": [
        1,
        0,
        2
    ],
    "carDensity": 3.0,
    "suspension": 0.7764551639556885,
    "motorSpeed": 869,
    "frontDensity": 5.0,
    "frontRadius": 0.6953252553939819,
    "frontOffset": 0.710708737373352,
    "backDensity": 3.4000000953674318,
    "backRadius": 0.543877124786377,
    "backOffset": -1.3843696117401124,
    "score": 913,
    "maxDistance": 833,
    "maxTime": 104.0999984741211,
    "speed": 8
}{
    "ID": 123250,
    "genomaID": "CV3TD11",
    "color": {
        "x": 0.5472847819328308,
        "y": 0.8921605348587036,
        "z": 0.31620946526527407
    },
    "vertexNumber": 3,
    "colliderVertices": [
        {
            "x": -1.1010850667953492,
            "y": -0.4912911653518677
        },
        {
            "x": 1.2597887516021729,
            "y": -0.34690144658088686
        },
        {
            "x": -1.7964177131652833,
            "y": 0.40650898218154909
        }
    ],
    "triangles": [
        1,
        0,
        2
    ],
    "carDensity": 3.0,
    "suspension": 0.950141191482544,
    "motorSpeed": 869,
    "frontDensity": 4.699999809265137,
    "frontRadius": 0.6721326112747192,
    "frontOffset": 1.1088842153549195,
    "backDensity": 3.0999999046325685,
    "backRadius": 0.5124083757400513,
    "backOffset": -0.7587966322898865,
    "score": 911,
    "maxDistance": 834,
    "maxTime": 108.19999694824219,
    "speed": 8
}{
    "ID": 123349,
    "genomaID": "CV6TD14",
    "color": {
        "x": 0.6384986042976379,
        "y": 0.9156663417816162,
        "z": 0.5310222506523132
    },
    "vertexNumber": 6,
    "colliderVertices": [
        {
            "x": -1.814044713973999,
            "y": -0.2876907289028168
        },
        {
            "x": 1.8666698932647706,
            "y": -0.06837654858827591
        },
        {
            "x": 1.1843185424804688,
            "y": 0.6125695109367371
        },
        {
            "x": -0.3643767833709717,
            "y": 0.3069031834602356
        },
        {
            "x": -0.8260238170623779,
            "y": 0.07112717628479004
        },
        {
            "x": -1.7383451461791993,
            "y": 0.34657710790634158
        }
    ],
    "triangles": [
        4,
        2,
        0,
        0,
        5,
        4,
        4,
        3,
        2,
        2,
        1,
        0
    ],
    "carDensity": 6.0,
    "suspension": 0.7374144196510315,
    "motorSpeed": 858,
    "frontDensity": 4.900000095367432,
    "frontRadius": 0.6920121908187866,
    "frontOffset": 0.7511995434761047,
    "backDensity": 3.4000000953674318,
    "backRadius": 0.5390899777412415,
    "backOffset": -1.0619271993637086,
    "score": 6,
    "maxDistance": 1,
    "maxTime": 1.899999976158142,
    "speed": 1
}{
    "ID": 123387,
    "genomaID": "CV4TD13",
    "color": {
        "x": 0.31324294209480288,
        "y": 0.07841325551271439,
        "z": 0.9491356611251831
    },
    "vertexNumber": 4,
    "colliderVertices": [
        {
            "x": -1.0937203168869019,
            "y": -0.289974182844162
        },
        {
            "x": 1.6713327169418336,
            "y": -0.1111961156129837
        },
        {
            "x": -1.3312716484069825,
            "y": 0.4449484944343567
        },
        {
            "x": -1.6970877647399903,
            "y": 0.819676399230957
        }
    ],
    "triangles": [
        0,
        3,
        2,
        2,
        1,
        0
    ],
    "carDensity": 4.0,
    "suspension": 0.9605581760406494,
    "motorSpeed": 858,
    "frontDensity": 4.900000095367432,
    "frontRadius": 0.6920121908187866,
    "frontOffset": 1.1343213319778443,
    "backDensity": 3.799999952316284,
    "backRadius": 0.5762941241264343,
    "backOffset": -0.6950079202651978,
    "score": 0,
    "maxDistance": 0,
    "maxTime": 0.8999999761581421,
    "speed": 0
}