{
    "ID": 1047,
    "genomaID": "CV3TD9",
    "color": {
        "x": 0.27275899052619936,
        "y": 0.5958929657936096,
        "z": 0.6811581254005432
    },
    "vertexNumber": 3,
    "colliderVertices": [
        {
            "x": -1.050347924232483,
            "y": -0.3366694748401642
        },
        {
            "x": 1.2920057773590088,
            "y": -0.45815223455429079
        },
        {
            "x": -1.7434754371643067,
            "y": 0.03418278694152832
        }
    ],
    "triangles": [
        1,
        0,
        2
    ],
    "carDensity": 3.0,
    "suspension": 0.9765133857727051,
    "motorSpeed": 1215,
    "frontDensity": 3.200000047683716,
    "frontRadius": 0.51729816198349,
    "frontOffset": 1.2279804944992066,
    "backDensity": 3.0,
    "backRadius": 0.5034081935882568,
    "backOffset": -1.4362926483154297,
    "score": 922,
    "maxDistance": 833,
    "maxTime": 94.0,
    "speed": 9
}{
    "ID": 1123,
    "genomaID": "CV3TD10",
    "color": {
        "x": 0.7486791014671326,
        "y": 0.47938281297683718,
        "z": 0.7399960160255432
    },
    "vertexNumber": 3,
    "colliderVertices": [
        {
            "x": -1.6908864974975587,
            "y": -0.4902547597885132
        },
        {
            "x": 1.0964771509170533,
            "y": -0.2757904827594757
        },
        {
            "x": -0.5471775531768799,
            "y": 0.3217129111289978
        }
    ],
    "triangles": [
        1,
        0,
        2
    ],
    "carDensity": 3.0,
    "suspension": 0.5233030319213867,
    "motorSpeed": 1484,
    "frontDensity": 3.9000000953674318,
    "frontRadius": 0.5873469114303589,
    "frontOffset": 1.149766445159912,
    "backDensity": 3.0999999046325685,
    "backRadius": 0.5148135423660278,
    "backOffset": -1.3504441976547242,
    "score": 248,
    "maxDistance": 140,
    "maxTime": 13.0,
    "speed": 11
}{
    "ID": 1136,
    "genomaID": "CV5TD10",
    "color": {
        "x": 0.3711649477481842,
        "y": 0.06928182393312454,
        "z": 0.5170453190803528
    },
    "vertexNumber": 5,
    "colliderVertices": [
        {
            "x": -1.9307358264923096,
            "y": -0.314557284116745
        },
        {
            "x": 1.5355615615844727,
            "y": -0.1771932989358902
        },
        {
            "x": 1.947800636291504,
            "y": 0.8795289993286133
        },
        {
            "x": 1.1234421730041505,
            "y": 0.23459196090698243
        },
        {
            "x": -1.258619785308838,
            "y": 0.49853748083114626
        }
    ],
    "triangles": [
        1,
        4,
        3,
        3,
        2,
        1,
        1,
        0,
        4
    ],
    "carDensity": 5.0,
    "suspension": 0.6724662780761719,
    "motorSpeed": 807,
    "frontDensity": 2.9000000953674318,
    "frontRadius": 0.4910629391670227,
    "frontOffset": 0.9540668725967407,
    "backDensity": 2.4000000953674318,
    "backRadius": 0.4370718002319336,
    "backOffset": -1.4677512645721436,
    "score": 194,
    "maxDistance": 135,
    "maxTime": 23.0,
    "speed": 6
}{
    "ID": 1054,
    "genomaID": "CV6TD12",
    "color": {
        "x": 0.207728773355484,
        "y": 0.2794424593448639,
        "z": 0.6410993933677673
    },
    "vertexNumber": 6,
    "colliderVertices": [
        {
            "x": -1.211606502532959,
            "y": -0.15110154449939729
        },
        {
            "x": 1.8732281923294068,
            "y": -0.2606898844242096
        },
        {
            "x": 1.9081039428710938,
            "y": 0.3695451617240906
        },
        {
            "x": 1.5692310333251954,
            "y": 0.1849764585494995
        },
        {
            "x": -1.781045913696289,
            "y": 0.8503307104110718
        },
        {
            "x": -1.9120726585388184,
            "y": 0.3426089882850647
        }
    ],
    "triangles": [
        3,
        1,
        5,
        5,
        4,
        3,
        3,
        2,
        1,
        1,
        0,
        5
    ],
    "carDensity": 6.0,
    "suspension": 0.44778403639793398,
    "motorSpeed": 696,
    "frontDensity": 3.299999952316284,
    "frontRadius": 0.5332390666007996,
    "frontOffset": 0.7964790463447571,
    "backDensity": 3.4000000953674318,
    "backRadius": 0.5423789024353027,
    "backOffset": -1.29469895362854,
    "score": 173,
    "maxDistance": 115,
    "maxTime": 20.0,
    "speed": 6
}{
    "ID": 1158,
    "genomaID": "CV3TD11",
    "color": {
        "x": 0.6495806574821472,
        "y": 0.11240507662296295,
        "z": 0.5328342318534851
    },
    "vertexNumber": 3,
    "colliderVertices": [
        {
            "x": -1.7412893772125245,
            "y": -0.24600020051002503
        },
        {
            "x": 1.6365805864334107,
            "y": -0.11980439722537995
        },
        {
            "x": -1.7040982246398926,
            "y": 0.012483358383178711
        }
    ],
    "triangles": [
        1,
        0,
        2
    ],
    "carDensity": 3.0,
    "suspension": 0.8383685350418091,
    "motorSpeed": 666,
    "frontDensity": 4.0,
    "frontRadius": 0.6009075045585632,
    "frontOffset": 0.5994844436645508,
    "backDensity": 4.0,
    "backRadius": 0.6023024320602417,
    "backOffset": -1.1806392669677735,
    "score": -11,
    "maxDistance": -1,
    "maxTime": 1.0,
    "speed": -1
}