{
    "ID": 37841,
    "genomaID": "CV3TD12",
    "color": {
        "x": 0.1794232279062271,
        "y": 0.7169793248176575,
        "z": 0.4818674921989441
    },
    "vertexNumber": 3,
    "colliderVertices": [
        {
            "x": -1.3710658550262452,
            "y": -0.36291202902793887
        },
        {
            "x": 1.0110141038894654,
            "y": -0.41903162002563479
        },
        {
            "x": -0.4943125247955322,
            "y": 0.6511760950088501
        }
    ],
    "triangles": [
        1,
        0,
        2
    ],
    "carDensity": 3.0,
    "suspension": 0.98689866065979,
    "motorSpeed": 864,
    "frontDensity": 4.900000095367432,
    "frontRadius": 0.6877074241638184,
    "frontOffset": 0.7006040811538696,
    "backDensity": 4.0,
    "backRadius": 0.6004970669746399,
    "backOffset": -1.477064847946167,
    "score": 916,
    "maxDistance": 833,
    "maxTime": 100.80000305175781,
    "speed": 8
}{
    "ID": 37830,
    "genomaID": "CV3TD11",
    "color": {
        "x": 0.45251554250717165,
        "y": 0.1585106998682022,
        "z": 0.2842152416706085
    },
    "vertexNumber": 3,
    "colliderVertices": [
        {
            "x": -1.2415111064910889,
            "y": -0.332523912191391
        },
        {
            "x": 1.2988438606262208,
            "y": -0.2140497863292694
        },
        {
            "x": -1.6646909713745118,
            "y": 0.4260508418083191
        }
    ],
    "triangles": [
        1,
        0,
        2
    ],
    "carDensity": 3.0,
    "suspension": 0.7179651260375977,
    "motorSpeed": 892,
    "frontDensity": 4.900000095367432,
    "frontRadius": 0.6877074241638184,
    "frontOffset": 1.0848230123519898,
    "backDensity": 3.0,
    "backRadius": 0.4971954822540283,
    "backOffset": -1.2850620746612549,
    "score": 912,
    "maxDistance": 833,
    "maxTime": 105.0999984741211,
    "speed": 8
}{
    "ID": 37869,
    "genomaID": "CV4TD12",
    "color": {
        "x": 0.20531001687049867,
        "y": 0.39767926931381228,
        "z": 0.92059326171875
    },
    "vertexNumber": 4,
    "colliderVertices": [
        {
            "x": -1.590733289718628,
            "y": -0.11493529379367829
        },
        {
            "x": 1.386132001876831,
            "y": -0.44471561908721926
        },
        {
            "x": -0.5408246517181397,
            "y": 0.10604667663574219
        },
        {
            "x": -0.778756856918335,
            "y": 0.1867377758026123
        }
    ],
    "triangles": [
        0,
        3,
        2,
        2,
        1,
        0
    ],
    "carDensity": 4.0,
    "suspension": 0.7483258247375488,
    "motorSpeed": 851,
    "frontDensity": 4.800000190734863,
    "frontRadius": 0.6791735291481018,
    "frontOffset": 0.7445192337036133,
    "backDensity": 3.299999952316284,
    "backRadius": 0.5347079634666443,
    "backOffset": -0.7991903424263,
    "score": 911,
    "maxDistance": 833,
    "maxTime": 107.4000015258789,
    "speed": 8
}{
    "ID": 37907,
    "genomaID": "CV3TD10",
    "color": {
        "x": 0.09401561319828034,
        "y": 0.9309406280517578,
        "z": 0.4268164038658142
    },
    "vertexNumber": 3,
    "colliderVertices": [
        {
            "x": -1.833193063735962,
            "y": -0.2489112913608551
        },
        {
            "x": 1.784260630607605,
            "y": -0.3528692424297333
        },
        {
            "x": 0.026806116104125978,
            "y": 0.49742525815963747
        }
    ],
    "triangles": [
        1,
        0,
        2
    ],
    "carDensity": 3.0,
    "suspension": 0.8240739703178406,
    "motorSpeed": 988,
    "frontDensity": 3.700000047683716,
    "frontRadius": 0.5690587162971497,
    "frontOffset": 0.9530433416366577,
    "backDensity": 3.0999999046325685,
    "backRadius": 0.5099155902862549,
    "backOffset": -1.305445909500122,
    "score": 20,
    "maxDistance": 3,
    "maxTime": 1.7999999523162842,
    "speed": 2
}{
    "ID": 37991,
    "genomaID": "CV3TD12",
    "color": {
        "x": 0.6679555773735046,
        "y": 0.2269156277179718,
        "z": 0.9616402387619019
    },
    "vertexNumber": 3,
    "colliderVertices": [
        {
            "x": -1.2415111064910889,
            "y": -0.332523912191391
        },
        {
            "x": 1.2988438606262208,
            "y": -0.2140497863292694
        },
        {
            "x": -1.6646909713745118,
            "y": 0.4260508418083191
        }
    ],
    "triangles": [
        1,
        0,
        2
    ],
    "carDensity": 3.0,
    "suspension": 0.6102837324142456,
    "motorSpeed": 864,
    "frontDensity": 4.900000095367432,
    "frontRadius": 0.6877074241638184,
    "frontOffset": 0.8186259865760803,
    "backDensity": 4.199999809265137,
    "backRadius": 0.62484210729599,
    "backOffset": -0.7938868403434753,
    "score": 0,
    "maxDistance": 0,
    "maxTime": 0.800000011920929,
    "speed": 0
}