{
    "ID": 97064,
    "genomaID": "CV3TD12",
    "color": {
        "x": 0.7446132302284241,
        "y": 0.4693710207939148,
        "z": 0.9633924961090088
    },
    "vertexNumber": 3,
    "colliderVertices": [
        {
            "x": -1.615149736404419,
            "y": -0.08056289702653885
        },
        {
            "x": 1.1510634422302247,
            "y": -0.4890420436859131
        },
        {
            "x": -0.87314772605896,
            "y": 0.506628692150116
        }
    ],
    "triangles": [
        1,
        0,
        2
    ],
    "carDensity": 3.0,
    "suspension": 0.6140813827514648,
    "motorSpeed": 878,
    "frontDensity": 4.900000095367432,
    "frontRadius": 0.6921337842941284,
    "frontOffset": 1.073992133140564,
    "backDensity": 3.5999999046325685,
    "backRadius": 0.5590354204177856,
    "backOffset": -0.938257098197937,
    "score": 916,
    "maxDistance": 834,
    "maxTime": 101.69999694824219,
    "speed": 8
}{
    "ID": 97177,
    "genomaID": "CV3TD12",
    "color": {
        "x": 0.8133928775787354,
        "y": 0.2525545656681061,
        "z": 0.7479514479637146
    },
    "vertexNumber": 3,
    "colliderVertices": [
        {
            "x": -1.615149736404419,
            "y": -0.08056289702653885
        },
        {
            "x": 1.1510634422302247,
            "y": -0.4890420436859131
        },
        {
            "x": -0.87314772605896,
            "y": 0.506628692150116
        }
    ],
    "triangles": [
        1,
        0,
        2
    ],
    "carDensity": 3.0,
    "suspension": 0.5811548233032227,
    "motorSpeed": 851,
    "frontDensity": 4.599999904632568,
    "frontRadius": 0.6570789813995361,
    "frontOffset": 1.048552393913269,
    "backDensity": 3.700000047683716,
    "backRadius": 0.5728965997695923,
    "backOffset": -1.085924506187439,
    "score": 913,
    "maxDistance": 834,
    "maxTime": 105.80000305175781,
    "speed": 8
}{
    "ID": 97176,
    "genomaID": "CV3TD12",
    "color": {
        "x": 0.5646211504936218,
        "y": 0.5388018488883972,
        "z": 0.891024112701416
    },
    "vertexNumber": 3,
    "colliderVertices": [
        {
            "x": -1.615149736404419,
            "y": -0.08056289702653885
        },
        {
            "x": 1.1510634422302247,
            "y": -0.4890420436859131
        },
        {
            "x": -0.87314772605896,
            "y": 0.506628692150116
        }
    ],
    "triangles": [
        1,
        0,
        2
    ],
    "carDensity": 3.0,
    "suspension": 0.535558819770813,
    "motorSpeed": 863,
    "frontDensity": 4.900000095367432,
    "frontRadius": 0.6898589134216309,
    "frontOffset": 0.6980159282684326,
    "backDensity": 3.5,
    "backRadius": 0.5543792843818665,
    "backOffset": -0.938257098197937,
    "score": 911,
    "maxDistance": 831,
    "maxTime": 103.80000305175781,
    "speed": 8
}{
    "ID": 97035,
    "genomaID": "CV3TD12",
    "color": {
        "x": 0.5232427716255188,
        "y": 0.3716043531894684,
        "z": 0.0048233275301754478
    },
    "vertexNumber": 3,
    "colliderVertices": [
        {
            "x": -1.200965404510498,
            "y": -0.057187505066394809
        },
        {
            "x": 1.5604419708251954,
            "y": -0.2392236888408661
        },
        {
            "x": -0.6767966747283936,
            "y": 0.6349955797195435
        }
    ],
    "triangles": [
        1,
        0,
        2
    ],
    "carDensity": 3.0,
    "suspension": 0.963970422744751,
    "motorSpeed": 863,
    "frontDensity": 4.900000095367432,
    "frontRadius": 0.6921337842941284,
    "frontOffset": 1.1761083602905274,
    "backDensity": 3.5,
    "backRadius": 0.5543792843818665,
    "backOffset": -0.5411608219146729,
    "score": 13,
    "maxDistance": 3,
    "maxTime": 3.0,
    "speed": 1
}{
    "ID": 97180,
    "genomaID": "CV3TD9",
    "color": {
        "x": 0.4858422875404358,
        "y": 0.5531181693077087,
        "z": 0.6130606532096863
    },
    "vertexNumber": 3,
    "colliderVertices": [
        {
            "x": -1.8514567613601685,
            "y": -0.005239785183221102
        },
        {
            "x": 1.4314024448394776,
            "y": -0.467776894569397
        },
        {
            "x": -1.6059131622314454,
            "y": 0.5224447846412659
        }
    ],
    "triangles": [
        1,
        0,
        2
    ],
    "carDensity": 3.0,
    "suspension": 0.49174830317497256,
    "motorSpeed": 863,
    "frontDensity": 2.200000047683716,
    "frontRadius": 0.41751670837402346,
    "frontOffset": 0.8846014738082886,
    "backDensity": 3.5,
    "backRadius": 0.5543792843818665,
    "backOffset": -0.7925779223442078,
    "score": -11,
    "maxDistance": -1,
    "maxTime": 1.0,
    "speed": -1
}