{
    "ID": 128017,
    "genomaID": "CV3TD12",
    "color": {
        "x": 0.06466711312532425,
        "y": 0.33973923325538638,
        "z": 0.8371891975402832
    },
    "vertexNumber": 3,
    "colliderVertices": [
        {
            "x": -1.87174654006958,
            "y": -0.48871129751205447
        },
        {
            "x": 1.4022159576416016,
            "y": -0.3172537386417389
        },
        {
            "x": -1.1397089958190919,
            "y": 0.2695292830467224
        }
    ],
    "triangles": [
        1,
        0,
        2
    ],
    "carDensity": 3.0,
    "suspension": 0.8767291307449341,
    "motorSpeed": 858,
    "frontDensity": 4.900000095367432,
    "frontRadius": 0.6920121908187866,
    "frontOffset": 1.3879289627075196,
    "backDensity": 4.099999904632568,
    "backRadius": 0.6114500164985657,
    "backOffset": -1.0711561441421509,
    "score": 916,
    "maxDistance": 833,
    "maxTime": 100.4000015258789,
    "speed": 8
}{
    "ID": 128105,
    "genomaID": "CV3TD11",
    "color": {
        "x": 0.9370694160461426,
        "y": 0.9634641408920288,
        "z": 0.2424352467060089
    },
    "vertexNumber": 3,
    "colliderVertices": [
        {
            "x": -1.87174654006958,
            "y": -0.48871129751205447
        },
        {
            "x": 1.4022159576416016,
            "y": -0.3172537386417389
        },
        {
            "x": -1.1397089958190919,
            "y": 0.2695292830467224
        }
    ],
    "triangles": [
        1,
        0,
        2
    ],
    "carDensity": 3.0,
    "suspension": 0.9932389259338379,
    "motorSpeed": 864,
    "frontDensity": 5.0,
    "frontRadius": 0.6998712420463562,
    "frontOffset": 1.4261953830718995,
    "backDensity": 3.4000000953674318,
    "backRadius": 0.540340781211853,
    "backOffset": -0.9554651975631714,
    "score": 914,
    "maxDistance": 834,
    "maxTime": 104.80000305175781,
    "speed": 8
}{
    "ID": 128170,
    "genomaID": "CV3TD11",
    "color": {
        "x": 0.09569336473941803,
        "y": 0.6536408066749573,
        "z": 0.3564881384372711
    },
    "vertexNumber": 3,
    "colliderVertices": [
        {
            "x": -1.1010850667953492,
            "y": -0.4912911653518677
        },
        {
            "x": 1.2597887516021729,
            "y": -0.34690144658088686
        },
        {
            "x": -1.7964177131652833,
            "y": 0.40650898218154909
        }
    ],
    "triangles": [
        1,
        0,
        2
    ],
    "carDensity": 3.0,
    "suspension": 0.48028966784477236,
    "motorSpeed": 869,
    "frontDensity": 4.900000095367432,
    "frontRadius": 0.6857311129570007,
    "frontOffset": 1.3154581785202027,
    "backDensity": 3.4000000953674318,
    "backRadius": 0.543877124786377,
    "backOffset": -0.9085515737533569,
    "score": 912,
    "maxDistance": 833,
    "maxTime": 105.5,
    "speed": 8
}{
    "ID": 128021,
    "genomaID": "CV3TD8",
    "color": {
        "x": 0.40347129106521609,
        "y": 0.9957618713378906,
        "z": 0.7073728442192078
    },
    "vertexNumber": 3,
    "colliderVertices": [
        {
            "x": -1.8273969888687134,
            "y": -0.40884101390838625
        },
        {
            "x": 1.4774410724639893,
            "y": -0.33422335982322695
        },
        {
            "x": -1.6229782104492188,
            "y": 0.06172013282775879
        }
    ],
    "triangles": [
        1,
        0,
        2
    ],
    "carDensity": 3.0,
    "suspension": 0.8537797927856445,
    "motorSpeed": 869,
    "frontDensity": 2.4000000953674318,
    "frontRadius": 0.44323402643203738,
    "frontOffset": 1.0856422185897828,
    "backDensity": 3.200000047683716,
    "backRadius": 0.5244777798652649,
    "backOffset": -1.472308874130249,
    "score": 0,
    "maxDistance": 0,
    "maxTime": 1.0,
    "speed": 0
}{
    "ID": 128185,
    "genomaID": "CV3TD9",
    "color": {
        "x": 0.8011007308959961,
        "y": 0.07880652695894242,
        "z": 0.9284113645553589
    },
    "vertexNumber": 3,
    "colliderVertices": [
        {
            "x": -1.87174654006958,
            "y": -0.48871129751205447
        },
        {
            "x": 1.4022159576416016,
            "y": -0.3172537386417389
        },
        {
            "x": -1.1397089958190919,
            "y": 0.2695292830467224
        }
    ],
    "triangles": [
        1,
        0,
        2
    ],
    "carDensity": 3.0,
    "suspension": 0.46928974986076357,
    "motorSpeed": 858,
    "frontDensity": 2.0999999046325685,
    "frontRadius": 0.40894442796707156,
    "frontOffset": 0.7042595148086548,
    "backDensity": 3.799999952316284,
    "backRadius": 0.5831267237663269,
    "backOffset": -1.2614970207214356,
    "score": -11,
    "maxDistance": -1,
    "maxTime": 1.0,
    "speed": -1
}