{
    "ID": 107565,
    "genomaID": "CV4TD13",
    "color": {
        "x": 0.042122844606637958,
        "y": 0.8611741065979004,
        "z": 0.4444999098777771
    },
    "vertexNumber": 4,
    "colliderVertices": [
        {
            "x": -1.0191595554351807,
            "y": -0.19360598921775819
        },
        {
            "x": 1.204671025276184,
            "y": -0.3912433385848999
        },
        {
            "x": -0.5860865116119385,
            "y": 0.35760456323623659
        },
        {
            "x": -1.6813902854919434,
            "y": 0.49225884675979617
        }
    ],
    "triangles": [
        3,
        2,
        1,
        1,
        0,
        3
    ],
    "carDensity": 4.0,
    "suspension": 0.9039650559425354,
    "motorSpeed": 851,
    "frontDensity": 4.900000095367432,
    "frontRadius": 0.6855190396308899,
    "frontOffset": 1.3906970024108887,
    "backDensity": 4.199999809265137,
    "backRadius": 0.6196595430374146,
    "backOffset": -0.5377908945083618,
    "score": 917,
    "maxDistance": 833,
    "maxTime": 99.80000305175781,
    "speed": 8
}{
    "ID": 107445,
    "genomaID": "CV3TD12",
    "color": {
        "x": 0.8220614194869995,
        "y": 0.9128444194793701,
        "z": 0.36507561802864077
    },
    "vertexNumber": 3,
    "colliderVertices": [
        {
            "x": -1.615149736404419,
            "y": -0.08056289702653885
        },
        {
            "x": 1.1510634422302247,
            "y": -0.4890420436859131
        },
        {
            "x": -0.87314772605896,
            "y": 0.506628692150116
        }
    ],
    "triangles": [
        1,
        0,
        2
    ],
    "carDensity": 3.0,
    "suspension": 0.999464750289917,
    "motorSpeed": 851,
    "frontDensity": 4.800000190734863,
    "frontRadius": 0.678674578666687,
    "frontOffset": 1.2296127080917359,
    "backDensity": 3.5,
    "backRadius": 0.5482544898986816,
    "backOffset": -0.7293729782104492,
    "score": 912,
    "maxDistance": 834,
    "maxTime": 107.30000305175781,
    "speed": 8
}{
    "ID": 107537,
    "genomaID": "CV3TD12",
    "color": {
        "x": 0.35887065529823305,
        "y": 0.6983789801597595,
        "z": 0.3055068552494049
    },
    "vertexNumber": 3,
    "colliderVertices": [
        {
            "x": -1.615149736404419,
            "y": -0.08056289702653885
        },
        {
            "x": 1.1510634422302247,
            "y": -0.4890420436859131
        },
        {
            "x": -0.87314772605896,
            "y": 0.506628692150116
        }
    ],
    "triangles": [
        1,
        0,
        2
    ],
    "carDensity": 3.0,
    "suspension": 0.620742678642273,
    "motorSpeed": 851,
    "frontDensity": 4.599999904632568,
    "frontRadius": 0.6642758250236511,
    "frontOffset": 1.0829235315322877,
    "backDensity": 3.5,
    "backRadius": 0.5482544898986816,
    "backOffset": -0.9248775243759155,
    "score": 910,
    "maxDistance": 833,
    "maxTime": 107.9000015258789,
    "speed": 8
}{
    "ID": 107420,
    "genomaID": "CV6TD15",
    "color": {
        "x": 0.710654079914093,
        "y": 0.018615366891026498,
        "z": 0.12593068182468415
    },
    "vertexNumber": 6,
    "colliderVertices": [
        {
            "x": -1.3754558563232422,
            "y": -0.3893072009086609
        },
        {
            "x": 1.8842073678970338,
            "y": -0.22262349724769593
        },
        {
            "x": 1.0886683464050294,
            "y": 0.1407792568206787
        },
        {
            "x": -0.21341919898986817,
            "y": 0.3726683259010315
        },
        {
            "x": -0.31926846504211428,
            "y": 0.9552345275878906
        },
        {
            "x": -1.242506504058838,
            "y": 0.5731135010719299
        }
    ],
    "triangles": [
        3,
        1,
        5,
        5,
        4,
        3,
        3,
        2,
        1,
        1,
        0,
        5
    ],
    "carDensity": 6.0,
    "suspension": 0.5508966445922852,
    "motorSpeed": 851,
    "frontDensity": 4.800000190734863,
    "frontRadius": 0.6848597526550293,
    "frontOffset": 1.4491386413574219,
    "backDensity": 3.9000000953674318,
    "backRadius": 0.5886631011962891,
    "backOffset": -0.5215578079223633,
    "score": 0,
    "maxDistance": 0,
    "maxTime": 1.0,
    "speed": 0
}{
    "ID": 107546,
    "genomaID": "CV3TD10",
    "color": {
        "x": 0.09030605107545853,
        "y": 0.587245762348175,
        "z": 0.2169661819934845
    },
    "vertexNumber": 3,
    "colliderVertices": [
        {
            "x": -1.615149736404419,
            "y": -0.08056289702653885
        },
        {
            "x": 1.1510634422302247,
            "y": -0.4890420436859131
        },
        {
            "x": -0.87314772605896,
            "y": 0.506628692150116
        }
    ],
    "triangles": [
        1,
        0,
        2
    ],
    "carDensity": 3.0,
    "suspension": 0.999464750289917,
    "motorSpeed": 851,
    "frontDensity": 2.5999999046325685,
    "frontRadius": 0.4550076127052307,
    "frontOffset": 0.7925717234611511,
    "backDensity": 3.5,
    "backRadius": 0.5482544898986816,
    "backOffset": -0.7747604250907898,
    "score": -11,
    "maxDistance": -1,
    "maxTime": 1.0,
    "speed": -1
}