{
    "ID": 16220,
    "genomaID": "CV3TD10",
    "color": {
        "x": 0.710654079914093,
        "y": 0.018615366891026498,
        "z": 0.12593068182468415
    },
    "vertexNumber": 3,
    "colliderVertices": [
        {
            "x": -1.4141292572021485,
            "y": -0.010110498405992985
        },
        {
            "x": 1.4441602230072022,
            "y": -0.4625949263572693
        },
        {
            "x": 0.46341443061828616,
            "y": 0.1299304962158203
        }
    ],
    "triangles": [
        1,
        0,
        2
    ],
    "carDensity": 3.0,
    "suspension": 0.47656354308128359,
    "motorSpeed": 1273,
    "frontDensity": 3.9000000953674318,
    "frontRadius": 0.5890305042266846,
    "frontOffset": 1.3470978736877442,
    "backDensity": 3.0999999046325685,
    "backRadius": 0.5093687772750855,
    "backOffset": -1.182008147239685,
    "score": 923,
    "maxDistance": 832,
    "maxTime": 91.80000305175781,
    "speed": 9
}{
    "ID": 16286,
    "genomaID": "CV3TD10",
    "color": {
        "x": 0.8205829858779907,
        "y": 0.27505388855934145,
        "z": 0.7973049879074097
    },
    "vertexNumber": 3,
    "colliderVertices": [
        {
            "x": -1.2541747093200684,
            "y": -0.38386595249176028
        },
        {
            "x": 1.0193626880645753,
            "y": -0.271028071641922
        },
        {
            "x": 1.3762645721435547,
            "y": 0.10750925540924072
        }
    ],
    "triangles": [
        1,
        0,
        2
    ],
    "carDensity": 3.0,
    "suspension": 0.898826003074646,
    "motorSpeed": 710,
    "frontDensity": 3.5999999046325685,
    "frontRadius": 0.5609493255615234,
    "frontOffset": 1.317748785018921,
    "backDensity": 3.4000000953674318,
    "backRadius": 0.5419475436210632,
    "backOffset": -1.1969325542449952,
    "score": 893,
    "maxDistance": 832,
    "maxTime": 136.8000030517578,
    "speed": 6
}{
    "ID": 16271,
    "genomaID": "CV3TD10",
    "color": {
        "x": 0.002318620914593339,
        "y": 0.27994123101234438,
        "z": 0.4828231930732727
    },
    "vertexNumber": 3,
    "colliderVertices": [
        {
            "x": -1.4141292572021485,
            "y": -0.010110498405992985
        },
        {
            "x": 1.4441602230072022,
            "y": -0.4625949263572693
        },
        {
            "x": 0.46341443061828616,
            "y": 0.1299304962158203
        }
    ],
    "triangles": [
        1,
        0,
        2
    ],
    "carDensity": 3.0,
    "suspension": 0.47656354308128359,
    "motorSpeed": 696,
    "frontDensity": 3.9000000953674318,
    "frontRadius": 0.5890305042266846,
    "frontOffset": 1.3470978736877442,
    "backDensity": 3.0999999046325685,
    "backRadius": 0.5093687772750855,
    "backOffset": -1.4986189603805543,
    "score": 892,
    "maxDistance": 832,
    "maxTime": 137.8000030517578,
    "speed": 6
}{
    "ID": 16319,
    "genomaID": "CV3TD9",
    "color": {
        "x": 0.03547847643494606,
        "y": 0.4556052088737488,
        "z": 0.1441134363412857
    },
    "vertexNumber": 3,
    "colliderVertices": [
        {
            "x": -1.2541747093200684,
            "y": -0.38386595249176028
        },
        {
            "x": 1.0193626880645753,
            "y": -0.271028071641922
        },
        {
            "x": 1.3762645721435547,
            "y": 0.10750925540924072
        }
    ],
    "triangles": [
        1,
        0,
        2
    ],
    "carDensity": 3.0,
    "suspension": 0.7624476552009583,
    "motorSpeed": 574,
    "frontDensity": 2.9000000953674318,
    "frontRadius": 0.48800790309906008,
    "frontOffset": 0.812677800655365,
    "backDensity": 3.0999999046325685,
    "backRadius": 0.5140807628631592,
    "backOffset": -1.2694919109344483,
    "score": 184,
    "maxDistance": 138,
    "maxTime": 29.799999237060548,
    "speed": 5
}{
    "ID": 16396,
    "genomaID": "CV3TD10",
    "color": {
        "x": 0.2718107998371124,
        "y": 0.8708093166351318,
        "z": 0.932330846786499
    },
    "vertexNumber": 3,
    "colliderVertices": [
        {
            "x": -1.2541747093200684,
            "y": -0.38386595249176028
        },
        {
            "x": 1.0193626880645753,
            "y": -0.271028071641922
        },
        {
            "x": 1.3762645721435547,
            "y": 0.10750925540924072
        }
    ],
    "triangles": [
        1,
        0,
        2
    ],
    "carDensity": 3.0,
    "suspension": 0.8950101733207703,
    "motorSpeed": 1221,
    "frontDensity": 3.5999999046325685,
    "frontRadius": 0.5609493255615234,
    "frontOffset": 1.1779062747955323,
    "backDensity": 3.4000000953674318,
    "backRadius": 0.5419475436210632,
    "backOffset": -1.0440360307693482,
    "score": 0,
    "maxDistance": 0,
    "maxTime": 0.800000011920929,
    "speed": 0
}