{
    "ID": 113241,
    "genomaID": "CV4TD13",
    "color": {
        "x": 0.1794232279062271,
        "y": 0.7169793248176575,
        "z": 0.4818674921989441
    },
    "vertexNumber": 4,
    "colliderVertices": [
        {
            "x": -1.1571428775787354,
            "y": -0.017785312607884408
        },
        {
            "x": 1.6976892948150635,
            "y": -0.45099586248397829
        },
        {
            "x": -0.907581090927124,
            "y": 0.6379216909408569
        },
        {
            "x": -1.5830674171447755,
            "y": 0.3191775679588318
        }
    ],
    "triangles": [
        3,
        2,
        1,
        1,
        0,
        3
    ],
    "carDensity": 4.0,
    "suspension": 0.7912518978118897,
    "motorSpeed": 869,
    "frontDensity": 4.900000095367432,
    "frontRadius": 0.689996063709259,
    "frontOffset": 0.7504369616508484,
    "backDensity": 4.0,
    "backRadius": 0.5951395034790039,
    "backOffset": -1.465367078781128,
    "score": 917,
    "maxDistance": 834,
    "maxTime": 100.9000015258789,
    "speed": 8
}{
    "ID": 113215,
    "genomaID": "CV4TD13",
    "color": {
        "x": 0.6324389576911926,
        "y": 0.4681466221809387,
        "z": 0.2554509937763214
    },
    "vertexNumber": 4,
    "colliderVertices": [
        {
            "x": -1.1571428775787354,
            "y": -0.017785312607884408
        },
        {
            "x": 1.6976892948150635,
            "y": -0.45099586248397829
        },
        {
            "x": -0.907581090927124,
            "y": 0.6379216909408569
        },
        {
            "x": -1.5830674171447755,
            "y": 0.3191775679588318
        }
    ],
    "triangles": [
        3,
        2,
        1,
        1,
        0,
        3
    ],
    "carDensity": 4.0,
    "suspension": 0.9739240407943726,
    "motorSpeed": 869,
    "frontDensity": 4.900000095367432,
    "frontRadius": 0.6931619048118591,
    "frontOffset": 1.423280119895935,
    "backDensity": 3.5999999046325685,
    "backRadius": 0.5576536059379578,
    "backOffset": -0.802750289440155,
    "score": 913,
    "maxDistance": 833,
    "maxTime": 103.5,
    "speed": 8
}{
    "ID": 113376,
    "genomaID": "CV3TD12",
    "color": {
        "x": 0.5646211504936218,
        "y": 0.5388018488883972,
        "z": 0.891024112701416
    },
    "vertexNumber": 3,
    "colliderVertices": [
        {
            "x": -1.615149736404419,
            "y": -0.08056289702653885
        },
        {
            "x": 1.1510634422302247,
            "y": -0.4890420436859131
        },
        {
            "x": -0.87314772605896,
            "y": 0.506628692150116
        }
    ],
    "triangles": [
        1,
        0,
        2
    ],
    "carDensity": 3.0,
    "suspension": 0.5109201669692993,
    "motorSpeed": 851,
    "frontDensity": 4.800000190734863,
    "frontRadius": 0.6816945672035217,
    "frontOffset": 0.5945256948471069,
    "backDensity": 3.5,
    "backRadius": 0.5489668846130371,
    "backOffset": -1.1930551528930665,
    "score": 912,
    "maxDistance": 834,
    "maxTime": 107.0999984741211,
    "speed": 8
}{
    "ID": 113238,
    "genomaID": "CV3TD9",
    "color": {
        "x": 0.473757803440094,
        "y": 0.4240033030509949,
        "z": 0.13615132868289948
    },
    "vertexNumber": 3,
    "colliderVertices": [
        {
            "x": -1.615149736404419,
            "y": -0.08056289702653885
        },
        {
            "x": 1.1510634422302247,
            "y": -0.4890420436859131
        },
        {
            "x": -0.87314772605896,
            "y": 0.506628692150116
        }
    ],
    "triangles": [
        1,
        0,
        2
    ],
    "carDensity": 3.0,
    "suspension": 0.6526404619216919,
    "motorSpeed": 875,
    "frontDensity": 3.0,
    "frontRadius": 0.5045413970947266,
    "frontOffset": 0.8103992342948914,
    "backDensity": 3.0999999046325685,
    "backRadius": 0.5130761861801148,
    "backOffset": -1.0256808996200562,
    "score": 0,
    "maxDistance": 0,
    "maxTime": 1.0,
    "speed": 0
}{
    "ID": 113396,
    "genomaID": "CV3TD12",
    "color": {
        "x": 0.2718107998371124,
        "y": 0.8708093166351318,
        "z": 0.932330846786499
    },
    "vertexNumber": 3,
    "colliderVertices": [
        {
            "x": -1.615149736404419,
            "y": -0.08056289702653885
        },
        {
            "x": 1.1510634422302247,
            "y": -0.4890420436859131
        },
        {
            "x": -0.87314772605896,
            "y": 0.506628692150116
        }
    ],
    "triangles": [
        1,
        0,
        2
    ],
    "carDensity": 3.0,
    "suspension": 0.8468294739723206,
    "motorSpeed": 875,
    "frontDensity": 5.0,
    "frontRadius": 0.6977106332778931,
    "frontOffset": 0.7387304306030273,
    "backDensity": 4.199999809265137,
    "backRadius": 0.618144690990448,
    "backOffset": -0.5134711265563965,
    "score": 0,
    "maxDistance": 0,
    "maxTime": 1.0,
    "speed": 0
}