{
    "ID": 80590,
    "genomaID": "CV6TD15",
    "color": {
        "x": 0.07470608502626419,
        "y": 0.5904449820518494,
        "z": 0.9264026880264282
    },
    "vertexNumber": 6,
    "colliderVertices": [
        {
            "x": -1.258922815322876,
            "y": -0.020709635689854623
        },
        {
            "x": 1.2471259832382203,
            "y": -0.2645486295223236
        },
        {
            "x": 0.0761258602142334,
            "y": 0.05880725383758545
        },
        {
            "x": -0.3622629642486572,
            "y": 0.793633222579956
        },
        {
            "x": -0.47997164726257326,
            "y": 0.24720370769500733
        },
        {
            "x": -1.637770175933838,
            "y": 0.1857457160949707
        }
    ],
    "triangles": [
        5,
        4,
        2,
        2,
        1,
        5,
        4,
        3,
        2,
        1,
        0,
        5
    ],
    "carDensity": 6.0,
    "suspension": 0.6996912956237793,
    "motorSpeed": 851,
    "frontDensity": 5.0,
    "frontRadius": 0.6950520277023315,
    "frontOffset": 1.0033708810806275,
    "backDensity": 4.099999904632568,
    "backRadius": 0.605100691318512,
    "backOffset": -0.7844430804252625,
    "score": 917,
    "maxDistance": 834,
    "maxTime": 101.0999984741211,
    "speed": 8
}{
    "ID": 80420,
    "genomaID": "CV3TD12",
    "color": {
        "x": 0.710654079914093,
        "y": 0.018615366891026498,
        "z": 0.12593068182468415
    },
    "vertexNumber": 3,
    "colliderVertices": [
        {
            "x": -1.010199785232544,
            "y": -0.39424949884414675
        },
        {
            "x": 1.5240943431854249,
            "y": -0.3255944550037384
        },
        {
            "x": -1.7875475883483887,
            "y": 0.28482288122177126
        }
    ],
    "triangles": [
        1,
        0,
        2
    ],
    "carDensity": 3.0,
    "suspension": 0.6350232362747192,
    "motorSpeed": 851,
    "frontDensity": 4.800000190734863,
    "frontRadius": 0.6769694685935974,
    "frontOffset": 0.8648868799209595,
    "backDensity": 3.799999952316284,
    "backRadius": 0.5767271518707275,
    "backOffset": -1.2888109683990479,
    "score": 913,
    "maxDistance": 833,
    "maxTime": 104.5999984741211,
    "speed": 8
}{
    "ID": 80465,
    "genomaID": "CV3TD11",
    "color": {
        "x": 0.7932404279708862,
        "y": 0.4070221781730652,
        "z": 0.7800842523574829
    },
    "vertexNumber": 3,
    "colliderVertices": [
        {
            "x": -1.3146932125091553,
            "y": -0.35629478096961977
        },
        {
            "x": 1.1096062660217286,
            "y": -0.44019651412963869
        },
        {
            "x": -1.8295903205871583,
            "y": 0.6733900308609009
        }
    ],
    "triangles": [
        1,
        0,
        2
    ],
    "carDensity": 3.0,
    "suspension": 0.9485864639282227,
    "motorSpeed": 851,
    "frontDensity": 4.800000190734863,
    "frontRadius": 0.6810335516929627,
    "frontOffset": 0.9462589025497437,
    "backDensity": 3.299999952316284,
    "backRadius": 0.5324873328208923,
    "backOffset": -1.004370093345642,
    "score": 911,
    "maxDistance": 834,
    "maxTime": 108.30000305175781,
    "speed": 8
}{
    "ID": 80487,
    "genomaID": "CV3TD12",
    "color": {
        "x": 0.6230459809303284,
        "y": 0.18502236902713777,
        "z": 0.48213261365890505
    },
    "vertexNumber": 3,
    "colliderVertices": [
        {
            "x": -1.615149736404419,
            "y": -0.08056289702653885
        },
        {
            "x": 1.1510634422302247,
            "y": -0.4890420436859131
        },
        {
            "x": -0.87314772605896,
            "y": 0.506628692150116
        }
    ],
    "triangles": [
        1,
        0,
        2
    ],
    "carDensity": 3.0,
    "suspension": 0.8601422905921936,
    "motorSpeed": 851,
    "frontDensity": 4.800000190734863,
    "frontRadius": 0.6819571256637573,
    "frontOffset": 1.1207867860794068,
    "backDensity": 3.5999999046325685,
    "backRadius": 0.5622896552085877,
    "backOffset": -0.5876854658126831,
    "score": 9,
    "maxDistance": 2,
    "maxTime": 2.9000000953674318,
    "speed": 1
}{
    "ID": 80593,
    "genomaID": "CV3TD10",
    "color": {
        "x": 0.23507264256477357,
        "y": 0.5300777554512024,
        "z": 0.8182836771011353
    },
    "vertexNumber": 3,
    "colliderVertices": [
        {
            "x": -1.615149736404419,
            "y": -0.08056289702653885
        },
        {
            "x": 1.1510634422302247,
            "y": -0.4890420436859131
        },
        {
            "x": -0.87314772605896,
            "y": 0.506628692150116
        }
    ],
    "triangles": [
        1,
        0,
        2
    ],
    "carDensity": 3.0,
    "suspension": 0.7927356958389282,
    "motorSpeed": 851,
    "frontDensity": 3.0999999046325685,
    "frontRadius": 0.5076462030410767,
    "frontOffset": 1.241687536239624,
    "backDensity": 3.700000047683716,
    "backRadius": 0.5689969658851624,
    "backOffset": -0.6336416006088257,
    "score": 0,
    "maxDistance": 0,
    "maxTime": 0.8999999761581421,
    "speed": 0
}