{
    "ID": 97642,
    "genomaID": "CV4TD13",
    "color": {
        "x": 0.4156363606452942,
        "y": 0.559269368648529,
        "z": 0.22758856415748597
    },
    "vertexNumber": 4,
    "colliderVertices": [
        {
            "x": -1.370237112045288,
            "y": -0.16245879232883454
        },
        {
            "x": 1.175140380859375,
            "y": -0.34968551993370058
        },
        {
            "x": -0.3652498722076416,
            "y": 0.11660647392272949
        },
        {
            "x": -1.3494210243225098,
            "y": 0.7448263168334961
        }
    ],
    "triangles": [
        0,
        3,
        2,
        2,
        1,
        0
    ],
    "carDensity": 4.0,
    "suspension": 0.9550369381904602,
    "motorSpeed": 887,
    "frontDensity": 4.800000190734863,
    "frontRadius": 0.6753367185592651,
    "frontOffset": 0.6264530420303345,
    "backDensity": 3.799999952316284,
    "backRadius": 0.5761667490005493,
    "backOffset": -1.1069449186325074,
    "score": 915,
    "maxDistance": 833,
    "maxTime": 101.0,
    "speed": 8
}{
    "ID": 97799,
    "genomaID": "CV3TD12",
    "color": {
        "x": 0.20653727650642396,
        "y": 0.7379440665245056,
        "z": 0.5660251975059509
    },
    "vertexNumber": 3,
    "colliderVertices": [
        {
            "x": -1.615149736404419,
            "y": -0.08056289702653885
        },
        {
            "x": 1.1510634422302247,
            "y": -0.4890420436859131
        },
        {
            "x": -0.87314772605896,
            "y": 0.506628692150116
        }
    ],
    "triangles": [
        1,
        0,
        2
    ],
    "carDensity": 3.0,
    "suspension": 0.4871954023838043,
    "motorSpeed": 851,
    "frontDensity": 4.900000095367432,
    "frontRadius": 0.6855190396308899,
    "frontOffset": 1.3807328939437867,
    "backDensity": 3.5,
    "backRadius": 0.5521922707557678,
    "backOffset": -1.4176573753356934,
    "score": 913,
    "maxDistance": 834,
    "maxTime": 105.5999984741211,
    "speed": 8
}{
    "ID": 97794,
    "genomaID": "CV3TD12",
    "color": {
        "x": 0.6533638834953308,
        "y": 0.5734136700630188,
        "z": 0.5898723006248474
    },
    "vertexNumber": 3,
    "colliderVertices": [
        {
            "x": -1.2268295288085938,
            "y": -0.1776415854692459
        },
        {
            "x": 1.314279556274414,
            "y": -0.15829677879810334
        },
        {
            "x": -0.3013885021209717,
            "y": 0.20377790927886964
        }
    ],
    "triangles": [
        1,
        0,
        2
    ],
    "carDensity": 3.0,
    "suspension": 0.7215734720230103,
    "motorSpeed": 851,
    "frontDensity": 4.800000190734863,
    "frontRadius": 0.678674578666687,
    "frontOffset": 1.152424693107605,
    "backDensity": 3.5,
    "backRadius": 0.5482544898986816,
    "backOffset": -1.085924506187439,
    "score": 911,
    "maxDistance": 834,
    "maxTime": 108.0,
    "speed": 8
}{
    "ID": 97781,
    "genomaID": "CV3TD13",
    "color": {
        "x": 0.12419749796390534,
        "y": 0.8185967206954956,
        "z": 0.42506641149520876
    },
    "vertexNumber": 3,
    "colliderVertices": [
        {
            "x": -1.615149736404419,
            "y": -0.08056289702653885
        },
        {
            "x": 1.1510634422302247,
            "y": -0.4890420436859131
        },
        {
            "x": -0.87314772605896,
            "y": 0.506628692150116
        }
    ],
    "triangles": [
        1,
        0,
        2
    ],
    "carDensity": 3.0,
    "suspension": 0.8072201609611511,
    "motorSpeed": 851,
    "frontDensity": 4.900000095367432,
    "frontRadius": 0.6855190396308899,
    "frontOffset": 1.3807328939437867,
    "backDensity": 4.800000190734863,
    "backRadius": 0.6754774451255798,
    "backOffset": -0.6904255151748657,
    "score": 22,
    "maxDistance": 5,
    "maxTime": 2.9000000953674318,
    "speed": 2
}{
    "ID": 97787,
    "genomaID": "CV3TD12",
    "color": {
        "x": 0.31324294209480288,
        "y": 0.07841325551271439,
        "z": 0.9491356611251831
    },
    "vertexNumber": 3,
    "colliderVertices": [
        {
            "x": -1.615149736404419,
            "y": -0.08056289702653885
        },
        {
            "x": 1.1510634422302247,
            "y": -0.4890420436859131
        },
        {
            "x": -0.87314772605896,
            "y": 0.506628692150116
        }
    ],
    "triangles": [
        1,
        0,
        2
    ],
    "carDensity": 3.0,
    "suspension": 0.7681789398193359,
    "motorSpeed": 1236,
    "frontDensity": 4.800000190734863,
    "frontRadius": 0.678674578666687,
    "frontOffset": 0.8819786310195923,
    "backDensity": 3.799999952316284,
    "backRadius": 0.5814912915229797,
    "backOffset": -1.085924506187439,
    "score": 0,
    "maxDistance": 0,
    "maxTime": 0.8999999761581421,
    "speed": 0
}