{
    "ID": 58957,
    "genomaID": "CV4TD13",
    "color": {
        "x": 0.5680072903633118,
        "y": 0.14264823496341706,
        "z": 0.8933107852935791
    },
    "vertexNumber": 4,
    "colliderVertices": [
        {
            "x": -1.722783088684082,
            "y": -0.4412907361984253
        },
        {
            "x": 1.6248488426208497,
            "y": -0.19015339016914369
        },
        {
            "x": 0.1804821491241455,
            "y": 0.0672755241394043
        },
        {
            "x": -1.9871821403503419,
            "y": 0.08832776546478272
        }
    ],
    "triangles": [
        3,
        2,
        1,
        1,
        0,
        3
    ],
    "carDensity": 4.0,
    "suspension": 0.8952324390411377,
    "motorSpeed": 851,
    "frontDensity": 4.800000190734863,
    "frontRadius": 0.6771788597106934,
    "frontOffset": 1.1458197832107545,
    "backDensity": 4.199999809265137,
    "backRadius": 0.6184123754501343,
    "backOffset": -0.7760162949562073,
    "score": 916,
    "maxDistance": 833,
    "maxTime": 100.9000015258789,
    "speed": 8
}{
    "ID": 58844,
    "genomaID": "CV3TD12",
    "color": {
        "x": 0.37244489789009097,
        "y": 0.5369817614555359,
        "z": 0.409048855304718
    },
    "vertexNumber": 3,
    "colliderVertices": [
        {
            "x": -1.615149736404419,
            "y": -0.08056289702653885
        },
        {
            "x": 1.1510634422302247,
            "y": -0.4890420436859131
        },
        {
            "x": -0.87314772605896,
            "y": 0.506628692150116
        }
    ],
    "triangles": [
        1,
        0,
        2
    ],
    "carDensity": 3.0,
    "suspension": 0.8457871079444885,
    "motorSpeed": 851,
    "frontDensity": 4.599999904632568,
    "frontRadius": 0.6558831930160523,
    "frontOffset": 1.088058590888977,
    "backDensity": 3.700000047683716,
    "backRadius": 0.5727956295013428,
    "backOffset": -0.7330965995788574,
    "score": 913,
    "maxDistance": 834,
    "maxTime": 106.19999694824219,
    "speed": 8
}{
    "ID": 58997,
    "genomaID": "CV3TD11",
    "color": {
        "x": 0.4004287123680115,
        "y": 0.941399097442627,
        "z": 0.8905913829803467
    },
    "vertexNumber": 3,
    "colliderVertices": [
        {
            "x": -1.615149736404419,
            "y": -0.08056289702653885
        },
        {
            "x": 1.1510634422302247,
            "y": -0.4890420436859131
        },
        {
            "x": -0.87314772605896,
            "y": 0.506628692150116
        }
    ],
    "triangles": [
        1,
        0,
        2
    ],
    "carDensity": 3.0,
    "suspension": 0.499187171459198,
    "motorSpeed": 851,
    "frontDensity": 4.900000095367432,
    "frontRadius": 0.6900220513343811,
    "frontOffset": 1.340484380722046,
    "backDensity": 2.799999952316284,
    "backRadius": 0.47546544671058657,
    "backOffset": -1.0093480348587037,
    "score": 910,
    "maxDistance": 834,
    "maxTime": 109.19999694824219,
    "speed": 8
}{
    "ID": 58974,
    "genomaID": "CV3TD12",
    "color": {
        "x": 0.16558422148227693,
        "y": 0.6600871682167053,
        "z": 0.13062037527561189
    },
    "vertexNumber": 3,
    "colliderVertices": [
        {
            "x": -1.3108060359954835,
            "y": -0.08334631472826004
        },
        {
            "x": 1.1307835578918458,
            "y": -0.38317573070526125
        },
        {
            "x": 0.599918782711029,
            "y": 0.32602459192276
        }
    ],
    "triangles": [
        1,
        0,
        2
    ],
    "carDensity": 3.0,
    "suspension": 0.7540847659111023,
    "motorSpeed": 843,
    "frontDensity": 4.599999904632568,
    "frontRadius": 0.6558831930160523,
    "frontOffset": 1.464295744895935,
    "backDensity": 3.700000047683716,
    "backRadius": 0.5727956295013428,
    "backOffset": -1.2506775856018067,
    "score": 19,
    "maxDistance": 3,
    "maxTime": 1.7999999523162842,
    "speed": 2
}{
    "ID": 58986,
    "genomaID": "CV3TD13",
    "color": {
        "x": 0.8823857307434082,
        "y": 0.36269453167915347,
        "z": 0.5490991473197937
    },
    "vertexNumber": 3,
    "colliderVertices": [
        {
            "x": -1.6967082023620606,
            "y": -0.4183594584465027
        },
        {
            "x": 1.6215009689331055,
            "y": -0.4354392886161804
        },
        {
            "x": 0.29096150398254397,
            "y": 0.040700316429138187
        }
    ],
    "triangles": [
        1,
        0,
        2
    ],
    "carDensity": 3.0,
    "suspension": 0.8542616367340088,
    "motorSpeed": 954,
    "frontDensity": 4.900000095367432,
    "frontRadius": 0.6900220513343811,
    "frontOffset": 0.8648759126663208,
    "backDensity": 4.699999809265137,
    "backRadius": 0.6683337688446045,
    "backOffset": -0.7379500865936279,
    "score": 0,
    "maxDistance": 0,
    "maxTime": 0.800000011920929,
    "speed": 0
}