{
    "ID": 201,
    "genomaID": "CV3TD11",
    "color": {
        "x": 0.6130748391151428,
        "y": 0.05531633645296097,
        "z": 0.5235583186149597
    },
    "vertexNumber": 3,
    "colliderVertices": [
        {
            "x": -1.0638728141784669,
            "y": -0.07733035832643509
        },
        {
            "x": 1.1070886850357056,
            "y": -0.3076554238796234
        },
        {
            "x": 1.2064781188964844,
            "y": 0.761171817779541
        }
    ],
    "triangles": [
        1,
        0,
        2
    ],
    "carDensity": 3.0,
    "suspension": 0.4458976686000824,
    "motorSpeed": 654,
    "frontDensity": 4.800000190734863,
    "frontRadius": 0.6811065673828125,
    "frontOffset": 0.6313629150390625,
    "backDensity": 3.0999999046325685,
    "backRadius": 0.5083703994750977,
    "backOffset": -0.9024726152420044,
    "score": 896,
    "maxDistance": 833,
    "maxTime": 133.0,
    "speed": 6
}{
    "ID": 304,
    "genomaID": "CV3TD10",
    "color": {
        "x": 0.2842942774295807,
        "y": 0.06919503957033158,
        "z": 0.16074754297733308
    },
    "vertexNumber": 3,
    "colliderVertices": [
        {
            "x": -1.1075093746185303,
            "y": -0.13476122915744782
        },
        {
            "x": 1.2138261795043946,
            "y": -0.07657528668642044
        },
        {
            "x": 0.0884864330291748,
            "y": 0.5887050032615662
        }
    ],
    "triangles": [
        1,
        0,
        2
    ],
    "carDensity": 3.0,
    "suspension": 0.749970018863678,
    "motorSpeed": 624,
    "frontDensity": 3.0999999046325685,
    "frontRadius": 0.5108038187026978,
    "frontOffset": 0.8911324739456177,
    "backDensity": 3.700000047683716,
    "backRadius": 0.5744585990905762,
    "backOffset": -0.8613384962081909,
    "score": 197,
    "maxDistance": 146,
    "maxTime": 28.399999618530275,
    "speed": 5
}{
    "ID": 233,
    "genomaID": "CV4TD10",
    "color": {
        "x": 0.6758385300636292,
        "y": 0.6556704640388489,
        "z": 0.3266125023365021
    },
    "vertexNumber": 4,
    "colliderVertices": [
        {
            "x": -1.7792128324508668,
            "y": -0.4493969678878784
        },
        {
            "x": 1.5792052745819092,
            "y": -0.06753487139940262
        },
        {
            "x": 0.9968633055686951,
            "y": 0.7913856506347656
        },
        {
            "x": -1.4867281913757325,
            "y": 0.3408883213996887
        }
    ],
    "triangles": [
        3,
        2,
        1,
        1,
        0,
        3
    ],
    "carDensity": 4.0,
    "suspension": 0.9534758925437927,
    "motorSpeed": 894,
    "frontDensity": 2.9000000953674318,
    "frontRadius": 0.49064695835113528,
    "frontOffset": 0.9379492998123169,
    "backDensity": 3.0999999046325685,
    "backRadius": 0.5130468606948853,
    "backOffset": -1.3516286611557007,
    "score": 30,
    "maxDistance": 5,
    "maxTime": 2.0,
    "speed": 2
}{
    "ID": 259,
    "genomaID": "CV4TD11",
    "color": {
        "x": 0.23114362359046937,
        "y": 0.043220166116952899,
        "z": 0.20174077153205872
    },
    "vertexNumber": 4,
    "colliderVertices": [
        {
            "x": -1.4410295486450196,
            "y": -0.09013909846544266
        },
        {
            "x": 1.4618823528289796,
            "y": -0.2432079017162323
        },
        {
            "x": 0.7298793196678162,
            "y": 0.04697394371032715
        },
        {
            "x": -0.7222206592559815,
            "y": 0.4177473187446594
        }
    ],
    "triangles": [
        3,
        2,
        1,
        1,
        0,
        3
    ],
    "carDensity": 4.0,
    "suspension": 0.510040819644928,
    "motorSpeed": 1148,
    "frontDensity": 4.5,
    "frontRadius": 0.6522123217582703,
    "frontOffset": 1.3030178546905518,
    "backDensity": 2.9000000953674318,
    "backRadius": 0.49464982748031618,
    "backOffset": -0.7741029858589172,
    "score": 0,
    "maxDistance": 0,
    "maxTime": 1.0,
    "speed": 0
}{
    "ID": 384,
    "genomaID": "CV3TD9",
    "color": {
        "x": 0.24860063195228578,
        "y": 0.8335645198822022,
        "z": 0.020406605675816537
    },
    "vertexNumber": 3,
    "colliderVertices": [
        {
            "x": -1.4930150508880616,
            "y": -0.3165034353733063
        },
        {
            "x": 1.1068172454833985,
            "y": -0.36911001801490786
        },
        {
            "x": -0.9810006618499756,
            "y": 0.27049344778060915
        }
    ],
    "triangles": [
        1,
        0,
        2
    ],
    "carDensity": 3.0,
    "suspension": 0.7856539487838745,
    "motorSpeed": 813,
    "frontDensity": 2.5,
    "frontRadius": 0.4496932029724121,
    "frontOffset": 0.818550169467926,
    "backDensity": 3.700000047683716,
    "backRadius": 0.5691511034965515,
    "backOffset": -1.0819560289382935,
    "score": -11,
    "maxDistance": -1,
    "maxTime": 1.0,
    "speed": -1
}