{
    "ID": 3612,
    "genomaID": "CV5TD15",
    "color": {
        "x": 0.9645086526870728,
        "y": 0.6067467331886292,
        "z": 0.6051636338233948
    },
    "vertexNumber": 5,
    "colliderVertices": [
        {
            "x": -1.4619419574737549,
            "y": -0.025792304426431657
        },
        {
            "x": 1.2236697673797608,
            "y": -0.03496015444397926
        },
        {
            "x": 0.3147895336151123,
            "y": 0.05308365821838379
        },
        {
            "x": -1.0201373100280762,
            "y": 0.3243566155433655
        },
        {
            "x": -1.6845173835754395,
            "y": 0.1933356523513794
        }
    ],
    "triangles": [
        2,
        1,
        4,
        4,
        3,
        2,
        1,
        0,
        4
    ],
    "carDensity": 5.0,
    "suspension": 0.5513355731964111,
    "motorSpeed": 814,
    "frontDensity": 4.599999904632568,
    "frontRadius": 0.6576347947120667,
    "frontOffset": 1.388471007347107,
    "backDensity": 4.599999904632568,
    "backRadius": 0.6558082699775696,
    "backOffset": -0.5963051319122315,
    "score": 916,
    "maxDistance": 834,
    "maxTime": 101.9000015258789,
    "speed": 8
}{
    "ID": 3790,
    "genomaID": "CV3TD9",
    "color": {
        "x": 0.8928033113479614,
        "y": 0.23041430115699769,
        "z": 0.838729977607727
    },
    "vertexNumber": 3,
    "colliderVertices": [
        {
            "x": -1.8100109100341797,
            "y": -0.00380367087200284
        },
        {
            "x": 1.2179113626480103,
            "y": -0.15298213064670564
        },
        {
            "x": -0.6213815212249756,
            "y": 0.0743112564086914
        }
    ],
    "triangles": [
        1,
        0,
        2
    ],
    "carDensity": 3.0,
    "suspension": 0.6467946767807007,
    "motorSpeed": 1029,
    "frontDensity": 3.5999999046325685,
    "frontRadius": 0.5563618540763855,
    "frontOffset": 0.7802907824516296,
    "backDensity": 2.4000000953674318,
    "backRadius": 0.43603771924972536,
    "backOffset": -0.551760196685791,
    "score": 911,
    "maxDistance": 833,
    "maxTime": 106.5,
    "speed": 8
}{
    "ID": 3683,
    "genomaID": "CV5TD15",
    "color": {
        "x": 0.3326170742511749,
        "y": 0.582883894443512,
        "z": 0.6687232851982117
    },
    "vertexNumber": 5,
    "colliderVertices": [
        {
            "x": -1.4619419574737549,
            "y": -0.025792304426431657
        },
        {
            "x": 1.2236697673797608,
            "y": -0.03496015444397926
        },
        {
            "x": 0.3147895336151123,
            "y": 0.05308365821838379
        },
        {
            "x": -1.0201373100280762,
            "y": 0.3243566155433655
        },
        {
            "x": -1.6845173835754395,
            "y": 0.1933356523513794
        }
    ],
    "triangles": [
        2,
        1,
        4,
        4,
        3,
        2,
        1,
        0,
        4
    ],
    "carDensity": 5.0,
    "suspension": 0.9581890106201172,
    "motorSpeed": 814,
    "frontDensity": 4.699999809265137,
    "frontRadius": 0.6711311936378479,
    "frontOffset": 1.388471007347107,
    "backDensity": 4.599999904632568,
    "backRadius": 0.6558082699775696,
    "backOffset": -0.5963051319122315,
    "score": 525,
    "maxDistance": 449,
    "maxTime": 59.20000076293945,
    "speed": 8
}{
    "ID": 3692,
    "genomaID": "CV3TD10",
    "color": {
        "x": 0.6477273106575012,
        "y": 0.6010904908180237,
        "z": 0.9397456645965576
    },
    "vertexNumber": 3,
    "colliderVertices": [
        {
            "x": -1.8100109100341797,
            "y": -0.00380367087200284
        },
        {
            "x": 1.2179113626480103,
            "y": -0.15298213064670564
        },
        {
            "x": -0.6213815212249756,
            "y": 0.0743112564086914
        }
    ],
    "triangles": [
        1,
        0,
        2
    ],
    "carDensity": 3.0,
    "suspension": 0.6467946767807007,
    "motorSpeed": 1029,
    "frontDensity": 3.5999999046325685,
    "frontRadius": 0.5563618540763855,
    "frontOffset": 0.7802907824516296,
    "backDensity": 3.4000000953674318,
    "backRadius": 0.542897641658783,
    "backOffset": -1.3299163579940797,
    "score": 18,
    "maxDistance": 3,
    "maxTime": 2.0,
    "speed": 2
}{
    "ID": 3744,
    "genomaID": "CV4TD13",
    "color": {
        "x": 0.5588248372077942,
        "y": 0.34881237149238589,
        "z": 0.8027691841125488
    },
    "vertexNumber": 4,
    "colliderVertices": [
        {
            "x": -1.0899962186813355,
            "y": -0.04175931587815285
        },
        {
            "x": 1.8523764610290528,
            "y": -0.28453871607780459
        },
        {
            "x": -1.378859519958496,
            "y": 0.4428113102912903
        },
        {
            "x": -1.3947739601135255,
            "y": 0.7952278852462769
        }
    ],
    "triangles": [
        3,
        0,
        1
    ],
    "carDensity": 4.0,
    "suspension": 0.8204536437988281,
    "motorSpeed": 780,
    "frontDensity": 3.5,
    "frontRadius": 0.545712411403656,
    "frontOffset": 0.9353100061416626,
    "backDensity": 4.900000095367432,
    "backRadius": 0.694991409778595,
    "backOffset": -1.3264617919921876,
    "score": -11,
    "maxDistance": -1,
    "maxTime": 1.0,
    "speed": -1
}