{
    "ID": 1054,
    "genomaID": "CV3TD10",
    "color": {
        "x": 0.9262758493423462,
        "y": 0.6562933325767517,
        "z": 0.8909366130828857
    },
    "vertexNumber": 3,
    "colliderVertices": [
        {
            "x": -1.729506254196167,
            "y": -0.0683530643582344
        },
        {
            "x": 1.0032778978347779,
            "y": -0.07679302245378494
        },
        {
            "x": 1.2297163009643555,
            "y": 0.11697566509246826
        }
    ],
    "triangles": [
        1,
        0,
        2
    ],
    "carDensity": 3.0,
    "suspension": 0.7264111042022705,
    "motorSpeed": 698,
    "frontDensity": 4.099999904632568,
    "frontRadius": 0.6118574142456055,
    "frontOffset": 0.8271346688270569,
    "backDensity": 2.700000047683716,
    "backRadius": 0.47342759370803835,
    "backOffset": -1.4970719814300538,
    "score": 896,
    "maxDistance": 834,
    "maxTime": 134.60000610351563,
    "speed": 6
}{
    "ID": 1100,
    "genomaID": "CV4TD13",
    "color": {
        "x": 0.2231777012348175,
        "y": 0.2424042522907257,
        "z": 0.48559731245040896
    },
    "vertexNumber": 4,
    "colliderVertices": [
        {
            "x": -1.5947024822235108,
            "y": -0.18018360435962678
        },
        {
            "x": 1.389181137084961,
            "y": -0.16659380495548249
        },
        {
            "x": -0.9469187259674072,
            "y": 0.7049615383148193
        },
        {
            "x": -1.333263874053955,
            "y": 0.08876049518585205
        }
    ],
    "triangles": [
        3,
        2,
        1,
        1,
        0,
        3
    ],
    "carDensity": 4.0,
    "suspension": 0.925844132900238,
    "motorSpeed": 583,
    "frontDensity": 4.900000095367432,
    "frontRadius": 0.6868430376052856,
    "frontOffset": 1.2891682386398316,
    "backDensity": 3.700000047683716,
    "backRadius": 0.5669848918914795,
    "backOffset": -1.3365185260772706,
    "score": 890,
    "maxDistance": 833,
    "maxTime": 145.1999969482422,
    "speed": 6
}{
    "ID": 1020,
    "genomaID": "CV4TD11",
    "color": {
        "x": 0.7953814268112183,
        "y": 0.443960964679718,
        "z": 0.005796671379357576
    },
    "vertexNumber": 4,
    "colliderVertices": [
        {
            "x": -1.2459869384765626,
            "y": -0.420646607875824
        },
        {
            "x": 1.2448835372924805,
            "y": -0.19977131485939027
        },
        {
            "x": 1.723933219909668,
            "y": 0.08701968193054199
        },
        {
            "x": 1.302462100982666,
            "y": 0.35129445791244509
        }
    ],
    "triangles": [
        3,
        2,
        1,
        1,
        0,
        3
    ],
    "carDensity": 4.0,
    "suspension": 0.8770312666893005,
    "motorSpeed": 625,
    "frontDensity": 4.199999809265137,
    "frontRadius": 0.6163817048072815,
    "frontOffset": 1.388471007347107,
    "backDensity": 2.799999952316284,
    "backRadius": 0.4765843152999878,
    "backOffset": -1.1598864793777466,
    "score": 500,
    "maxDistance": 442,
    "maxTime": 76.0,
    "speed": 6
}{
    "ID": 1038,
    "genomaID": "CV5TD10",
    "color": {
        "x": 0.6678541302680969,
        "y": 0.1894550621509552,
        "z": 0.09089470654726029
    },
    "vertexNumber": 5,
    "colliderVertices": [
        {
            "x": -1.450082540512085,
            "y": -0.3264256417751312
        },
        {
            "x": 1.6309164762496949,
            "y": -0.17257346212863923
        },
        {
            "x": 1.3951244354248047,
            "y": 0.9331399202346802
        },
        {
            "x": 0.8065246939659119,
            "y": 0.41071170568466189
        },
        {
            "x": 0.2641932964324951,
            "y": 0.915885329246521
        }
    ],
    "triangles": [
        3,
        1,
        0,
        0,
        4,
        3,
        3,
        2,
        1
    ],
    "carDensity": 5.0,
    "suspension": 0.6546707153320313,
    "motorSpeed": 654,
    "frontDensity": 2.0999999046325685,
    "frontRadius": 0.4147917628288269,
    "frontOffset": 0.6313629150390625,
    "backDensity": 3.0999999046325685,
    "backRadius": 0.5083703994750977,
    "backOffset": -0.8264469504356384,
    "score": 49,
    "maxDistance": 14,
    "maxTime": 4.0,
    "speed": 4
}{
    "ID": 1105,
    "genomaID": "CV3TD11",
    "color": {
        "x": 0.9076980352401733,
        "y": 0.7683398723602295,
        "z": 0.020591260865330697
    },
    "vertexNumber": 3,
    "colliderVertices": [
        {
            "x": -1.729506254196167,
            "y": -0.0683530643582344
        },
        {
            "x": 1.0032778978347779,
            "y": -0.07679302245378494
        },
        {
            "x": 1.2297163009643555,
            "y": 0.11697566509246826
        }
    ],
    "triangles": [
        1,
        0,
        2
    ],
    "carDensity": 3.0,
    "suspension": 0.42381536960601809,
    "motorSpeed": 698,
    "frontDensity": 4.099999904632568,
    "frontRadius": 0.6118574142456055,
    "frontOffset": 0.8271346688270569,
    "backDensity": 4.400000095367432,
    "backRadius": 0.6378507018089294,
    "backOffset": -1.4970719814300538,
    "score": -11,
    "maxDistance": -1,
    "maxTime": 1.0,
    "speed": -1
}