{
    "ID": 3232,
    "genomaID": "CV5TD14",
    "color": {
        "x": 0.09961272776126862,
        "y": 0.9291048049926758,
        "z": 0.34228184819221499
    },
    "vertexNumber": 5,
    "colliderVertices": [
        {
            "x": -1.4619419574737549,
            "y": -0.025792304426431657
        },
        {
            "x": 1.2236697673797608,
            "y": -0.03496015444397926
        },
        {
            "x": 0.3147895336151123,
            "y": 0.05308365821838379
        },
        {
            "x": -1.0201373100280762,
            "y": 0.3243566155433655
        },
        {
            "x": -1.6845173835754395,
            "y": 0.1933356523513794
        }
    ],
    "triangles": [
        2,
        1,
        4,
        4,
        3,
        2,
        1,
        0,
        4
    ],
    "carDensity": 5.0,
    "suspension": 0.5019310712814331,
    "motorSpeed": 814,
    "frontDensity": 4.599999904632568,
    "frontRadius": 0.6576347947120667,
    "frontOffset": 1.388471007347107,
    "backDensity": 4.300000190734863,
    "backRadius": 0.6291878819465637,
    "backOffset": -0.5823053121566773,
    "score": 915,
    "maxDistance": 834,
    "maxTime": 103.19999694824219,
    "speed": 8
}{
    "ID": 3366,
    "genomaID": "CV5TD14",
    "color": {
        "x": 0.4310566782951355,
        "y": 0.958453893661499,
        "z": 0.9095916748046875
    },
    "vertexNumber": 5,
    "colliderVertices": [
        {
            "x": -1.4619419574737549,
            "y": -0.025792304426431657
        },
        {
            "x": 1.2236697673797608,
            "y": -0.03496015444397926
        },
        {
            "x": 0.3147895336151123,
            "y": 0.05308365821838379
        },
        {
            "x": -1.0201373100280762,
            "y": 0.3243566155433655
        },
        {
            "x": -1.6845173835754395,
            "y": 0.1933356523513794
        }
    ],
    "triangles": [
        2,
        1,
        4,
        4,
        3,
        2,
        1,
        0,
        4
    ],
    "carDensity": 5.0,
    "suspension": 0.6823587417602539,
    "motorSpeed": 814,
    "frontDensity": 4.599999904632568,
    "frontRadius": 0.6576347947120667,
    "frontOffset": 1.388471007347107,
    "backDensity": 4.300000190734863,
    "backRadius": 0.6291878819465637,
    "backOffset": -0.5823053121566773,
    "score": 913,
    "maxDistance": 834,
    "maxTime": 104.9000015258789,
    "speed": 8
}{
    "ID": 3307,
    "genomaID": "CV4TD11",
    "color": {
        "x": 0.2609601318836212,
        "y": 0.5470965504646301,
        "z": 0.25964418053627016
    },
    "vertexNumber": 4,
    "colliderVertices": [
        {
            "x": -1.2745606899261475,
            "y": -0.4104606509208679
        },
        {
            "x": 1.3801016807556153,
            "y": -0.24812278151512147
        },
        {
            "x": -0.9609777927398682,
            "y": 0.04112064838409424
        },
        {
            "x": -1.2468810081481934,
            "y": 0.670784592628479
        }
    ],
    "triangles": [
        0,
        3,
        2,
        2,
        1,
        0
    ],
    "carDensity": 4.0,
    "suspension": 0.49909934401512148,
    "motorSpeed": 563,
    "frontDensity": 4.300000190734863,
    "frontRadius": 0.6272182464599609,
    "frontOffset": 0.8920844793319702,
    "backDensity": 3.4000000953674318,
    "backRadius": 0.5351598858833313,
    "backOffset": -0.7711105942726135,
    "score": 885,
    "maxDistance": 833,
    "maxTime": 159.8000030517578,
    "speed": 5
}{
    "ID": 3265,
    "genomaID": "CV5TD11",
    "color": {
        "x": 0.5751407742500305,
        "y": 0.5215149521827698,
        "z": 0.42603880167007449
    },
    "vertexNumber": 5,
    "colliderVertices": [
        {
            "x": -1.6563169956207276,
            "y": -0.2202756106853485
        },
        {
            "x": 1.3417630195617676,
            "y": -0.1557324081659317
        },
        {
            "x": 0.6843642592430115,
            "y": 0.7959913015365601
        },
        {
            "x": -1.2365851402282715,
            "y": 0.8295127153396606
        },
        {
            "x": -1.5413308143615723,
            "y": 0.8049659729003906
        }
    ],
    "triangles": [
        1,
        4,
        3,
        3,
        2,
        1,
        1,
        0,
        4
    ],
    "carDensity": 5.0,
    "suspension": 0.7913943529129028,
    "motorSpeed": 1029,
    "frontDensity": 3.5999999046325685,
    "frontRadius": 0.5563618540763855,
    "frontOffset": 0.7802907824516296,
    "backDensity": 2.200000047683716,
    "backRadius": 0.4235936105251312,
    "backOffset": -0.8127736449241638,
    "score": 6,
    "maxDistance": 1,
    "maxTime": 2.0,
    "speed": 0
}{
    "ID": 3312,
    "genomaID": "CV4TD12",
    "color": {
        "x": 0.4010923504829407,
        "y": 0.41039472818374636,
        "z": 0.9144572019577026
    },
    "vertexNumber": 4,
    "colliderVertices": [
        {
            "x": -1.2035150527954102,
            "y": -0.06920195370912552
        },
        {
            "x": 1.0655417442321778,
            "y": -0.17023791372776032
        },
        {
            "x": 0.04350447654724121,
            "y": 0.6507710218429565
        },
        {
            "x": -0.9458391666412354,
            "y": 0.06194627285003662
        }
    ],
    "triangles": [
        3,
        2,
        1,
        1,
        0,
        3
    ],
    "carDensity": 4.0,
    "suspension": 0.8483027815818787,
    "motorSpeed": 1344,
    "frontDensity": 3.5,
    "frontRadius": 0.545712411403656,
    "frontOffset": 0.5036004781723023,
    "backDensity": 3.9000000953674318,
    "backRadius": 0.5909703373908997,
    "backOffset": -1.2758989334106446,
    "score": -11,
    "maxDistance": -1,
    "maxTime": 1.0,
    "speed": -1
}