{
    "ID": 24799,
    "genomaID": "CV6TD12",
    "color": {
        "x": 0.406169593334198,
        "y": 0.5708659291267395,
        "z": 0.16985680162906648
    },
    "vertexNumber": 6,
    "colliderVertices": [
        {
            "x": -1.9525985717773438,
            "y": -0.13400913774967194
        },
        {
            "x": 1.9060025215148926,
            "y": -0.2439517080783844
        },
        {
            "x": 1.6900711059570313,
            "y": 0.9096370935440064
        },
        {
            "x": 1.0424909591674805,
            "y": 0.6249582171440125
        },
        {
            "x": 0.2906453609466553,
            "y": 0.7561354637145996
        },
        {
            "x": -0.4134705066680908,
            "y": 0.984201192855835
        }
    ],
    "triangles": [
        4,
        3,
        1,
        1,
        5,
        4,
        3,
        2,
        1,
        1,
        0,
        5
    ],
    "carDensity": 6.0,
    "suspension": 0.8881239891052246,
    "motorSpeed": 1420,
    "frontDensity": 3.200000047683716,
    "frontRadius": 0.5228240489959717,
    "frontOffset": 1.4343695640563965,
    "backDensity": 2.9000000953674318,
    "backRadius": 0.4929593801498413,
    "backOffset": -1.3490467071533204,
    "score": 11,
    "maxDistance": 23,
    "maxTime": 2.9744009971618654
}{
    "ID": 24709,
    "genomaID": "CV6TD13",
    "color": {
        "x": 0.22794702649116517,
        "y": 0.42055875062942507,
        "z": 0.7711365222930908
    },
    "vertexNumber": 6,
    "colliderVertices": [
        {
            "x": -1.500157117843628,
            "y": -0.2721427381038666
        },
        {
            "x": 1.5656499862670899,
            "y": -0.1267850548028946
        },
        {
            "x": 1.9556794166564942,
            "y": 0.5040422081947327
        },
        {
            "x": 0.995170533657074,
            "y": 0.976394772529602
        },
        {
            "x": -0.4432065486907959,
            "y": 0.12165272235870362
        },
        {
            "x": -0.5702722072601318,
            "y": 0.7684260606765747
        }
    ],
    "triangles": [
        4,
        2,
        0,
        0,
        5,
        4,
        4,
        3,
        2,
        2,
        1,
        0
    ],
    "carDensity": 6.0,
    "suspension": 0.6533706188201904,
    "motorSpeed": 900,
    "frontDensity": 4.199999809265137,
    "frontRadius": 0.617035448551178,
    "frontOffset": 1.2213902473449708,
    "backDensity": 3.200000047683716,
    "backRadius": 0.5199900269508362,
    "backOffset": -1.2100542783737183,
    "score": 4,
    "maxDistance": 14,
    "maxTime": 3.140528917312622
}{
    "ID": 24798,
    "genomaID": "CV6TD13",
    "color": {
        "x": 0.11907972395420075,
        "y": 0.292845755815506,
        "z": 0.6035632491111755
    },
    "vertexNumber": 6,
    "colliderVertices": [
        {
            "x": -1.2556657791137696,
            "y": -0.09600807726383209
        },
        {
            "x": 1.6493796110153199,
            "y": -0.20946922898292542
        },
        {
            "x": 1.7716164588928223,
            "y": 0.7760426998138428
        },
        {
            "x": 1.703557014465332,
            "y": 0.30769819021224978
        },
        {
            "x": 1.4816689491271973,
            "y": 0.7656292915344238
        },
        {
            "x": -0.7060787677764893,
            "y": 0.6568202972412109
        }
    ],
    "triangles": [
        3,
        1,
        5,
        5,
        4,
        3,
        3,
        2,
        1,
        1,
        0,
        5
    ],
    "carDensity": 6.0,
    "suspension": 0.5591145753860474,
    "motorSpeed": 1480,
    "frontDensity": 2.5999999046325685,
    "frontRadius": 0.4588761031627655,
    "frontOffset": 1.3864097595214844,
    "backDensity": 4.099999904632568,
    "backRadius": 0.6139703989028931,
    "backOffset": -0.7606490254402161,
    "score": 0,
    "maxDistance": 0,
    "maxTime": 1.2090290784835816
}