{
    "ID": 9412,
    "genomaID": "CV6TD13",
    "color": {
        "x": 0.9857885837554932,
        "y": 0.9460800886154175,
        "z": 0.868019700050354
    },
    "vertexNumber": 6,
    "colliderVertices": [
        {
            "x": -1.9166544675827027,
            "y": -0.14012934267520905
        },
        {
            "x": 1.636130452156067,
            "y": -0.49136918783187868
        },
        {
            "x": 1.7613778114318848,
            "y": 0.49579042196273806
        },
        {
            "x": 1.1909756660461426,
            "y": 0.3718474507331848
        },
        {
            "x": -0.8943197727203369,
            "y": 0.13261651992797852
        },
        {
            "x": -1.515303611755371,
            "y": 0.7274086475372315
        }
    ],
    "triangles": [
        0,
        4,
        3,
        3,
        1,
        0,
        0,
        5,
        4,
        3,
        2,
        1
    ],
    "carDensity": 6.0,
    "suspension": 0.6096053719520569,
    "motorSpeed": 1383,
    "frontDensity": 3.9000000953674318,
    "frontRadius": 0.5896252393722534,
    "frontOffset": 0.8494054079055786,
    "backDensity": 2.799999952316284,
    "backRadius": 0.4819824695587158,
    "backOffset": -1.3205816745758057,
    "score": 9,
    "maxDistance": 145,
    "maxTime": 16.98255157470703
}{
    "ID": 9586,
    "genomaID": "CV6TD14",
    "color": {
        "x": 0.7409629225730896,
        "y": 0.9247779846191406,
        "z": 0.8641488552093506
    },
    "vertexNumber": 6,
    "colliderVertices": [
        {
            "x": -1.9320340156555176,
            "y": -0.46792250871658327
        },
        {
            "x": 1.5481882095336915,
            "y": -0.09748782217502594
        },
        {
            "x": 1.432600975036621,
            "y": 0.9457038640975952
        },
        {
            "x": 1.1436166763305665,
            "y": 0.44187408685684206
        },
        {
            "x": 0.1260673999786377,
            "y": 0.999814510345459
        },
        {
            "x": -0.44006991386413576,
            "y": 0.6481430530548096
        }
    ],
    "triangles": [
        3,
        1,
        5,
        5,
        4,
        3,
        3,
        2,
        1,
        1,
        0,
        5
    ],
    "carDensity": 6.0,
    "suspension": 0.5282506942749023,
    "motorSpeed": 974,
    "frontDensity": 3.5999999046325685,
    "frontRadius": 0.5564247965812683,
    "frontOffset": 1.065571904182434,
    "backDensity": 3.799999952316284,
    "backRadius": 0.5785132646560669,
    "backOffset": -1.426776647567749,
    "score": 5,
    "maxDistance": 10,
    "maxTime": 2.4576966762542726
}{
    "ID": 9597,
    "genomaID": "CV3TD7",
    "color": {
        "x": 0.6526899933815002,
        "y": 0.30104103684425356,
        "z": 0.5253141522407532
    },
    "vertexNumber": 3,
    "colliderVertices": [
        {
            "x": -1.2345716953277588,
            "y": -0.4620646834373474
        },
        {
            "x": 1.532228708267212,
            "y": -0.31646624207496645
        },
        {
            "x": -0.3968026638031006,
            "y": 0.6662782430648804
        }
    ],
    "triangles": [
        1,
        0,
        2
    ],
    "carDensity": 3.0,
    "suspension": 0.7575623989105225,
    "motorSpeed": 1033,
    "frontDensity": 2.200000047683716,
    "frontRadius": 0.419109046459198,
    "frontOffset": 1.4190402030944825,
    "backDensity": 2.0999999046325685,
    "backRadius": 0.4138452112674713,
    "backOffset": -1.3780837059020997,
    "score": 0,
    "maxDistance": 0,
    "maxTime": 0.0
}