{
    "ID": 10061,
    "genomaID": "CV6TD12",
    "color": {
        "x": 0.6354710459709168,
        "y": 0.6601715683937073,
        "z": 0.612029492855072
    },
    "vertexNumber": 6,
    "colliderVertices": [
        {
            "x": -1.7677003145217896,
            "y": -0.11315925419330597
        },
        {
            "x": 1.9918580055236817,
            "y": -0.3171134889125824
        },
        {
            "x": 1.9429898262023926,
            "y": 0.15815162658691407
        },
        {
            "x": 1.742426872253418,
            "y": 0.8442530632019043
        },
        {
            "x": -0.7575948238372803,
            "y": 0.8823989629745483
        },
        {
            "x": -1.61751127243042,
            "y": 0.789685845375061
        }
    ],
    "triangles": [
        3,
        1,
        5,
        5,
        4,
        3,
        3,
        2,
        1,
        1,
        0,
        5
    ],
    "carDensity": 6.0,
    "suspension": 0.7732364535331726,
    "motorSpeed": 1207,
    "frontDensity": 3.200000047683716,
    "frontRadius": 0.5160467028617859,
    "frontOffset": 1.469719648361206,
    "backDensity": 2.700000047683716,
    "backRadius": 0.4733085334300995,
    "backOffset": -1.0097295045852662,
    "score": 10,
    "maxDistance": 51,
    "maxTime": 5.734371662139893
}{
    "ID": 10089,
    "genomaID": "CV5TD12",
    "color": {
        "x": 0.8611098527908325,
        "y": 0.6237648129463196,
        "z": 0.21346846222877503
    },
    "vertexNumber": 5,
    "colliderVertices": [
        {
            "x": -1.386472463607788,
            "y": -0.132198765873909
        },
        {
            "x": 1.7513481378555298,
            "y": -0.4997939467430115
        },
        {
            "x": -1.3228645324707032,
            "y": 0.6122066378593445
        },
        {
            "x": -1.418285846710205,
            "y": 0.8391040563583374
        },
        {
            "x": -1.7313666343688965,
            "y": 0.5870769619941711
        }
    ],
    "triangles": [
        2,
        1,
        4,
        4,
        3,
        2,
        1,
        0,
        4
    ],
    "carDensity": 5.0,
    "suspension": 0.46366026997566225,
    "motorSpeed": 1418,
    "frontDensity": 4.300000190734863,
    "frontRadius": 0.6289008259773254,
    "frontOffset": 1.3208540678024293,
    "backDensity": 2.799999952316284,
    "backRadius": 0.4775378704071045,
    "backOffset": -1.484567403793335,
    "score": 4,
    "maxDistance": 12,
    "maxTime": 3.0342111587524416
}{
    "ID": 10200,
    "genomaID": "CV4TD10",
    "color": {
        "x": 0.6669322848320007,
        "y": 0.6904157996177673,
        "z": 0.816731333732605
    },
    "vertexNumber": 4,
    "colliderVertices": [
        {
            "x": -1.6700046062469483,
            "y": -0.2244674265384674
        },
        {
            "x": 1.4964032173156739,
            "y": -0.43365204334259035
        },
        {
            "x": 1.4301567077636719,
            "y": 0.5987264513969421
        },
        {
            "x": 1.0780420303344727,
            "y": 0.016180992126464845
        }
    ],
    "triangles": [
        3,
        2,
        1,
        1,
        0,
        3
    ],
    "carDensity": 4.0,
    "suspension": 0.9158681035041809,
    "motorSpeed": 1418,
    "frontDensity": 2.9000000953674318,
    "frontRadius": 0.48938101530075076,
    "frontOffset": 1.241652011871338,
    "backDensity": 2.799999952316284,
    "backRadius": 0.4778365194797516,
    "backOffset": -0.5050960779190064,
    "score": 0,
    "maxDistance": 0,
    "maxTime": 1.3335916996002198
}