{
    "ID": 7471,
    "genomaID": "CV6TD12",
    "color": {
        "x": 0.1512838751077652,
        "y": 0.036854032427072528,
        "z": 0.6398622393608093
    },
    "vertexNumber": 6,
    "colliderVertices": [
        {
            "x": -1.7677003145217896,
            "y": -0.11315925419330597
        },
        {
            "x": 1.9918580055236817,
            "y": -0.3171134889125824
        },
        {
            "x": 1.9429898262023926,
            "y": 0.15815162658691407
        },
        {
            "x": 1.742426872253418,
            "y": 0.8442530632019043
        },
        {
            "x": -0.7575948238372803,
            "y": 0.8823989629745483
        },
        {
            "x": -1.61751127243042,
            "y": 0.789685845375061
        }
    ],
    "triangles": [
        3,
        1,
        5,
        5,
        4,
        3,
        3,
        2,
        1,
        1,
        0,
        5
    ],
    "carDensity": 6.0,
    "suspension": 0.5382036566734314,
    "motorSpeed": 1405,
    "frontDensity": 2.5999999046325685,
    "frontRadius": 0.4602731466293335,
    "frontOffset": 1.4699561595916749,
    "backDensity": 2.9000000953674318,
    "backRadius": 0.48696640133857729,
    "backOffset": -1.142249345779419,
    "score": 10,
    "maxDistance": 52,
    "maxTime": 5.360077381134033
}{
    "ID": 7534,
    "genomaID": "CV6TD11",
    "color": {
        "x": 0.4873395562171936,
        "y": 0.5539334416389465,
        "z": 0.8653339147567749
    },
    "vertexNumber": 6,
    "colliderVertices": [
        {
            "x": -1.10792076587677,
            "y": -0.01127863023430109
        },
        {
            "x": 1.1799300909042359,
            "y": -0.06779343634843826
        },
        {
            "x": 0.4120614528656006,
            "y": 0.46825486421585085
        },
        {
            "x": 0.19397997856140138,
            "y": 0.5746509432792664
        },
        {
            "x": -1.7921385765075684,
            "y": 0.926842212677002
        },
        {
            "x": -1.793808937072754,
            "y": 0.038841962814331058
        }
    ],
    "triangles": [
        3,
        1,
        5,
        5,
        4,
        3,
        3,
        2,
        1,
        1,
        0,
        5
    ],
    "carDensity": 6.0,
    "suspension": 0.6025822162628174,
    "motorSpeed": 843,
    "frontDensity": 3.299999952316284,
    "frontRadius": 0.5269550085067749,
    "frontOffset": 1.0675517320632935,
    "backDensity": 2.299999952316284,
    "backRadius": 0.43143191933631899,
    "backOffset": -1.1992342472076417,
    "score": 5,
    "maxDistance": 147,
    "maxTime": 26.414289474487306
}{
    "ID": 7460,
    "genomaID": "CV5TD12",
    "color": {
        "x": 0.18647290766239167,
        "y": 0.4094894528388977,
        "z": 0.5074180960655212
    },
    "vertexNumber": 5,
    "colliderVertices": [
        {
            "x": -1.567183256149292,
            "y": -0.017055930569767953
        },
        {
            "x": 1.2943816184997559,
            "y": -0.20456376671791078
        },
        {
            "x": -0.3869211673736572,
            "y": 0.30087810754776
        },
        {
            "x": -0.7283623218536377,
            "y": 0.4178653359413147
        },
        {
            "x": -1.3280730247497559,
            "y": 0.2214818000793457
        }
    ],
    "triangles": [
        2,
        1,
        4,
        4,
        3,
        2,
        1,
        0,
        4
    ],
    "carDensity": 5.0,
    "suspension": 0.9352571964263916,
    "motorSpeed": 619,
    "frontDensity": 2.4000000953674318,
    "frontRadius": 0.44087713956832888,
    "frontOffset": 1.1755855083465577,
    "backDensity": 4.900000095367432,
    "backRadius": 0.6910080909729004,
    "backOffset": -1.0266865491867066,
    "score": -1,
    "maxDistance": -1,
    "maxTime": 1.2698018550872803
}