{
    "ID": 28828,
    "genomaID": "CV4TD8",
    "color": {
        "x": 0.926345944404602,
        "y": 0.4824504256248474,
        "z": 0.5211102366447449
    },
    "vertexNumber": 4,
    "colliderVertices": [
        {
            "x": -1.9679855108261109,
            "y": -0.413580060005188
        },
        {
            "x": 1.8423857688903809,
            "y": -0.11639173328876496
        },
        {
            "x": 1.626511573791504,
            "y": 0.9221012592315674
        },
        {
            "x": 0.8729023337364197,
            "y": 0.7549170255661011
        }
    ],
    "triangles": [
        3,
        2,
        1,
        1,
        0,
        3
    ],
    "carDensity": 4.0,
    "suspension": 0.7126375436782837,
    "motorSpeed": 1315,
    "frontDensity": 2.4000000953674318,
    "frontRadius": 0.43844425678253176,
    "frontOffset": 1.483280062675476,
    "backDensity": 2.0999999046325685,
    "backRadius": 0.4065137505531311,
    "backOffset": -1.2939585447311402,
    "score": 9,
    "maxDistance": 109,
    "maxTime": 12.842988014221192
}{
    "ID": 28974,
    "genomaID": "CV5TD9",
    "color": {
        "x": 0.6422478556632996,
        "y": 0.05773008614778519,
        "z": 0.08690620213747025
    },
    "vertexNumber": 5,
    "colliderVertices": [
        {
            "x": -1.0180319547653199,
            "y": -0.26981839537620547
        },
        {
            "x": 1.7236841917037964,
            "y": -0.1713198572397232
        },
        {
            "x": 1.5671696662902833,
            "y": 0.8903108835220337
        },
        {
            "x": -0.19453644752502442,
            "y": 0.34613436460494997
        },
        {
            "x": -0.8452999591827393,
            "y": 0.3261677622795105
        }
    ],
    "triangles": [
        1,
        4,
        3,
        3,
        2,
        1,
        1,
        0,
        4
    ],
    "carDensity": 5.0,
    "suspension": 0.6427516341209412,
    "motorSpeed": 692,
    "frontDensity": 2.200000047683716,
    "frontRadius": 0.41628897190093996,
    "frontOffset": 1.214082956314087,
    "backDensity": 2.200000047683716,
    "backRadius": 0.41818296909332278,
    "backOffset": -1.497328519821167,
    "score": 5,
    "maxDistance": 50,
    "maxTime": 10.755452156066895
}{
    "ID": 28999,
    "genomaID": "CV6TD13",
    "color": {
        "x": 0.406169593334198,
        "y": 0.5708659291267395,
        "z": 0.16985680162906648
    },
    "vertexNumber": 6,
    "colliderVertices": [
        {
            "x": -1.1556174755096436,
            "y": -0.02447379007935524
        },
        {
            "x": 1.4479296207427979,
            "y": -0.4152119755744934
        },
        {
            "x": 1.769331932067871,
            "y": 0.3951963782310486
        },
        {
            "x": 0.3261711597442627,
            "y": 0.23199355602264405
        },
        {
            "x": -0.17899298667907716,
            "y": 0.5953486561775208
        },
        {
            "x": -1.7909417152404786,
            "y": 0.19261515140533448
        }
    ],
    "triangles": [
        3,
        1,
        5,
        5,
        4,
        3,
        3,
        2,
        1,
        1,
        0,
        5
    ],
    "carDensity": 6.0,
    "suspension": 0.9849163293838501,
    "motorSpeed": 1221,
    "frontDensity": 2.4000000953674318,
    "frontRadius": 0.44064563512802126,
    "frontOffset": 1.3279986381530762,
    "backDensity": 4.599999904632568,
    "backRadius": 0.656795859336853,
    "backOffset": -1.1251415014266968,
    "score": 0,
    "maxDistance": 0,
    "maxTime": 1.39264976978302
}