{
    "ID": 5216,
    "genomaID": "CV6TD12",
    "color": {
        "x": 0.16616524755954743,
        "y": 0.5490737557411194,
        "z": 0.5933083891868591
    },
    "vertexNumber": 6,
    "colliderVertices": [
        {
            "x": -1.7677003145217896,
            "y": -0.11315925419330597
        },
        {
            "x": 1.9918580055236817,
            "y": -0.3171134889125824
        },
        {
            "x": 1.9429898262023926,
            "y": 0.15815162658691407
        },
        {
            "x": 1.742426872253418,
            "y": 0.8442530632019043
        },
        {
            "x": -0.7575948238372803,
            "y": 0.8823989629745483
        },
        {
            "x": -1.61751127243042,
            "y": 0.789685845375061
        }
    ],
    "triangles": [
        3,
        1,
        5,
        5,
        4,
        3,
        3,
        2,
        1,
        1,
        0,
        5
    ],
    "carDensity": 6.0,
    "suspension": 0.6363192796707153,
    "motorSpeed": 1348,
    "frontDensity": 4.300000190734863,
    "frontRadius": 0.6270322203636169,
    "frontOffset": 1.319092035293579,
    "backDensity": 2.0999999046325685,
    "backRadius": 0.41300415992736819,
    "backOffset": -1.3707259893417359,
    "score": 9,
    "maxDistance": 141,
    "maxTime": 15.187752723693848
}{
    "ID": 5326,
    "genomaID": "CV6TD14",
    "color": {
        "x": 0.381916344165802,
        "y": 0.7379807829856873,
        "z": 0.11854220926761627
    },
    "vertexNumber": 6,
    "colliderVertices": [
        {
            "x": -1.7677003145217896,
            "y": -0.11315925419330597
        },
        {
            "x": 1.9918580055236817,
            "y": -0.3171134889125824
        },
        {
            "x": 1.9429898262023926,
            "y": 0.15815162658691407
        },
        {
            "x": 1.742426872253418,
            "y": 0.8442530632019043
        },
        {
            "x": -0.7575948238372803,
            "y": 0.8823989629745483
        },
        {
            "x": -1.61751127243042,
            "y": 0.789685845375061
        }
    ],
    "triangles": [
        3,
        1,
        5,
        5,
        4,
        3,
        3,
        2,
        1,
        1,
        0,
        5
    ],
    "carDensity": 6.0,
    "suspension": 0.414818674325943,
    "motorSpeed": 938,
    "frontDensity": 3.5999999046325685,
    "frontRadius": 0.5579509139060974,
    "frontOffset": 1.2965840101242066,
    "backDensity": 4.300000190734863,
    "backRadius": 0.6349472403526306,
    "backOffset": -1.0585881471633912,
    "score": 5,
    "maxDistance": 10,
    "maxTime": 2.5073864459991457
}{
    "ID": 5379,
    "genomaID": "CV4TD11",
    "color": {
        "x": 0.7351779341697693,
        "y": 0.9032598733901978,
        "z": 0.7280604243278503
    },
    "vertexNumber": 4,
    "colliderVertices": [
        {
            "x": -1.4008238315582276,
            "y": -0.02121436782181263
        },
        {
            "x": 1.5442819595336915,
            "y": -0.02403515949845314
        },
        {
            "x": 0.632995069026947,
            "y": 0.42224305868148806
        },
        {
            "x": -1.288862705230713,
            "y": 0.29445821046829226
        }
    ],
    "triangles": [
        3,
        2,
        1,
        1,
        0,
        3
    ],
    "carDensity": 4.0,
    "suspension": 0.6934974193572998,
    "motorSpeed": 1066,
    "frontDensity": 2.5,
    "frontRadius": 0.4502829313278198,
    "frontOffset": 1.23041570186615,
    "backDensity": 4.800000190734863,
    "backRadius": 0.6751789450645447,
    "backOffset": -1.3650150299072266,
    "score": -1,
    "maxDistance": -1,
    "maxTime": 1.0814883708953858
}