{
    "ID": 18801,
    "genomaID": "CV6TD12",
    "color": {
        "x": 0.4243142008781433,
        "y": 0.3698205053806305,
        "z": 0.03147173300385475
    },
    "vertexNumber": 6,
    "colliderVertices": [
        {
            "x": -1.7677003145217896,
            "y": -0.11315925419330597
        },
        {
            "x": 1.9918580055236817,
            "y": -0.3171134889125824
        },
        {
            "x": 1.9429898262023926,
            "y": 0.15815162658691407
        },
        {
            "x": 1.742426872253418,
            "y": 0.8442530632019043
        },
        {
            "x": -0.7575948238372803,
            "y": 0.8823989629745483
        },
        {
            "x": -1.61751127243042,
            "y": 0.789685845375061
        }
    ],
    "triangles": [
        3,
        1,
        5,
        5,
        4,
        3,
        3,
        2,
        1,
        1,
        0,
        5
    ],
    "carDensity": 6.0,
    "suspension": 0.8426811695098877,
    "motorSpeed": 1306,
    "frontDensity": 3.299999952316284,
    "frontRadius": 0.5268493294715881,
    "frontOffset": 1.2129313945770264,
    "backDensity": 3.0,
    "backRadius": 0.49566787481307986,
    "backOffset": -1.3682820796966553,
    "score": 9,
    "maxDistance": 141,
    "maxTime": 15.693942070007325
}{
    "ID": 18963,
    "genomaID": "CV4TD11",
    "color": {
        "x": 0.9234883785247803,
        "y": 0.10598565638065338,
        "z": 0.46439582109451296
    },
    "vertexNumber": 4,
    "colliderVertices": [
        {
            "x": -1.5498125553131104,
            "y": -0.11495579779148102
        },
        {
            "x": 1.9220353364944459,
            "y": -0.10897417366504669
        },
        {
            "x": 0.2820718288421631,
            "y": 0.12901628017425538
        },
        {
            "x": 0.2715446949005127,
            "y": 0.1466764211654663
        }
    ],
    "triangles": [
        0,
        3,
        2,
        2,
        1,
        0
    ],
    "carDensity": 4.0,
    "suspension": 0.5038224458694458,
    "motorSpeed": 646,
    "frontDensity": 4.0,
    "frontRadius": 0.5957030653953552,
    "frontOffset": 0.813908040523529,
    "backDensity": 3.299999952316284,
    "backRadius": 0.5281600952148438,
    "backOffset": -1.3575656414031983,
    "score": 5,
    "maxDistance": 10,
    "maxTime": 2.918874502182007
}{
    "ID": 18912,
    "genomaID": "CV3TD9",
    "color": {
        "x": 0.09216213971376419,
        "y": 0.94767165184021,
        "z": 0.42320793867111208
    },
    "vertexNumber": 3,
    "colliderVertices": [
        {
            "x": -1.4079244136810303,
            "y": -0.08171475678682327
        },
        {
            "x": 1.055066466331482,
            "y": -0.09847201406955719
        },
        {
            "x": -0.905684232711792,
            "y": 0.4859543442726135
        }
    ],
    "triangles": [
        1,
        0,
        2
    ],
    "carDensity": 3.0,
    "suspension": 0.9556789398193359,
    "motorSpeed": 1297,
    "frontDensity": 2.5,
    "frontRadius": 0.4477952718734741,
    "frontOffset": 1.390505075454712,
    "backDensity": 4.0,
    "backRadius": 0.5967273712158203,
    "backOffset": -1.1808995008468629,
    "score": -1,
    "maxDistance": -1,
    "maxTime": 1.1222107410430909
}