{
    "ID": 23821,
    "genomaID": "CV5TD12",
    "color": {
        "x": 0.4273146986961365,
        "y": 0.04520118609070778,
        "z": 0.07884050160646439
    },
    "vertexNumber": 5,
    "colliderVertices": [
        {
            "x": -1.4085266590118409,
            "y": -0.2534275949001312
        },
        {
            "x": 1.5022940635681153,
            "y": -0.04325622692704201
        },
        {
            "x": 0.8783006072044373,
            "y": 0.27451950311660769
        },
        {
            "x": 0.7213062644004822,
            "y": 0.89979088306427
        },
        {
            "x": 0.061048269271850589,
            "y": 0.09638059139251709
        }
    ],
    "triangles": [
        2,
        1,
        4,
        4,
        3,
        2,
        1,
        0,
        4
    ],
    "carDensity": 5.0,
    "suspension": 0.8238022923469544,
    "motorSpeed": 1335,
    "frontDensity": 3.9000000953674318,
    "frontRadius": 0.588707685470581,
    "frontOffset": 1.401512622833252,
    "backDensity": 3.0,
    "backRadius": 0.4978153109550476,
    "backOffset": -0.8182610869407654,
    "score": 9,
    "maxDistance": 449,
    "maxTime": 47.18059539794922
}{
    "ID": 23945,
    "genomaID": "CV5TD10",
    "color": {
        "x": 0.5924790501594544,
        "y": 0.6314442753791809,
        "z": 0.6718260645866394
    },
    "vertexNumber": 5,
    "colliderVertices": [
        {
            "x": -1.8976839780807496,
            "y": -0.04044896736741066
        },
        {
            "x": 1.8204845190048218,
            "y": -0.256693035364151
        },
        {
            "x": 1.9914774894714356,
            "y": 0.8195737600326538
        },
        {
            "x": 1.4147453308105469,
            "y": 0.8704729080200195
        },
        {
            "x": -1.7798709869384766,
            "y": 0.13985586166381837
        }
    ],
    "triangles": [
        1,
        4,
        3,
        3,
        2,
        1,
        1,
        0,
        4
    ],
    "carDensity": 5.0,
    "suspension": 0.8323425650596619,
    "motorSpeed": 798,
    "frontDensity": 2.200000047683716,
    "frontRadius": 0.4226149618625641,
    "frontOffset": 0.8909317255020142,
    "backDensity": 2.799999952316284,
    "backRadius": 0.4808928370475769,
    "backOffset": -1.444667100906372,
    "score": 5,
    "maxDistance": 47,
    "maxTime": 8.977499961853028
}{
    "ID": 24000,
    "genomaID": "CV5TD10",
    "color": {
        "x": 0.6669322848320007,
        "y": 0.6904157996177673,
        "z": 0.816731333732605
    },
    "vertexNumber": 5,
    "colliderVertices": [
        {
            "x": -1.88264000415802,
            "y": -0.012596191838383675
        },
        {
            "x": 1.804811716079712,
            "y": -0.46846628189086916
        },
        {
            "x": -0.5288140773773193,
            "y": 0.7418497800827026
        },
        {
            "x": -1.4307942390441895,
            "y": 0.9526463747024536
        },
        {
            "x": -1.891960620880127,
            "y": 0.011938333511352539
        }
    ],
    "triangles": [
        1,
        4,
        3,
        3,
        2,
        1,
        1,
        0,
        4
    ],
    "carDensity": 5.0,
    "suspension": 0.4952896535396576,
    "motorSpeed": 765,
    "frontDensity": 2.700000047683716,
    "frontRadius": 0.47451353073120119,
    "frontOffset": 1.1030172109603882,
    "backDensity": 2.0999999046325685,
    "backRadius": 0.41096559166908266,
    "backOffset": -1.4510811567306519,
    "score": 0,
    "maxDistance": 0,
    "maxTime": 0.0
}