{
    "ID": 8640,
    "genomaID": "CV6TD15",
    "color": {
        "x": 0.3455256521701813,
        "y": 0.2904111444950104,
        "z": 0.94789719581604
    },
    "vertexNumber": 6,
    "colliderVertices": [
        {
            "x": -1.7677003145217896,
            "y": -0.11315925419330597
        },
        {
            "x": 1.9918580055236817,
            "y": -0.3171134889125824
        },
        {
            "x": 1.9429898262023926,
            "y": 0.15815162658691407
        },
        {
            "x": 1.742426872253418,
            "y": 0.8442530632019043
        },
        {
            "x": -0.7575948238372803,
            "y": 0.8823989629745483
        },
        {
            "x": -1.61751127243042,
            "y": 0.789685845375061
        }
    ],
    "triangles": [
        3,
        1,
        5,
        5,
        4,
        3,
        3,
        2,
        1,
        1,
        0,
        5
    ],
    "carDensity": 6.0,
    "suspension": 0.5599328279495239,
    "motorSpeed": 1336,
    "frontDensity": 4.300000190734863,
    "frontRadius": 0.6299880743026733,
    "frontOffset": 1.3072938919067383,
    "backDensity": 4.900000095367432,
    "backRadius": 0.6865247488021851,
    "backOffset": -1.2651927471160889,
    "score": 11,
    "maxDistance": 83,
    "maxTime": 7.934627532958984
}{
    "ID": 8800,
    "genomaID": "CV6TD10",
    "color": {
        "x": 0.6669322848320007,
        "y": 0.6904157996177673,
        "z": 0.816731333732605
    },
    "vertexNumber": 6,
    "colliderVertices": [
        {
            "x": -1.1273369789123536,
            "y": -0.07974863797426224
        },
        {
            "x": 1.9797780513763428,
            "y": -0.06456119567155838
        },
        {
            "x": 0.7705320715904236,
            "y": 0.41117626428604128
        },
        {
            "x": 0.6148175597190857,
            "y": 0.947115421295166
        },
        {
            "x": -0.46965765953063967,
            "y": 0.136985182762146
        },
        {
            "x": -0.700354814529419,
            "y": 0.9681872129440308
        }
    ],
    "triangles": [
        4,
        2,
        0,
        0,
        5,
        4,
        4,
        3,
        2,
        2,
        1,
        0
    ],
    "carDensity": 6.0,
    "suspension": 0.5285485982894898,
    "motorSpeed": 1243,
    "frontDensity": 2.0,
    "frontRadius": 0.40388062596321108,
    "frontOffset": 0.5457578897476196,
    "backDensity": 2.0999999046325685,
    "backRadius": 0.4131450653076172,
    "backOffset": -1.1805965900421143,
    "score": 5,
    "maxDistance": 15,
    "maxTime": 3.1882615089416506
}{
    "ID": 8796,
    "genomaID": "CV6TD11",
    "color": {
        "x": 0.6876497864723206,
        "y": 0.015335919335484505,
        "z": 0.4553084969520569
    },
    "vertexNumber": 6,
    "colliderVertices": [
        {
            "x": -1.9913969039916993,
            "y": -0.49811190366744997
        },
        {
            "x": 1.7931162118911744,
            "y": -0.11860449612140656
        },
        {
            "x": 1.1901335716247559,
            "y": 0.08982360363006592
        },
        {
            "x": 0.6887025237083435,
            "y": 0.7880332469940186
        },
        {
            "x": -1.2142982482910157,
            "y": 0.8079971075057983
        },
        {
            "x": -1.8856005668640137,
            "y": 0.7018105983734131
        }
    ],
    "triangles": [
        4,
        2,
        1,
        1,
        5,
        4,
        4,
        3,
        2,
        1,
        0,
        5
    ],
    "carDensity": 6.0,
    "suspension": 0.6696332693099976,
    "motorSpeed": 907,
    "frontDensity": 3.0,
    "frontRadius": 0.49861717224121096,
    "frontOffset": 0.8967481851577759,
    "backDensity": 2.0999999046325685,
    "backRadius": 0.4061542749404907,
    "backOffset": -1.1561284065246583,
    "score": 0,
    "maxDistance": 0,
    "maxTime": 0.0
}