{
    "ID": 1455,
    "genomaID": "CV6TD13",
    "color": {
        "x": 0.4689651131629944,
        "y": 0.05388046056032181,
        "z": 0.6860767006874085
    },
    "vertexNumber": 6,
    "colliderVertices": [
        {
            "x": -1.644129753112793,
            "y": -0.31186673045158389
        },
        {
            "x": 1.470646858215332,
            "y": -0.3022795021533966
        },
        {
            "x": 1.7492661476135255,
            "y": 0.7434650659561157
        },
        {
            "x": 0.6535696387290955,
            "y": 0.036417245864868167
        },
        {
            "x": -1.1740870475769044,
            "y": 0.4949607253074646
        },
        {
            "x": -1.4322962760925294,
            "y": 0.5702773928642273
        }
    ],
    "triangles": [
        4,
        3,
        1,
        1,
        5,
        4,
        3,
        2,
        1,
        1,
        0,
        5
    ],
    "carDensity": 6.0,
    "suspension": 0.758415937423706,
    "motorSpeed": 1487,
    "frontDensity": 3.0999999046325685,
    "frontRadius": 0.5080191493034363,
    "frontOffset": 1.28557288646698,
    "backDensity": 3.700000047683716,
    "backRadius": 0.5707552433013916,
    "backOffset": -1.3738279342651368,
    "score": 10,
    "maxDistance": 141,
    "maxTime": 13.986438751220704
}{
    "ID": 1472,
    "genomaID": "CV6TD14",
    "color": {
        "x": 0.4119301438331604,
        "y": 0.3848915696144104,
        "z": 0.8153105974197388
    },
    "vertexNumber": 6,
    "colliderVertices": [
        {
            "x": -1.4820077419281006,
            "y": -0.4675917625427246
        },
        {
            "x": 1.7719602584838868,
            "y": -0.3482923209667206
        },
        {
            "x": 1.7773046493530274,
            "y": 0.32596689462661745
        },
        {
            "x": 1.4424476623535157,
            "y": 0.6131971478462219
        },
        {
            "x": -1.1089553833007813,
            "y": 0.6430457830429077
        },
        {
            "x": -1.8768653869628907,
            "y": 0.3339877724647522
        }
    ],
    "triangles": [
        3,
        1,
        5,
        5,
        4,
        3,
        3,
        2,
        1,
        1,
        0,
        5
    ],
    "carDensity": 6.0,
    "suspension": 0.8403374552726746,
    "motorSpeed": 732,
    "frontDensity": 4.300000190734863,
    "frontRadius": 0.6326642036437988,
    "frontOffset": 0.8845268487930298,
    "backDensity": 3.799999952316284,
    "backRadius": 0.5808555483818054,
    "backOffset": -1.2935113906860352,
    "score": 4,
    "maxDistance": 9,
    "maxTime": 2.5845835208892824
}{
    "ID": 1491,
    "genomaID": "CV4TD11",
    "color": {
        "x": 0.17863930761814118,
        "y": 0.6396428942680359,
        "z": 0.1949411928653717
    },
    "vertexNumber": 4,
    "colliderVertices": [
        {
            "x": -1.289982557296753,
            "y": -0.42263317108154299
        },
        {
            "x": 1.1802403926849366,
            "y": -0.013053836300969124
        },
        {
            "x": 1.8301029205322266,
            "y": 0.352533757686615
        },
        {
            "x": -1.757307529449463,
            "y": 0.13988041877746583
        }
    ],
    "triangles": [
        3,
        2,
        1,
        1,
        0,
        3
    ],
    "carDensity": 4.0,
    "suspension": 0.8104375600814819,
    "motorSpeed": 869,
    "frontDensity": 2.299999952316284,
    "frontRadius": 0.42653849720954897,
    "frontOffset": 1.0400818586349488,
    "backDensity": 4.599999904632568,
    "backRadius": 0.6558700799942017,
    "backOffset": -0.9459515810012817,
    "score": -1,
    "maxDistance": -1,
    "maxTime": 1.0521193742752076
}