{
    "ID": 840,
    "genomaID": "CV6TD12",
    "color": {
        "x": 0.3455256521701813,
        "y": 0.2904111444950104,
        "z": 0.94789719581604
    },
    "vertexNumber": 6,
    "colliderVertices": [
        {
            "x": -1.2791733741760255,
            "y": -0.2625948488712311
        },
        {
            "x": 1.6111199855804444,
            "y": -0.10918284952640534
        },
        {
            "x": 1.3581995964050294,
            "y": 0.9473791122436523
        },
        {
            "x": 0.2155311107635498,
            "y": 0.9683113098144531
        },
        {
            "x": -0.2607271671295166,
            "y": 0.544056236743927
        },
        {
            "x": -1.2408580780029297,
            "y": 0.8882536888122559
        }
    ],
    "triangles": [
        4,
        2,
        0,
        0,
        5,
        4,
        4,
        3,
        2,
        2,
        1,
        0
    ],
    "carDensity": 6.0,
    "suspension": 0.7770350575447083,
    "motorSpeed": 1304,
    "frontDensity": 3.0,
    "frontRadius": 0.5041601061820984,
    "frontOffset": 1.3163355588912964,
    "backDensity": 2.5999999046325685,
    "backRadius": 0.45688873529434206,
    "backOffset": -1.2427866458892823,
    "score": 8,
    "maxDistance": 17,
    "maxTime": 2.778860330581665
}{
    "ID": 995,
    "genomaID": "CV3TD10",
    "color": {
        "x": 0.09760905802249909,
        "y": 0.409294068813324,
        "z": 0.16144956648349763
    },
    "vertexNumber": 3,
    "colliderVertices": [
        {
            "x": -1.917353868484497,
            "y": -0.35557177662849429
        },
        {
            "x": 1.7711803913116456,
            "y": -0.05916590243577957
        },
        {
            "x": 0.2591989040374756,
            "y": 0.9583525657653809
        }
    ],
    "triangles": [
        1,
        0,
        2
    ],
    "carDensity": 3.0,
    "suspension": 0.44968509674072268,
    "motorSpeed": 534,
    "frontDensity": 3.5999999046325685,
    "frontRadius": 0.5611024498939514,
    "frontOffset": 1.325760841369629,
    "backDensity": 3.299999952316284,
    "backRadius": 0.5307543277740479,
    "backOffset": -1.4162486791610718,
    "score": 4,
    "maxDistance": 142,
    "maxTime": 34.17538070678711
}{
    "ID": 960,
    "genomaID": "CV3TD11",
    "color": {
        "x": 0.40752774477005007,
        "y": 0.9765362739562988,
        "z": 0.8049114942550659
    },
    "vertexNumber": 3,
    "colliderVertices": [
        {
            "x": -1.4269940853118897,
            "y": -0.04286325350403786
        },
        {
            "x": 1.5065362453460694,
            "y": -0.25093111395835879
        },
        {
            "x": -1.1999969482421876,
            "y": 0.21950948238372804
        }
    ],
    "triangles": [
        1,
        0,
        2
    ],
    "carDensity": 3.0,
    "suspension": 0.8786686658859253,
    "motorSpeed": 1383,
    "frontDensity": 3.0,
    "frontRadius": 0.5041601061820984,
    "frontOffset": 1.4192132949829102,
    "backDensity": 4.900000095367432,
    "backRadius": 0.6921859979629517,
    "backOffset": -0.8299931883811951,
    "score": -1,
    "maxDistance": -1,
    "maxTime": 1.0435622930526734
}