{
    "ID": 27455,
    "genomaID": "CV3TD10",
    "color": {
        "x": 0.4689651131629944,
        "y": 0.05388046056032181,
        "z": 0.6860767006874085
    },
    "vertexNumber": 3,
    "colliderVertices": [
        {
            "x": -1.0456702709197999,
            "y": -0.10178591310977936
        },
        {
            "x": 1.8635910749435425,
            "y": -0.24381449818611146
        },
        {
            "x": -0.9324538707733154,
            "y": 0.561825692653656
        }
    ],
    "triangles": [
        1,
        0,
        2
    ],
    "carDensity": 3.0,
    "suspension": 0.7889422178268433,
    "motorSpeed": 1414,
    "frontDensity": 3.5,
    "frontRadius": 0.547119677066803,
    "frontOffset": 1.0878747701644898,
    "backDensity": 2.9000000953674318,
    "backRadius": 0.49056529998779299,
    "backOffset": -1.2596540451049805,
    "score": 10,
    "maxDistance": 141,
    "maxTime": 14.962199211120606
}{
    "ID": 27592,
    "genomaID": "CV6TD11",
    "color": {
        "x": 0.21165171265602113,
        "y": 0.29555800557136538,
        "z": 0.36297276616096499
    },
    "vertexNumber": 6,
    "colliderVertices": [
        {
            "x": -1.9174729585647584,
            "y": -0.23920324444770814
        },
        {
            "x": 1.5842478275299073,
            "y": -0.24556991457939149
        },
        {
            "x": 1.6172118186950684,
            "y": 0.3980482220649719
        },
        {
            "x": 1.6008305549621583,
            "y": 0.4977187514305115
        },
        {
            "x": -1.256570816040039,
            "y": 0.307111918926239
        },
        {
            "x": -1.6067771911621094,
            "y": 0.6195479035377502
        }
    ],
    "triangles": [
        4,
        2,
        0,
        0,
        5,
        4,
        4,
        3,
        2,
        2,
        1,
        0
    ],
    "carDensity": 6.0,
    "suspension": 0.4265183210372925,
    "motorSpeed": 706,
    "frontDensity": 3.4000000953674318,
    "frontRadius": 0.5431498289108276,
    "frontOffset": 1.419875979423523,
    "backDensity": 2.299999952316284,
    "backRadius": 0.4290991425514221,
    "backOffset": -1.4373996257781983,
    "score": 5,
    "maxDistance": 17,
    "maxTime": 3.3117525577545168
}{
    "ID": 27597,
    "genomaID": "CV6TD13",
    "color": {
        "x": 0.6526899933815002,
        "y": 0.30104103684425356,
        "z": 0.5253141522407532
    },
    "vertexNumber": 6,
    "colliderVertices": [
        {
            "x": -1.1690001487731934,
            "y": -0.1648309975862503
        },
        {
            "x": 1.3671553134918213,
            "y": -0.033309463411569598
        },
        {
            "x": 1.6899967193603516,
            "y": 0.4089180827140808
        },
        {
            "x": 1.5617032051086426,
            "y": 0.8711812496185303
        },
        {
            "x": 1.0467276573181153,
            "y": 0.6290178298950195
        },
        {
            "x": -0.3229544162750244,
            "y": 0.9910495281219482
        }
    ],
    "triangles": [
        4,
        3,
        1,
        1,
        5,
        4,
        3,
        2,
        1,
        1,
        0,
        5
    ],
    "carDensity": 6.0,
    "suspension": 0.8493155241012573,
    "motorSpeed": 1006,
    "frontDensity": 4.5,
    "frontRadius": 0.6515469551086426,
    "frontOffset": 0.8254116177558899,
    "backDensity": 2.799999952316284,
    "backRadius": 0.4786592423915863,
    "backOffset": -1.1048280000686646,
    "score": 0,
    "maxDistance": 0,
    "maxTime": 0.0
}