{
    "ID": 13837,
    "genomaID": "CV6TD12",
    "color": {
        "x": 0.35741809010505679,
        "y": 0.8873165845870972,
        "z": 0.5892199873924255
    },
    "vertexNumber": 6,
    "colliderVertices": [
        {
            "x": -1.7677003145217896,
            "y": -0.11315925419330597
        },
        {
            "x": 1.9918580055236817,
            "y": -0.3171134889125824
        },
        {
            "x": 1.9429898262023926,
            "y": 0.15815162658691407
        },
        {
            "x": 1.742426872253418,
            "y": 0.8442530632019043
        },
        {
            "x": -0.7575948238372803,
            "y": 0.8823989629745483
        },
        {
            "x": -1.61751127243042,
            "y": 0.789685845375061
        }
    ],
    "triangles": [
        3,
        1,
        5,
        5,
        4,
        3,
        3,
        2,
        1,
        1,
        0,
        5
    ],
    "carDensity": 6.0,
    "suspension": 0.44271916151046755,
    "motorSpeed": 1480,
    "frontDensity": 2.9000000953674318,
    "frontRadius": 0.4868620038032532,
    "frontOffset": 1.1769838333129883,
    "backDensity": 3.0,
    "backRadius": 0.49720117449760439,
    "backOffset": -1.4123103618621827,
    "score": 9,
    "maxDistance": 59,
    "maxTime": 6.2495436668396
}{
    "ID": 13950,
    "genomaID": "CV3TD8",
    "color": {
        "x": 0.17118240892887116,
        "y": 0.07499683648347855,
        "z": 0.6072174906730652
    },
    "vertexNumber": 3,
    "colliderVertices": [
        {
            "x": -1.9695197343826295,
            "y": -0.07520533353090286
        },
        {
            "x": 1.5501656532287598,
            "y": -0.20169642567634583
        },
        {
            "x": -1.0881919860839844,
            "y": 0.36118656396865847
        }
    ],
    "triangles": [
        1,
        0,
        2
    ],
    "carDensity": 3.0,
    "suspension": 0.8126695156097412,
    "motorSpeed": 894,
    "frontDensity": 3.0,
    "frontRadius": 0.5005919933319092,
    "frontOffset": 1.3092739582061768,
    "backDensity": 2.200000047683716,
    "backRadius": 0.42117273807525637,
    "backOffset": -1.2857989072799683,
    "score": 5,
    "maxDistance": 206,
    "maxTime": 36.36310577392578
}{
    "ID": 13953,
    "genomaID": "CV4TD11",
    "color": {
        "x": 0.3210350573062897,
        "y": 0.04098856821656227,
        "z": 0.7894219160079956
    },
    "vertexNumber": 4,
    "colliderVertices": [
        {
            "x": -1.1381683349609376,
            "y": -0.2354179322719574
        },
        {
            "x": 1.485065221786499,
            "y": -0.48472267389297488
        },
        {
            "x": 0.05475592613220215,
            "y": 0.0646674633026123
        },
        {
            "x": -0.11822915077209473,
            "y": 0.6851667165756226
        }
    ],
    "triangles": [
        0,
        3,
        2,
        2,
        1,
        0
    ],
    "carDensity": 4.0,
    "suspension": 0.8599372506141663,
    "motorSpeed": 1236,
    "frontDensity": 2.0999999046325685,
    "frontRadius": 0.4070834517478943,
    "frontOffset": 0.7543748021125794,
    "backDensity": 4.800000190734863,
    "backRadius": 0.6845489144325256,
    "backOffset": -1.4250520467758179,
    "score": -1,
    "maxDistance": -1,
    "maxTime": 1.024471402168274
}