{
    "ID": 10877,
    "genomaID": "CV6TD12",
    "color": {
        "x": 0.9576970338821411,
        "y": 0.08090699464082718,
        "z": 0.9472899436950684
    },
    "vertexNumber": 6,
    "colliderVertices": [
        {
            "x": -1.7677003145217896,
            "y": -0.11315925419330597
        },
        {
            "x": 1.9918580055236817,
            "y": -0.3171134889125824
        },
        {
            "x": 1.9429898262023926,
            "y": 0.15815162658691407
        },
        {
            "x": 1.742426872253418,
            "y": 0.8442530632019043
        },
        {
            "x": -0.7575948238372803,
            "y": 0.8823989629745483
        },
        {
            "x": -1.61751127243042,
            "y": 0.789685845375061
        }
    ],
    "triangles": [
        3,
        1,
        5,
        5,
        4,
        3,
        3,
        2,
        1,
        1,
        0,
        5
    ],
    "carDensity": 6.0,
    "suspension": 0.7548334002494812,
    "motorSpeed": 1450,
    "frontDensity": 4.099999904632568,
    "frontRadius": 0.6105823516845703,
    "frontOffset": 1.4040172100067139,
    "backDensity": 2.299999952316284,
    "backRadius": 0.43498289585113528,
    "backOffset": -1.4032933712005616,
    "score": 11,
    "maxDistance": 57,
    "maxTime": 5.4862213134765629
}{
    "ID": 10810,
    "genomaID": "CV6TD12",
    "color": {
        "x": 0.721989095211029,
        "y": 0.8803087472915649,
        "z": 0.5401235222816467
    },
    "vertexNumber": 6,
    "colliderVertices": [
        {
            "x": -1.457352876663208,
            "y": -0.12314499914646149
        },
        {
            "x": 1.1775124073028565,
            "y": -0.4926527738571167
        },
        {
            "x": 1.0243139266967774,
            "y": 0.7309178113937378
        },
        {
            "x": 0.9100579619407654,
            "y": 0.7640259265899658
        },
        {
            "x": 0.5375637412071228,
            "y": 0.46688538789749148
        },
        {
            "x": -1.8840770721435547,
            "y": 0.3842424750328064
        }
    ],
    "triangles": [
        4,
        3,
        1,
        1,
        5,
        4,
        3,
        2,
        1,
        1,
        0,
        5
    ],
    "carDensity": 6.0,
    "suspension": 0.4320770800113678,
    "motorSpeed": 1274,
    "frontDensity": 4.400000095367432,
    "frontRadius": 0.6371506452560425,
    "frontOffset": 1.4747624397277833,
    "backDensity": 2.5,
    "backRadius": 0.4521670937538147,
    "backOffset": -1.466325044631958,
    "score": 4,
    "maxDistance": 12,
    "maxTime": 3.0327277183532717
}{
    "ID": 10931,
    "genomaID": "CV3TD9",
    "color": {
        "x": 0.06498111039400101,
        "y": 0.8843222856521606,
        "z": 0.061922915279865268
    },
    "vertexNumber": 3,
    "colliderVertices": [
        {
            "x": -1.6517565250396729,
            "y": -0.40187764167785647
        },
        {
            "x": 1.73650324344635,
            "y": -0.32089516520500185
        },
        {
            "x": 0.4405820369720459,
            "y": 0.25411075353622439
        }
    ],
    "triangles": [
        1,
        0,
        2
    ],
    "carDensity": 3.0,
    "suspension": 0.8192738890647888,
    "motorSpeed": 1434,
    "frontDensity": 2.4000000953674318,
    "frontRadius": 0.4415586590766907,
    "frontOffset": 0.9910753965377808,
    "backDensity": 4.099999904632568,
    "backRadius": 0.6080230474472046,
    "backOffset": -1.055174708366394,
    "score": -1,
    "maxDistance": -1,
    "maxTime": 1.088812232017517
}