{
    "ID": 6777,
    "genomaID": "CV6TD11",
    "color": {
        "x": 0.39037173986434939,
        "y": 0.7816146612167358,
        "z": 0.6669115424156189
    },
    "vertexNumber": 6,
    "colliderVertices": [
        {
            "x": -1.7677003145217896,
            "y": -0.11315925419330597
        },
        {
            "x": 1.9918580055236817,
            "y": -0.3171134889125824
        },
        {
            "x": 1.9429898262023926,
            "y": 0.15815162658691407
        },
        {
            "x": 1.742426872253418,
            "y": 0.8442530632019043
        },
        {
            "x": -0.7575948238372803,
            "y": 0.8823989629745483
        },
        {
            "x": -1.61751127243042,
            "y": 0.789685845375061
        }
    ],
    "triangles": [
        3,
        1,
        5,
        5,
        4,
        3,
        3,
        2,
        1,
        1,
        0,
        5
    ],
    "carDensity": 6.0,
    "suspension": 0.5800858736038208,
    "motorSpeed": 1432,
    "frontDensity": 3.299999952316284,
    "frontRadius": 0.526077151298523,
    "frontOffset": 0.9686151742935181,
    "backDensity": 2.4000000953674318,
    "backRadius": 0.44232386350631716,
    "backOffset": -0.9058326482772827,
    "score": 10,
    "maxDistance": 53,
    "maxTime": 5.671360492706299
}{
    "ID": 6791,
    "genomaID": "CV6TD14",
    "color": {
        "x": 0.1876792013645172,
        "y": 0.9468779563903809,
        "z": 0.1774470955133438
    },
    "vertexNumber": 6,
    "colliderVertices": [
        {
            "x": -1.7677003145217896,
            "y": -0.11315925419330597
        },
        {
            "x": 1.9918580055236817,
            "y": -0.3171134889125824
        },
        {
            "x": 1.9429898262023926,
            "y": 0.15815162658691407
        },
        {
            "x": 1.742426872253418,
            "y": 0.8442530632019043
        },
        {
            "x": -0.7575948238372803,
            "y": 0.8823989629745483
        },
        {
            "x": -1.61751127243042,
            "y": 0.789685845375061
        }
    ],
    "triangles": [
        3,
        1,
        5,
        5,
        4,
        3,
        3,
        2,
        1,
        1,
        0,
        5
    ],
    "carDensity": 6.0,
    "suspension": 0.9752664566040039,
    "motorSpeed": 650,
    "frontDensity": 3.700000047683716,
    "frontRadius": 0.5691593885421753,
    "frontOffset": 1.2965840101242066,
    "backDensity": 4.300000190734863,
    "backRadius": 0.6317141652107239,
    "backOffset": -0.9243181943893433,
    "score": 5,
    "maxDistance": 10,
    "maxTime": 2.801457166671753
}{
    "ID": 6788,
    "genomaID": "CV3TD11",
    "color": {
        "x": 0.3083324730396271,
        "y": 0.7218917012214661,
        "z": 0.3659171164035797
    },
    "vertexNumber": 3,
    "colliderVertices": [
        {
            "x": -1.2943789958953858,
            "y": -0.038155023008584979
        },
        {
            "x": 1.5494716167449952,
            "y": -0.046450380235910419
        },
        {
            "x": 0.47901225090026858,
            "y": 0.683759331703186
        }
    ],
    "triangles": [
        1,
        0,
        2
    ],
    "carDensity": 3.0,
    "suspension": 0.8744458556175232,
    "motorSpeed": 1148,
    "frontDensity": 4.800000190734863,
    "frontRadius": 0.6822746992111206,
    "frontOffset": 1.3165582418441773,
    "backDensity": 3.200000047683716,
    "backRadius": 0.5220374464988709,
    "backOffset": -1.4552457332611085,
    "score": 0,
    "maxDistance": 0,
    "maxTime": 1.2964717149734498
}