{
    "ID": 20586,
    "genomaID": "CV5TD11",
    "color": {
        "x": 0.7409629225730896,
        "y": 0.9247779846191406,
        "z": 0.8641488552093506
    },
    "vertexNumber": 5,
    "colliderVertices": [
        {
            "x": -1.622312068939209,
            "y": -0.3136170208454132
        },
        {
            "x": 1.9409433603286744,
            "y": -0.365810364484787
        },
        {
            "x": 0.0436708927154541,
            "y": 0.547845184803009
        },
        {
            "x": -1.2286219596862794,
            "y": 0.5043887495994568
        },
        {
            "x": -1.574887752532959,
            "y": 0.393759548664093
        }
    ],
    "triangles": [
        1,
        4,
        3,
        3,
        2,
        1,
        1,
        0,
        4
    ],
    "carDensity": 5.0,
    "suspension": 0.48771366477012637,
    "motorSpeed": 1447,
    "frontDensity": 3.299999952316284,
    "frontRadius": 0.5253395438194275,
    "frontOffset": 1.3298256397247315,
    "backDensity": 3.0,
    "backRadius": 0.5003073215484619,
    "backOffset": -1.228324294090271,
    "score": 10,
    "maxDistance": 141,
    "maxTime": 14.63152027130127
}{
    "ID": 20401,
    "genomaID": "CV3TD11",
    "color": {
        "x": 0.4243142008781433,
        "y": 0.3698205053806305,
        "z": 0.03147173300385475
    },
    "vertexNumber": 3,
    "colliderVertices": [
        {
            "x": -1.5773570537567139,
            "y": -0.0388224758207798
        },
        {
            "x": 1.091849446296692,
            "y": -0.4343763589859009
        },
        {
            "x": -1.2048263549804688,
            "y": 0.668956995010376
        }
    ],
    "triangles": [
        1,
        0,
        2
    ],
    "carDensity": 3.0,
    "suspension": 0.44314974546432497,
    "motorSpeed": 828,
    "frontDensity": 3.5999999046325685,
    "frontRadius": 0.5619691014289856,
    "frontOffset": 1.4237656593322755,
    "backDensity": 3.5999999046325685,
    "backRadius": 0.5598515868186951,
    "backOffset": -1.1895989179611207,
    "score": 4,
    "maxDistance": 4,
    "maxTime": 1.831742763519287
}{
    "ID": 20545,
    "genomaID": "CV3TD9",
    "color": {
        "x": 0.5924790501594544,
        "y": 0.6314442753791809,
        "z": 0.6718260645866394
    },
    "vertexNumber": 3,
    "colliderVertices": [
        {
            "x": -1.5773570537567139,
            "y": -0.0388224758207798
        },
        {
            "x": 1.091849446296692,
            "y": -0.4343763589859009
        },
        {
            "x": -1.2048263549804688,
            "y": 0.668956995010376
        }
    ],
    "triangles": [
        1,
        0,
        2
    ],
    "carDensity": 3.0,
    "suspension": 0.6093143224716187,
    "motorSpeed": 1013,
    "frontDensity": 2.5,
    "frontRadius": 0.4475908875465393,
    "frontOffset": 1.3875054121017457,
    "backDensity": 4.099999904632568,
    "backRadius": 0.6132498383522034,
    "backOffset": -1.0541654825210572,
    "score": -1,
    "maxDistance": -1,
    "maxTime": 1.0879907608032227
}