{
    "ID": 27241,
    "genomaID": "CV6TD11",
    "color": {
        "x": 0.42041975259780886,
        "y": 0.9587663412094116,
        "z": 0.09080589562654495
    },
    "vertexNumber": 6,
    "colliderVertices": [
        {
            "x": -1.8409044742584229,
            "y": -0.4802294373512268
        },
        {
            "x": 1.291980504989624,
            "y": -0.3553432524204254
        },
        {
            "x": 1.1673707962036133,
            "y": 0.08059048652648926
        },
        {
            "x": 0.6148490309715271,
            "y": 0.9545232057571411
        },
        {
            "x": -0.3212859630584717,
            "y": 0.28585416078567507
        },
        {
            "x": -0.39731287956237795,
            "y": 0.7628021240234375
        }
    ],
    "triangles": [
        4,
        2,
        0,
        0,
        5,
        4,
        4,
        3,
        2,
        2,
        1,
        0
    ],
    "carDensity": 6.0,
    "suspension": 0.5933159589767456,
    "motorSpeed": 1430,
    "frontDensity": 2.200000047683716,
    "frontRadius": 0.4184994101524353,
    "frontOffset": 1.137547254562378,
    "backDensity": 2.700000047683716,
    "backRadius": 0.46572375297546389,
    "backOffset": -1.376366376876831,
    "score": 9,
    "maxDistance": 18,
    "maxTime": 2.9740207195281984
}{
    "ID": 27210,
    "genomaID": "CV3TD11",
    "color": {
        "x": 0.721989095211029,
        "y": 0.8803087472915649,
        "z": 0.5401235222816467
    },
    "vertexNumber": 3,
    "colliderVertices": [
        {
            "x": -1.2613105773925782,
            "y": -0.10826875269412995
        },
        {
            "x": 1.4848222732543946,
            "y": -0.1634436398744583
        },
        {
            "x": 0.46666407585144045,
            "y": 0.27331453561782839
        }
    ],
    "triangles": [
        1,
        0,
        2
    ],
    "carDensity": 3.0,
    "suspension": 0.799498975276947,
    "motorSpeed": 1020,
    "frontDensity": 4.800000190734863,
    "frontRadius": 0.682897686958313,
    "frontOffset": 1.2192920446395875,
    "backDensity": 3.200000047683716,
    "backRadius": 0.5184915661811829,
    "backOffset": -1.2048687934875489,
    "score": 4,
    "maxDistance": 24,
    "maxTime": 5.504349708557129
}{
    "ID": 27224,
    "genomaID": "CV4TD11",
    "color": {
        "x": 0.7439054846763611,
        "y": 0.5977416634559631,
        "z": 0.9131772518157959
    },
    "vertexNumber": 4,
    "colliderVertices": [
        {
            "x": -1.2425191402435303,
            "y": -0.46943771839141848
        },
        {
            "x": 1.5746564865112305,
            "y": -0.045152727514505389
        },
        {
            "x": -0.5807912349700928,
            "y": 0.598175585269928
        },
        {
            "x": -0.9274899959564209,
            "y": 0.08537852764129639
        }
    ],
    "triangles": [
        3,
        2,
        1,
        1,
        0,
        3
    ],
    "carDensity": 4.0,
    "suspension": 0.8757166862487793,
    "motorSpeed": 1375,
    "frontDensity": 3.0999999046325685,
    "frontRadius": 0.5057088136672974,
    "frontOffset": 0.5582301616668701,
    "backDensity": 4.5,
    "backRadius": 0.6548278331756592,
    "backOffset": -0.8354748487472534,
    "score": -1,
    "maxDistance": -1,
    "maxTime": 1.0954586267471314
}