{
    "ID": 6115,
    "genomaID": "CV6TD15",
    "color": {
        "x": 0.11602307856082916,
        "y": 0.4336826205253601,
        "z": 0.8123756647109985
    },
    "vertexNumber": 6,
    "colliderVertices": [
        {
            "x": -1.7677003145217896,
            "y": -0.11315925419330597
        },
        {
            "x": 1.9918580055236817,
            "y": -0.3171134889125824
        },
        {
            "x": 1.9429898262023926,
            "y": 0.15815162658691407
        },
        {
            "x": 1.742426872253418,
            "y": 0.8442530632019043
        },
        {
            "x": -0.7575948238372803,
            "y": 0.8823989629745483
        },
        {
            "x": -1.61751127243042,
            "y": 0.789685845375061
        }
    ],
    "triangles": [
        3,
        1,
        5,
        5,
        4,
        3,
        3,
        2,
        1,
        1,
        0,
        5
    ],
    "carDensity": 6.0,
    "suspension": 0.8910501599311829,
    "motorSpeed": 1326,
    "frontDensity": 3.799999952316284,
    "frontRadius": 0.5836616158485413,
    "frontOffset": 1.089323878288269,
    "backDensity": 4.800000190734863,
    "backRadius": 0.6811474561691284,
    "backOffset": -1.4955534934997559,
    "score": 10,
    "maxDistance": 114,
    "maxTime": 11.445001602172852
}{
    "ID": 6183,
    "genomaID": "CV6TD15",
    "color": {
        "x": 0.8438748121261597,
        "y": 0.8456238508224487,
        "z": 0.22623661160469056
    },
    "vertexNumber": 6,
    "colliderVertices": [
        {
            "x": -1.7677003145217896,
            "y": -0.11315925419330597
        },
        {
            "x": 1.9918580055236817,
            "y": -0.3171134889125824
        },
        {
            "x": 1.9429898262023926,
            "y": 0.15815162658691407
        },
        {
            "x": 1.742426872253418,
            "y": 0.8442530632019043
        },
        {
            "x": -0.7575948238372803,
            "y": 0.8823989629745483
        },
        {
            "x": -1.61751127243042,
            "y": 0.789685845375061
        }
    ],
    "triangles": [
        3,
        1,
        5,
        5,
        4,
        3,
        3,
        2,
        1,
        1,
        0,
        5
    ],
    "carDensity": 6.0,
    "suspension": 0.5255061388015747,
    "motorSpeed": 698,
    "frontDensity": 3.799999952316284,
    "frontRadius": 0.5771826505661011,
    "frontOffset": 1.0723751783370972,
    "backDensity": 4.900000095367432,
    "backRadius": 0.6853162050247192,
    "backOffset": -1.456254005432129,
    "score": 5,
    "maxDistance": 11,
    "maxTime": 2.7470016479492189
}{
    "ID": 6098,
    "genomaID": "CV4TD11",
    "color": {
        "x": 0.6859120726585388,
        "y": 0.367829829454422,
        "z": 0.726895272731781
    },
    "vertexNumber": 4,
    "colliderVertices": [
        {
            "x": -1.35355806350708,
            "y": -0.49265819787979128
        },
        {
            "x": 1.3285832405090333,
            "y": -0.3975321650505066
        },
        {
            "x": -1.285013198852539,
            "y": 0.31002897024154665
        },
        {
            "x": -1.9889073371887208,
            "y": 0.03953146934509277
        }
    ],
    "triangles": [
        3,
        2,
        1,
        1,
        0,
        3
    ],
    "carDensity": 4.0,
    "suspension": 0.4003635048866272,
    "motorSpeed": 814,
    "frontDensity": 2.0,
    "frontRadius": 0.40328848361968996,
    "frontOffset": 0.919418454170227,
    "backDensity": 5.0,
    "backRadius": 0.6978660225868225,
    "backOffset": -0.9978595972061157,
    "score": -1,
    "maxDistance": -1,
    "maxTime": 1.0621612071990967
}