{
    "ID": 13346,
    "genomaID": "CV6TD12",
    "color": {
        "x": 0.9503772258758545,
        "y": 0.5495850443840027,
        "z": 0.38025254011154177
    },
    "vertexNumber": 6,
    "colliderVertices": [
        {
            "x": -1.7677003145217896,
            "y": -0.11315925419330597
        },
        {
            "x": 1.9918580055236817,
            "y": -0.3171134889125824
        },
        {
            "x": 1.9429898262023926,
            "y": 0.15815162658691407
        },
        {
            "x": 1.742426872253418,
            "y": 0.8442530632019043
        },
        {
            "x": -0.7575948238372803,
            "y": 0.8823989629745483
        },
        {
            "x": -1.61751127243042,
            "y": 0.789685845375061
        }
    ],
    "triangles": [
        3,
        1,
        5,
        5,
        4,
        3,
        3,
        2,
        1,
        1,
        0,
        5
    ],
    "carDensity": 6.0,
    "suspension": 0.9389873743057251,
    "motorSpeed": 1233,
    "frontDensity": 2.5999999046325685,
    "frontRadius": 0.45770540833473208,
    "frontOffset": 0.7734276652336121,
    "backDensity": 2.700000047683716,
    "backRadius": 0.4715065360069275,
    "backOffset": -1.222045660018921,
    "score": 10,
    "maxDistance": 51,
    "maxTime": 5.675015926361084
}{
    "ID": 13389,
    "genomaID": "CV6TD11",
    "color": {
        "x": 0.9130287170410156,
        "y": 0.5362994074821472,
        "z": 0.6707989573478699
    },
    "vertexNumber": 6,
    "colliderVertices": [
        {
            "x": -1.13559091091156,
            "y": -0.15878881514072419
        },
        {
            "x": 1.9418127536773682,
            "y": -0.007548094727098942
        },
        {
            "x": 1.983072280883789,
            "y": 0.6822352409362793
        },
        {
            "x": 1.5043582916259766,
            "y": 0.7176023721694946
        },
        {
            "x": -0.3619086742401123,
            "y": 0.6529490947723389
        },
        {
            "x": -0.7567312717437744,
            "y": 0.5655675530433655
        }
    ],
    "triangles": [
        3,
        1,
        5,
        5,
        4,
        3,
        3,
        2,
        1,
        1,
        0,
        5
    ],
    "carDensity": 6.0,
    "suspension": 0.507318377494812,
    "motorSpeed": 1463,
    "frontDensity": 2.5,
    "frontRadius": 0.44695574045181277,
    "frontOffset": 1.3931183815002442,
    "backDensity": 2.799999952316284,
    "backRadius": 0.47581058740615847,
    "backOffset": -0.7489252090454102,
    "score": 5,
    "maxDistance": 32,
    "maxTime": 6.590522766113281
}{
    "ID": 13311,
    "genomaID": "CV4TD11",
    "color": {
        "x": 0.5451785922050476,
        "y": 0.8474980592727661,
        "z": 0.2813737690448761
    },
    "vertexNumber": 4,
    "colliderVertices": [
        {
            "x": -1.1035258769989014,
            "y": -0.4714944362640381
        },
        {
            "x": 1.0066560506820679,
            "y": -0.4081248641014099
        },
        {
            "x": -0.12654376029968263,
            "y": 0.3863299489021301
        },
        {
            "x": -1.946467399597168,
            "y": 0.3915674090385437
        }
    ],
    "triangles": [
        3,
        2,
        1,
        1,
        0,
        3
    ],
    "carDensity": 4.0,
    "suspension": 0.4017043113708496,
    "motorSpeed": 1154,
    "frontDensity": 2.9000000953674318,
    "frontRadius": 0.49235522747039797,
    "frontOffset": 1.0544646978378297,
    "backDensity": 3.9000000953674318,
    "backRadius": 0.5889832973480225,
    "backOffset": -0.7283508777618408,
    "score": -1,
    "maxDistance": -1,
    "maxTime": 1.022438645362854
}