{
    "ID": 14217,
    "genomaID": "CV6TD14",
    "color": {
        "x": 0.4831172823905945,
        "y": 0.17074324190616609,
        "z": 0.07454312592744827
    },
    "vertexNumber": 6,
    "colliderVertices": [
        {
            "x": -1.7677003145217896,
            "y": -0.11315925419330597
        },
        {
            "x": 1.9918580055236817,
            "y": -0.3171134889125824
        },
        {
            "x": 1.9429898262023926,
            "y": 0.15815162658691407
        },
        {
            "x": 1.742426872253418,
            "y": 0.8442530632019043
        },
        {
            "x": -0.7575948238372803,
            "y": 0.8823989629745483
        },
        {
            "x": -1.61751127243042,
            "y": 0.789685845375061
        }
    ],
    "triangles": [
        3,
        1,
        5,
        5,
        4,
        3,
        3,
        2,
        1,
        1,
        0,
        5
    ],
    "carDensity": 6.0,
    "suspension": 0.45694372057914736,
    "motorSpeed": 1456,
    "frontDensity": 3.5,
    "frontRadius": 0.5538906455039978,
    "frontOffset": 1.231381893157959,
    "backDensity": 3.5,
    "backRadius": 0.5504801273345947,
    "backOffset": -0.6528149843215942,
    "score": 10,
    "maxDistance": 113,
    "maxTime": 11.984392166137696
}{
    "ID": 14241,
    "genomaID": "CV6TD12",
    "color": {
        "x": 0.42041975259780886,
        "y": 0.9587663412094116,
        "z": 0.09080589562654495
    },
    "vertexNumber": 6,
    "colliderVertices": [
        {
            "x": -1.7677003145217896,
            "y": -0.11315925419330597
        },
        {
            "x": 1.9918580055236817,
            "y": -0.3171134889125824
        },
        {
            "x": 1.9429898262023926,
            "y": 0.15815162658691407
        },
        {
            "x": 1.742426872253418,
            "y": 0.8442530632019043
        },
        {
            "x": -0.7575948238372803,
            "y": 0.8823989629745483
        },
        {
            "x": -1.61751127243042,
            "y": 0.789685845375061
        }
    ],
    "triangles": [
        3,
        1,
        5,
        5,
        4,
        3,
        3,
        2,
        1,
        1,
        0,
        5
    ],
    "carDensity": 6.0,
    "suspension": 0.4269624948501587,
    "motorSpeed": 706,
    "frontDensity": 3.299999952316284,
    "frontRadius": 0.532581090927124,
    "frontOffset": 0.713909387588501,
    "backDensity": 2.700000047683716,
    "backRadius": 0.4657723307609558,
    "backOffset": -1.053120732307434,
    "score": 4,
    "maxDistance": 8,
    "maxTime": 2.130664348602295
}{
    "ID": 14362,
    "genomaID": "CV5TD13",
    "color": {
        "x": 0.25226452946662905,
        "y": 0.055933959782123569,
        "z": 0.9557429552078247
    },
    "vertexNumber": 5,
    "colliderVertices": [
        {
            "x": -1.2408447265625,
            "y": -0.3124336898326874
        },
        {
            "x": 1.570542573928833,
            "y": -0.04899848252534866
        },
        {
            "x": 1.508542537689209,
            "y": 0.0787513256072998
        },
        {
            "x": 0.5601710677146912,
            "y": 0.1754053831100464
        },
        {
            "x": -0.3592832088470459,
            "y": 0.794931173324585
        }
    ],
    "triangles": [
        3,
        2,
        0,
        0,
        4,
        3,
        2,
        1,
        0
    ],
    "carDensity": 5.0,
    "suspension": 0.9474847912788391,
    "motorSpeed": 1167,
    "frontDensity": 2.9000000953674318,
    "frontRadius": 0.49345487356185915,
    "frontOffset": 1.1249572038650513,
    "backDensity": 4.900000095367432,
    "backRadius": 0.6937720775604248,
    "backOffset": -1.3112964630126954,
    "score": -1,
    "maxDistance": -1,
    "maxTime": 1.1027357578277588
}