{
    "ID": 18308,
    "genomaID": "CV4TD11",
    "color": {
        "x": 0.5900134444236755,
        "y": 0.22296419739723206,
        "z": 0.07192540913820267
    },
    "vertexNumber": 4,
    "colliderVertices": [
        {
            "x": -1.0766996145248414,
            "y": -0.019678475335240365
        },
        {
            "x": 1.5736339092254639,
            "y": -0.44047266244888308
        },
        {
            "x": 1.2258014678955079,
            "y": 0.5652808547019959
        },
        {
            "x": 1.2099919319152833,
            "y": 0.9336950778961182
        }
    ],
    "triangles": [
        0,
        3,
        2,
        2,
        1,
        0
    ],
    "carDensity": 4.0,
    "suspension": 0.8412189483642578,
    "motorSpeed": 1491,
    "frontDensity": 2.9000000953674318,
    "frontRadius": 0.4920731782913208,
    "frontOffset": 1.2266182899475098,
    "backDensity": 3.5,
    "backRadius": 0.5508791208267212,
    "backOffset": -1.4319790601730347,
    "score": 10,
    "maxDistance": 141,
    "maxTime": 14.631564140319825
}{
    "ID": 18398,
    "genomaID": "CV6TD13",
    "color": {
        "x": 0.11907972395420075,
        "y": 0.292845755815506,
        "z": 0.6035632491111755
    },
    "vertexNumber": 6,
    "colliderVertices": [
        {
            "x": -1.103497862815857,
            "y": -0.40115344524383547
        },
        {
            "x": 1.876254916191101,
            "y": -0.45153552293777468
        },
        {
            "x": 1.935615062713623,
            "y": 0.9636666774749756
        },
        {
            "x": 1.3973689079284669,
            "y": 0.9286003112792969
        },
        {
            "x": -0.8456604480743408,
            "y": 0.5215557217597961
        },
        {
            "x": -1.0685162544250489,
            "y": 0.49199384450912478
        }
    ],
    "triangles": [
        4,
        3,
        1,
        1,
        5,
        4,
        3,
        2,
        1,
        1,
        0,
        5
    ],
    "carDensity": 6.0,
    "suspension": 0.43726447224617007,
    "motorSpeed": 645,
    "frontDensity": 3.5,
    "frontRadius": 0.5533613562583923,
    "frontOffset": 0.813908040523529,
    "backDensity": 3.0,
    "backRadius": 0.503353476524353,
    "backOffset": -1.0807210206985474,
    "score": 5,
    "maxDistance": 50,
    "maxTime": 9.37726879119873
}{
    "ID": 18393,
    "genomaID": "CV6TD15",
    "color": {
        "x": 0.8436722755432129,
        "y": 0.2073327600955963,
        "z": 0.7811713218688965
    },
    "vertexNumber": 6,
    "colliderVertices": [
        {
            "x": -1.5645310878753663,
            "y": -0.4741649031639099
        },
        {
            "x": 1.5765342712402344,
            "y": -0.0726054385304451
        },
        {
            "x": 0.9597529768943787,
            "y": 0.37268346548080447
        },
        {
            "x": 0.29804301261901858,
            "y": 0.5626890063285828
        },
        {
            "x": -0.21451258659362794,
            "y": 0.004997849464416504
        },
        {
            "x": -1.5900044441223145,
            "y": 0.4879700541496277
        }
    ],
    "triangles": [
        4,
        2,
        0,
        0,
        5,
        4,
        4,
        3,
        2,
        2,
        1,
        0
    ],
    "carDensity": 6.0,
    "suspension": 0.7119885087013245,
    "motorSpeed": 1478,
    "frontDensity": 4.599999904632568,
    "frontRadius": 0.6552680730819702,
    "frontOffset": 1.396708369255066,
    "backDensity": 4.5,
    "backRadius": 0.6460123062133789,
    "backOffset": -1.3907315731048585,
    "score": 0,
    "maxDistance": 0,
    "maxTime": 1.0498448610305787
}