{
    "ID": 21312,
    "genomaID": "CV6TD12",
    "color": {
        "x": 0.09216213971376419,
        "y": 0.94767165184021,
        "z": 0.42320793867111208
    },
    "vertexNumber": 6,
    "colliderVertices": [
        {
            "x": -1.9525985717773438,
            "y": -0.13400913774967194
        },
        {
            "x": 1.9060025215148926,
            "y": -0.2439517080783844
        },
        {
            "x": 1.6900711059570313,
            "y": 0.9096370935440064
        },
        {
            "x": 1.0424909591674805,
            "y": 0.6249582171440125
        },
        {
            "x": 0.2906453609466553,
            "y": 0.7561354637145996
        },
        {
            "x": -0.4134705066680908,
            "y": 0.984201192855835
        }
    ],
    "triangles": [
        4,
        3,
        1,
        1,
        5,
        4,
        3,
        2,
        1,
        1,
        0,
        5
    ],
    "carDensity": 6.0,
    "suspension": 0.4560185372829437,
    "motorSpeed": 1047,
    "frontDensity": 2.9000000953674318,
    "frontRadius": 0.4926437437534332,
    "frontOffset": 1.4023616313934327,
    "backDensity": 2.700000047683716,
    "backRadius": 0.4692673683166504,
    "backOffset": -0.7829425930976868,
    "score": 9,
    "maxDistance": 65,
    "maxTime": 7.948067665100098
}{
    "ID": 21308,
    "genomaID": "CV4TD10",
    "color": {
        "x": 0.5900134444236755,
        "y": 0.22296419739723206,
        "z": 0.07192540913820267
    },
    "vertexNumber": 4,
    "colliderVertices": [
        {
            "x": -1.407747507095337,
            "y": -0.07563001662492752
        },
        {
            "x": 1.3307907581329346,
            "y": -0.31415167450904848
        },
        {
            "x": 1.5723156929016114,
            "y": 0.034345030784606937
        },
        {
            "x": 0.2820932865142822,
            "y": 0.334530770778656
        }
    ],
    "triangles": [
        3,
        2,
        1,
        1,
        0,
        3
    ],
    "carDensity": 4.0,
    "suspension": 0.6063327789306641,
    "motorSpeed": 606,
    "frontDensity": 3.299999952316284,
    "frontRadius": 0.5314319133758545,
    "frontOffset": 1.31890869140625,
    "backDensity": 3.0999999046325685,
    "backRadius": 0.5129407644271851,
    "backOffset": -0.7786017060279846,
    "score": 4,
    "maxDistance": 142,
    "maxTime": 29.008365631103517
}{
    "ID": 21344,
    "genomaID": "CV3TD11",
    "color": {
        "x": 0.23023250699043275,
        "y": 0.884708046913147,
        "z": 0.6663617491722107
    },
    "vertexNumber": 3,
    "colliderVertices": [
        {
            "x": -1.4985573291778565,
            "y": -0.34612682461738589
        },
        {
            "x": 1.4227211475372315,
            "y": -0.39090102910995486
        },
        {
            "x": -0.5672814846038818,
            "y": 0.046009182929992679
        }
    ],
    "triangles": [
        1,
        0,
        2
    ],
    "carDensity": 3.0,
    "suspension": 0.8432016968727112,
    "motorSpeed": 1484,
    "frontDensity": 3.4000000953674318,
    "frontRadius": 0.5352349281311035,
    "frontOffset": 0.9453574419021606,
    "backDensity": 4.699999809265137,
    "backRadius": 0.6745738387107849,
    "backOffset": -1.0157822370529175,
    "score": -1,
    "maxDistance": -1,
    "maxTime": 1.002238154411316
}