{
    "ID": 9378,
    "genomaID": "CV6TD15",
    "color": {
        "x": 0.7923150062561035,
        "y": 0.9955397844314575,
        "z": 0.04117560759186745
    },
    "vertexNumber": 6,
    "colliderVertices": [
        {
            "x": -1.7677003145217896,
            "y": -0.11315925419330597
        },
        {
            "x": 1.9918580055236817,
            "y": -0.3171134889125824
        },
        {
            "x": 1.9429898262023926,
            "y": 0.15815162658691407
        },
        {
            "x": 1.742426872253418,
            "y": 0.8442530632019043
        },
        {
            "x": -0.7575948238372803,
            "y": 0.8823989629745483
        },
        {
            "x": -1.61751127243042,
            "y": 0.789685845375061
        }
    ],
    "triangles": [
        3,
        1,
        5,
        5,
        4,
        3,
        3,
        2,
        1,
        1,
        0,
        5
    ],
    "carDensity": 6.0,
    "suspension": 0.9673367738723755,
    "motorSpeed": 1471,
    "frontDensity": 4.599999904632568,
    "frontRadius": 0.6566743850708008,
    "frontOffset": 1.1653923988342286,
    "backDensity": 3.5,
    "backRadius": 0.548970103263855,
    "backOffset": -1.1570438146591187,
    "score": 10,
    "maxDistance": 142,
    "maxTime": 14.370820045471192
}{
    "ID": 9340,
    "genomaID": "CV6TD13",
    "color": {
        "x": 0.5824711918830872,
        "y": 0.2861868441104889,
        "z": 0.28613510727882388
    },
    "vertexNumber": 6,
    "colliderVertices": [
        {
            "x": -1.7677003145217896,
            "y": -0.11315925419330597
        },
        {
            "x": 1.9918580055236817,
            "y": -0.3171134889125824
        },
        {
            "x": 1.9429898262023926,
            "y": 0.15815162658691407
        },
        {
            "x": 1.742426872253418,
            "y": 0.8442530632019043
        },
        {
            "x": -0.7575948238372803,
            "y": 0.8823989629745483
        },
        {
            "x": -1.61751127243042,
            "y": 0.789685845375061
        }
    ],
    "triangles": [
        3,
        1,
        5,
        5,
        4,
        3,
        3,
        2,
        1,
        1,
        0,
        5
    ],
    "carDensity": 6.0,
    "suspension": 0.8390063643455505,
    "motorSpeed": 1276,
    "frontDensity": 4.099999904632568,
    "frontRadius": 0.6111218929290772,
    "frontOffset": 1.1536515951156617,
    "backDensity": 3.200000047683716,
    "backRadius": 0.5247529745101929,
    "backOffset": -1.3084683418273926,
    "score": 5,
    "maxDistance": 16,
    "maxTime": 3.109947919845581
}{
    "ID": 9396,
    "genomaID": "CV5TD12",
    "color": {
        "x": 0.6876497864723206,
        "y": 0.015335919335484505,
        "z": 0.4553084969520569
    },
    "vertexNumber": 5,
    "colliderVertices": [
        {
            "x": -1.8141437768936158,
            "y": -0.16627247631549836
        },
        {
            "x": 1.3979604244232178,
            "y": -0.11515994369983673
        },
        {
            "x": 1.5817618370056153,
            "y": 0.38750535249710085
        },
        {
            "x": 0.8803038001060486,
            "y": 0.27671176195144656
        },
        {
            "x": 0.6147913336753845,
            "y": 0.4331584572792053
        }
    ],
    "triangles": [
        1,
        4,
        3,
        3,
        2,
        1,
        1,
        0,
        4
    ],
    "carDensity": 5.0,
    "suspension": 0.4577983319759369,
    "motorSpeed": 1106,
    "frontDensity": 4.400000095367432,
    "frontRadius": 0.6357764005661011,
    "frontOffset": 0.8693908452987671,
    "backDensity": 3.200000047683716,
    "backRadius": 0.5156673789024353,
    "backOffset": -1.2228726148605347,
    "score": 0,
    "maxDistance": 0,
    "maxTime": 1.4560232162475587
}