{
    "ID": 23100,
    "genomaID": "CV5TD11",
    "color": {
        "x": 0.8786219358444214,
        "y": 0.05617714673280716,
        "z": 0.6425431370735169
    },
    "vertexNumber": 5,
    "colliderVertices": [
        {
            "x": -1.539207935333252,
            "y": -0.39270246028900149
        },
        {
            "x": 1.5307695865631104,
            "y": -0.3853924870491028
        },
        {
            "x": 1.9598126411437989,
            "y": 0.9310510158538818
        },
        {
            "x": 0.6905049681663513,
            "y": 0.17718374729156495
        },
        {
            "x": -0.652458906173706,
            "y": 0.34654492139816286
        }
    ],
    "triangles": [
        1,
        4,
        3,
        3,
        2,
        1,
        1,
        0,
        4
    ],
    "carDensity": 5.0,
    "suspension": 0.6801753044128418,
    "motorSpeed": 1480,
    "frontDensity": 3.299999952316284,
    "frontRadius": 0.530855655670166,
    "frontOffset": 1.1683945655822755,
    "backDensity": 3.0999999046325685,
    "backRadius": 0.5083117485046387,
    "backOffset": -1.081076741218567,
    "score": 10,
    "maxDistance": 141,
    "maxTime": 14.749741554260254
}{
    "ID": 23176,
    "genomaID": "CV5TD11",
    "color": {
        "x": 0.598591148853302,
        "y": 0.9672589302062988,
        "z": 0.510158360004425
    },
    "vertexNumber": 5,
    "colliderVertices": [
        {
            "x": -1.539207935333252,
            "y": -0.39270246028900149
        },
        {
            "x": 1.5307695865631104,
            "y": -0.3853924870491028
        },
        {
            "x": 1.9598126411437989,
            "y": 0.9310510158538818
        },
        {
            "x": 0.6905049681663513,
            "y": 0.17718374729156495
        },
        {
            "x": -0.652458906173706,
            "y": 0.34654492139816286
        }
    ],
    "triangles": [
        1,
        4,
        3,
        3,
        2,
        1,
        1,
        0,
        4
    ],
    "carDensity": 5.0,
    "suspension": 0.672020673751831,
    "motorSpeed": 1015,
    "frontDensity": 3.5999999046325685,
    "frontRadius": 0.5630327463150024,
    "frontOffset": 1.1683945655822755,
    "backDensity": 2.299999952316284,
    "backRadius": 0.4348081052303314,
    "backOffset": -1.0020641088485718,
    "score": 5,
    "maxDistance": 17,
    "maxTime": 3.68202543258667
}{
    "ID": 23174,
    "genomaID": "CV4TD12",
    "color": {
        "x": 0.6422478556632996,
        "y": 0.05773008614778519,
        "z": 0.08690620213747025
    },
    "vertexNumber": 4,
    "colliderVertices": [
        {
            "x": -1.7723814249038697,
            "y": -0.12273348867893219
        },
        {
            "x": 1.2395579814910889,
            "y": -0.09191954880952835
        },
        {
            "x": 1.2119035720825196,
            "y": 0.07699108123779297
        },
        {
            "x": -1.8725595474243165,
            "y": 0.847669243812561
        }
    ],
    "triangles": [
        3,
        2,
        1,
        1,
        0,
        3
    ],
    "carDensity": 4.0,
    "suspension": 0.6154465675354004,
    "motorSpeed": 1431,
    "frontDensity": 4.0,
    "frontRadius": 0.5999220609664917,
    "frontOffset": 0.7705737948417664,
    "backDensity": 4.5,
    "backRadius": 0.6543927788734436,
    "backOffset": -1.4618046283721924,
    "score": -1,
    "maxDistance": -1,
    "maxTime": 1.0253022909164429
}