{
    "ID": 8208,
    "genomaID": "CV6TD15",
    "color": {
        "x": 0.44051510095596316,
        "y": 0.9631216526031494,
        "z": 0.9151153564453125
    },
    "vertexNumber": 6,
    "colliderVertices": [
        {
            "x": -1.7677003145217896,
            "y": -0.11315925419330597
        },
        {
            "x": 1.9918580055236817,
            "y": -0.3171134889125824
        },
        {
            "x": 1.9429898262023926,
            "y": 0.15815162658691407
        },
        {
            "x": 1.742426872253418,
            "y": 0.8442530632019043
        },
        {
            "x": -0.7575948238372803,
            "y": 0.8823989629745483
        },
        {
            "x": -1.61751127243042,
            "y": 0.789685845375061
        }
    ],
    "triangles": [
        3,
        1,
        5,
        5,
        4,
        3,
        3,
        2,
        1,
        1,
        0,
        5
    ],
    "carDensity": 6.0,
    "suspension": 0.5295348167419434,
    "motorSpeed": 1461,
    "frontDensity": 4.599999904632568,
    "frontRadius": 0.6563175916671753,
    "frontOffset": 1.166128158569336,
    "backDensity": 3.9000000953674318,
    "backRadius": 0.5914604663848877,
    "backOffset": -1.2006447315216065,
    "score": 9,
    "maxDistance": 143,
    "maxTime": 15.664628982543946
}{
    "ID": 8255,
    "genomaID": "CV6TD11",
    "color": {
        "x": 0.4689651131629944,
        "y": 0.05388046056032181,
        "z": 0.6860767006874085
    },
    "vertexNumber": 6,
    "colliderVertices": [
        {
            "x": -1.7677003145217896,
            "y": -0.11315925419330597
        },
        {
            "x": 1.9918580055236817,
            "y": -0.3171134889125824
        },
        {
            "x": 1.9429898262023926,
            "y": 0.15815162658691407
        },
        {
            "x": 1.742426872253418,
            "y": 0.8442530632019043
        },
        {
            "x": -0.7575948238372803,
            "y": 0.8823989629745483
        },
        {
            "x": -1.61751127243042,
            "y": 0.789685845375061
        }
    ],
    "triangles": [
        3,
        1,
        5,
        5,
        4,
        3,
        3,
        2,
        1,
        1,
        0,
        5
    ],
    "carDensity": 6.0,
    "suspension": 0.9750905632972717,
    "motorSpeed": 1455,
    "frontDensity": 3.0,
    "frontRadius": 0.49852871894836428,
    "frontOffset": 1.2536962032318116,
    "backDensity": 2.5,
    "backRadius": 0.45170852541923525,
    "backOffset": -0.6585664749145508,
    "score": 4,
    "maxDistance": 24,
    "maxTime": 6.32533597946167
}{
    "ID": 8398,
    "genomaID": "CV6TD16",
    "color": {
        "x": 0.11907972395420075,
        "y": 0.292845755815506,
        "z": 0.6035632491111755
    },
    "vertexNumber": 6,
    "colliderVertices": [
        {
            "x": -1.7677003145217896,
            "y": -0.11315925419330597
        },
        {
            "x": 1.9918580055236817,
            "y": -0.3171134889125824
        },
        {
            "x": 1.9429898262023926,
            "y": 0.15815162658691407
        },
        {
            "x": 1.742426872253418,
            "y": 0.8442530632019043
        },
        {
            "x": -0.7575948238372803,
            "y": 0.8823989629745483
        },
        {
            "x": -1.61751127243042,
            "y": 0.789685845375061
        }
    ],
    "triangles": [
        3,
        1,
        5,
        5,
        4,
        3,
        3,
        2,
        1,
        1,
        0,
        5
    ],
    "carDensity": 6.0,
    "suspension": 0.426663875579834,
    "motorSpeed": 1358,
    "frontDensity": 5.0,
    "frontRadius": 0.6966860294342041,
    "frontOffset": 0.9944947957992554,
    "backDensity": 4.699999809265137,
    "backRadius": 0.673399806022644,
    "backOffset": -0.7618116736412048,
    "score": 0,
    "maxDistance": 0,
    "maxTime": 1.026496410369873
}