{
    "ID": 19179,
    "genomaID": "CV6TD11",
    "color": {
        "x": 0.7351779341697693,
        "y": 0.9032598733901978,
        "z": 0.7280604243278503
    },
    "vertexNumber": 6,
    "colliderVertices": [
        {
            "x": -1.1348761320114136,
            "y": -0.39807015657424929
        },
        {
            "x": 1.8472472429275513,
            "y": -0.11708147823810578
        },
        {
            "x": 0.8614115118980408,
            "y": 0.043253302574157718
        },
        {
            "x": 0.7570652365684509,
            "y": 0.12797832489013673
        },
        {
            "x": 0.36678194999694826,
            "y": 0.6367658376693726
        },
        {
            "x": -1.1329855918884278,
            "y": 0.9996074438095093
        }
    ],
    "triangles": [
        5,
        3,
        2,
        2,
        0,
        5,
        5,
        4,
        3,
        2,
        1,
        0
    ],
    "carDensity": 6.0,
    "suspension": 0.43981072306632998,
    "motorSpeed": 1426,
    "frontDensity": 2.5999999046325685,
    "frontRadius": 0.4596017003059387,
    "frontOffset": 1.1799542903900147,
    "backDensity": 2.0999999046325685,
    "backRadius": 0.4102935194969177,
    "backOffset": -1.3682820796966553,
    "score": 10,
    "maxDistance": 51,
    "maxTime": 5.8275957107543949
}{
    "ID": 19148,
    "genomaID": "CV6TD11",
    "color": {
        "x": 0.10795165598392487,
        "y": 0.5872177481651306,
        "z": 0.9719803333282471
    },
    "vertexNumber": 6,
    "colliderVertices": [
        {
            "x": -1.7281548976898194,
            "y": -0.2583141624927521
        },
        {
            "x": 1.0596652030944825,
            "y": -0.15285129845142365
        },
        {
            "x": 1.9152231216430665,
            "y": 0.048842787742614749
        },
        {
            "x": 0.9349607825279236,
            "y": 0.9891403913497925
        },
        {
            "x": -0.7378370761871338,
            "y": 0.7064937353134155
        },
        {
            "x": -1.869199275970459,
            "y": 0.7547732591629028
        }
    ],
    "triangles": [
        4,
        3,
        1,
        1,
        5,
        4,
        3,
        2,
        1,
        1,
        0,
        5
    ],
    "carDensity": 6.0,
    "suspension": 0.5490903854370117,
    "motorSpeed": 788,
    "frontDensity": 3.0,
    "frontRadius": 0.4952192008495331,
    "frontOffset": 1.0874539613723755,
    "backDensity": 2.5,
    "backRadius": 0.44807112216949465,
    "backOffset": -0.9674111604690552,
    "score": 5,
    "maxDistance": 196,
    "maxTime": 37.867469787597659
}{
    "ID": 19194,
    "genomaID": "CV3TD8",
    "color": {
        "x": 0.6409198641777039,
        "y": 0.4912075400352478,
        "z": 0.44209665060043337
    },
    "vertexNumber": 3,
    "colliderVertices": [
        {
            "x": -1.6267004013061524,
            "y": -0.4392816424369812
        },
        {
            "x": 1.4816603660583497,
            "y": -0.4365769028663635
        },
        {
            "x": -1.212571620941162,
            "y": 0.6179208159446716
        }
    ],
    "triangles": [
        1,
        0,
        2
    ],
    "carDensity": 3.0,
    "suspension": 0.913570761680603,
    "motorSpeed": 716,
    "frontDensity": 2.5,
    "frontRadius": 0.4532768130302429,
    "frontOffset": 0.6135523319244385,
    "backDensity": 2.9000000953674318,
    "backRadius": 0.4864042103290558,
    "backOffset": -0.5673662424087524,
    "score": -1,
    "maxDistance": -1,
    "maxTime": 1.2651698589324952
}