{
    "ID": 27632,
    "genomaID": "CV6TD11",
    "color": {
        "x": 0.24549785256385804,
        "y": 0.5141512751579285,
        "z": 0.1272757202386856
    },
    "vertexNumber": 6,
    "colliderVertices": [
        {
            "x": -1.7677003145217896,
            "y": -0.11315925419330597
        },
        {
            "x": 1.9918580055236817,
            "y": -0.3171134889125824
        },
        {
            "x": 1.9429898262023926,
            "y": 0.15815162658691407
        },
        {
            "x": 1.742426872253418,
            "y": 0.8442530632019043
        },
        {
            "x": -0.7575948238372803,
            "y": 0.8823989629745483
        },
        {
            "x": -1.61751127243042,
            "y": 0.789685845375061
        }
    ],
    "triangles": [
        3,
        1,
        5,
        5,
        4,
        3,
        3,
        2,
        1,
        1,
        0,
        5
    ],
    "carDensity": 6.0,
    "suspension": 0.8032447695732117,
    "motorSpeed": 1273,
    "frontDensity": 2.299999952316284,
    "frontRadius": 0.42937055230140688,
    "frontOffset": 1.3328614234924317,
    "backDensity": 3.0999999046325685,
    "backRadius": 0.5127108693122864,
    "backOffset": -1.0218836069107056,
    "score": 10,
    "maxDistance": 20,
    "maxTime": 2.9385695457458498
}{
    "ID": 27610,
    "genomaID": "CV6TD11",
    "color": {
        "x": 0.721989095211029,
        "y": 0.8803087472915649,
        "z": 0.5401235222816467
    },
    "vertexNumber": 6,
    "colliderVertices": [
        {
            "x": -1.4167122840881348,
            "y": -0.2943001091480255
        },
        {
            "x": 1.8759212493896485,
            "y": -0.377838671207428
        },
        {
            "x": 1.9269914627075196,
            "y": 0.9339293241500855
        },
        {
            "x": 0.6083545088768005,
            "y": 0.7745450735092163
        },
        {
            "x": -0.7519233226776123,
            "y": 0.7122373580932617
        },
        {
            "x": -1.762566089630127,
            "y": 0.7546136379241943
        }
    ],
    "triangles": [
        4,
        3,
        1,
        1,
        5,
        4,
        3,
        2,
        1,
        1,
        0,
        5
    ],
    "carDensity": 6.0,
    "suspension": 0.5690411329269409,
    "motorSpeed": 641,
    "frontDensity": 2.0999999046325685,
    "frontRadius": 0.4061800241470337,
    "frontOffset": 1.3067134618759156,
    "backDensity": 3.0999999046325685,
    "backRadius": 0.506920337677002,
    "backOffset": -0.7625747323036194,
    "score": 4,
    "maxDistance": 51,
    "maxTime": 11.642928123474121
}{
    "ID": 27798,
    "genomaID": "CV3TD11",
    "color": {
        "x": 0.11907972395420075,
        "y": 0.292845755815506,
        "z": 0.6035632491111755
    },
    "vertexNumber": 3,
    "colliderVertices": [
        {
            "x": -1.7619506120681763,
            "y": -0.09801961481571198
        },
        {
            "x": 1.2029738426208497,
            "y": -0.0725710466504097
        },
        {
            "x": -1.3135652542114258,
            "y": 0.29168087244033816
        }
    ],
    "triangles": [
        1,
        0,
        2
    ],
    "carDensity": 3.0,
    "suspension": 0.5624850988388062,
    "motorSpeed": 595,
    "frontDensity": 4.0,
    "frontRadius": 0.6014181971549988,
    "frontOffset": 1.240153193473816,
    "backDensity": 4.0,
    "backRadius": 0.6020796298980713,
    "backOffset": -1.476439356803894,
    "score": 0,
    "maxDistance": 0,
    "maxTime": 0.0
}