{
    "ID": 22635,
    "genomaID": "CV6TD12",
    "color": {
        "x": 0.28669872879981997,
        "y": 0.8453117609024048,
        "z": 0.9255039691925049
    },
    "vertexNumber": 6,
    "colliderVertices": [
        {
            "x": -1.7677003145217896,
            "y": -0.11315925419330597
        },
        {
            "x": 1.9918580055236817,
            "y": -0.3171134889125824
        },
        {
            "x": 1.9429898262023926,
            "y": 0.15815162658691407
        },
        {
            "x": 1.742426872253418,
            "y": 0.8442530632019043
        },
        {
            "x": -0.7575948238372803,
            "y": 0.8823989629745483
        },
        {
            "x": -1.61751127243042,
            "y": 0.789685845375061
        }
    ],
    "triangles": [
        3,
        1,
        5,
        5,
        4,
        3,
        3,
        2,
        1,
        1,
        0,
        5
    ],
    "carDensity": 6.0,
    "suspension": 0.9136596918106079,
    "motorSpeed": 1431,
    "frontDensity": 3.700000047683716,
    "frontRadius": 0.5678384900093079,
    "frontOffset": 1.252727746963501,
    "backDensity": 2.299999952316284,
    "backRadius": 0.4309493899345398,
    "backOffset": -0.9570177793502808,
    "score": 10,
    "maxDistance": 31,
    "maxTime": 3.82438588142395
}{
    "ID": 22762,
    "genomaID": "CV6TD15",
    "color": {
        "x": 0.25226452946662905,
        "y": 0.055933959782123569,
        "z": 0.9557429552078247
    },
    "vertexNumber": 6,
    "colliderVertices": [
        {
            "x": -1.4167122840881348,
            "y": -0.2943001091480255
        },
        {
            "x": 1.8759212493896485,
            "y": -0.377838671207428
        },
        {
            "x": 1.9269914627075196,
            "y": 0.9339293241500855
        },
        {
            "x": 0.6083545088768005,
            "y": 0.7745450735092163
        },
        {
            "x": -0.7519233226776123,
            "y": 0.7122373580932617
        },
        {
            "x": -1.762566089630127,
            "y": 0.7546136379241943
        }
    ],
    "triangles": [
        4,
        3,
        1,
        1,
        5,
        4,
        3,
        2,
        1,
        1,
        0,
        5
    ],
    "carDensity": 6.0,
    "suspension": 0.40192148089408877,
    "motorSpeed": 802,
    "frontDensity": 4.800000190734863,
    "frontRadius": 0.6757188439369202,
    "frontOffset": 1.4166908264160157,
    "backDensity": 4.199999809265137,
    "backRadius": 0.6201407313346863,
    "backOffset": -0.8904992341995239,
    "score": 5,
    "maxDistance": 11,
    "maxTime": 2.494105339050293
}{
    "ID": 22743,
    "genomaID": "CV4TD12",
    "color": {
        "x": 0.4889090657234192,
        "y": 0.46781009435653689,
        "z": 0.7388467192649841
    },
    "vertexNumber": 4,
    "colliderVertices": [
        {
            "x": -1.2339861392974854,
            "y": -0.08998358994722367
        },
        {
            "x": 1.1341190338134766,
            "y": -0.11314894258975983
        },
        {
            "x": -1.0331106185913087,
            "y": 0.7493970394134522
        },
        {
            "x": -1.0763192176818848,
            "y": 0.9601770639419556
        }
    ],
    "triangles": [
        0,
        3,
        2,
        2,
        1,
        0
    ],
    "carDensity": 4.0,
    "suspension": 0.9035593271255493,
    "motorSpeed": 1116,
    "frontDensity": 2.5999999046325685,
    "frontRadius": 0.4565194845199585,
    "frontOffset": 0.7958815693855286,
    "backDensity": 4.699999809265137,
    "backRadius": 0.6687415242195129,
    "backOffset": -1.289949893951416,
    "score": -1,
    "maxDistance": -1,
    "maxTime": 1.088878870010376
}